genes	class	dlxjtk_score	dlxjtk_score_rerank
AT2G31380	0.0	1.731146356387787e-07	5776519.104292266
AT1G26790	0.0	1.731146356387787e-07	5776519.104292266
AT2G46830	1.0	1.731146356387787e-07	5776519.104292266
AT2G21320	0.0	3.066412282777501e-07	3261140.080922902
AT5G15850	0.0	6.349441313950786e-07	1574941.7162149881
AT5G62430	0.0	2.3100961266304363e-06	432882.4192518018
AT3G02380	0.0	2.3100961266304363e-06	432882.4192518018
AT3G47500	0.0	4.212355271651148e-06	237396.8802512763
AT2G28200	0.0	5.467051001152906e-06	182913.96948539853
AT5G17300	0.0	2.54302266187983e-05	39323.283075298634
AT1G01060	1.0	2.54302266187983e-05	39323.283075298634
AT5G57660	0.0	5.862135267571247e-05	17058.630590322628
AT2G43010	0.0	7.630539624896511e-05	13105.233039315519
AT3G59060	0.0	8.383757342804729e-05	11927.826141798336
AT1G73870	0.0	0.00010201759308992218	9802.230867361888
AT3G46640	1.0	0.00010550965118884596	9477.805951705352
AT5G02810	1.0	0.0002277545534091083	4390.691580175487
AT5G39660	0.0	0.0002277545534091083	4390.691580175487
AT1G78600	0.0	0.00043531599660389286	2297.1818352678874
AT3G61890	0.0	0.0009906176596153637	1009.4712024296834
AT3G09600.1	1.0	0.0013984343583520102	715.0854053517775
AT2G25900	0.0	0.0014594998122596794	685.1662409272558
AT1G71030	0.0	0.0016964520931722394	589.4655110066057
AT2G46530	0.0	0.0019182910467319624	521.2973295703065
AT1G75250	0.0	0.00213675090696954	468.00026935205847
AT5G48250.1	0.0	0.0022501463809747415	444.41553156502187
AT3G17609	0.0	0.004442833598769276	225.08157862968656
AT1G18330	0.0	0.005541894769066556	180.44370051588584
AT1G17460	0.0	0.009161692284756124	109.15014048920538
AT2G46790	1.0	0.010229838402292494	97.75325480956779
AT1G70000	0.0	0.016342872714669845	61.18875288690038
AT1G06040	0.0	0.02437143547583165	41.031641365223116
AT1G67970	0.0	0.025039652770314905	39.93665603803913
AT5G61380	1.0	0.02508818851634464	39.859394365938876
AT3G02830	0.0	0.062440454710117735	16.0152581310072
AT1G49720	0.0	0.06421823220668027	15.571901711364385
AT4G00050	0.0	0.10422535954932688	9.59459391000449
AT2G34720	0.0	0.20885583787806267	4.787991612587027
AT5G44190	0.0	0.3037709886279115	3.2919536013522936
AT3G07650	0.0	0.3485888721746677	2.8687088998610637
AT4G38960	0.0	0.3990263092523788	2.506100416971537
AT5G37260	0.0	0.8364213561542019	1.1955696643112026
AT1G79700	0.0	1.5505821202654275	0.6449190835689635
AT2G47850	0.0	2.249250092286589	0.44459262375016706
AT5G24470	1.0	4.910617288254116	0.20364038598404652
AT4G34590	0.0	9.955554112674447	0.100446443129358
AT1G22070	0.0	9.97628628509724	0.10023770082598957
AT5G25190	0.0	11.901816447850099	0.0840207882873741
AT2G31070	0.0	12.117600330586207	0.08252459007711996
AT3G50750	0.0	12.169318527543865	0.08217387010921064
AT1G02340	0.0	12.854364847510777	0.07779458665308135
AT3G50700	0.0	12.998630359955987	0.07693118215597801
AT4G25480	0.0	18.010999573774463	0.055521626987104285
AT3G56980	0.0	18.010999573774463	0.055521626987104285
AT5G63420.2	0.0	21.717608562041544	0.046045585412558696
AT1G06180	0.0	24.730392492901863	0.040436074772651535
AT4G29190	0.0	27.20304513121993	0.0367605904109734
AT1G56170	0.0	46.429716283372	0.021537930447318557
AT5G15160	0.0	56.46156440368925	0.017711163524449902
AT1G77920	0.0	77.25148844445788	0.012944734401059185
AT2G47890	0.0	123.86832631072176	0.00807308881764912
AT5G41410	0.0	124.17289842186493	0.00805328709170177
AT2G45160	0.0	138.10709775639342	0.007240757471885306
AT1G01520	0.0	150.05088779659363	0.006664405753837209
AT1G28050	0.0	163.47058661620883	0.006117308444899442
AT1G66230	0.0	164.78543596799955	0.006068497462325461
AT4G34610	0.0	169.81341213499726	0.0058888163627795545
AT5G39860	0.0	171.3710979694379	0.005835289683318355
AT4G17880	0.0	221.44368963952286	0.004515820711025228
AT5G44260	0.0	235.5226050497957	0.004245876950064193
AT2G03710	0.0	256.5542040513752	0.0038978117848333877
AT5G11060	0.0	283.5537177155965	0.0035266686258121887
AT5G28770	0.0	304.2746015294185	0.003286505002302389
AT2G22840	0.0	574.5229883882356	0.0017405743899045639
AT1G51140	0.0	1162.9369383440091	0.0008598918540019659
AT1G49010	0.0	1415.5744440616336	0.0007064269944933114
AT4G35270	0.0	1437.6377622217844	0.0006955855127612667
AT1G21910	0.0	1769.3117018195667	0.0005651915368962949
AT4G27410	0.0	1792.061847615074	0.0005580164553644328
AT5G25220	0.0	2430.8922514679043	0.00041137158563739134
AT3G60390	0.0	2518.130652903876	0.00039711998217678373
AT4G17460	0.0	2548.839321132079	0.00039233544135526175
AT4G01550	0.0	3538.69221777596	0.0002825902730327002
AT3G58120	0.0	3721.898985949319	0.000268680048484695
AT4G01120	0.0	4905.236974069203	0.0002038637491493988
AT2G22540.2	0.0	5560.1529519266405	0.00017985116752111856
AT1G69690	0.0	6245.698091456674	0.0001601102047132047
AT5G04150	0.0	7123.7520049677405	0.00014037546496602508
AT5G59780	0.0	7636.086213993553	0.00013095713850996656
AT1G35560	0.0	8308.146230155888	0.00012036379383529902
AT5G05090	0.0	9713.546742279324	0.00010294900786829856
AT5G58900	0.0	10370.66057468602	9.642587304813761e-05
AT5G07310	0.0	14035.622534140157	7.124728508248255e-05
AT2G19810	0.0	18588.23984319928	5.379745518862892e-05
AT3G47640	0.0	19337.32191214364	5.1713469142384714e-05
AT3G13040	0.0	20054.14102066718	4.9865012865394274e-05
AT5G07690	0.0	21076.62835078213	4.744591892767759e-05
AT2G03340	0.0	21819.58075458929	4.583039478380771e-05
AT1G68840	0.0	26459.47478014868	3.779364512368377e-05
AT3G54220	0.0	29060.93756544245	3.4410452097359065e-05
AT5G15830	0.0	31929.063041696634	3.131942828056324e-05
AT1G24625	0.0	36933.75653737006	2.7075502027208817e-05
AT2G42400	0.0	42772.06232208867	2.3379747099161325e-05
AT1G05805	0.0	45376.67200403618	2.2037755433255473e-05
AT3G57230	0.0	49705.876282339326	2.011834565232891e-05
AT5G61590	0.0	66661.18617682603	1.5001233211593197e-05
AT1G04990	0.0	69387.82754754933	1.4411749659041147e-05
AT5G45300	0.0	72323.26695668645	1.3826809021208737e-05
AT4G37260	0.0	77838.24379108155	1.28471552195346e-05
AT4G17230	0.0	82454.45002248684	1.2127908193278612e-05
AT4G26150	0.0	100120.42752007488	9.987971733335763e-06
AT3G25890	0.0	113850.22305965847	8.783469835416937e-06
AT2G23290	0.0	164651.8636513899	6.073420475320314e-06
AT1G14350	0.0	179983.83992353803	5.556054368130088e-06
AT2G26580	0.0	180004.16149226355	5.555427117405723e-06
AT1G03970	0.0	193879.91435513672	5.157831863739451e-06
AT2G02070	0.0	297944.3604210522	3.356331358602691e-06
AT4G12750	0.0	299935.9827318655	3.3340447881305807e-06
AT1G13260	0.0	307180.35672901594	3.25541649423295e-06
AT3G06410	0.0	345694.0943365126	2.8927309328766247e-06
AT5G18560	0.0	375921.6164990089	2.66012901655693e-06
AT1G58110	0.0	384900.36257586017	2.5980749753201638e-06
AT5G46690	0.0	390241.2528866015	2.5625173981557137e-06
AT1G26590	0.0	418719.8569233695	2.3882316146831587e-06
AT2G28350	0.0	419991.4601107538	2.3810007940073237e-06
AT1G22640	0.0	549518.3114589978	1.8197755728011164e-06
AT4G32980	0.0	554382.0595503794	1.8038101752625802e-06
AT5G39610	0.0	574404.8481328975	1.7409323811428457e-06
AT5G66770	0.0	618372.7263654248	1.6171476479527885e-06
AT4G38620	0.0	622686.060474274	1.6059456979626968e-06
AT4G34000	0.0	641359.2880725417	1.5591884589451737e-06
AT4G32890	0.0	721060.5394888483	1.3868461040856413e-06
AT5G47640	0.0	728074.5445936506	1.3734857336045379e-06
AT3G23210	0.0	777208.5096410207	1.2866560100607788e-06
AT5G52010	0.0	821247.667522516	1.2176594705184758e-06
AT3G10760	0.0	1093293.6907881508	9.146673107379814e-07
AT1G77450	0.0	1093832.2310935687	9.142169809717903e-07
AT5G08330	1.0	1209859.7679890294	8.265420724437774e-07
AT3G24520	0.0	1210526.9287454186	8.260865382287636e-07
AT3G02150	0.0	1342417.5564665534	7.449247033331058e-07
AT5G47220	0.0	1381369.887517594	7.239190668887832e-07
AT4G36730	0.0	1385791.1905667721	7.216094364050705e-07
AT3G01140	0.0	1728493.8240149908	5.785383702888644e-07
AT1G64530	0.0	1811465.4722657285	5.520392275262244e-07
AT4G32010	0.0	1888306.529399404	5.295750369078376e-07
AT2G30420	0.0	1951424.5216809472	5.124461586342089e-07
AT5G60850	0.0	2122054.176258704	4.71241503250899e-07
AT3G23690	0.0	2458700.266577322	4.06718953747082e-07
AT2G33480	0.0	2748857.881613641	3.637874503038977e-07
AT1G75240	0.0	2839910.272136365	3.5212380116775136e-07
AT5G16820	0.0	3070544.099924128	3.2567517920511535e-07
AT1G07640	0.0	3162241.3740368583	3.162313946716277e-07
AT2G31370	0.0	3311978.441001752	3.019343325488365e-07
AT5G24800	0.0	3499342.2359772283	2.8576799082949355e-07
AT4G31550	0.0	3522714.4573292863	2.8387200044540107e-07
AT2G45190	0.0	3552316.4866972887	2.815064490297526e-07
AT5G05410	0.0	3892020.4664217806	2.569359561768629e-07
AT1G25560	0.0	4081888.778295753	2.449846270474607e-07
AT1G18710	0.0	4246899.69334831	2.354658862243076e-07
AT5G62020	0.0	5248552.597473482	1.9052871842827188e-07
AT1G74840	0.0	5570038.438187068	1.7953197470670943e-07
AT1G72360	0.0	6811166.747454893	1.4681772405200135e-07
AT2G27220	0.0	7031429.017415315	1.4221860130042106e-07
AT2G02080	0.0	7140703.212975187	1.4004222976007823e-07
AT3G56400	0.0	7808157.450804664	1.280711878955445e-07
AT5G57150	0.0	8065840.134650992	1.2397964543135218e-07
AT5G49330	0.0	8485340.319681725	1.1785031151673465e-07
AT3G06250	0.0	9022684.606755834	1.1083175834953147e-07
AT5G27050	0.0	9045886.10888855	1.1054748953973599e-07
AT4G18390	0.0	9152984.972801568	1.0925397594025739e-07
AT4G25470	0.0	9166190.478276135	1.0909657642070599e-07
AT5G16540	0.0	10160395.992240926	9.84213608173991e-08
AT2G42280	0.0	10399764.096332602	9.615602726533407e-08
AT2G43140	0.0	10626639.385966733	9.410312740268333e-08
AT2G29660	0.0	10724051.74270766	9.324833784767949e-08
AT4G01280	0.0	10759466.099235287	9.294141463683533e-08
AT1G05710	0.0	11221558.056022547	8.911418494718794e-08
AT3G60530	0.0	11253010.773992173	8.886510642211312e-08
AT2G25180	0.0	11844420.49939604	8.442793803639369e-08
AT3G54810	0.0	12064715.625822473	8.288632994048115e-08
AT5G60120	0.0	13120358.981325716	7.621742678102831e-08
AT1G14440	0.0	13562810.045831636	7.373103336408798e-08
AT5G53980	0.0	13722524.22361658	7.2872890126074e-08
AT4G16780	0.0	13975287.790406644	7.155487707998768e-08
AT4G15090	0.0	14053347.658458656	7.115742272255706e-08
AT1G73730	0.0	14064626.204822235	7.110036096495315e-08
AT1G60380	0.0	14965966.557751575	6.681827038308149e-08
AT5G39760	0.0	15192675.35198417	6.582119191202223e-08
AT1G06160	0.0	18026003.58765165	5.5475413345919324e-08
AT2G45660	0.0	19077500.693327136	5.241776771890128e-08
AT5G59340	0.0	20070429.084477466	4.982454514504641e-08
AT4G25530	0.0	21120431.805498466	4.734751681259004e-08
AT3G29035	0.0	21852316.74362771	4.576173829676925e-08
AT3G11280	0.0	23282161.44631438	4.2951338616299406e-08
AT1G01010	0.0	23614065.16323507	4.234764294446465e-08
AT4G39780	0.0	24582994.527064826	4.067852673111255e-08
AT3G44750	0.0	27855779.82109445	3.5899192426942084e-08
AT3G54990	0.0	29924356.456592355	3.3417594174517306e-08
AT4G24060	0.0	33713953.54035328	2.9661309190661034e-08
AT2G01930	0.0	34959042.841008805	2.8604902157874503e-08
AT1G19510	0.0	36066700.05027227	2.77264068685555e-08
AT2G20180	0.0	42899431.52517896	2.3310332198995923e-08
AT1G76320	0.0	43225033.418312736	2.3134742090826e-08
AT4G37790	0.0	43713836.61919701	2.2876052008687067e-08
AT1G79840	0.0	44427155.25523161	2.2508756058204807e-08
AT5G08520	0.0	47083259.33431479	2.123897143355131e-08
AT1G01720	0.0	53646177.77623344	1.8640657013276055e-08
AT2G37630	0.0	54381555.8896968	1.8388587520892563e-08
AT3G50260	0.0	55503780.6904229	1.8016790704359145e-08
AT3G23250	0.0	64346805.08559637	1.554078712485826e-08
AT2G40970	0.0	64398604.35535487	1.5528286831837964e-08
AT3G04070	0.0	65286078.46165675	1.5317201209861477e-08
AT2G44730	0.0	67760441.3143034	1.4757873186828143e-08
AT1G64105	0.0	67936402.77989349	1.4719648952269236e-08
AT1G52880	0.0	69679609.40537111	1.4351400768944565e-08
AT5G62470	0.0	70179551.21675539	1.4249164929986752e-08
AT5G60890	0.0	71347047.28158012	1.401599699078469e-08
AT2G22430	0.0	72396079.21347788	1.3812902727111102e-08
AT5G53200	0.0	74994242.57399568	1.3334356954313061e-08
AT1G21450	0.0	78502254.57022534	1.2738487645669276e-08
AT3G10470	0.0	86536229.03363012	1.1555853671545767e-08
AT5G02840	1.0	88980577.84750876	1.1238407573771422e-08
AT4G37750	0.0	92789322.49330206	1.0777102075211125e-08
AT2G22300	0.0	95793820.55850635	1.0439086719474218e-08
AT5G67420	0.0	108767207.25248268	9.193947562510156e-09
AT1G66140	0.0	114621607.38221732	8.72435854668657e-09
AT1G22590	0.0	121464345.85234344	8.232868608337437e-09
AT2G18350	0.0	126480224.46759272	7.906374330132724e-09
AT5G47390	0.0	127531845.68731277	7.841178762925116e-09
AT1G14685	0.0	135112893.72017553	7.401218140372612e-09
AT5G13910	0.0	139129302.52160248	7.187558493256522e-09
AT3G45260	0.0	139709658.23322257	7.157701283118612e-09
AT1G49480	0.0	151793163.59097043	6.58791197405076e-09
AT4G27330	0.0	159383324.80942103	6.274182077677995e-09
AT5G67300	0.0	165693078.38559276	6.0352551219601905e-09
AT5G42640	0.0	174287927.90288684	5.7376320438969225e-09
AT5G15840	0.0	176091650.02586386	5.678860978661525e-09
AT5G47370	0.0	178768420.38295826	5.593829144195585e-09
AT2G01940	0.0	180808663.49861932	5.5307084331588796e-09
AT2G42200	0.0	185812974.3921609	5.381755516649154e-09
AT1G32770	0.0	189079637.8113002	5.2887767904336225e-09
AT2G38090	0.0	191830519.64636117	5.212934843962765e-09
AT5G11270	0.0	199257619.17427468	5.018628668474555e-09
AT2G35940	0.0	200942007.06418392	4.976560225560924e-09
AT2G28510	0.0	210657268.8185469	4.7470472089969346e-09
AT1G05230	0.0	210997390.2048545	4.7393951130348755e-09
AT1G74250	0.0	212697682.98199973	4.7015086670437705e-09
AT2G23340	0.0	222111236.9186976	4.502248575411084e-09
AT4G00940	0.0	232708134.49565187	4.297228380809717e-09
AT4G01680	0.0	237107679.86239648	4.2174930840719365e-09
AT3G16857.1	0.0	256518425.8479896	3.8983554366289095e-09
AT4G09460	0.0	273263750.7524137	3.659468177709506e-09
AT2G36400	0.0	281934672.57469904	3.5469209617524017e-09
AT4G34990	0.0	287737783.3833109	3.475386472508709e-09
AT1G47870	0.0	297103779.2807378	3.3658272621806168e-09
AT1G68130	0.0	297300584.5181948	3.363599172267352e-09
AT5G50915	0.0	298477967.72920144	3.3503310398684597e-09
AT5G65310	0.0	310153785.2621195	3.224206982206819e-09
AT1G22190	0.0	320307486.7888386	3.1220000819376595e-09
AT1G27360	0.0	325777051.23693377	3.069583926194703e-09
AT2G42410	0.0	333581546.08569515	2.9977677474493925e-09
AT1G68920	0.0	366645483.45765287	2.727430297434712e-09
AT2G26940	0.0	386650257.88238174	2.586316650806937e-09
AT1G30970	0.0	386910733.69986326	2.5845754922263957e-09
AT5G08130	0.0	409700647.4773886	2.4408064916597183e-09
AT3G61630	0.0	420043342.5119312	2.3807067004557876e-09
AT3G15210	0.0	426098439.5466396	2.346875527317069e-09
AT1G35515	0.0	433302899.18716174	2.3078543944107284e-09
AT1G31050.2	0.0	469983490.6075079	2.1277343140444885e-09
AT2G46270	0.0	483557971.529192	2.0680043735761906e-09
AT2G27470	0.0	486571476.8121958	2.055196507924312e-09
AT4G36990	0.0	487457290.5009027	2.051461778266599e-09
AT2G23760	0.0	505934255.8680316	1.9765413952536177e-09
AT3G04670	0.0	513276413.72533983	1.948267976589923e-09
AT2G40200	0.0	518443539.8649074	1.9288503435891465e-09
AT1G19700	0.0	527766366.2511048	1.894777810687944e-09
AT2G21240	0.0	533929379.4649112	1.8729068645785543e-09
AT1G13300	0.0	536212699.7573996	1.86493158489613e-09
AT3G47620	0.0	547156268.2885183	1.8276314427100648e-09
AT2G38470	0.0	566383069.7139252	1.7655894984733399e-09
AT2G30250	0.0	604413835.7379857	1.654495547374434e-09
AT3G19360	0.0	651868362.2203896	1.5340520539972315e-09
AT1G75080	0.0	654520235.8297963	1.5278366431745334e-09
AT2G40350	0.0	657755615.3592335	1.520321494258699e-09
AT1G32360	0.0	677149365.8396401	1.476779054145664e-09
AT4G02590	0.0	711130537.8113911	1.40621158399082e-09
AT3G50650	0.0	715796068.5838152	1.3970459518986676e-09
AT5G67190	0.0	754385956.0743492	1.3255814108785506e-09
AT4G24540	0.0	792335219.6924398	1.2620920730851385e-09
AT3G47600	0.0	801265563.6157527	1.2480256801346208e-09
AT2G18300	0.0	850037174.9029384	1.1764191373326528e-09
AT1G69490	0.0	859670964.9476771	1.1632357503906903e-09
AT3G11090	0.0	862312139.9209541	1.159672876798032e-09
AT4G37940	0.0	900039290.1918172	1.1110626068189524e-09
AT3G10030	0.0	901376428.7223213	1.1094144112659737e-09
AT2G46680	0.0	908856507.3156117	1.1002836992976908e-09
AT5G32460	0.0	941501256.6576562	1.062133473459202e-09
AT4G35580	0.0	946051231.3510488	1.0570252084254542e-09
AT4G00150	0.0	958901107.7046787	1.0428604075697647e-09
AT5G51980	0.0	977892026.6481184	1.0226077856751324e-09
AT5G16560	0.0	1010896604.0704608	9.892208520371077e-10
AT5G66320	0.0	1013934258.7068516	9.86257236514897e-10
AT5G39810	0.0	1048693507.6111846	9.535674558316821e-10
AT1G20640	0.0	1081031941.4500208	9.250420470080373e-10
AT1G22490	0.0	1101526388.3736362	9.07831179129956e-10
AT5G51860	0.0	1111631852.6040707	8.995783969822692e-10
AT5G15310	0.0	1121128292.8335989	8.919585799342796e-10
AT5G05790	0.0	1157063605.9227633	8.642567226911398e-10
AT4G00270	0.0	1168817613.328085	8.555654779641841e-10
AT4G17695	0.0	1255007943.136119	7.968077058549258e-10
AT2G34710	0.0	1255050919.1481235	7.967804212109247e-10
AT4G23750	0.0	1282091810.256335	7.799753434194896e-10
AT1G68810	0.0	1288146147.1324155	7.763094290396574e-10
AT4G01250	0.0	1309098746.354799	7.638843156671809e-10
AT5G18830	0.0	1319734621.6284125	7.57728094430156e-10
AT5G65410	0.0	1390056677.2235572	7.193951271090322e-10
AT1G16060	0.0	1414184708.9453382	7.071212081947724e-10
AT2G22770	0.0	1428969829.3329198	6.998048380537369e-10
AT1G50600	0.0	1435073665.1468349	6.968283400961729e-10
AT1G01380	0.0	1459134298.3644705	6.853378754244146e-10
AT4G29940	0.0	1464517749.3650985	6.82818627793021e-10
AT4G14770	0.0	1479059698.6690073	6.761052315196548e-10
AT4G18880	0.0	1485890579.4659085	6.729970657458788e-10
AT1G69310	0.0	1515824383.548624	6.597070286327944e-10
AT1G32330	0.0	1564674856.1661782	6.391104171317966e-10
AT5G60200	0.0	1628256372.5247982	6.141538991488087e-10
AT1G73830	0.0	1635921919.888008	6.11276117669759e-10
AT3G46130	0.0	1664749178.173721	6.006910909528302e-10
AT4G37650	0.0	1720458554.6174526	5.812403892649143e-10
AT3G59580	0.0	1849162026.7009394	5.407854939483503e-10
AT5G18240	0.0	1959314946.723204	5.103824689708101e-10
AT3G58710	0.0	1978522205.2917602	5.05427736583091e-10
AT3G04420	0.0	2025635733.9523857	4.936721757217509e-10
AT4G00130	0.0	2027038065.982959	4.933306467114007e-10
AT3G07340	0.0	2056527098.3454595	4.862566609525988e-10
AT2G16485	0.0	2060897715.5239925	4.852254396069072e-10
AT4G36900	0.0	2092388436.4728546	4.779227329729e-10
AT4G00480	0.0	2099143416.6885152	4.763847920298561e-10
AT4G23980	0.0	2103493572.0257661	4.753995986956839e-10
AT1G56010	0.0	2137370493.9408207	4.678646041174778e-10
AT5G41920	0.0	2206045215.1194587	4.532998658170519e-10
AT1G67310	0.0	2279348929.147811	4.3872177147264323e-10
AT2G36960	0.0	2490724586.563339	4.014895927854406e-10
AT1G68880	0.0	2491388909.347035	4.013825365635463e-10
AT3G28910	0.0	2491840149.797237	4.013098513086286e-10
AT2G35700	0.0	2494598993.547695	4.008660320101587e-10
AT4G31920	0.0	2924461425.642845	3.419433032118669e-10
AT1G58220	0.0	2961773998.102096	3.3763548489547134e-10
AT5G08190	0.0	3043841379.618795	3.2853223124433577e-10
AT1G53160	0.0	3073121551.2296705	3.254020328612979e-10
AT1G28470	0.0	3085177369.1842484	3.24130473012127e-10
AT5G43270	0.0	3346062049.7102513	2.9885877343087344e-10
AT3G51910	0.0	3455390202.234674	2.8940291587134757e-10
AT3G49850	0.0	3658221934.132744	2.7335684329853827e-10
AT2G01760	0.0	3721184436.801943	2.6873164095553917e-10
AT1G32640	0.0	3855343113.1173844	2.593802861793569e-10
AT5G03510	0.0	3867421347.2266154	2.585702229515578e-10
AT3G16870	0.0	3874040345.8026257	2.581284423337154e-10
AT4G18890	0.0	4071719468.6868773	2.4559648759950014e-10
AT3G15510	0.0	4117346879.904017	2.4287484857805125e-10
AT3G27920	0.0	4163045765.903815	2.4020874528697277e-10
AT2G18490	0.0	4441214529.911721	2.251636333406027e-10
AT1G64620	0.0	4507147883.853941	2.218698000973793e-10
AT3G25710	0.0	4561966855.673	2.1920369692218553e-10
AT4G02640	0.0	5058311918.579873	1.9769441190980392e-10
AT2G45050	0.0	5136704761.155041	1.9467733624915203e-10
AT1G30330	0.0	5645430071.652554	1.7713442329598742e-10
AT5G02460	0.0	5757479468.28004	1.736871152575269e-10
AT4G24020	0.0	5767422820.346426	1.7338766918079607e-10
AT1G50640	0.0	5771213773.283622	1.732737755494776e-10
AT3G12680	0.0	5863653727.8282175	1.7054213062652667e-10
AT3G12820	0.0	6023480487.215467	1.6601697342963913e-10
AT1G09530	0.0	6520847133.429994	1.53354308042795e-10
AT5G28300	0.0	6588263803.201167	1.5178505747054493e-10
AT1G76350	0.0	6605536003.663171	1.5138816887008705e-10
AT3G56850	0.0	6619721713.636164	1.510637521121273e-10
AT2G17770	0.0	6637655311.699638	1.506556085003968e-10
AT3G14180	0.0	6687468391.131172	1.4953341705901536e-10
AT2G02820	0.0	7052086529.925865	1.4180200367032542e-10
AT4G00730	0.0	7131765800.77987	1.4021772839072315e-10
AT2G16720	0.0	7529635021.793035	1.3280856204924919e-10
AT5G61420	0.0	7568201500.9810095	1.3213178849299632e-10
AT3G55980	0.0	7694374352.340243	1.299650828265004e-10
AT1G29280	0.0	7810356353.397057	1.28035131145464e-10
AT3G51960	0.0	7828162308.424317	1.2774390215745079e-10
AT1G28300	0.0	7899893104.366295	1.2658399130075532e-10
AT2G21230	0.0	7980130889.918485	1.253112278225069e-10
AT4G18170	0.0	8161501070.730089	1.2252648028024393e-10
AT1G68550	0.0	8339135296.519661	1.1991650985892388e-10
AT5G07580	0.0	8432380179.047256	1.1859047846120552e-10
AT4G36540	0.0	8909241342.98678	1.1224300268700038e-10
AT5G15150	0.0	9226686076.85848	1.0838127488786114e-10
AT3G15270	0.0	9382644513.584585	1.0657975995489951e-10
AT1G72050	0.0	9404955129.90753	1.0632692938853309e-10
AT3G18960	0.0	9440443580.1435	1.0592722593071198e-10
AT4G08150	0.0	9759155397.741287	1.0246788366864673e-10
AT5G11510	0.0	10010650128.074324	9.989361202381396e-11
AT1G53170	0.0	10033019116.392105	9.967089551002492e-11
AT1G26780	0.0	10038334567.195026	9.961811825519043e-11
AT1G03040	0.0	10276870363.890644	9.730588832896569e-11
AT2G30590	0.0	10638006991.243294	9.40025702956534e-11
AT3G16770	0.0	10863320872.992477	9.205288251091987e-11
AT3G04060	0.0	11265852179.576477	8.87638133414239e-11
AT5G65640	0.0	11301424936.0363	8.848441728895167e-11
AT1G47655	0.0	11439228714.526031	8.741848117173813e-11
AT1G71130	0.0	11569751966.267076	8.643227641488023e-11
AT1G57560	0.0	11582421026.846909	8.633773523532764e-11
AT5G67580	0.0	11793125933.73256	8.479515996175723e-11
AT5G60970	0.0	11847864388.63123	8.440339686530872e-11
AT5G12850	0.0	12246151418.673874	8.165830764391195e-11
AT1G14580	0.0	12354868315.59813	8.093975382461108e-11
AT2G42300	0.0	12471578852.433142	8.018230986086458e-11
AT4G36930	0.0	12537626633.459366	7.975991224138737e-11
AT5G26930	0.0	12760901712.817413	7.836436816965462e-11
AT3G50060	0.0	12814188452.592657	7.803849644474933e-11
AT5G45710	0.0	13000351723.276394	7.692099577656476e-11
AT1G14920	0.0	13048990320.377459	7.663428169138788e-11
AT1G29160	0.0	13100790381.177809	7.633127245793672e-11
AT2G46510	0.0	13170226772.6417	7.592883685778926e-11
AT3G16940	0.0	13360643763.702793	7.48466928454994e-11
AT5G10030	0.0	13607950900.457949	7.348644974654832e-11
AT2G02740	0.0	14402708590.928787	6.943138463759704e-11
AT3G24140	0.0	14941829386.646969	6.692620924273621e-11
AT1G69600	0.0	15001487001.942266	6.666005842424344e-11
AT1G32150	0.0	15079878457.742281	6.631353182336706e-11
AT1G32870	0.0	15098716294.990734	6.623079607978115e-11
AT5G09410	0.0	15228223116.962904	6.56675432398996e-11
AT1G21340	0.0	15351241716.238873	6.514131029167358e-11
AT3G22760	0.0	15587508054.358576	6.415393637730183e-11
AT4G12020	0.0	15601607310.38878	6.409596012162933e-11
AT1G55600	0.0	15639963443.076637	6.393876837625674e-11
AT2G41710	0.0	16191738084.82934	6.175989228339472e-11
AT1G53910	0.0	16794633251.78872	5.954283043921157e-11
AT4G12240	0.0	16820731617.56926	5.945044619554477e-11
AT4G16110	0.0	17308933328.609974	5.777363520992353e-11
AT5G26880.2	0.0	17857100442.358467	5.6000133013079787e-11
AT1G25470	0.0	17950525738.606197	5.5708674752032467e-11
AT4G35280	0.0	18084368138.623318	5.5296374876613494e-11
AT1G18570	0.0	18141403862.77414	5.5122525663627576e-11
AT5G11260	0.0	18928908783.47141	5.2829247128772316e-11
AT3G12480	0.0	18933443168.226112	5.2816595012057215e-11
AT5G63790	0.0	19122083802.410664	5.229555577378722e-11
AT1G54830	0.0	19405148573.02692	5.1532715466553866e-11
AT5G10510	0.0	19543372252.307945	5.116824195383714e-11
AT3G05690	0.0	19591841466.17449	5.104165433997156e-11
AT1G77080.1	0.0	19636126345.157192	5.092654133622579e-11
AT2G04890	0.0	20084798929.423958	4.978889773872785e-11
AT5G03415	0.0	20135666818.15134	4.966311813912951e-11
AT4G24470	0.0	20301058105.6958	4.925851622085813e-11
AT5G13080	0.0	21088498678.77829	4.741921249265206e-11
AT4G17570	0.0	21536393447.323257	4.6433029859244575e-11
AT1G44810	0.0	22220093280.48038	4.5004311520081106e-11
AT3G27010	0.0	22261646854.74596	4.49203065040451e-11
AT3G49940	0.0	22408858332.93798	4.4625209599818646e-11
AT1G75710	0.0	22635304821.31866	4.41787732877433e-11
AT4G31800	0.0	22659975611.308723	4.413067415222364e-11
AT1G34310	0.0	22831978365.01597	4.379821949780043e-11
AT5G40330	0.0	22876932486.7997	4.371215417875685e-11
AT5G43840	0.0	24789765195.82612	4.033922839125443e-11
AT2G44940	0.0	25651220460.520473	3.8984499842379413e-11
AT1G14410	0.0	25748530824.63296	3.883716732464306e-11
AT4G21440	0.0	26357188658.287445	3.794031347442557e-11
AT4G32730.2	0.0	27206376172.96088	3.6756089588802064e-11
AT5G60130	0.0	27522436813.43473	3.6333992036339695e-11
AT5G49620	0.0	28838849266.13568	3.46754473721065e-11
AT1G69780	0.0	28956104480.441307	3.4535032178636464e-11
AT4G01720	0.0	29187509388.989506	3.426123094892204e-11
AT1G73360	0.0	29762886171.363037	3.359889206451255e-11
AT5G65130	0.0	29826273157.431793	3.3527487484665196e-11
AT3G20310	0.0	30081877499.49827	3.32426059515959e-11
AT4G11660	0.0	30514249792.527187	3.277157415958808e-11
AT1G30210	0.0	31066875588.10273	3.2188624735181185e-11
AT5G50670	0.0	31819045695.343662	3.142771815266408e-11
AT5G02470	0.0	32019694745.29427	3.12307786802672e-11
AT1G78080	0.0	32637949494.376167	3.063917971232567e-11
AT5G10140	0.0	33740912253.594807	2.963761004693815e-11
AT4G37180	0.0	34183790292.216724	2.92536313688915e-11
AT4G30080	0.0	35073772205.76062	2.85113330306615e-11
AT2G36080	0.0	35398352614.9285	2.8249902216587092e-11
AT1G02220	0.0	35631265742.013565	2.806523931090327e-11
AT2G27300	0.0	35896210141.276886	2.785809410141893e-11
AT3G60630	0.0	36169360172.18802	2.7647710527346778e-11
AT4G01500	0.0	36719004670.47279	2.7233853667175778e-11
AT1G55110	0.0	37102100133.21384	2.6952652178974608e-11
AT1G18400	0.0	37524684106.4564	2.664912507092745e-11
AT4G21750	0.0	38792554150.09076	2.577814278819948e-11
AT5G18550	0.0	39172598090.04233	2.5528048910654205e-11
AT2G13960	0.0	39661140462.212166	2.521359669303426e-11
AT2G25650	0.0	40217846850.44055	2.4864583221442297e-11
AT3G30260.1	0.0	40290882797.75982	2.481951078162031e-11
AT1G22985	0.0	40623414042.40239	2.4616345611823964e-11
AT5G63260	0.0	40668376750.900894	2.458912993073538e-11
AT4G36590	0.0	41416253426.49545	2.4145110126264206e-11
AT4G13640	0.0	42483921589.8082	2.353831667554668e-11
AT5G45260.2	0.0	42561692176.12111	2.3495306433352806e-11
AT1G62300	0.0	43148912500.907776	2.3175555119238794e-11
AT1G08810	0.0	43278612901.16305	2.3106100980725434e-11
AT3G49530	0.0	43709802369.3374	2.2878163381985547e-11
AT2G46400	0.0	44021032730.842636	2.271641390410557e-11
AT2G13150	0.0	45244086646.874405	2.2102335887668602e-11
AT2G39250	0.0	45448814613.089966	2.200277407701596e-11
AT2G01430	0.0	45860295001.57327	2.180535471840498e-11
AT5G65210	0.0	45989390079.56783	2.1744145731653875e-11
AT5G25475	0.0	46497397968.34778	2.1506579802180136e-11
AT5G38140	0.0	46629593801.770996	2.1445608217200897e-11
AT5G58620	0.0	46661613181.92889	2.143089215756647e-11
AT1G32240	0.0	46737187227.40588	2.1396238398651794e-11
AT1G34190	0.0	47238800620.04193	2.116903873244681e-11
AT1G12860	0.0	47506606641.21103	2.1049703834929774e-11
AT5G26650	0.0	48225961433.283066	2.0735719315485782e-11
AT1G30650	0.0	48789422160.96276	2.049624602441217e-11
AT5G06110	0.0	49728868236.64164	2.0109044011244392e-11
AT4G16750	0.0	50067310963.99488	1.9973111811799405e-11
AT1G08000	0.0	50741196430.67401	1.970785220577655e-11
AT5G29000	0.0	53689910933.78943	1.8625473252008243e-11
AT3G15030	0.0	53743992425.84115	1.8606730815166994e-11
AT5G49200	0.0	55829670620.81796	1.7911622778356793e-11
AT1G33240	0.0	55999794356.1397	1.785720843259422e-11
AT1G15790	0.0	56507324726.85808	1.769682080745715e-11
AT1G34170	0.0	57937743658.03977	1.7259905837931854e-11
AT5G26660	0.0	58312519973.14935	1.714897590535379e-11
AT1G30500	0.0	58370601733.48494	1.7131911789532554e-11
AT2G31730	0.0	58597738790.04592	1.7065504926443874e-11
AT4G27240	0.0	60484303580.540985	1.653321507898985e-11
AT2G43500	0.0	60895520476.96374	1.6421569142812262e-11
AT2G01500	0.0	61642358105.202835	1.622261105412832e-11
AT4G17710	0.0	61815224522.47719	1.6177244485076342e-11
AT1G06850	0.0	62189074856.15167	1.607999479511603e-11
AT1G68150	0.0	62652693785.3385	1.5961005658052205e-11
AT4G32880	0.0	63797501703.5667	1.567459498095195e-11
AT2G18120	0.0	64886369347.81784	1.5411557312439312e-11
AT4G30935	0.0	65840124100.38615	1.5188306730335204e-11
AT2G38250	0.0	66710250235.320335	1.4990200103769676e-11
AT1G44830	0.0	67927522254.90592	1.4721573329988156e-11
AT5G40360	0.0	68429062212.996765	1.4613673893225875e-11
AT2G37120	0.0	68770101249.49847	1.4541202962199984e-11
AT2G22200	0.0	68856317295.441	1.4522995700006896e-11
AT4G17785	0.0	68906650658.95732	1.4512387272301819e-11
AT3G06590	0.0	69284518788.2455	1.4433238730520786e-11
AT5G37020	0.0	69495963451.2613	1.4389324938293961e-11
AT5G43170	0.0	69700352631.74115	1.4347129709421379e-11
AT1G75540	0.0	72243503045.81076	1.3842075174093981e-11
AT3G20770	0.0	73832896677.35489	1.3544098159522808e-11
AT4G17810	0.0	75014557619.49973	1.3330745814330499e-11
AT2G02540	0.0	78957930207.04268	1.2664972313456168e-11
AT5G18270	0.0	78964256724.09366	1.2663957611784611e-11
AT2G27050	0.0	79004048405.41809	1.2657579202376926e-11
AT2G43280	0.0	79680422679.95752	1.2550134228285612e-11
AT4G38070	0.0	82455289193.30399	1.2127784764124117e-11
AT4G25490	0.0	82934366839.71545	1.2057727551386114e-11
AT1G10120	0.0	85694091550.79755	1.1669415964427633e-11
AT1G06070	0.0	90090928691.56067	1.109989667687459e-11
AT3G61250	0.0	91831418015.93367	1.0889519312731183e-11
AT1G01250	0.0	92171449181.12303	1.0849346613124564e-11
AT2G37650	0.0	93328274602.6562	1.0714866467396785e-11
AT4G36710	0.0	94765215434.04684	1.0552395152797006e-11
AT5G48560	0.0	96627783661.37813	1.034899034323704e-11
AT1G08320	0.0	98962528545.00024	1.0104834776379829e-11
AT3G18100	0.0	99382230869.5708	1.0062160924042847e-11
AT2G46410	0.0	100040132348.1649	9.995988375142764e-12
AT5G65050	0.0	101608062970.7391	9.8417386451701e-12
AT5G54230	0.0	102333661469.17987	9.771955636525063e-12
AT1G10170	0.0	102603554791.3724	9.746251014726897e-12
AT2G25000	0.0	103347937036.31512	9.676051875603603e-12
AT1G71260	0.0	103713886525.5148	9.641910389251382e-12
AT5G44180	0.0	103964484399.9324	9.61866935398037e-12
AT3G48440	0.0	105611445033.66464	9.468670745687086e-12
AT5G12840	0.0	105765120273.59758	9.454912899575575e-12
AT3G61830	0.0	107329591658.59758	9.317094983281765e-12
AT5G50820	0.0	109114267380.1947	9.164704341693721e-12
AT1G66350	0.0	109279177909.18854	9.150874110994908e-12
AT1G13960	0.0	110113268169.96916	9.081557714338433e-12
AT1G49560	0.0	110301493245.13373	9.066060400266775e-12
AT2G33860	0.0	111077266768.35324	9.002742227043235e-12
AT4G37540	0.0	111365396965.8498	8.979449876218284e-12
AT2G45420	0.0	111440651199.20416	8.973386185732746e-12
AT1G51600	0.0	115113271279.8042	8.687095665705774e-12
AT1G64380	0.0	115962453144.21667	8.62348090167039e-12
AT5G56860	0.0	116301475516.68687	8.598343190035629e-12
AT5G61470	0.0	122212499388.16115	8.18246910100319e-12
AT3G61150	0.0	122438778573.17876	8.167347074622471e-12
AT2G40620	0.0	123830378335.65845	8.075562825863046e-12
AT3G11020	0.0	123956217557.3678	8.067364588123166e-12
AT2G46870	0.0	124975767214.70058	8.001551198978138e-12
AT2G39880	0.0	126875607599.01642	7.881735653715619e-12
AT4G35590	0.0	128029690466.58435	7.810688257978716e-12
AT3G49690	0.0	128418017399.74948	7.787069293299578e-12
AT5G60140	0.0	131382810813.4498	7.611345759833819e-12
AT4G05100	0.0	132022185320.25446	7.574484527537835e-12
AT1G74080	0.0	135088519828.7794	7.40255353502629e-12
AT1G80840	0.0	135495289921.91907	7.38033034636306e-12
AT5G65790	0.0	136094231379.43468	7.347850014391652e-12
AT1G01260	0.0	137352089963.83356	7.280559038186547e-12
AT3G14230	0.0	137929127814.6383	7.2501002206284584e-12
AT5G24930	0.0	139864104010.65662	7.149797348459097e-12
AT2G45880	0.0	142040908396.93872	7.040225321605674e-12
AT3G55730	0.0	142151968215.69504	7.034724967596965e-12
AT3G01330	0.0	143008267219.31244	6.992602731605965e-12
AT4G16430	0.0	143083480819.32892	6.988926983560716e-12
AT5G66730	0.0	143173503164.5907	6.984532597839776e-12
AT2G37260	0.0	148077233231.80035	6.753232608247064e-12
AT3G57390	0.0	150031939489.22012	6.665247436009121e-12
AT5G59820	0.0	150163693745.56894	6.659399319880597e-12
AT2G40750	0.0	151079776238.8252	6.61901959941489e-12
AT1G07980	0.0	151311120467.30014	6.608899576658083e-12
AT1G13600	0.0	152126887700.05035	6.573459926240698e-12
AT5G44210	0.0	153316626595.69547	6.522449796896823e-12
AT4G31270	0.0	154467315252.56754	6.473861466193756e-12
AT1G68510	0.0	157996947337.4259	6.329236209003151e-12
AT1G78700	0.0	158389061207.5944	6.313567315670486e-12
AT3G57800	0.0	158957553070.68146	6.290987629605394e-12
AT3G13960	0.0	160230402789.32367	6.241012832719604e-12
AT1G19220	0.0	160317335768.26135	6.237628608334033e-12
AT1G72570	0.0	160606755771.0337	6.226388144130333e-12
AT5G28650	0.0	161133409107.93027	6.206037627678942e-12
AT3G24120	0.0	165336884801.4242	6.048257176255846e-12
AT1G43700	0.0	166139533836.09668	6.019036992041522e-12
AT5G04760	0.0	166531912323.23465	6.0048550818237335e-12
AT1G58100	0.0	167128565961.69333	5.983417581822636e-12
AT4G28610	0.0	168069823623.00735	5.949908070606843e-12
AT2G02450	0.0	168790617330.6805	5.92449992668066e-12
AT2G28810	0.0	169093751501.36914	5.913879082586343e-12
AT3G18990	0.0	169171844736.68085	5.9111491132376005e-12
AT1G13450	0.0	170293321803.45905	5.872220879889418e-12
AT5G55020	0.0	171754843819.4023	5.822252099343907e-12
AT5G14960	0.0	175279029179.39902	5.705189061587594e-12
AT1G52150	0.0	175783963913.12106	5.688801058634888e-12
AT4G10240	0.0	181583411963.61206	5.507110970028432e-12
AT3G06490	0.0	182243976970.17874	5.487149790215749e-12
AT5G22990	0.0	183265549573.01828	5.4565629073759505e-12
AT5G46760	0.0	186604380347.5904	5.35893100760704e-12
AT3G01470	0.0	187348914175.4875	5.337634351396945e-12
AT3G10500	0.0	192564883098.99365	5.193054849392869e-12
AT1G62360	0.0	192738508248.41354	5.188376775808273e-12
AT3G06740	0.0	197227907730.43594	5.07027636964422e-12
AT2G23320	0.0	197266177842.6377	5.069292723853126e-12
AT3G45610	0.0	198991637828.30133	5.0253367976338966e-12
AT5G08070	0.0	201859135792.21933	4.953949674238846e-12
AT3G21175	0.0	205590912116.9788	4.864028228207927e-12
AT5G04240	0.0	208369241119.85272	4.799172827167932e-12
AT5G59450	0.0	208410665308.17105	4.79821893242041e-12
AT1G50420	0.0	209862238923.91776	4.765030646425793e-12
AT3G61120	0.0	212231226400.04224	4.7118419704886605e-12
AT2G20570	0.0	216642876232.69046	4.61589144951125e-12
AT3G11100	0.0	217990521689.41696	4.587355414584285e-12
AT5G11590	0.0	218131870520.84134	4.584382821328511e-12
AT3G02550	0.0	228273798277.9625	4.380704257535193e-12
AT3G20910	0.0	230973196873.95825	4.329506685339332e-12
AT5G67180	0.0	233583890432.1499	4.281117153027615e-12
AT5G42520	0.0	238501369710.404	4.1928480377879254e-12
AT1G46264	0.0	238939771949.9263	4.185155078366636e-12
AT1G27370	0.0	242437706474.24225	4.124770913497504e-12
AT1G35460	0.0	243923060495.37106	4.09965338237865e-12
AT3G03450	0.0	245208946563.8236	4.078154626954924e-12
AT1G70920.1	0.0	246220468546.7548	4.0614007677843e-12
AT5G19790	0.0	246407467940.0429	4.0583185581182345e-12
AT2G28550	0.0	246849705867.7028	4.051047970605816e-12
AT4G36620	0.0	247670032835.5093	4.037630182994939e-12
AT3G21270	0.0	248102031579.0003	4.030599804587176e-12
AT5G56270	0.0	248874495894.6833	4.0180895049333294e-12
AT4G39070	0.0	251800201164.3762	3.971402704905688e-12
AT2G22850	0.0	254116942931.1821	3.935196089112452e-12
AT1G68120	0.0	257816384468.82602	3.878729437852758e-12
AT3G13810	0.0	261214030740.45355	3.8282782787943576e-12
AT5G15130	0.0	262699699375.0007	3.806627881109646e-12
AT5G01380	0.0	264926240926.5531	3.774635523089747e-12
AT1G17520	0.0	266791240837.3105	3.748248993713406e-12
AT5G51190	0.0	266878932831.2969	3.747017381218822e-12
AT2G24840	0.0	267235301155.5897	3.742020592622904e-12
AT5G06960	0.0	267740869121.8405	3.7349546346057885e-12
AT3G18380	0.0	269652675349.1291	3.708474238964118e-12
AT5G13330	0.0	276990091933.6323	3.6102374385275957e-12
AT2G31180	0.0	278914395904.6117	3.585329458369006e-12
AT5G52510	0.0	281113085565.7914	3.5572872674614827e-12
AT3G51120	0.0	290327353684.9098	3.444387817089026e-12
AT5G20240	0.0	294285250987.0328	3.3980636020527697e-12
AT5G01200	0.0	296210863327.8809	3.3759734155768713e-12
AT5G23090	0.0	303116681615.1695	3.299059605269692e-12
AT3G19510	0.0	305859215113.4293	3.2694780820291628e-12
AT1G56650	0.0	309022073970.3623	3.2360147841603964e-12
AT1G33060	0.0	324887563834.4442	3.077987929724447e-12
AT2G28160	0.0	326652138881.7265	3.061360637109062e-12
AT3G18400	0.0	329244229811.74	3.0372589994114535e-12
AT1G72740	0.0	330125370673.4462	3.0291522216545455e-12
AT1G01030	0.0	333339765671.9427	2.999942110069619e-12
AT5G65100	0.0	336223433351.71594	2.9742126836053154e-12
AT5G03150	0.0	342353756102.7505	2.9209552463618082e-12
AT1G10240	0.0	344541954862.0139	2.9024041510430604e-12
AT3G09370	0.0	345189136660.1224	2.896962545448273e-12
AT5G18960	0.0	346328497348.8734	2.887432041125544e-12
AT2G40260	0.0	349296230082.0601	2.8628994929749747e-12
AT1G59750	0.0	349668993677.1718	2.8598475074494003e-12
AT2G36450	0.0	355804777770.4413	2.8105299941901897e-12
AT4G02560	0.0	361964831276.9785	2.7626993386956746e-12
AT1G51700	0.0	366860080226.39294	2.725834872474787e-12
AT2G28610	0.0	378491220675.6652	2.642069208936592e-12
AT2G31230	0.0	381701707401.1147	2.6198468086734045e-12
AT5G60690	0.0	382712901027.77625	2.612924720631309e-12
AT4G24240	0.0	383453676308.6188	2.6078769399909476e-12
AT3G54620	0.0	383668835362.8998	2.6064144591106357e-12
AT3G46600	0.0	388043793720.9661	2.5770287173284322e-12
AT4G20380	0.0	402766894628.827	2.482825707215976e-12
AT1G76580	0.0	404298124306.2457	2.47342230863907e-12
AT1G25550	0.0	406040428708.30896	2.462808945358442e-12
AT3G53200	0.0	406713949847.86334	2.4587305165560784e-12
AT1G27730	0.0	412950770066.2491	2.4215961622727365e-12
AT5G54070	0.0	416802196961.3712	2.3992195993455355e-12
AT2G16400	0.0	420545178462.08105	2.377865806610754e-12
AT4G31615	0.0	423036588296.5694	2.3638617265392444e-12
AT2G29065	0.0	429416109040.4558	2.3287435635205495e-12
AT2G47810	0.0	429483191835.5161	2.3283798272202955e-12
AT1G29962	0.0	433897975386.1457	2.3046892512232954e-12
AT5G39700	0.0	439009136554.4687	2.2778569208113238e-12
AT3G60110	0.0	441996991367.4345	2.2624588391568813e-12
AT3G04100	0.0	446990554761.3171	2.2371837376608047e-12
AT3G61950	0.0	448165707060.15625	2.2313175333287435e-12
AT1G26960	0.0	455890795899.9926	2.1935077632481242e-12
AT4G32040	0.0	457970763103.8394	2.1835455023867143e-12
AT4G00180	0.0	458753109072.4413	2.1798217390219167e-12
AT3G11450	0.0	462886799964.6997	2.160355404553038e-12
AT2G42830	0.0	468335230173.4626	2.135222668663254e-12
AT5G07100	0.0	468394460565.7594	2.1349526610373026e-12
AT1G17950	0.0	474964250781.7418	2.1054216151091452e-12
AT4G19990	0.0	477539667256.8813	2.0940668777198636e-12
AT1G28520	0.0	480732832552.2157	2.080157485169027e-12
AT5G26630	0.0	484117722650.2678	2.0656132862180122e-12
AT4G37850	0.0	484866455320.0924	2.0624235581317622e-12
AT4G38900	0.0	485215609650.2626	2.0609394671387174e-12
AT1G49190	0.0	486632993723.3833	2.0549367036309705e-12
AT1G20700	0.0	488887650907.5121	2.0454597250385046e-12
AT3G22780	0.0	490104576517.0794	2.0403808654603566e-12
AT4G18020	0.0	491919978611.7847	2.032850958446605e-12
AT3G28920	0.0	493874842309.4697	2.0248044936319805e-12
AT5G63280	0.0	494709836002.3708	2.021386936796639e-12
AT1G68670	0.0	499059563011.4692	2.003768836660923e-12
AT1G52520	0.0	507066835649.88104	1.972126610722534e-12
AT1G76870	0.0	512138975513.3241	1.952594994352238e-12
AT1G10320	0.0	514301448290.5726	1.9443849581287102e-12
AT1G30490	0.0	520240706246.5942	1.9221871491270808e-12
AT5G60450	0.0	525483310101.1691	1.9030100115025046e-12
AT4G09820	0.0	529358558063.4666	1.8890787440147638e-12
AT4G39160	0.0	544700577756.3931	1.8358710103061996e-12
AT3G54320.2	0.0	549881820960.3676	1.8185725766556566e-12
AT3G30210	0.0	551898062762.0502	1.8119288098156419e-12
AT5G58890	0.0	554412769117.8556	1.803710260121052e-12
AT5G47670	0.0	554857049942.1592	1.8022660072612298e-12
AT2G06020	0.0	555523778586.3403	1.8001029632696064e-12
AT2G17150	0.0	560309293520.1703	1.7847285625363297e-12
AT5G22290	0.0	561518306623.7966	1.7808858379215324e-12
AT3G25730	0.0	561698805574.8671	1.7803135596426208e-12
AT2G31210	0.0	563596380450.7151	1.7743194148981005e-12
AT4G17980	0.0	563710478227.044	1.773960283912326e-12
AT3G57480	0.0	570881281699.0336	1.7516776816080583e-12
AT3G12130	0.0	575187108515.982	1.7385646951998997e-12
AT5G22220	0.0	581828374453.3192	1.7187198904480916e-12
AT1G74500	0.0	585982662745.6888	1.7065351307739815e-12
AT5G61600	0.0	587231760956.2771	1.702905167069899e-12
AT2G28450	0.0	606561731054.161	1.6486368143635956e-12
AT4G17490	0.0	610345073206.0848	1.6384174197509202e-12
AT5G28040	0.0	610850468615.0977	1.6370618529067692e-12
AT4G37740	0.0	624210809900.0985	1.6020228809559457e-12
AT1G74660	0.0	641383181732.0697	1.5591303739824881e-12
AT2G23660	0.0	645593250617.59	1.5489629097630374e-12
AT1G32730	0.0	648903774860.5607	1.5410605373884354e-12
AT5G02030	0.0	655655088664.6487	1.5251921586343018e-12
AT3G61850	0.0	659330904879.5493	1.5166891049687505e-12
AT3G12730	0.0	670903508872.7067	1.4905273064978621e-12
AT1G70510	0.0	683604830609.1129	1.4628334312807142e-12
AT3G23230	0.0	684687616827.8	1.460520061152941e-12
AT5G53210	0.0	685080599816.7698	1.4596822625942962e-12
AT1G23380.1	0.0	693858426641.5109	1.4412161928194905e-12
AT1G75410	0.0	695940862388.741	1.4369036997879522e-12
AT5G40430	0.0	697712415573.1879	1.4332552749236597e-12
AT3G15170	0.0	698063995255.403	1.432533416415678e-12
AT1G71200	0.0	700245651342.3302	1.4280702751713748e-12
AT5G12870	0.0	703981211336.7837	1.4204924561851713e-12
AT4G18960	0.0	705081512952.9976	1.418275733555735e-12
AT2G35530	0.0	709240309740.3444	1.4099593413776832e-12
AT1G13290	0.0	715260563098.8218	1.398091900478285e-12
AT4G05170	0.0	723631141386.7449	1.381919520604973e-12
AT1G61660	0.0	725444182879.2347	1.3784658056407226e-12
AT3G19860	0.0	725856574752.1913	1.3776826370159997e-12
AT4G26640	0.0	734273143766.1853	1.361891019016256e-12
AT5G23000	0.0	734756154248.9191	1.360995745618787e-12
AT1G54060	0.0	735060766705.2372	1.360431742918752e-12
AT1G46768	0.0	736445467423.0884	1.3578737927454707e-12
AT1G31310	0.0	744374705911.6696	1.343409430839344e-12
AT5G17490	0.0	745488432122.9901	1.3414024375297358e-12
AT3G54430	0.0	762471309154.5195	1.311524759021908e-12
AT1G43160	0.0	762553278798.5459	1.3113837784234138e-12
AT3G24310	0.0	772163670326.999	1.295062223759525e-12
AT4G29100	0.0	772899576845.6719	1.2938291467064347e-12
AT5G20730	0.0	773031924211.0259	1.2936076359596958e-12
AT4G22680	0.0	776052916486.3538	1.2885719243574084e-12
AT2G40140	0.0	780871352488.3821	1.280620676905775e-12
AT5G06950	0.0	781233677149.418	1.2800267439171609e-12
AT1G72650	0.0	781454458593.9113	1.2796651026847075e-12
AT2G18550	0.0	783343212482.8436	1.2765796448665872e-12
AT3G06160	0.0	785319919076.8622	1.2733664022879907e-12
AT5G51870	0.0	790370235183.6594	1.265229832152812e-12
AT2G37060	0.0	805317063533.7267	1.2417469407788352e-12
AT5G42700	0.0	809210374938.8105	1.2357725888964489e-12
AT3G04030	0.0	811190554983.2947	1.2327559706616574e-12
AT1G69540	0.0	813892889634.7386	1.2286629023737793e-12
AT3G24050	0.0	814972074196.5068	1.2270359091578875e-12
AT3G19500	0.0	816039937355.4083	1.2254302200462915e-12
AT1G60300	0.0	817834669645.2335	1.222741022257943e-12
AT1G63100	0.0	833316592593.9971	1.20002410714893e-12
AT2G30340	0.0	844638599325.0464	1.1839383149184793e-12
AT1G29600.1	0.0	859396266885.932	1.1636075679308605e-12
AT4G13480	0.0	864006177733.36	1.1573991318249683e-12
AT3G10490	0.0	875092844256.5121	1.142735889755344e-12
AT2G46310	0.0	876715663162.5775	1.1406206618833508e-12
AT3G19290	0.0	877984744787.9791	1.1389719535975376e-12
AT3G18650	0.0	887174625825.3448	1.1271738064754646e-12
AT3G21810	0.0	893578127728.3848	1.1190963262967908e-12
AT4G18770	0.0	894703853799.8951	1.117688267187966e-12
AT5G22890	0.0	895647972304.3346	1.1165100920478692e-12
AT1G77950	0.0	899056019477.678	1.1122777428051337e-12
AT1G19210	0.0	899329029952.6965	1.1119400872143521e-12
AT1G79430	0.0	902335134223.768	1.1082356899027855e-12
AT3G16350	0.0	919732447386.7218	1.087272720280062e-12
AT4G17500	0.0	926912217830.6648	1.078850813230609e-12
AT3G19070	0.0	939526511663.0894	1.0643659200525e-12
AT1G65910	0.0	966872414586.3484	1.0342626233967224e-12
AT1G79180	0.0	977808277565.0796	1.0226953718270638e-12
AT1G76890	0.0	988616296804.9677	1.0115147840793466e-12
AT4G36160	0.0	998144526809.9856	1.0018589223706355e-12
AT4G31610	0.0	998210479026.1344	1.0017927291001908e-12
AT5G52830	0.0	999042304318.1844	1.000958613742057e-12
AT1G09770	0.0	1005095446618.718	9.949303853321992e-13
AT4G36780	0.0	1005465426184.5312	9.945642823291587e-13
AT1G09540	0.0	1011855830151.975	9.882830836185483e-13
AT3G26620	0.0	1017395196239.1476	9.829022229479265e-13
AT1G59640	0.0	1024703585462.0432	9.758919693338398e-13
AT1G43950	0.0	1025667157250.3441	9.749751592717915e-13
AT1G10480	0.0	1042503885938.7352	9.592290383642436e-13
AT5G03720	0.0	1047175818605.4552	9.549494767093837e-13
AT5G12330	0.0	1049958273883.8782	9.52418800702357e-13
AT4G00232	0.0	1055359799053.7784	9.475441464575273e-13
AT1G69010	0.0	1058947280474.598	9.443340744515827e-13
AT2G40950	0.0	1060100665020.2882	9.433066434128328e-13
AT1G03790	0.0	1060274255490.5367	9.43152203141393e-13
AT5G40350	0.0	1076624927598.8068	9.288285774975476e-13
AT5G53290	0.0	1081968934990.9894	9.242409533766585e-13
AT1G25580	0.0	1090206544521.9856	9.172573812042764e-13
AT1G69580	0.0	1094837244986.7208	9.13377768777065e-13
AT5G03680	0.0	1095134598039.6624	9.131297666880789e-13
AT2G34440	0.0	1098509431466.2008	9.10324455444394e-13
AT1G21200	0.0	1111619481029.5603	8.995884086826362e-13
AT1G25330	0.0	1113227428095.1736	8.982890420792854e-13
AT2G41900	0.0	1126880522273.102	8.874055236866076e-13
AT1G75340	0.0	1133188217551.017	8.824659350598827e-13
AT5G56780	0.0	1138362638777.252	8.784546909182901e-13
AT5G45050	0.0	1160735762938.0583	8.615225203958535e-13
AT2G14210	0.0	1164585282182.7944	8.586747705807251e-13
AT1G77850	0.0	1166080683926.5571	8.575735914196677e-13
AT3G61970	0.0	1182817871236.434	8.454386971298216e-13
AT5G06100	0.0	1194366661960.0618	8.372638251296392e-13
AT2G36890	0.0	1195522339364.9165	8.364544660296506e-13
AT5G11050	0.0	1202627546385.9558	8.315126349842256e-13
AT3G49760	0.0	1207882989233.725	8.278947620865122e-13
AT1G09030	0.0	1209549005341.9521	8.26754431266131e-13
AT5G16600	0.0	1210920855685.93	8.258178024636852e-13
AT2G40740	0.0	1229638291954.3872	8.132472829962053e-13
AT2G44910	0.0	1232181913808.9363	8.115684776680315e-13
AT1G32540	0.0	1233011745260.1003	8.110222825079844e-13
AT5G18090	0.0	1243152081548.701	8.044068097880787e-13
AT4G36260	0.0	1255615420932.715	7.964222032707794e-13
AT3G55370	0.0	1258263406828.2742	7.947461513807485e-13
AT1G06170	0.0	1261752060155.7937	7.925487356656473e-13
AT5G52260	0.0	1264127335073.404	7.910595493466906e-13
AT1G36060	0.0	1267960433983.575	7.88668142315988e-13
AT1G69810	0.0	1275083916056.163	7.842621080916791e-13
AT3G10800	0.0	1289783162015.9858	7.753241238139266e-13
AT5G46880	0.0	1293458052306.4617	7.731213225019747e-13
AT2G20350	0.0	1295371050658.347	7.719795802845598e-13
AT5G10280	0.0	1306665626986.0132	7.653067313836244e-13
AT5G42780	0.0	1311996091980.9363	7.621973922880635e-13
AT2G22630	0.0	1322747809559.993	7.560020079206529e-13
AT4G15250	0.0	1328762774241.0698	7.525797827766175e-13
AT4G38180	0.0	1331150087837.2432	7.512300897825339e-13
AT1G28360	0.0	1332558872824.3357	7.504358872193895e-13
AT5G66350	0.0	1338382853940.3928	7.471703608992414e-13
AT5G49420	0.0	1338895793319.5205	7.468841152459691e-13
AT5G42630	0.0	1342155419579.0818	7.450701948613474e-13
AT2G20110	0.0	1348930318466.304	7.413281370508241e-13
AT3G57920	0.0	1353161167190.1785	7.390102703556643e-13
AT3G54390	0.0	1357292495920.9434	7.367608698974535e-13
AT5G17320	0.0	1361172868718.703	7.346605438450433e-13
AT2G34140	0.0	1361174890640.368	7.346594525627398e-13
AT2G24570	0.0	1371742574556.2031	7.289997544353596e-13
AT5G28530	0.0	1383768858304.7405	7.226640446476755e-13
AT2G35310	0.0	1391141864392.818	7.188339489994882e-13
AT5G58340	0.0	1402714926480.797	7.12903228675873e-13
AT5G15210	0.0	1404918944665.842	7.11784835557078e-13
AT5G25810	0.0	1407914684468.4055	7.102703104326068e-13
AT5G06770	0.0	1414191134192.249	7.071179954548189e-13
AT4G28530	0.0	1418458102864.4658	7.049908615422463e-13
AT1G64000	0.0	1423131229138.704	7.02675887876631e-13
AT5G60440	0.0	1423771245135.9087	7.023600198531493e-13
AT2G17040	0.0	1424417669542.094	7.020412772059117e-13
AT1G68200	0.0	1428759760824.3289	6.999077293603551e-13
AT4G33450	0.0	1432695460972.6665	6.979850409528717e-13
AT3G27810.2	0.0	1437162138794.6772	6.958157141814789e-13
AT1G51070	0.0	1458605141493.839	6.855865042240589e-13
AT5G62940	0.0	1460646042831.8132	6.846285620719307e-13
AT5G52660	1.0	1473624455680.0332	6.785989443548765e-13
AT4G00238	0.0	1479750201516.219	6.75789737332257e-13
AT3G50410	0.0	1487786375369.2527	6.721395064206114e-13
AT2G38300	0.0	1488784934994.87	6.716886882009225e-13
AT1G75520	0.0	1489290786211.041	6.714605430039196e-13
AT2G01060	0.0	1500847580417.5308	6.662901769957236e-13
AT4G21050	0.0	1516174440841.1428	6.595547141958284e-13
AT2G12940	0.0	1527635224700.7756	6.54606534224081e-13
AT2G33500	0.0	1566460031534.2952	6.38382071593958e-13
AT1G34650	0.0	1569482176951.8335	6.371528231955765e-13
AT1G67710	0.0	1573577536204.3943	6.354945828802862e-13
AT3G19580	0.0	1589481736971.585	6.291358854523768e-13
AT4G29230	0.0	1599769918687.6052	6.250898884386855e-13
AT5G57720	0.0	1606273875781.3245	6.225588394840696e-13
AT2G43000	0.0	1626020476441.6467	6.149984053019933e-13
AT5G44080	0.0	1639290308243.3855	6.100200769634087e-13
AT2G37590	0.0	1651486120765.491	6.055152310553379e-13
AT3G63350	0.0	1651739983615.3557	6.054221668783385e-13
AT4G29000	0.0	1656554572262.8884	6.036625757725439e-13
AT3G60580	0.0	1657647911752.3892	6.032644163517487e-13
AT3G04410	0.0	1678651579791.3018	5.957162356016279e-13
AT5G14750	0.0	1693524108850.9028	5.904846555024978e-13
AT2G47260	0.0	1701490054953.196	5.877201556887781e-13
AT1G19850	0.0	1703975769321.4124	5.868628052136198e-13
AT1G68240	0.0	1708259665835.4592	5.853910971497003e-13
AT4G21550	0.0	1709094843505.9883	5.8510503603687e-13
AT5G04640	0.0	1711117240353.3765	5.844134910320242e-13
AT4G16610	0.0	1716891231079.876	5.824480793527196e-13
AT3G05860	0.0	1718666117431.65	5.818465784933177e-13
AT2G26320	0.0	1720505681680.259	5.81224468275741e-13
AT3G19184	0.0	1721394216788.3032	5.809244566103825e-13
AT2G38880	0.0	1724308782046.568	5.799425314143028e-13
AT3G59470	0.0	1724351148625.2168	5.799282824715115e-13
AT5G14000	0.0	1728605457444.9807	5.785010082509408e-13
AT3G10580	0.0	1729065227839.8972	5.783471808344034e-13
AT5G35900	0.0	1752150697371.6584	5.707271649065722e-13
AT4G35040	0.0	1757623207384.7617	5.689501571203877e-13
AT5G47230	0.0	1762999604165.6863	5.672151018282477e-13
AT3G14020	0.0	1764963892136.8127	5.665838289696207e-13
AT5G04340	0.0	1785033897335.7915	5.602134511241077e-13
AT1G62990	0.0	1794777580041.4004	5.571721037304984e-13
AT5G67060	0.0	1798377040705.0068	5.560569209713531e-13
AT3G25790	0.0	1799669955122.2085	5.556574399399216e-13
AT1G65620	0.0	1799786202493.2358	5.556215502789745e-13
AT3G01530	0.0	1801297873883.0068	5.551552658219311e-13
AT3G53340	0.0	1812771904436.4348	5.516413827645271e-13
AT5G67110	0.0	1817163059932.1875	5.503083471426707e-13
AT3G62090	0.0	1844175862617.0813	5.422476349847101e-13
AT4G17750	0.0	1848869057147.1035	5.408711861634212e-13
AT2G38340	0.0	1852936685235.212	5.396838477905465e-13
AT4G28500	0.0	1853903661744.2544	5.394023544131441e-13
AT2G06200	0.0	1861725347885.785	5.371361576698848e-13
AT1G03490	0.0	1863353292520.512	5.366668811620391e-13
AT3G11440	0.0	1878167119003.576	5.324339830475416e-13
AT1G71930	0.0	1881824795501.7168	5.313990985719732e-13
AT5G21120	0.0	1892360487771.6863	5.284405410395835e-13
AT5G06650	0.0	1894367080257.6628	5.278807948161688e-13
AT4G35900	0.0	1922471828684.016	5.2016366902215e-13
AT4G35700	0.0	1923853932468.7864	5.197899815173336e-13
AT5G67000	0.0	1928103106998.2493	5.186444627211049e-13
AT5G07680	0.0	1939100817916.12	5.157029437358822e-13
AT1G28420	0.0	1947030003866.1497	5.136027683262892e-13
AT5G04400	0.0	1954259179055.1323	5.117028543181727e-13
AT5G46010	0.0	1964215966074.2075	5.091089866246512e-13
AT3G01970	0.0	1977716996832.3384	5.056335166263302e-13
AT5G61620	0.0	1982827758826.661	5.043302402583624e-13
AT1G07520	0.0	1986977028862.5232	5.032770814529577e-13
AT5G51990	0.0	1996818722217.7483	5.00796586527073e-13
AT1G66380	0.0	2024848450714.661	4.938641208664553e-13
AT5G56620	0.0	2030410099172.5127	4.925113406437187e-13
AT4G24660	0.0	2030417972922.875	4.925094307358088e-13
AT5G25830	0.0	2034909324039.4543	4.914223883032398e-13
AT2G45120	0.0	2035619089629.2	4.912510425426183e-13
AT4G02670	0.0	2041176729353.4385	4.899134825609928e-13
AT1G48000	0.0	2052100297247.644	4.873056162709194e-13
AT1G55950	0.0	2053020281734.4043	4.870872484295156e-13
AT1G49950	0.0	2062211386661.6472	4.849163410055755e-13
AT3G57670	0.0	2063635792309.5608	4.845816319559128e-13
AT3G60030	0.0	2063794984503.544	4.845442534305581e-13
AT4G25560	0.0	2069728085017.4932	4.831552546631014e-13
AT3G58190	0.0	2078707652948.5715	4.810681283544304e-13
AT5G18450	0.0	2087100946359.059	4.791335089682637e-13
AT1G31630	0.0	2087927076991.8025	4.789439300920212e-13
AT3G48920	0.0	2090125806155.7087	4.784401001388826e-13
AT1G34370	0.0	2090206080928.1567	4.784217255534677e-13
AT1G26310	0.0	2093418757506.0847	4.776875130283595e-13
AT3G30530	0.0	2094769062729.7656	4.773795917612349e-13
AT4G28110	0.0	2123251654579.6985	4.709757309469525e-13
AT5G64220	0.0	2123600488298.5305	4.708983660110284e-13
AT5G06800	0.0	2124273926546.224	4.707490816054321e-13
AT5G14340	0.0	2128138804062.1487	4.698941620213964e-13
AT3G53310	0.0	2130105517001.6128	4.69460311716212e-13
AT2G24645	0.0	2134100676192.7524	4.685814550155176e-13
AT5G66940	0.0	2136648254397.248	4.68022753835119e-13
AT5G56110	0.0	2164859103256.0183	4.619238261261288e-13
AT2G47460	0.0	2183434449796.2195	4.579940561500851e-13
AT1G77200	0.0	2190938968831.071	4.56425310894684e-13
AT5G19490	0.0	2192456795188.796	4.56109330042186e-13
AT4G28815	0.0	2193085086884.234	4.559786603723263e-13
AT4G36740	0.0	2200412308145.69	4.5446028287430835e-13
AT5G35550	0.0	2221488472463.336	4.5014863340305013e-13
AT1G10610	0.0	2224173205996.732	4.496052723339341e-13
AT5G61430	0.0	2225754948209.5254	4.4928575843645083e-13
AT2G41940	0.0	2240839939305.138	4.4626123555709644e-13
AT4G33280	0.0	2252826929652.0938	4.438867392953399e-13
AT5G27810	0.0	2258248938788.1924	4.4282097638740124e-13
AT5G65320	0.0	2269237755247.1543	4.406766094419599e-13
AT1G74650	0.0	2282932793287.3384	4.3803304369728606e-13
AT2G36610	0.0	2285043778306.5786	4.3762837696750356e-13
AT4G13980	0.0	2299619299620.581	4.348545866548398e-13
AT5G61890	0.0	2315603047092.7944	4.3185294701329977e-13
AT1G17310	0.0	2315964046517.795	4.317856322094318e-13
AT2G46130	0.0	2319860068146.8296	4.310604823672958e-13
AT1G26260	0.0	2320014967144.751	4.3103170201988085e-13
AT1G12260	0.0	2336845205435.5825	4.2792736021794063e-13
AT1G61110	0.0	2347176575167.6465	4.260437883453976e-13
AT4G37780	0.0	2364651950704.021	4.2289521707508493e-13
AT2G22800	0.0	2376087933519.1216	4.20859845249474e-13
AT2G44430	0.0	2376359001649.0645	4.2081183832327276e-13
AT3G24490	0.0	2376787506222.836	4.207359712981615e-13
AT1G60350	0.0	2379088319188.646	4.2032907813234765e-13
AT5G06420.2	0.0	2381390644408.426	4.199227045541768e-13
AT2G20280	0.0	2388139722118.925	4.187359687282995e-13
AT4G02235	0.0	2399501624671.87	4.1675320813202163e-13
AT5G06070	0.0	2400761115471.638	4.1653457045581415e-13
AT4G35550	0.0	2400795625831.205	4.16528582958318e-13
AT3G50890	0.0	2403340970705.319	4.160874433503814e-13
AT1G17040	0.0	2406858087587.3545	4.1547941906388195e-13
AT4G22950	0.0	2413443152290.725	4.143457860405155e-13
AT2G15740	0.0	2418898579141.8223	4.134112974487671e-13
AT1G80580	0.0	2419925151981.2207	4.1323592144215223e-13
AT3G53820	0.0	2422147437304.058	4.128567834471042e-13
AT1G64100	0.0	2447948745153.9067	4.085052850798673e-13
AT3G20840	0.0	2452606887913.976	4.0772942656559743e-13
AT3G62420	0.0	2470476088659.48	4.047802788257773e-13
AT2G35550	0.0	2490965942355.075	4.014506914753533e-13
AT4G36920	0.0	2513029828696.056	3.979260367629115e-13
AT5G17260	0.0	2533069557096.687	3.9477794725312003e-13
AT3G02310	0.0	2542955422840.7017	3.9324322833898254e-13
AT5G51910	0.0	2555876666673.9854	3.912551857603209e-13
AT5G10970	0.0	2580436614097.628	3.875313171952094e-13
AT5G09330	0.0	2580528997204.378	3.8751744354872676e-13
AT4G14540	0.0	2586177789128.155	3.8667101859888655e-13
AT5G13790	0.0	2590269283807.3267	3.8606024719180645e-13
AT1G15720	0.0	2592937555688.552	3.856629704815437e-13
AT1G80010	0.0	2617733971604.6094	3.8200978817837e-13
AT5G52020	0.0	2620094413250.369	3.8166563576594397e-13
AT1G66810	0.0	2627502144874.051	3.805896036853416e-13
AT5G17430	0.0	2627960331026.535	3.8052324770419175e-13
AT4G25610	0.0	2628792682922.962	3.8040276302355545e-13
AT2G33710	0.0	2632816634330.965	3.798213620198103e-13
AT1G23420	0.0	2642490867134.7207	3.7843082541447343e-13
AT2G42380	0.0	2651501995907.598	3.771447283628026e-13
AT2G42150	0.0	2663070631406.5366	3.7550637531225993e-13
AT5G25470	0.0	2670615821641.1733	3.7444547130162287e-13
AT1G33760	0.0	2677531339860.1064	3.734783548984518e-13
AT1G15360	0.0	2682846687196.5195	3.7273840684685744e-13
AT3G49930	0.0	2695970822300.67	3.7092389566242656e-13
AT3G29020	0.0	2698825408647.4165	3.7053156413744263e-13
AT5G65070	0.0	2699634574294.601	3.7042050413852555e-13
AT3G58630	0.0	2702234517855.6357	3.7006410561047537e-13
AT2G26960	0.0	2703158709098.829	3.6993758325547113e-13
AT3G66656	0.0	2746987881990.8774	3.6403509697146926e-13
AT2G41070	0.0	2751160456250.766	3.634829796015543e-13
AT4G31680	0.0	2754169640192.248	3.6308584097608364e-13
AT2G40470	0.0	2755868096184.039	3.6286206926400704e-13
AT4G24150	0.0	2758388114558.563	3.6253056439812656e-13
AT1G16640	0.0	2770226628512.9785	3.609812965146418e-13
AT4G28140	0.0	2775411762698.225	3.6030689695852947e-13
AT5G23260	0.0	2776614473683.547	3.601508273755296e-13
AT1G68520	0.0	2785062621500.1987	3.59058353762021e-13
AT4G31630	0.0	2790762767322.9424	3.5832497541855074e-13
AT2G24430	0.0	2792291086134.582	3.5812885159631323e-13
AT5G15800	0.0	2793566848556.481	3.5796530178496706e-13
AT5G06250	0.0	2799190671627.198	3.57246117649674e-13
AT3G57600	0.0	2816234720509.516	3.550840392377092e-13
AT4G21340	0.0	2844354635436.095	3.5157360040186427e-13
AT1G67100	0.0	2845232072029.527	3.514651791784042e-13
AT3G02990	0.0	2850194459646.9204	3.5085325375444e-13
AT1G07530	0.0	2867415711110.2617	3.487460838431413e-13
AT5G25160	0.0	2867811440409.552	3.4869796037119865e-13
AT3G13890	0.0	2874298739456.1577	3.4791094825070574e-13
AT1G76420	0.0	2880646689374.6484	3.4714427273866316e-13
AT1G25250	0.0	2895026075283.6064	3.454200321501549e-13
AT1G22130	0.0	2895445026845.8867	3.453700521778983e-13
AT5G42910	0.0	2909973663389.785	3.436457218087379e-13
AT5G63470	0.0	2913948989798.709	3.4317690649384995e-13
AT5G66700	0.0	2929906609137.4053	3.413078071776528e-13
AT5G10120	0.0	2932913937340.016	3.40957839665402e-13
AT4G38340	0.0	2939428476339.8096	3.4020218829927266e-13
AT5G46830	0.0	2944348446749.6846	3.3963371458426286e-13
AT3G17730	0.0	2949384991991.4536	3.3905373585182253e-13
AT4G01460	0.0	2956116911800.1187	3.3828161396737617e-13
AT5G60910	0.0	2957552534151.4795	3.381174090579255e-13
AT5G58010	0.0	2965329706792.261	3.372306282533917e-13
AT2G04880	0.0	2967722302686.8696	3.3695875085571036e-13
AT3G22830	0.0	2971323758125.667	3.365503329165339e-13
AT2G45650	0.0	2973780504152.4854	3.3627229669561495e-13
AT2G32930	0.0	2974643732062.3096	3.3617471202398534e-13
AT2G30470	0.0	2975344592843.6875	3.3609552399584393e-13
AT4G18870	0.0	2980335056707.0728	3.355327441287373e-13
AT1G02250	0.0	2986369671719.5776	3.348547266166788e-13
AT2G47190	0.0	3000853279459.5283	3.332385514629712e-13
AT1G16490	0.0	3002283771559.1685	3.3307977396176393e-13
AT5G62610	0.0	3003459158668.348	3.329494250367542e-13
AT3G56520	0.0	3004317896145.0435	3.3285425662947943e-13
AT1G42990	0.0	3009002939420.2407	3.3233599970915114e-13
AT1G77570	0.0	3013539173997.9663	3.3183573939519487e-13
AT3G03200	0.0	3019628771196.623	3.3116653594597937e-13
AT1G18860	0.0	3029426192372.812	3.3009551528857197e-13
AT1G80730	0.0	3035571108937.018	3.294273018529865e-13
AT2G42430	0.0	3044832498605.3057	3.2842529119682374e-13
AT1G18750	0.0	3047422486191.616	3.281461643507483e-13
AT1G66390	0.0	3048650921652.1167	3.280139398373897e-13
AT5G07700	0.0	3052234882901.9688	3.27628782962218e-13
AT3G12250	0.0	3056855824225.164	3.2713351806622244e-13
AT3G56560	0.0	3058490292030.2666	3.2695869678114515e-13
AT4G40060	0.0	3069564120165.1533	3.257791532780219e-13
AT3G53790	0.0	3069792299603.4453	3.257549379250119e-13
AT4G21610	0.0	3078097417727.8994	3.2487600757553375e-13
AT1G71692	0.0	3080818339830.6333	3.245890830599816e-13
AT1G63910	0.0	3089218494409.1816	3.2370646550568825e-13
AT3G03660	0.0	3092042025457.6187	3.2341086950524264e-13
AT2G36010	0.0	3093824548136.9834	3.23224534695147e-13
AT4G32800	0.0	3128452950509.5933	3.1964680812511826e-13
AT1G55580	0.0	3138031640152.3506	3.186711017201376e-13
AT5G06710	0.0	3155483088549.0327	3.169086862258622e-13
AT4G26930	0.0	3157057413255.431	3.1675065388463747e-13
AT3G21430.1	0.0	3166396014356.302	3.1581646624933945e-13
AT1G68640	0.0	3167742817301.8203	3.15682193181253e-13
AT5G06080	0.0	3169755633411.5186	3.1548173286901877e-13
AT5G39690	0.0	3171514896802.8765	3.153067327566629e-13
AT3G58780	0.0	3172352365168.1187	3.152234950252776e-13
AT2G27990	0.0	3173041531960.6987	3.151550302532838e-13
AT5G05550	0.0	3188856096866.112	3.1359207490822886e-13
AT2G25230	0.0	3194732174406.0117	3.130152843519433e-13
AT4G11140	0.0	3198195195318.0083	3.12676349918838e-13
AT1G33070	0.0	3207488430025.833	3.1177041533145795e-13
AT2G24260	0.0	3208118587526.5195	3.1170917555482465e-13
AT5G15480	0.0	3237839924912.293	3.088478810536281e-13
AT3G28470	0.0	3246488366018.6123	3.0802512969617304e-13
AT5G64530	0.0	3254062981801.1733	3.073081269762286e-13
AT2G30130	0.0	3265020076671.149	3.0627683031571123e-13
AT1G66550	0.0	3266263069937.8623	3.061602750874026e-13
AT1G29860	0.0	3271324766348.437	3.056865555773705e-13
AT1G12630	0.0	3272959035650.328	3.0553391872847033e-13
AT3G04450	0.0	3276391689435.132	3.052138128736389e-13
AT1G25340	0.0	3278623659080.2373	3.0500603423344207e-13
AT1G66470	0.0	3288158842640.21	3.041215609879282e-13
AT1G72830	0.0	3289168764704.0166	3.0402818205346397e-13
AT5G16770	0.0	3296157002197.666	3.033836068285777e-13
AT3G46070	0.0	3312639585612.255	3.0187407176539436e-13
AT1G71450	0.0	3317934769562.8257	3.0139230257735323e-13
AT4G34680	0.0	3321683015499.8813	3.0105220616588837e-13
AT2G12900	0.0	3322382709018.828	3.009888045966028e-13
AT3G02940	0.0	3323519920540.585	3.008858150118582e-13
AT3G25990	0.0	3326561048303.9614	3.006107464974519e-13
AT3G10040	0.0	3334840546464.0127	2.9986441212618597e-13
AT5G46590	0.0	3336495900033.3047	2.9971563879039026e-13
AT1G07540	0.0	3345813352359.971	2.9888098787538445e-13
AT3G53600	0.0	3358252571268.7324	2.977739103233098e-13
AT3G23130	0.0	3362945881954.1694	2.9735833852280474e-13
AT2G19510	0.0	3379229973450.938	2.959254054493307e-13
AT2G32370	0.0	3392006793789.7163	2.948107302823975e-13
AT5G41090	0.0	3400039171649.0137	2.941142585469101e-13
AT1G31320	0.0	3422873852441.5054	2.921521630973075e-13
AT5G67450	0.0	3432876533834.614	2.913008930393933e-13
AT1G27740	0.0	3433278833975.2	2.9126675937420334e-13
AT2G27110	0.0	3436140541451.1084	2.9102418481919614e-13
AT2G35430	0.0	3442103806985.5493	2.9052000057945906e-13
AT3G58070	0.0	3467769344931.7583	2.883698137136854e-13
AT1G17590	0.0	3472879425972.8584	2.8794549920772725e-13
AT1G03840	0.0	3482516661468.93	2.871486620765222e-13
AT1G52890	0.0	3484739694991.6235	2.869654802157048e-13
AT3G54340	0.0	3488465677580.7417	2.86658976302012e-13
AT5G65590	0.0	3492334019092.7427	2.863414537478249e-13
AT5G66980	0.0	3499365272685.237	2.857661095872539e-13
AT5G35770	0.0	3501980472753.5884	2.8555270589892966e-13
AT3G03260	0.0	3508960708898.584	2.8498466724464597e-13
AT3G12910	0.0	3510990794570.3228	2.8481988661049183e-13
AT4G25210	0.0	3511784895743.3936	2.8475548180986027e-13
AT4G36060	0.0	3517551389228.913	2.842886682656856e-13
AT5G60470	0.0	3519891568189.542	2.8409966063652084e-13
AT2G24830	0.0	3523358301906.996	2.8382012679742396e-13
AT5G57390	0.0	3534239270644.665	2.829463212369304e-13
AT1G14687	0.0	3538935457541.188	2.825708499060304e-13
AT5G25390	0.0	3540646266785.053	2.8243431414796805e-13
AT1G01530	0.0	3551025566800.512	2.8160878630367167e-13
AT3G13540	0.0	3554981647154.7324	2.8129540438003685e-13
AT5G03740	0.0	3576562929773.2847	2.795980441656563e-13
AT3G53370	0.0	3578975163686.953	2.794095947203584e-13
AT2G33880	0.0	3587173364702.5723	2.7877102619011955e-13
AT3G01080	0.0	3588957237367.386	2.7863246449086465e-13
AT3G26790	0.0	3589463734774.6104	2.7859314758135926e-13
AT3G23240	0.0	3600272678038.6465	2.777567393991888e-13
AT2G40210	0.0	3604115180927.052	2.7746061094051374e-13
AT5G62165	0.0	3611403816927.353	2.769006321898441e-13
AT3G22170	0.0	3616619303004.6514	2.7650131689813465e-13
AT4G16150	0.0	3626520532936.6655	2.75746405105895e-13
AT2G37740	0.0	3631251692772.766	2.7538713496238423e-13
AT1G34670	0.0	3659072078704.232	2.732933318859695e-13
AT5G48670	0.0	3659095399148.9062	2.732915901106587e-13
AT1G20980	0.0	3662501247468.366	2.7303744966400514e-13
AT2G26950	0.0	3669190783027.6177	2.7253965768846014e-13
AT5G18000	0.0	3669970945057.18	2.724817212372834e-13
AT5G49240	0.0	3678456948469.1416	2.7185312048199143e-13
AT3G44350	0.0	3684737647876.4976	2.7138974210994285e-13
AT4G31060	0.0	3686436534445.687	2.712646727147211e-13
AT5G38800	0.0	3686799812419.272	2.7123794371243653e-13
AT5G53660	0.0	3687760856309.516	2.71167258117908e-13
AT4G34410	0.0	3688300051607.866	2.7112761597692225e-13
AT1G28370	0.0	3690269733102.0312	2.709829016101223e-13
AT5G39820	0.0	3691184466403.726	2.7091574780446756e-13
AT2G34820	0.0	3693295966296.885	2.7076086214738396e-13
AT5G06839	0.0	3694657137259.132	2.7066110950198925e-13
AT4G23810	0.0	3707699050824.544	2.6970905305208444e-13
AT4G11880	0.0	3716622762939.866	2.69061474296357e-13
AT1G22810	0.0	3719993474054.7534	2.688176758842565e-13
AT1G50680	0.0	3720099578445.783	2.688100086873989e-13
AT3G26744	0.0	3726398717545.3857	2.6835560974503273e-13
AT1G60040	0.0	3728098578239.7485	2.682332505467594e-13
AT4G25410	0.0	3749295663575.735	2.667167622214919e-13
AT1G19000	0.0	3756197229889.317	2.66226701846928e-13
AT1G77640	0.0	3760660473985.5415	2.659107374668689e-13
AT5G53950	0.0	3765602649495.0703	2.655617421912771e-13
AT3G11580	0.0	3768907765766.125	2.653288597516859e-13
AT4G34400	0.0	3771893542370.924	2.6511882924761007e-13
AT1G12610	0.0	3777048010249.575	2.647570264625583e-13
AT3G12720	0.0	3777786447495.455	2.6470527487411743e-13
AT5G07500	0.0	3786022964645.07	2.641294068573479e-13
AT5G66300	0.0	3789447436130.445	2.638907167481757e-13
AT5G13180	0.0	3789757768965.205	2.6386910746357554e-13
AT1G65330	0.0	3790676930979.585	2.6380512457482904e-13
AT1G34180	0.0	3800155465311.127	2.6314712888150953e-13
AT3G62610	0.0	3810193363857.9526	2.624538716290938e-13
AT1G29570	0.0	3825523134735.0674	2.6140215724228106e-13
AT5G45980	0.0	3825667270754.213	2.613923086423704e-13
AT2G20400	0.0	3826640283582.024	2.6132584353184215e-13
AT4G22070	0.0	3830870601350.714	2.6103726908640907e-13
AT1G28160	0.0	3836969178642.4087	2.6062236975117395e-13
AT2G33720	0.0	3840135288445.8413	2.604074921549742e-13
AT2G13570	0.0	3840918055396.169	2.603544219317784e-13
AT3G01220	0.0	3844459899196.3086	2.601145612701154e-13
AT1G24260	0.0	3845821799167.835	2.600224483142671e-13
AT1G74480	0.0	3845930282903.575	2.6001511375422714e-13
AT4G36870	0.0	3848474208428.2334	2.5984323808380486e-13
AT3G23220	0.0	3858177930809.3984	2.591897050715368e-13
AT2G37430	0.0	3860207632406.5684	2.590534228275618e-13
AT2G37000	0.0	3860703084286.8975	2.590201779748385e-13
AT1G28460	0.0	3869531643087.3086	2.584292085545912e-13
AT4G38000	0.0	3872485557040.733	2.5823207995749833e-13
AT1G69560	0.0	3878325164903.4487	2.578432590050492e-13
AT4G12350	0.0	3884922974193.2485	2.574053608379873e-13
AT5G01860	0.0	3885675405058.16	2.5735551628894544e-13
AT1G68320	0.0	3895186241399.7866	2.567271339612857e-13
AT3G61910	0.0	3895684681682.689	2.566942865530029e-13
AT3G56660	0.0	3899077144782.225	2.564709450127725e-13
AT1G79580	0.0	3903957698119.957	2.5615031650613774e-13
AT1G36000	0.0	3907294544867.9785	2.5593156300782245e-13
AT5G62320	0.0	3915437598342.7217	2.553992944296361e-13
AT2G03060	0.0	3925522337642.235	2.5474316893089557e-13
AT1G61730	0.0	3927881192299.3833	2.545901851513486e-13
AT4G18450	0.0	3934584023200.132	2.5415647349339506e-13
AT2G16910	0.0	3936407825858.0215	2.540387186081334e-13
AT2G25820	0.0	3939052728279.689	2.5386814266808057e-13
AT1G51190	0.0	3940816654593.482	2.537545102065033e-13
AT5G64060	0.0	3943439017757.283	2.535857649876176e-13
AT1G72350	0.0	3952368664039.2856	2.5301283483459483e-13
AT4G09960	0.0	3952982458152.085	2.5297354860195194e-13
AT5G57620	0.0	3953203439588.082	2.529594075492858e-13
AT5G45420	0.0	3954554060645.781	2.5287301290216763e-13
AT1G33280	0.0	3957501937954.1714	2.5268465200473143e-13
AT4G14410	0.0	3958537040936.752	2.5261857844416154e-13
AT1G63030	0.0	3959898166684.5337	2.5253174650126434e-13
AT5G22570	0.0	3960635662381.14	2.524847234746148e-13
AT4G03170	0.0	3964791932376.292	2.522200451009926e-13
AT3G27650	0.0	3964890340839.544	2.5221378500678924e-13
AT5G62110	0.0	3966649666829.2095	2.521019207626073e-13
AT4G22700	0.0	3970108319905.375	2.5188229625529066e-13
AT3G57980	0.0	3970490002583.5054	2.5185808284350883e-13
AT5G24590	0.0	3971475103162.323	2.517956109566798e-13
AT5G65510	0.0	3973655217222.6816	2.5165746531450027e-13
AT5G58280	0.0	3979904366145.8257	2.512623188904433e-13
AT2G04038	0.0	3981742145904.9062	2.511463483461549e-13
AT1G74930	0.0	3984296241840.7407	2.5098535332252327e-13
AT3G50870	0.0	3985950200184.109	2.508812076863907e-13
AT1G66370	0.0	3989741218284.6934	2.506428225011369e-13
AT3G24650	0.0	3990717145853.436	2.5058152794393166e-13
AT1G60240	0.0	4001475231529.761	2.499078320216668e-13
AT5G58080	0.0	4002477829094.448	2.4984523155403655e-13
AT1G34410	0.0	4005028399647.8	2.496861196010344e-13
AT3G46770	0.0	4017946177609.0186	2.488833736929437e-13
AT5G67010	0.0	4018455291370.209	2.488518416884068e-13
AT3G15500	0.0	4034736561048.3267	2.478476561900177e-13
AT5G17800	0.0	4036728349071.192	2.477253640884924e-13
AT5G56200	0.0	4040152646923.1562	2.4751540038012333e-13
AT2G47520	0.0	4044138933155.681	2.4727142576669346e-13
AT5G27580	0.0	4046122171443.364	2.4715022375196155e-13
AT4G26170	0.0	4046159577379.18	2.4714793889758797e-13
AT2G32460	0.0	4047394102599.25	2.470725545006345e-13
AT2G18380	0.0	4050824656824.7437	2.468633141933757e-13
AT2G03500	0.0	4060865467221.653	2.462529251638016e-13
AT5G15060	0.0	4061827956805.595	2.4619457314150873e-13
AT2G44840	0.0	4073339598783.024	2.4549880405227354e-13
AT1G73410	0.0	4085839249513.379	2.4474775901159095e-13
AT1G63650	0.0	4086040053910.33	2.4473573112505406e-13
AT2G42440	0.0	4093562403142.2163	2.4428600361201296e-13
AT1G77980	0.0	4093612666864.759	2.442830041284502e-13
AT2G42660	0.0	4106619644108.3096	2.435092817604088e-13
AT3G08500	0.0	4106657421982.0215	2.435070416751159e-13
AT5G01310	0.0	4107186336541.225	2.4347568336578747e-13
AT1G19040	0.0	4117900321957.884	2.4284220641954326e-13
AT5G58850	0.0	4120979304267.8735	2.426607672997422e-13
AT1G21970	0.0	4124653375477.415	2.4244461509065674e-13
AT2G26150	0.0	4125373294579.1777	2.4240230606864593e-13
AT2G17180	0.0	4127154506992.932	2.4229768919618314e-13
AT3G16160	0.0	4129669289053.6953	2.4215014084799703e-13
AT1G54330	0.0	4131097735503.669	2.420664104375344e-13
AT5G04390	0.0	4131704608881.781	2.420308552190142e-13
AT1G26870	0.0	4137371626729.8037	2.416993420507416e-13
AT5G03790	0.0	4148391570932.777	2.410572827808411e-13
AT1G69120	0.0	4155089068979.326	2.406687277694493e-13
AT4G00870	0.0	4155469824915.3193	2.4064667585942055e-13
AT2G41690	0.0	4158732587301.4414	2.4045787484712734e-13
AT2G28710	0.0	4158973870973.902	2.404439246370719e-13
AT1G08970	0.0	4160370959869.082	2.4036318146770927e-13
AT1G54160	0.0	4165695464120.77	2.400559543089558e-13
AT3G44460	0.0	4165873449571.8086	2.40045698004289e-13
AT5G44160	0.0	4170172065771.04	2.3979825873566345e-13
AT5G48150	0.0	4171431687578.048	2.397258483167453e-13
AT1G62700	0.0	4175288469836.412	2.3950440962925374e-13
AT5G07210	0.0	4175797793567.1353	2.394751971804074e-13
AT3G20880	0.0	4181428578643.603	2.3915271567890467e-13
AT5G43410	0.0	4183723108184.871	2.390215542810755e-13
AT3G09735	0.0	4188595390417.1694	2.387435182419001e-13
AT5G65230	0.0	4194148274656.9287	2.384274313911321e-13
AT5G52170	0.0	4198402418161.273	2.3818583842135807e-13
AT5G54680	0.0	4202442042382.5527	2.3795688076475057e-13
AT1G75430	0.0	4204693082775.6313	2.3782948726899064e-13
AT2G46590	0.0	4204693082775.6313	2.3782948726899064e-13
AT4G21080	0.0	4205614194574.375	2.3777739795773255e-13
AT1G16530	0.0	4205959646177.7637	2.377578683877214e-13
AT1G31640	0.0	4212321893992.114	2.373987613402159e-13
AT1G59530	0.0	4213474696986.675	2.3733380924659736e-13
AT5G50480	0.0	4216139757506.905	2.371837883740651e-13
AT3G49950	0.0	4216960002156.444	2.3713765354393355e-13
AT2G22750	0.0	4219985573736.5117	2.369676347292741e-13
AT4G00220	0.0	4220857617086.143	2.3691867642063394e-13
AT5G61850	0.0	4220973043589.9214	2.369121976551416e-13
AT2G36270	0.0	4227093660071.793	2.3656916085058216e-13
AT5G09780	0.0	4228904031223.7935	2.3646788686065597e-13
AT2G47070.2	0.0	4233130240565.504	2.3623180558375875e-13
AT2G32250	0.0	4234633856665.9697	2.361479253810445e-13
AT2G01570	0.0	4237950781109.5664	2.3596309906604984e-13
AT1G69180	0.0	4238542352617.678	2.3593016579919526e-13
AT2G34830	0.0	4239185427563.6855	2.358943757208358e-13
AT3G17010	0.0	4239301187961.3237	2.358879342755307e-13
AT4G08250	0.0	4241333769312.916	2.3577488931317875e-13
AT1G10585	0.0	4242435578204.3887	2.357136558861431e-13
AT5G62380	0.0	4245014651055.489	2.3557044726603194e-13
AT5G65080	0.0	4248890885514.003	2.3535553793799685e-13
AT1G60280	0.0	4249599422435.261	2.3531629704216766e-13
AT5G23650	0.0	4250990960489.944	2.352392675718007e-13
AT2G44745	0.0	4257334033540.362	2.3488878065985553e-13
AT2G18060	0.0	4259423986397.3833	2.3477352881364577e-13
AT5G07160	0.0	4264122424618.78	2.345148427790278e-13
AT2G40220	0.0	4269884010956.629	2.341983991682151e-13
AT2G21900	0.0	4270452699675.609	2.34167211376902e-13
AT5G24110	0.0	4277086819882.9517	2.3380399840173606e-13
AT3G13840	0.0	4278846724436.4624	2.337078340032624e-13
AT4G04890	0.0	4284025712217.198	2.33425303015385e-13
AT2G28700	0.0	4284323631001.773	2.334090713324981e-13
AT1G17920	0.0	4285204515146.6934	2.333610908103338e-13
AT4G00390	0.0	4289053321559.0127	2.331516829071534e-13
AT1G26610	0.0	4291516729271.4976	2.330178496519001e-13
AT3G16280	0.0	4304016823458.552	2.323410992609542e-13
AT3G06120	0.0	4307395875492.213	2.321588330642417e-13
AT4G26440	0.0	4309125074104.7256	2.320656705950366e-13
AT2G20880	0.0	4316944742328.313	2.31645309284329e-13
AT2G46770	0.0	4317973321784.737	2.3159012932175147e-13
AT5G49520	0.0	4319067180414.576	2.315314761795422e-13
AT5G06500	0.0	4320708314714.7236	2.314435335971124e-13
AT2G24790	0.0	4326794557311.6494	2.311179758489218e-13
AT3G27785.1	0.0	4328711537320.135	2.310156247138359e-13
AT5G22380	0.0	4332051302964.9717	2.308375247808292e-13
AT5G27910	0.0	4334152582100.03	2.3072561038344187e-13
AT4G39410	0.0	4337299244745.2495	2.3055822150420585e-13
AT2G17950	0.0	4337756355561.2095	2.305339253824048e-13
AT5G06510	0.0	4339663507095.75	2.304326126587713e-13
AT5G50470	0.0	4340983165011.1226	2.3036256119584324e-13
AT5G57520	0.0	4347533145949.522	2.3001549762344486e-13
AT2G22760	0.0	4350267519559.3364	2.298709206971473e-13
AT5G04410	0.0	4351916547425.02	2.297838180264943e-13
AT1G75490	0.0	4352610310622.346	2.2974719274995646e-13
AT3G10590	0.0	4357049521218.257	2.2951311320427546e-13
AT1G69170	0.0	4358451314423.084	2.294392957174439e-13
AT4G04450	0.0	4359420954733.797	2.29388262887098e-13
AT5G05660	0.0	4362724051827.8535	2.292145888945301e-13
AT5G46350	0.0	4363130500412.6143	2.2919323634840435e-13
AT4G37730	0.0	4366278053425.152	2.290280160274136e-13
AT1G65360	0.0	4370870947814.422	2.2878735426861154e-13
AT3G60490	0.0	4374468774854.1313	2.2859918574532413e-13
AT3G06220	0.0	4378239418214.397	2.284023107187308e-13
AT1G26680	0.0	4378291986039.199	2.2839956841358247e-13
AT2G16210	0.0	4378751972454.987	2.2837557511606237e-13
AT1G80590	0.0	4379067410331.301	2.2835912451147775e-13
AT5G62000.1	0.0	4382288372028.277	2.281912816105173e-13
AT4G10350	0.0	4382603979717.213	2.2817484870365243e-13
