	Precision	Recall
0	0.0004892367906066536	1.0
1	0.0011316057485572027	0.9090909090909091
2	0.0013395847287340924	0.9090909090909091
3	0.0016015374759769379	0.9090909090909091
4	0.001602307322544464	0.9090909090909091
5	0.00199203187250996	0.9090909090909091
6	0.0025113008538422904	0.9090909090909091
7	0.002663115845539281	0.7272727272727273
8	0.003233256351039261	0.6363636363636364
9	0.004081632653061225	0.5454545454545454
10	0.005387931034482759	0.45454545454545453
11	0.005393743257820928	0.45454545454545453
12	0.00927643784786642	0.45454545454545453
13	0.00929368029739777	0.45454545454545453
14	0.007326007326007326	0.18181818181818182
15	0.0	0.0
16	0.0	0.0
17	0.0	0.0
18	0.0	0.0
19	1.0	0.0
