genes	class	reg_score	reg_score_rerank
AT1G26790	0.0	0.97626777117908	0.97626777117908
AT2G46830	1.0	0.9167158867337979	0.9167158867337979
AT1G71030	0.0	0.8887222447110426	0.8887222447110426
AT3G02380	0.0	0.882075896818694	0.882075896818694
AT1G01060	1.0	0.8653670368681391	0.8653670368681391
AT5G24470	1.0	0.8434688291936574	0.8434688291936574
AT5G39660	0.0	0.8393523658186369	0.8393523658186369
AT5G02810	1.0	0.8279350200238903	0.8279350200238903
AT5G17300	0.0	0.8010261540823074	0.8010261540823074
AT5G62430	0.0	0.7796014876864474	0.7796014876864474
AT2G31380	0.0	0.7787843566580148	0.7787843566580148
AT2G43010	0.0	0.7576765623163901	0.7576765623163901
AT3G56980	0.0	0.7527237278702786	0.7527237278702786
AT4G25480	0.0	0.7451926154391225	0.7451926154391225
AT5G15850	0.0	0.7448899742426586	0.7448899742426586
AT1G78600	0.0	0.7172007936478332	0.7172007936478332
AT3G17609	0.0	0.7111903425954288	0.7111903425954288
AT2G21320	0.0	0.7058223148530954	0.7058223148530954
AT1G18330	0.0	0.7023465387458494	0.7023465387458494
AT3G47500	0.0	0.7019367930495299	0.7019367930495299
AT5G57660	0.0	0.6995127500198602	0.6995127500198602
AT3G07650	0.0	0.6859923994549162	0.6859923994549162
AT4G38960	0.0	0.6804786576333839	0.6804786576333839
AT1G49720	0.0	0.6784451060041357	0.6784451060041357
AT3G61890	0.0	0.6768008668265605	0.6768008668265605
AT1G73870	0.0	0.6740599573756754	0.6740599573756754
AT2G46790	1.0	0.6720164570293758	0.6720164570293758
AT3G46640	1.0	0.6704672292163445	0.6704672292163445
AT5G44260	0.0	0.6676180580601689	0.6676180580601689
AT3G09600.1	1.0	0.6603218972272696	0.6603218972272696
AT2G25900	0.0	0.6578923594914967	0.6578923594914967
AT5G37260	0.0	0.640616096219116	0.640616096219116
AT5G48250.1	0.0	0.6307311700799922	0.6307311700799922
AT4G29190	0.0	0.628683528037573	0.628683528037573
AT3G50700	0.0	0.5939627837605345	0.5939627837605345
AT1G51140	0.0	0.5905327977352947	0.5905327977352947
AT2G28200	0.0	0.576056904858405	0.576056904858405
AT3G59060	0.0	0.570787908890479	0.570787908890479
AT1G79700	0.0	0.5531089912705119	0.5531089912705119
AT4G34590	0.0	0.5526170061117445	0.5526170061117445
AT5G61380	1.0	0.5505397657716026	0.5505397657716026
AT5G25190	0.0	0.5481212030221797	0.5481212030221797
AT1G21910	0.0	0.5413499065207372	0.5413499065207372
AT5G04150	0.0	0.5410170721303462	0.5410170721303462
AT2G47890	0.0	0.5312466143659299	0.5312466143659299
AT1G28050	0.0	0.5238400899450766	0.5238400899450766
AT3G47640	0.0	0.5145638496796384	0.5145638496796384
AT4G00050	0.0	0.5137351434731714	0.5137351434731714
AT5G07690	0.0	0.5116460470424647	0.5116460470424647
AT1G22070	0.0	0.5031511635726749	0.5031511635726749
AT5G15830	0.0	0.5004972272939973	0.5004972272939973
AT1G05805	0.0	0.4903315234974562	0.4903315234974562
AT1G67970	0.0	0.4865056456189872	0.4865056456189872
AT1G75250	0.0	0.4827711770276502	0.4827711770276502
AT5G63420.2	0.0	0.4818037960886193	0.4818037960886193
AT5G39860	0.0	0.4762414790260897	0.4762414790260897
AT4G26150	0.0	0.4687798683246328	0.4687798683246328
AT3G25890	0.0	0.4653308423563266	0.4653308423563266
AT5G15160	0.0	0.4550518942602683	0.4550518942602683
AT5G05090	0.0	0.4545041104507448	0.4545041104507448
AT1G02340	0.0	0.4398783863009797	0.4398783863009797
AT1G13260	0.0	0.437021553264736	0.437021553264736
AT2G28350	0.0	0.4292787049929908	0.4292787049929908
AT1G68840	0.0	0.4270796957923011	0.4270796957923011
AT1G70000	0.0	0.4266758861670847	0.4266758861670847
AT4G32980	0.0	0.4229761706345281	0.4229761706345281
AT5G39610	0.0	0.42213798847087736	0.42213798847087736
AT5G59780	0.0	0.41994203726653134	0.41994203726653134
AT4G34000	0.0	0.4197269901223746	0.4197269901223746
AT5G44190	0.0	0.41957138247835934	0.41957138247835934
AT2G46530	0.0	0.4182860735285321	0.4182860735285321
AT1G06040	0.0	0.4179759934228206	0.4179759934228206
AT2G03710	0.0	0.4163845793867621	0.4163845793867621
AT1G77450	0.0	0.40793570175359295	0.40793570175359295
AT3G24520	0.0	0.4055628757632105	0.4055628757632105
AT3G02150	0.0	0.40373616719266997	0.40373616719266997
AT2G19810	0.0	0.4005482278100404	0.4005482278100404
AT4G01550	0.0	0.39963644789173297	0.39963644789173297
AT2G22840	0.0	0.3990712447913787	0.3990712447913787
AT3G02830	0.0	0.397855364001012	0.397855364001012
AT3G01140	0.0	0.3978344359070358	0.3978344359070358
AT3G50750	0.0	0.3919166323369435	0.3919166323369435
AT1G69690	0.0	0.38772794304066416	0.38772794304066416
AT1G01520	0.0	0.3853996184667167	0.3853996184667167
AT1G17460	0.0	0.3852251301470451	0.3852251301470451
AT1G66230	0.0	0.3834000484323031	0.3834000484323031
AT4G34610	0.0	0.3826606584532158	0.3826606584532158
AT5G05410	0.0	0.3814380764243167	0.3814380764243167
AT1G25560	0.0	0.3803809113086463	0.3803809113086463
AT3G57230	0.0	0.3800779830370683	0.3800779830370683
AT1G18710	0.0	0.3796378490997704	0.3796378490997704
AT5G58900	0.0	0.37750753418245775	0.37750753418245775
AT1G06180	0.0	0.3773983568046449	0.3773983568046449
AT4G12750	0.0	0.3757872948165231	0.3757872948165231
AT4G27410	0.0	0.3756636702391673	0.3756636702391673
AT5G61590	0.0	0.3743648692993445	0.3743648692993445
AT5G11060	0.0	0.3722659422955048	0.3722659422955048
AT4G37260	0.0	0.3711373766276377	0.3711373766276377
AT5G28770	0.0	0.3708573843766636	0.3708573843766636
AT5G46690	0.0	0.3704602700222739	0.3704602700222739
AT1G72360	0.0	0.3701395040227727	0.3701395040227727
AT4G17230	0.0	0.3699836589801817	0.3699836589801817
AT2G02080	0.0	0.3692266082935611	0.3692266082935611
AT3G60390	0.0	0.3687746445462276	0.3687746445462276
AT4G17460	0.0	0.3685029565668384	0.3685029565668384
AT3G56400	0.0	0.3674759767747983	0.3674759767747983
AT5G57150	0.0	0.3668260823752871	0.3668260823752871
AT5G49330	0.0	0.3658141361019388	0.3658141361019388
AT4G25470	0.0	0.3644759285874695	0.3644759285874695
AT1G22640	0.0	0.3639401012983845	0.3639401012983845
AT2G03340	0.0	0.36301563749760135	0.36301563749760135
AT2G42280	0.0	0.3621737485225066	0.3621737485225066
AT4G38620	0.0	0.3616694625811264	0.3616694625811264
AT3G58120	0.0	0.36158507290845504	0.36158507290845504
AT5G47640	0.0	0.3586173758358528	0.3586173758358528
AT1G14440	0.0	0.35716063576930857	0.35716063576930857
AT5G53980	0.0	0.3569740207911604	0.3569740207911604
AT1G77920	0.0	0.3554181381243283	0.3554181381243283
AT5G39760	0.0	0.3550765323338063	0.3550765323338063
AT1G24625	0.0	0.3532099266523995	0.3532099266523995
AT1G06160	0.0	0.35200452569553475	0.35200452569553475
AT3G29035	0.0	0.34852616291297145	0.34852616291297145
AT5G47220	0.0	0.34706292245553216	0.34706292245553216
AT5G41410	0.0	0.3468916810092718	0.3468916810092718
AT4G39780	0.0	0.34643344267281273	0.34643344267281273
AT2G45160	0.0	0.3449521679254153	0.3449521679254153
AT3G44750	0.0	0.3442607300114377	0.3442607300114377
AT1G49010	0.0	0.3426863370527309	0.3426863370527309
AT4G24060	0.0	0.34101423753676063	0.34101423753676063
AT4G18390	0.0	0.3395855073974061	0.3395855073974061
AT4G17880	0.0	0.3369368119923461	0.3369368119923461
AT1G76320	0.0	0.33678259846473113	0.33678259846473113
AT1G79840	0.0	0.3362991231370255	0.3362991231370255
AT3G60530	0.0	0.3361060864077908	0.3361060864077908
AT5G08520	0.0	0.3352975617825633	0.3352975617825633
AT5G16820	0.0	0.3332879137732767	0.3332879137732767
AT1G01720	0.0	0.3330830725470355	0.3330830725470355
AT1G07640	0.0	0.3328898863536794	0.3328898863536794
AT3G50260	0.0	0.3325600988003983	0.3325600988003983
AT2G40970	0.0	0.3302178296887743	0.3302178296887743
AT3G04070	0.0	0.329990244342491	0.329990244342491
AT2G44730	0.0	0.3294351894788426	0.3294351894788426
AT5G62470	0.0	0.3288833209036072	0.3288833209036072
AT5G60890	0.0	0.3286370892588649	0.3286370892588649
AT2G34720	0.0	0.32795179597741525	0.32795179597741525
AT2G23290	0.0	0.32779555094642404	0.32779555094642404
AT2G45660	0.0	0.3276218617535109	0.3276218617535109
AT1G14350	0.0	0.3263683675057946	0.3263683675057946
AT2G26580	0.0	0.3263645477762346	0.3263645477762346
AT4G37750	0.0	0.324364712476212	0.324364712476212
AT1G56170	0.0	0.3233409202952246	0.3233409202952246
AT4G36730	0.0	0.3209259428644692	0.3209259428644692
AT3G54990	0.0	0.3204129085200053	0.3204129085200053
AT2G22540.2	0.0	0.32033378846252275	0.32033378846252275
AT5G13910	0.0	0.3181833892638878	0.3181833892638878
AT2G30420	0.0	0.31574173720063275	0.31574173720063275
AT4G37790	0.0	0.31463660759797457	0.31463660759797457
AT2G38090	0.0	0.3132073233420054	0.3132073233420054
AT1G04990	0.0	0.3125284077049476	0.3125284077049476
AT2G28510	0.0	0.3117613092880089	0.3117613092880089
AT1G74250	0.0	0.31164270134207783	0.31164270134207783
AT4G01680	0.0	0.31005842387972826	0.31005842387972826
AT4G00940	0.0	0.3099672768980147	0.3099672768980147
AT3G16857.1	0.0	0.3088751123888983	0.3088751123888983
AT1G64105	0.0	0.3080455939953743	0.3080455939953743
AT4G09460	0.0	0.3079258739417597	0.3079258739417597
AT2G31370	0.0	0.3078018115118041	0.3078018115118041
AT2G36400	0.0	0.3074687506828345	0.3074687506828345
AT4G34990	0.0	0.3067484912229827	0.3067484912229827
AT1G47870	0.0	0.3066448248664703	0.3066448248664703
AT1G68130	0.0	0.3066394652885598	0.3066394652885598
AT5G50915	0.0	0.30617823242105163	0.30617823242105163
AT2G31070	0.0	0.3044428544061167	0.3044428544061167
AT5G59340	0.0	0.3043808359456431	0.3043808359456431
AT3G23210	0.0	0.30390434601700395	0.30390434601700395
AT3G13040	0.0	0.3009662204395603	0.3009662204395603
AT1G31050.2	0.0	0.2997798691513741	0.2997798691513741
AT2G46270	0.0	0.2993564653938415	0.2993564653938415
AT4G36990	0.0	0.29885644585980115	0.29885644585980115
AT1G19700	0.0	0.2980688263666689	0.2980688263666689
AT1G13300	0.0	0.29782263308058565	0.29782263308058565
AT5G08330	1.0	0.2973662418590269	0.2973662418590269
AT2G38470	0.0	0.29698428825227	0.29698428825227
AT2G01930	0.0	0.29609664645046196	0.29609664645046196
AT2G30250	0.0	0.29601203496995343	0.29601203496995343
AT1G19510	0.0	0.2956387901054058	0.2956387901054058
AT3G19360	0.0	0.2949071908657966	0.2949071908657966
AT2G40350	0.0	0.2947623180181298	0.2947623180181298
AT4G02590	0.0	0.29364943954706274	0.29364943954706274
AT3G50650	0.0	0.2935386617945723	0.2935386617945723
AT5G67190	0.0	0.2927559059046886	0.2927559059046886
AT3G47600	0.0	0.2918451338926935	0.2918451338926935
AT1G64530	0.0	0.29135401166834435	0.29135401166834435
AT3G11090	0.0	0.29073051081998424	0.29073051081998424
AT4G37940	0.0	0.29010188550640714	0.29010188550640714
AT2G46680	0.0	0.2899497511214434	0.2899497511214434
AT4G01120	0.0	0.2893023524764355	0.2893023524764355
AT5G60850	0.0	0.2889619258581249	0.2889619258581249
AT4G35580	0.0	0.28894454302049977	0.28894454302049977
AT5G51980	0.0	0.2888183762479949	0.2888183762479949
AT2G25180	0.0	0.28872570660923397	0.28872570660923397
AT5G39810	0.0	0.2874407360793782	0.2874407360793782
AT5G60120	0.0	0.2872188598611778	0.2872188598611778
AT1G20640	0.0	0.28699971631002263	0.28699971631002263
AT1G58110	0.0	0.2869144674499325	0.2869144674499325
AT5G15310	0.0	0.2868213994929592	0.2868213994929592
AT5G05790	0.0	0.28634774009579633	0.28634774009579633
AT4G15090	0.0	0.2861865596124463	0.2861865596124463
AT1G52880	0.0	0.2857831464953749	0.2857831464953749
AT5G65310	0.0	0.2853162309273429	0.2853162309273429
AT4G17695	0.0	0.2850984009520273	0.2850984009520273
AT2G33480	0.0	0.2850891818853778	0.2850891818853778
AT1G68810	0.0	0.2846848325598081	0.2846848325598081
AT4G23750	0.0	0.2843394951676316	0.2843394951676316
AT5G18830	0.0	0.2842929196499576	0.2842929196499576
AT1G21450	0.0	0.2839415035968597	0.2839415035968597
AT1G16060	0.0	0.2832488310214913	0.2832488310214913
AT1G50600	0.0	0.283034124746837	0.283034124746837
AT1G01380	0.0	0.28276908990190536	0.28276908990190536
AT4G14770	0.0	0.2825861530012847	0.2825861530012847
AT4G18880	0.0	0.28214046060895165	0.28214046060895165
AT5G02840	1.0	0.2820662367114761	0.2820662367114761
AT2G26940	0.0	0.2819581609222813	0.2819581609222813
AT1G32330	0.0	0.2817434997845817	0.2817434997845817
AT5G24800	0.0	0.2814245188421161	0.2814245188421161
AT1G35560	0.0	0.2813744461290673	0.2813744461290673
AT5G60200	0.0	0.2811532204095432	0.2811532204095432
AT3G46130	0.0	0.2808140050412643	0.2808140050412643
AT2G27470	0.0	0.278485545269342	0.278485545269342
AT5G18240	0.0	0.27833399589492125	0.27833399589492125
AT1G66140	0.0	0.2782274695949138	0.2782274695949138
AT3G58710	0.0	0.2781728873694674	0.2781728873694674
AT3G07340	0.0	0.2775798422070333	0.2775798422070333
AT2G16485	0.0	0.27755084770935834	0.27755084770935834
AT4G36900	0.0	0.2773260978904169	0.2773260978904169
AT4G00480	0.0	0.277273703116997	0.277273703116997
AT4G23980	0.0	0.2772428416136792	0.2772428416136792
AT1G56010	0.0	0.2770109355283548	0.2770109355283548
AT5G41920	0.0	0.27651190867812764	0.27651190867812764
AT1G68880	0.0	0.2746214336900987	0.2746214336900987
AT3G28910	0.0	0.2746187642927377	0.2746187642927377
AT2G36960	0.0	0.2742319004100361	0.2742319004100361
AT4G31920	0.0	0.2721134385956404	0.2721134385956404
AT1G58220	0.0	0.2719063915825253	0.2719063915825253
AT5G08190	0.0	0.2714734299430891	0.2714734299430891
AT1G53160	0.0	0.2713137645036211	0.2713137645036211
AT1G28470	0.0	0.2712555861554519	0.2712555861554519
AT3G51910	0.0	0.2695175126996579	0.2695175126996579
AT3G10030	0.0	0.26890199125183195	0.26890199125183195
AT3G49850	0.0	0.2686369996665779	0.2686369996665779
AT2G01760	0.0	0.2683624722293852	0.2683624722293852
AT2G23340	0.0	0.2679349343335861	0.2679349343335861
AT3G16870	0.0	0.2673329162844273	0.2673329162844273
AT4G18890	0.0	0.26696707702049777	0.26696707702049777
AT3G27920	0.0	0.2666117444262705	0.2666117444262705
AT3G25710	0.0	0.26517703442330065	0.26517703442330065
AT2G34710	0.0	0.2636896854631652	0.2636896854631652
AT4G02640	0.0	0.2635248042252409	0.2635248042252409
AT2G47850	0.0	0.2633071942023748	0.2633071942023748
AT1G05710	0.0	0.2632901671973826	0.2632901671973826
AT2G45050	0.0	0.2632550154663713	0.2632550154663713
AT3G54810	0.0	0.2621388140162679	0.2621388140162679
AT3G54220	0.0	0.26183608092887245	0.26183608092887245
AT1G30330	0.0	0.261741315257514	0.261741315257514
AT5G02460	0.0	0.2614340208212912	0.2614340208212912
AT4G24020	0.0	0.2614058934871273	0.2614058934871273
AT1G50640	0.0	0.26139771145449264	0.26139771145449264
AT3G12680	0.0	0.2611353778195869	0.2611353778195869
AT2G22430	0.0	0.2607094725036449	0.2607094725036449
AT3G12820	0.0	0.2607044529249142	0.2607044529249142
AT1G69310	0.0	0.2606528829887873	0.2606528829887873
AT4G16780	0.0	0.2597978732028388	0.2597978732028388
AT2G02070	0.0	0.2596896301202079	0.2596896301202079
AT1G73730	0.0	0.25968558685349624	0.25968558685349624
AT1G09530	0.0	0.259455348908373	0.259455348908373
AT1G73830	0.0	0.2594434205493493	0.2594434205493493
AT5G28300	0.0	0.25927819445321504	0.25927819445321504
AT1G76350	0.0	0.2592382590718754	0.2592382590718754
AT3G56850	0.0	0.2591942522181196	0.2591942522181196
AT3G14180	0.0	0.25901714397664793	0.25901714397664793
AT2G02820	0.0	0.25816594220267003	0.25816594220267003
AT3G61630	0.0	0.2577848188974062	0.2577848188974062
AT2G16720	0.0	0.2571082333617761	0.2571082333617761
AT3G55980	0.0	0.2567631371041321	0.2567631371041321
AT1G29280	0.0	0.25652230808190096	0.25652230808190096
AT2G21230	0.0	0.2561628787927002	0.2561628787927002
AT3G04420	0.0	0.25595903804793363	0.25595903804793363
AT4G18170	0.0	0.2557929688080447	0.2557929688080447
AT1G68550	0.0	0.2554627060330994	0.2554627060330994
AT2G40200	0.0	0.2543746618948539	0.2543746618948539
AT5G15150	0.0	0.2538284660759614	0.2538284660759614
AT1G72050	0.0	0.2535194343751994	0.2535194343751994
AT3G47620	0.0	0.2535084073674664	0.2535084073674664
AT3G18960	0.0	0.2534608868503918	0.2534608868503918
AT4G08150	0.0	0.2529359216974887	0.2529359216974887
AT2G35700	0.0	0.25263006739278165	0.25263006739278165
AT5G11510	0.0	0.2525168021846736	0.2525168021846736
AT1G53170	0.0	0.25248648034282817	0.25248648034282817
AT1G03040	0.0	0.25207443808139085	0.25207443808139085
AT2G18350	0.0	0.2516760902025397	0.2516760902025397
AT5G47390	0.0	0.2515306628295649	0.2515306628295649
AT2G30590	0.0	0.2514865593404278	0.2514865593404278
AT3G16770	0.0	0.25114627423910485	0.25114627423910485
AT3G04060	0.0	0.2505587149918327	0.2505587149918327
AT5G65640	0.0	0.2505044443860266	0.2505044443860266
AT1G47655	0.0	0.2503031498937206	0.2503031498937206
AT1G57560	0.0	0.2501003846336284	0.2501003846336284
AT5G60970	0.0	0.2497369798576069	0.2497369798576069
AT5G67580	0.0	0.2493845455254949	0.2493845455254949
AT1G14580	0.0	0.2490459953133142	0.2490459953133142
AT4G36930	0.0	0.24881663441194976	0.24881663441194976
AT3G50060	0.0	0.2484536727567601	0.2484536727567601
AT5G45710	0.0	0.24823421323674616	0.24823421323674616
AT1G29160	0.0	0.2481028216938317	0.2481028216938317
AT2G46510	0.0	0.2480153320686691	0.2480153320686691
AT5G66770	0.0	0.24780721363621225	0.24780721363621225
AT3G16940	0.0	0.2477725994259685	0.2477725994259685
AT5G10030	0.0	0.2474757513490263	0.2474757513490263
AT2G02740	0.0	0.24652709899425296	0.24652709899425296
AT5G15840	0.0	0.2462488697461621	0.2462488697461621
AT1G69490	0.0	0.2461051634129781	0.2461051634129781
AT3G24140	0.0	0.2459283338099488	0.2459283338099488
AT1G69600	0.0	0.2458523170962597	0.2458523170962597
AT2G01940	0.0	0.245810615330532	0.245810615330532
AT1G32150	0.0	0.24577290463105275	0.24577290463105275
AT1G21340	0.0	0.2454747915338255	0.2454747915338255
AT1G32640	0.0	0.24544778961811786	0.24544778961811786
AT4G32890	0.0	0.2452584358244493	0.2452584358244493
AT3G22760	0.0	0.24522434591951714	0.24522434591951714
AT4G12020	0.0	0.2452122424388741	0.2452122424388741
AT1G55600	0.0	0.24516789391620494	0.24516789391620494
AT2G41710	0.0	0.24459951879269545	0.24459951879269545
AT4G00150	0.0	0.2443029527058495	0.2443029527058495
AT5G11270	0.0	0.2442237976449625	0.2442237976449625
AT1G53910	0.0	0.24399584548139416	0.24399584548139416
AT4G12240	0.0	0.2439696523788676	0.2439696523788676
AT4G16110	0.0	0.24349971926621136	0.24349971926621136
AT5G66320	0.0	0.2433655816173237	0.2433655816173237
AT1G05230	0.0	0.24326275097392336	0.24326275097392336
AT5G26880.2	0.0	0.2429634427362949	0.2429634427362949
AT1G25470	0.0	0.24287030392615985	0.24287030392615985
AT1G64620	0.0	0.24284578037503474	0.24284578037503474
AT1G18570	0.0	0.2426989328967511	0.2426989328967511
AT5G11260	0.0	0.24200564252072515	0.24200564252072515
AT3G12480	0.0	0.2420022825627489	0.2420022825627489
AT1G22490	0.0	0.2419875001247916	0.2419875001247916
AT5G63790	0.0	0.2418259573679392	0.2418259573679392
AT3G05690	0.0	0.2414013004181744	0.2414013004181744
AT1G77080.1	0.0	0.2413648370748584	0.2413648370748584
AT5G03415	0.0	0.2409297776023976	0.2409297776023976
AT4G17570	0.0	0.23978608313247465	0.23978608313247465
AT1G44810	0.0	0.2392600903058455	0.2392600903058455
AT3G27010	0.0	0.2392261875624475	0.2392261875624475
AT3G49940	0.0	0.2391167710529853	0.2391167710529853
AT4G01250	0.0	0.23903359808208235	0.23903359808208235
AT4G31800	0.0	0.23893338003037096	0.23893338003037096
AT5G40330	0.0	0.23877504235991465	0.23877504235991465
AT5G43840	0.0	0.2374077207622708	0.2374077207622708
AT2G44940	0.0	0.2368168222214455	0.2368168222214455
AT3G06250	0.0	0.2365106674437975	0.2365106674437975
AT4G21440	0.0	0.23636446188583474	0.23636446188583474
AT1G14410	0.0	0.2363245499155945	0.2363245499155945
AT1G22190	0.0	0.2361808526852931	0.2361808526852931
AT4G32730.2	0.0	0.23583039408046186	0.23583039408046186
AT5G60130	0.0	0.23517760945232746	0.23517760945232746
AT5G49620	0.0	0.23483402690462465	0.23483402690462465
AT4G01720	0.0	0.2346315621082231	0.2346315621082231
AT4G37650	0.0	0.2344017836751875	0.2344017836751875
AT1G73360	0.0	0.2343010231477501	0.2343010231477501
AT3G20310	0.0	0.23412518202204155	0.23412518202204155
AT5G61420	0.0	0.2340733570530744	0.2340733570530744
AT4G11660	0.0	0.2338892967532093	0.2338892967532093
AT4G01280	0.0	0.2335431762642788	0.2335431762642788
AT1G30210	0.0	0.2331414271021904	0.2331414271021904
AT1G30970	0.0	0.2329756662521305	0.2329756662521305
AT1G78080	0.0	0.2327345146229729	0.2327345146229729
AT5G10140	0.0	0.2321669624803048	0.2321669624803048
AT5G08130	0.0	0.2319925825355748	0.2319925825355748
AT4G37180	0.0	0.2319414653558851	0.2319414653558851
AT5G53200	0.0	0.2319031753810921	0.2319031753810921
AT4G30080	0.0	0.2315115017790502	0.2315115017790502
AT2G36080	0.0	0.2313525086145345	0.2313525086145345
AT1G02220	0.0	0.2312395222551384	0.2312395222551384
AT1G55110	0.0	0.2304970300314912	0.2304970300314912
AT3G60630	0.0	0.2304943520082407	0.2304943520082407
AT5G18550	0.0	0.22957285679930306	0.22957285679930306
AT2G13960	0.0	0.2293500244331916	0.2293500244331916
AT5G63260	0.0	0.22890377894399186	0.22890377894399186
AT1G22985	0.0	0.2284651314157489	0.2284651314157489
AT4G13640	0.0	0.2281180376922509	0.2281180376922509
AT5G45260.2	0.0	0.2280844525993524	0.2280844525993524
AT1G08810	0.0	0.2277932571235496	0.2277932571235496
AT3G49530	0.0	0.22760557027340986	0.22760557027340986
AT2G21240	0.0	0.2273202027715313	0.2273202027715313
AT2G39250	0.0	0.22689884228770776	0.22689884228770776
AT2G01430	0.0	0.22673416598182225	0.22673416598182225
AT5G65210	0.0	0.2266875816228569	0.2266875816228569
AT1G71130	0.0	0.2266286853959877	0.2266286853959877
AT5G25475	0.0	0.22650264318836874	0.22650264318836874
AT5G38140	0.0	0.2264527904147301	0.2264527904147301
AT1G32240	0.0	0.2264128860895648	0.2264128860895648
AT1G30650	0.0	0.2256452340629307	0.2256452340629307
AT1G08000	0.0	0.22494413282789225	0.22494413282789225
AT5G29000	0.0	0.2234703482133308	0.2234703482133308
AT1G22590	0.0	0.2233372066909	0.2233372066909
AT1G33240	0.0	0.22317009680457572	0.22317009680457572
AT1G15790	0.0	0.2230170059558636	0.2230170059558636
AT1G30500	0.0	0.22240158542851327	0.22240158542851327
AT2G31730	0.0	0.2223255270764002	0.2223255270764002
AT2G43500	0.0	0.22165768952488288	0.22165768952488288
AT1G75240	0.0	0.221556611926952	0.221556611926952
AT4G17710	0.0	0.2213984497827412	0.2213984497827412
AT1G06850	0.0	0.2212895818040796	0.2212895818040796
AT1G68150	0.0	0.2211474422933172	0.2211474422933172
AT4G32880	0.0	0.2208287947670265	0.2208287947670265
AT3G45260	0.0	0.22081869856850628	0.22081869856850628
AT2G18120	0.0	0.2205306871721168	0.2205306871721168
AT4G30935	0.0	0.22026798710592976	0.22026798710592976
AT2G38250	0.0	0.22003029134555227	0.22003029134555227
AT3G11280	0.0	0.2198496548829432	0.2198496548829432
AT1G44830	0.0	0.21969514720204167	0.21969514720204167
AT5G40360	0.0	0.2195652567781242	0.2195652567781242
AT2G22200	0.0	0.21945965655195493	0.21945965655195493
AT4G17785	0.0	0.21944607830883245	0.21944607830883245
AT5G25220	0.0	0.2194336681103474	0.2194336681103474
AT3G06590	0.0	0.21934706029515366	0.21934706029515366
AT5G37020	0.0	0.2192904528573496	0.2192904528573496
AT5G43170	0.0	0.2192408157595378	0.2192408157595378
AT1G75540	0.0	0.218110703951666	0.218110703951666
AT4G17810	0.0	0.217893596877632	0.217893596877632
AT2G18490	0.0	0.21756059080853785	0.21756059080853785
AT2G45190	0.0	0.21750968592565592	0.21750968592565592
AT5G10510	0.0	0.2171876272987052	0.2171876272987052
AT2G02540	0.0	0.2169531401240269	0.2169531401240269
AT5G18270	0.0	0.2169516071338144	0.2169516071338144
AT2G43280	0.0	0.2167823916667544	0.2167823916667544
AT1G26590	0.0	0.21651259459976	0.21651259459976
AT4G24470	0.0	0.21648911698755527	0.21648911698755527
AT5G47370	0.0	0.2163368724908275	0.2163368724908275
AT4G38070	0.0	0.2161708850967428	0.2161708850967428
AT4G25490	0.0	0.2160680968586904	0.2160680968586904
AT5G16560	0.0	0.21582592700288566	0.21582592700288566
AT2G42200	0.0	0.21563439911368049	0.21563439911368049
AT1G10120	0.0	0.21546126956568687	0.21546126956568687
AT1G06070	0.0	0.2145486050977228	0.2145486050977228
AT1G75710	0.0	0.21450939621572065	0.21450939621572065
AT2G42400	0.0	0.21438351299743685	0.21438351299743685
AT2G35940	0.0	0.2142002574788537	0.2142002574788537
AT2G37650	0.0	0.21388854251156691	0.21388854251156691
AT4G36710	0.0	0.21360117242336268	0.21360117242336268
AT5G48560	0.0	0.2132488313475324	0.2132488313475324
AT4G00270	0.0	0.21313564334538804	0.21313564334538804
AT1G08320	0.0	0.21280516574482053	0.21280516574482053
AT2G46410	0.0	0.2125964259476747	0.2125964259476747
AT5G65050	0.0	0.2123037931248125	0.2123037931248125
AT5G54230	0.0	0.2121761261598466	0.2121761261598466
AT1G10170	0.0	0.21212435200343505	0.21212435200343505
AT2G25000	0.0	0.2119975081453533	0.2119975081453533
AT1G71260	0.0	0.21192957928386408	0.21192957928386408
AT5G44180	0.0	0.211883707554618	0.211883707554618
AT3G48440	0.0	0.21158916976622594	0.21158916976622594
AT5G12840	0.0	0.21156095455647853	0.21156095455647853
AT5G50820	0.0	0.2109726939635292	0.2109726939635292
AT1G66350	0.0	0.21094295953699305	0.21094295953699305
AT1G49560	0.0	0.2107751848890092	0.2107751848890092
AT4G37540	0.0	0.2105985418453567	0.2105985418453567
AT1G13960	0.0	0.21032558140643	0.21032558140643
AT5G62020	0.0	0.21029070354544133	0.21029070354544133
AT2G45420	0.0	0.21009792084212667	0.21009792084212667
AT1G51600	0.0	0.2099626012171157	0.2099626012171157
AT1G69780	0.0	0.20990205470142886	0.20990205470142886
AT1G64380	0.0	0.20982179968229825	0.20982179968229825
AT2G22770	0.0	0.20935796868433584	0.20935796868433584
AT5G56860	0.0	0.2092820398823229	0.2092820398823229
AT5G61470	0.0	0.20883399863262708	0.20883399863262708
AT3G61150	0.0	0.20879551218210127	0.20879551218210127
AT2G40620	0.0	0.2085915418625812	0.2085915418625812
AT2G20180	0.0	0.20853717766931948	0.20853717766931948
AT2G46870	0.0	0.208422233444642	0.208422233444642
AT2G39880	0.0	0.20814738101343253	0.20814738101343253
AT5G50670	0.0	0.2081409805558641	0.2081409805558641
AT3G11020	0.0	0.20810145646314804	0.20810145646314804
AT5G02470	0.0	0.2080160168366083	0.2080160168366083
AT4G35590	0.0	0.2079697758289604	0.2079697758289604
AT3G49690	0.0	0.20791163840157628	0.20791163840157628
AT5G60140	0.0	0.20748101134340305	0.20748101134340305
AT1G74080	0.0	0.20693805940123766	0.20693805940123766
AT5G65790	0.0	0.20679453997789216	0.20679453997789216
AT3G14230	0.0	0.2065384768550801	0.2065384768550801
AT1G01260	0.0	0.20611472123576874	0.20611472123576874
AT2G45880	0.0	0.20596381647368392	0.20596381647368392
AT3G01330	0.0	0.20583765673582827	0.20583765673582827
AT4G16430	0.0	0.20582837296561554	0.20582837296561554
AT5G66730	0.0	0.20581903517180453	0.20581903517180453
AT5G07580	0.0	0.2055715664288585	0.2055715664288585
AT3G55730	0.0	0.205473530281554	0.205473530281554
AT2G37260	0.0	0.20518530540497776	0.20518530540497776
AT1G18400	0.0	0.204975312355317	0.204975312355317
AT3G57390	0.0	0.2049324939276724	0.2049324939276724
AT5G59820	0.0	0.20491668289401296	0.20491668289401296
AT2G40750	0.0	0.20479690604032724	0.20479690604032724
AT1G07980	0.0	0.2047671741709436	0.2047671741709436
AT2G42410	0.0	0.2046316831509581	0.2046316831509581
AT5G44210	0.0	0.20451686167789165	0.20451686167789165
AT5G45300	0.0	0.2044684860007112	0.2044684860007112
AT4G31270	0.0	0.2043766766677284	0.2043766766677284
AT2G37630	0.0	0.20401462649237675	0.20401462649237675
AT1G68510	0.0	0.20393778961344305	0.20393778961344305
AT1G78700	0.0	0.2038871706879043	0.2038871706879043
AT3G57800	0.0	0.20381931960793764	0.20381931960793764
AT3G13960	0.0	0.2036718675213532	0.2036718675213532
AT1G19220	0.0	0.20366083461463866	0.20366083461463866
AT1G43700	0.0	0.20296537885601826	0.20296537885601826
AT1G68920	0.0	0.2028029026435952	0.2028029026435952
AT4G00130	0.0	0.20266308672920072	0.20266308672920072
AT2G02450	0.0	0.20264313033352932	0.20264313033352932
AT2G28810	0.0	0.20260729357961332	0.20260729357961332
AT3G18990	0.0	0.202599992487924	0.202599992487924
AT1G13450	0.0	0.20246838403067385	0.20246838403067385
AT5G55020	0.0	0.20229395023639896	0.20229395023639896
AT5G14960	0.0	0.20188821309867164	0.20188821309867164
AT1G52150	0.0	0.2018273430025429	0.2018273430025429
AT4G10240	0.0	0.2011799655509362	0.2011799655509362
AT3G06490	0.0	0.2011101566597959	0.2011101566597959
AT5G22990	0.0	0.20099902901321964	0.20099902901321964
AT1G34190	0.0	0.20046876190935475	0.20046876190935475
AT1G67310	0.0	0.20034261682640392	0.20034261682640392
AT3G10500	0.0	0.20002462798652426	0.20002462798652426
AT1G62360	0.0	0.20000545430396025	0.20000545430396025
AT3G06740	0.0	0.19955075747770007	0.19955075747770007
AT2G23320	0.0	0.1995456383946059	0.1995456383946059
AT5G06110	0.0	0.1994385941630536	0.1994385941630536
AT5G08070	0.0	0.19907625895688108	0.19907625895688108
AT3G21175	0.0	0.19871238822976772	0.19871238822976772
AT5G04240	0.0	0.198441267467624	0.198441267467624
AT5G59450	0.0	0.1984386076243128	0.1984386076243128
AT1G50420	0.0	0.19829812230710048	0.19829812230710048
AT3G15030	0.0	0.19785814251849712	0.19785814251849712
AT3G11100	0.0	0.1975199132262779	0.1975199132262779
AT5G16540	0.0	0.1974227914337332	0.1974227914337332
AT5G11590	0.0	0.1969873399224303	0.1969873399224303
AT3G02550	0.0	0.19659704110139872	0.19659704110139872
AT3G20910	0.0	0.1963535173737915	0.1963535173737915
AT2G23760	0.0	0.1963398211978404	0.1963398211978404
AT5G67180	0.0	0.19611743308621865	0.19611743308621865
AT3G04670	0.0	0.19603775365534687	0.19603775365534687
AT5G42520	0.0	0.1956972251143959	0.1956972251143959
AT1G46264	0.0	0.1956575207621829	0.1956575207621829
AT1G27370	0.0	0.1953598527363333	0.1953598527363333
AT3G03450	0.0	0.1951200054450993	0.1951200054450993
AT5G19790	0.0	0.1950257404642708	0.1950257404642708
AT2G28550	0.0	0.19499208538744187	0.19499208538744187
AT3G21270	0.0	0.1948879279503478	0.1948879279503478
AT5G56270	0.0	0.19482562752200114	0.19482562752200114
AT4G39070	0.0	0.1945861888339736	0.1945861888339736
AT1G32870	0.0	0.19395502971074224	0.19395502971074224
AT3G13810	0.0	0.1938467777331552	0.1938467777331552
AT5G15130	0.0	0.193725962443874	0.193725962443874
AT5G51190	0.0	0.19340146655235613	0.19340146655235613
AT2G24840	0.0	0.1933703393500942	0.1933703393500942
AT5G06960	0.0	0.19333215874715728	0.19333215874715728
AT3G18380	0.0	0.19319226074559664	0.19319226074559664
AT5G01380	0.0	0.1930299653468316	0.1930299653468316
AT5G13330	0.0	0.1926333960590256	0.1926333960590256
AT2G22300	0.0	0.192612326124646	0.192612326124646
AT5G43270	0.0	0.19253731943416466	0.19253731943416466
AT2G31180	0.0	0.19196532018262505	0.19196532018262505
AT3G51120	0.0	0.1916573359480599	0.1916573359480599
AT5G20240	0.0	0.19138162440222176	0.19138162440222176
AT5G23090	0.0	0.190753749677038	0.190753749677038
AT3G19510	0.0	0.1905625391685449	0.1905625391685449
AT1G56650	0.0	0.1903361592736598	0.1903361592736598
AT1G32360	0.0	0.19031361603000568	0.19031361603000568
AT1G33060	0.0	0.18927957221188954	0.18927957221188954
AT2G28160	0.0	0.1891731814984076	0.1891731814984076
AT3G18400	0.0	0.1889931401263141	0.1889931401263141
AT1G72740	0.0	0.18893511230212087	0.18893511230212087
AT1G01030	0.0	0.18873567526933224	0.18873567526933224
AT5G65100	0.0	0.18855891047066795	0.18855891047066795
AT1G10240	0.0	0.1880289048452118	0.1880289048452118
AT3G09370	0.0	0.18798797075505616	0.18798797075505616
AT2G04890	0.0	0.18796978893731492	0.18796978893731492
AT5G18960	0.0	0.1879210253706433	0.1879210253706433
AT2G40260	0.0	0.18773787389028784	0.18773787389028784
AT1G59750	0.0	0.18771395459749296	0.18771395459749296
AT4G02560	0.0	0.1869621563991238	0.1869621563991238
AT4G32010	0.0	0.1867992435606604	0.1867992435606604
AT3G61250	0.0	0.1866955033933556	0.1866955033933556
AT1G51700	0.0	0.18666310562482505	0.18666310562482505
AT2G28610	0.0	0.185982542781592	0.185982542781592
AT2G31230	0.0	0.18580118023145972	0.18580118023145972
AT5G60690	0.0	0.1857462846853607	0.1857462846853607
AT4G24240	0.0	0.1857045295413132	0.1857045295413132
AT3G54620	0.0	0.1856902552215384	0.1856902552215384
AT3G46600	0.0	0.1854388713963966	0.1854388713963966
AT2G18300	0.0	0.1854198545643925	0.1854198545643925
AT1G14685	0.0	0.18526659109103832	0.18526659109103832
AT5G07310	0.0	0.18487739246879747	0.18487739246879747
AT1G76580	0.0	0.1845403559085957	0.1845403559085957
AT1G25550	0.0	0.18444444641179386	0.18444444641179386
AT3G53200	0.0	0.1844041041064077	0.1844041041064077
AT1G03970	0.0	0.18411557593459527	0.18411557593459527
AT1G27730	0.0	0.18406663730362466	0.18406663730362466
AT4G20380	0.0	0.1840524925093048	0.1840524925093048
AT5G54070	0.0	0.18386890865481129	0.18386890865481129
AT2G16400	0.0	0.1836711557726694	0.1836711557726694
AT3G61830	0.0	0.1832832308774816	0.1832832308774816
AT2G29065	0.0	0.18321248328823048	0.18321248328823048
AT2G47810	0.0	0.18321030605697766	0.18321030605697766
AT1G29962	0.0	0.18297425827263591	0.18297425827263591
AT4G31615	0.0	0.18296878295046287	0.18296878295046287
AT5G39700	0.0	0.18271297413740747	0.18271297413740747
AT1G49480	0.0	0.18269327953698666	0.18269327953698666
AT3G60110	0.0	0.18256549684052845	0.18256549684052845
AT2G33860	0.0	0.18251376931277705	0.18251376931277705
AT3G04100	0.0	0.18232028130291786	0.18232028130291786
AT3G61950	0.0	0.1822574189340645	0.1822574189340645
AT1G26960	0.0	0.18188873891519888	0.18188873891519888
AT4G32040	0.0	0.1817891111362876	0.1817891111362876
AT4G00180	0.0	0.18174925688067714	0.18174925688067714
AT3G11450	0.0	0.18155178901624525	0.18155178901624525
AT2G42830	0.0	0.1812922332165186	0.1812922332165186
AT5G07100	0.0	0.18128936947170707	0.18128936947170707
AT3G23690	0.0	0.1809829378075785	0.1809829378075785
AT1G17950	0.0	0.18097413337265664	0.18097413337265664
AT4G19990	0.0	0.1808544146349988	0.1808544146349988
AT5G67300	0.0	0.18074984521094187	0.18074984521094187
AT1G28520	0.0	0.1806920680522279	0.1806920680522279
AT4G38900	0.0	0.18047722312125847	0.18047722312125847
AT1G49190	0.0	0.18041041467580668	0.18041041467580668
AT1G20700	0.0	0.180303018084652	0.180303018084652
AT3G22780	0.0	0.1802506480188992	0.1802506480188992
AT4G18020	0.0	0.1801634732118278	0.1801634732118278
AT3G28920	0.0	0.18007002235221098	0.18007002235221098
AT5G63280	0.0	0.1800316416672338	0.1800316416672338
AT1G68670	0.0	0.17983382003252593	0.17983382003252593
AT1G52520	0.0	0.17946651257328106	0.17946651257328106
AT1G01010	0.0	0.17937526885015154	0.17937526885015154
AT1G76870	0.0	0.17924067627041662	0.17924067627041662
AT4G35270	0.0	0.17922894027025704	0.17922894027025704
AT1G10320	0.0	0.17914215695650898	0.17914215695650898
AT1G30490	0.0	0.17887669012792698	0.17887669012792698
AT5G60450	0.0	0.17864186889612607	0.17864186889612607
AT4G39160	0.0	0.17780769178786968	0.17780769178786968
AT3G54320.2	0.0	0.17758107629391556	0.17758107629391556
AT3G30210	0.0	0.17749407197070316	0.17749407197070316
AT5G47670	0.0	0.17736761145843302	0.17736761145843302
AT2G06020	0.0	0.17733899123820732	0.17733899123820732
AT2G17150	0.0	0.17713674777032604	0.17713674777032604
AT5G22290	0.0	0.17708215224802112	0.17708215224802112
AT3G25730	0.0	0.17707472754477446	0.17707472754477446
AT2G31210	0.0	0.17699655226796587	0.17699655226796587
AT3G57480	0.0	0.17671242548205746	0.17671242548205746
AT3G12130	0.0	0.17652616618804334	0.17652616618804334
AT4G17980	0.0	0.17638772099506853	0.17638772099506853
AT5G22220	0.0	0.17623817063225675	0.17623817063225675
AT1G74500	0.0	0.17606822004157555	0.17606822004157555
AT5G61600	0.0	0.1760168119334481	0.1760168119334481
AT4G00730	0.0	0.17576923597489064	0.17576923597489064
AT2G28450	0.0	0.17522799482902546	0.17522799482902546
AT4G17490	0.0	0.1750850175565935	0.1750850175565935
AT5G28040	0.0	0.17506562916801785	0.17506562916801785
AT4G37740	0.0	0.1745487611578312	0.1745487611578312
AT5G65410	0.0	0.17412757564254694	0.17412757564254694
AT2G23660	0.0	0.1737317938303617	0.1737317938303617
AT1G32730	0.0	0.17361928791723985	0.17361928791723985
AT5G02030	0.0	0.17337863817683075	0.17337863817683075
AT1G74660	0.0	0.1732918679896727	0.1732918679896727
AT3G61850	0.0	0.17324854145741272	0.17324854145741272
AT3G24120	0.0	0.17324184027186	0.17324184027186
AT4G29940	0.0	0.17288289397881718	0.17288289397881718
AT4G28610	0.0	0.17283514198245725	0.17283514198245725
AT3G12730	0.0	0.17281626801713132	0.17281626801713132
AT4G31550	0.0	0.17246758812040838	0.17246758812040838
AT1G70510	0.0	0.17235052116829466	0.17235052116829466
AT3G23230	0.0	0.17231210215774256	0.17231210215774256
AT5G53210	0.0	0.17229779816920246	0.17229779816920246
AT3G30260.1	0.0	0.17201951787331804	0.17201951787331804
AT1G75410	0.0	0.17191850787697546	0.17191850787697546
AT5G40430	0.0	0.17186125516368886	0.17186125516368886
AT3G15170	0.0	0.1718493347176035	0.1718493347176035
AT1G71200	0.0	0.17176995393710925	0.17176995393710925
AT5G12870	0.0	0.17164358836495486	0.17164358836495486
AT4G18960	0.0	0.1716036686001298	0.1716036686001298
AT2G35530	0.0	0.17145962293911288	0.17145962293911288
AT1G61660	0.0	0.17090261118118025	0.17090261118118025
AT3G19860	0.0	0.17088823185114865	0.17088823185114865
AT4G26640	0.0	0.1705954001656088	0.1705954001656088
AT3G06410	0.0	0.17057521569643444	0.17057521569643444
AT1G54060	0.0	0.17056815886462195	0.17056815886462195
AT1G46768	0.0	0.17051878270776644	0.17051878270776644
AT1G62300	0.0	0.17032430056299322	0.17032430056299322
AT1G31310	0.0	0.17024784110442054	0.17024784110442054
AT5G17490	0.0	0.17021075766448884	0.17021075766448884
AT3G54430	0.0	0.16965821636766354	0.16965821636766354
AT1G43160	0.0	0.16965541867710918	0.16965541867710918
AT3G24310	0.0	0.1693432145237123	0.1693432145237123
AT4G29100	0.0	0.16932340572663296	0.16932340572663296
AT5G20730	0.0	0.1693185900073421	0.1693185900073421
AT2G13150	0.0	0.16915543687360873	0.16915543687360873
AT2G40140	0.0	0.16906762557201807	0.16906762557201807
AT5G06950	0.0	0.16905535311481915	0.16905535311481915
AT1G72650	0.0	0.16904899222466802	0.16904899222466802
AT2G18550	0.0	0.16898130896331076	0.16898130896331076
AT5G51870	0.0	0.1687616609663955	0.1687616609663955
AT5G18560	0.0	0.16848640067466972	0.16848640067466972
AT5G42700	0.0	0.16817687391972372	0.16817687391972372
AT3G04030	0.0	0.16810977178477066	0.16810977178477066
AT1G69540	0.0	0.1680213666919277	0.1680213666919277
AT3G24050	0.0	0.16798739976836075	0.16798739976836075
AT2G37060	0.0	0.16763554412896794	0.16763554412896794
AT5G26650	0.0	0.16752759808423914	0.16752759808423914
AT1G63100	0.0	0.16740500889669768	0.16740500889669768
AT1G26780	0.0	0.16735426083170515	0.16735426083170515
AT1G60300	0.0	0.1672273802548511	0.1672273802548511
AT2G30340	0.0	0.16704959162343552	0.16704959162343552
AT3G59580	0.0	0.16704482944874174	0.16704482944874174
AT1G29600.1	0.0	0.1666208557982112	0.1666208557982112
AT4G16750	0.0	0.1665636316520346	0.1665636316520346
AT2G20570	0.0	0.16647574594357806	0.16647574594357806
AT3G10490	0.0	0.16615734593900253	0.16615734593900253
AT2G46310	0.0	0.16611327634378134	0.16611327634378134
AT3G19290	0.0	0.16607503963893366	0.16607503963893366
AT3G18650	0.0	0.16580835455251486	0.16580835455251486
AT3G21810	0.0	0.16562107806736248	0.16562107806736248
AT5G22890	0.0	0.16556069572628382	0.16556069572628382
AT1G77950	0.0	0.16546436324132327	0.16546436324132327
AT1G79430	0.0	0.16536386510241374	0.16536386510241374
AT3G16350	0.0	0.16484606833860538	0.16484606833860538
AT4G17500	0.0	0.16463109781360016	0.16463109781360016
AT3G19070	0.0	0.16427824778779887	0.16427824778779887
AT1G27360	0.0	0.16418216936000313	0.16418216936000313
AT5G49200	0.0	0.1636798195044444	0.1636798195044444
AT1G35460	0.0	0.16333426439279808	0.16333426439279808
AT1G79180	0.0	0.16319624387282727	0.16319624387282727
AT1G76890	0.0	0.16290115657215318	0.16290115657215318
AT1G34170	0.0	0.16268237364829222	0.16268237364829222
AT4G36160	0.0	0.16263642279087165	0.16263642279087165
AT5G52830	0.0	0.16261444620773982	0.16261444620773982
AT5G26660	0.0	0.16250387209705586	0.16250387209705586
AT1G09770	0.0	0.16244749075686307	0.16244749075686307
AT1G09540	0.0	0.16226527693601267	0.16226527693601267
AT5G12850	0.0	0.16208304853493918	0.16208304853493918
AT1G59640	0.0	0.16191570010289258	0.16191570010289258
AT1G43950	0.0	0.16188621862118094	0.16188621862118094
AT1G68120	0.0	0.16181189118226466	0.16181189118226466
AT4G36780	0.0	0.1617275041342641	0.1617275041342641
AT2G42300	0.0	0.16156819871913564	0.16156819871913564
AT4G27240	0.0	0.16149076816450927	0.16149076816450927
AT1G10480	0.0	0.1614377783042131	0.1614377783042131
AT5G03720	0.0	0.16131689971808336	0.16131689971808336
AT5G12330	0.0	0.16124192580320518	0.16124192580320518
AT4G00232	0.0	0.1610964559428887	0.1610964559428887
AT1G69010	0.0	0.16100227441755832	0.16100227441755832
AT2G40950	0.0	0.16097254362577842	0.16097254362577842
AT1G03790	0.0	0.16096745029467036	0.16096745029467036
AT2G01500	0.0	0.16096494255381452	0.16096494255381452
AT5G26930	0.0	0.16093304735986844	0.16093304735986844
AT1G17520	0.0	0.16086578653676006	0.16086578653676006
AT1G74840	0.0	0.16056925373168934	0.16056925373168934
AT5G40350	0.0	0.16054686497920448	0.16054686497920448
AT1G14920	0.0	0.16032254127224246	0.16032254127224246
AT1G25580	0.0	0.16020416845806246	0.16020416845806246
AT1G69580	0.0	0.16008357179660154	0.16008357179660154
AT5G03680	0.0	0.1600758081505996	0.1600758081505996
AT1G21200	0.0	0.15965225962931334	0.15965225962931334
AT1G25330	0.0	0.15961405459741004	0.15961405459741004
AT5G52510	0.0	0.15940503137776027	0.15940503137776027
AT2G41900	0.0	0.1592614694787933	0.1592614694787933
AT1G75340	0.0	0.15909197553249718	0.15909197553249718
AT5G56780	0.0	0.15896274705294014	0.15896274705294014
AT5G45050	0.0	0.15840203405869968	0.15840203405869968
AT2G14210	0.0	0.15830438151070975	0.15830438151070975
AT1G77850	0.0	0.1582708808683945	0.1582708808683945
AT5G01200	0.0	0.15788754943797698	0.15788754943797698
AT3G61970	0.0	0.15785385406450902	0.15785385406450902
AT2G37120	0.0	0.1578506451558409	0.1578506451558409
AT5G06100	0.0	0.1575629874398696	0.1575629874398696
AT2G36890	0.0	0.15753555790749268	0.15753555790749268
AT5G11050	0.0	0.15736139157948234	0.15736139157948234
AT3G49760	0.0	0.1572361738538784	0.1572361738538784
AT1G09030	0.0	0.15719720985451088	0.15719720985451088
AT5G16600	0.0	0.15716311233951324	0.15716311233951324
AT2G40740	0.0	0.15671230993482885	0.15671230993482885
AT2G44910	0.0	0.15665173706468002	0.15665173706468002
AT1G32540	0.0	0.15662859583761565	0.15662859583761565
AT3G15210	0.0	0.15662138627034186	0.15662138627034186
AT5G18090	0.0	0.15640055860401902	0.15640055860401902
AT1G35515	0.0	0.15613053308362315	0.15613053308362315
AT4G36260	0.0	0.15609927529841874	0.15609927529841874
AT3G55370	0.0	0.15604230848554446	0.15604230848554446
AT1G06170	0.0	0.15596023143017226	0.15596023143017226
AT5G52260	0.0	0.15590248662999692	0.15590248662999692
AT5G09410	0.0	0.1558425462597807	0.1558425462597807
AT1G36060	0.0	0.15581683955139902	0.15581683955139902
AT3G20770	0.0	0.15576525869360633	0.15576525869360633
AT1G69810	0.0	0.15564612944750078	0.15564612944750078
AT3G10800	0.0	0.15530149540163005	0.15530149540163005
AT5G46880	0.0	0.15521476134902296	0.15521476134902296
AT2G20350	0.0	0.15517110190462247	0.15517110190462247
AT5G10280	0.0	0.15491006117822964	0.15491006117822964
AT5G42780	0.0	0.1547840181149418	0.1547840181149418
AT2G22630	0.0	0.15452819874515009	0.15452819874515009
AT4G15250	0.0	0.1543868024693554	0.1543868024693554
AT4G38180	0.0	0.1543299719627284	0.1543299719627284
AT1G28360	0.0	0.15430004184063448	0.15430004184063448
AT5G66350	0.0	0.1541594370036304	0.1541594370036304
AT5G49420	0.0	0.15414685883749987	0.15414685883749987
AT5G42630	0.0	0.15407141816170075	0.15407141816170075
AT2G20110	0.0	0.15391359165644594	0.15391359165644594
AT3G57920	0.0	0.15382176382828308	0.15382176382828308
AT3G54390	0.0	0.15373294261396406	0.15373294261396406
AT2G27220	0.0	0.1537207866836801	0.1537207866836801
AT2G27050	0.0	0.15369233931231094	0.15369233931231094
AT5G17320	0.0	0.15364320105036905	0.15364320105036905
AT5G03150	0.0	0.15354529599027095	0.15354529599027095
AT2G24570	0.0	0.15340608826974053	0.15340608826974053
AT5G28530	0.0	0.15313610765918068	0.15313610765918068
AT3G23250	0.0	0.15305943619046067	0.15305943619046067
AT2G35310	0.0	0.15297492592226627	0.15297492592226627
AT2G34140	0.0	0.15286367488858296	0.15286367488858296
AT5G58340	0.0	0.1527296066188693	0.1527296066188693
AT5G15210	0.0	0.1526788230920802	0.1526788230920802
AT5G25810	0.0	0.15261556258421607	0.15261556258421607
AT5G06770	0.0	0.1524845962170259	0.1524845962170259
AT4G28530	0.0	0.1523945355572057	0.1523945355572057
AT2G36450	0.0	0.1523742229641369	0.1523742229641369
AT1G64000	0.0	0.15228978783772576	0.15228978783772576
AT5G60440	0.0	0.15227598422797048	0.15227598422797048
AT2G17040	0.0	0.15226179137765988	0.15226179137765988
AT4G33450	0.0	0.15208023141807958	0.15208023141807958
AT3G27810.2	0.0	0.15198331063848616	0.15198331063848616
AT1G51070	0.0	0.15152221231948376	0.15152221231948376
AT5G62940	0.0	0.151479481107249	0.151479481107249
AT1G68200	0.0	0.15137317942793713	0.15137317942793713
AT5G52660	1.0	0.1512104321702325	0.1512104321702325
AT4G00238	0.0	0.15107610367806087	0.15107610367806087
AT3G50410	0.0	0.15090704050984824	0.15090704050984824
AT2G38300	0.0	0.15088655216766492	0.15088655216766492
AT1G75520	0.0	0.15087458613219926	0.15087458613219926
AT2G01060	0.0	0.1506274578443674	0.1506274578443674
AT4G35280	0.0	0.1505576493937339	0.1505576493937339
AT4G21050	0.0	0.1503072077753604	0.1503072077753604
AT2G12940	0.0	0.15006595073894274	0.15006595073894274
AT2G33500	0.0	0.1492749007230612	0.1492749007230612
AT1G34650	0.0	0.14921196446003204	0.14921196446003204
AT1G67710	0.0	0.14912528340909334	0.14912528340909334
AT1G01250	0.0	0.14888089099242788	0.14888089099242788
AT3G19580	0.0	0.14880364959238254	0.14880364959238254
AT4G29230	0.0	0.1485980857201034	0.1485980857201034
AT5G57720	0.0	0.14846736841187727	0.14846736841187727
AT1G54830	0.0	0.14830354258491607	0.14830354258491607
AT2G43000	0.0	0.14805861325654804	0.14805861325654804
AT5G44080	0.0	0.14778922161808986	0.14778922161808986
AT2G37590	0.0	0.14754042796178649	0.14754042796178649
AT3G63350	0.0	0.14753473351782126	0.14753473351782126
AT4G29000	0.0	0.14744139115934007	0.14744139115934007
AT3G60580	0.0	0.147419406602108	0.147419406602108
AT3G04410	0.0	0.14699050111489226	0.14699050111489226
AT5G14750	0.0	0.14669812713931554	0.14669812713931554
AT2G47260	0.0	0.14653389113225393	0.14653389113225393
AT1G19850	0.0	0.14648431262643066	0.14648431262643066
AT1G68240	0.0	0.1463987981108255	0.1463987981108255
AT4G21550	0.0	0.14638366512704684	0.14638366512704684
AT3G18100	0.0	0.1463737846998644	0.1463737846998644
AT5G04640	0.0	0.14634097567739565	0.14634097567739565
AT4G16610	0.0	0.14622385882629574	0.14622385882629574
AT3G05860	0.0	0.146190646355891	0.146190646355891
AT2G26320	0.0	0.14615428648109835	0.14615428648109835
AT3G19184	0.0	0.14613701354426134	0.14613701354426134
AT2G38880	0.0	0.1460828630295792	0.1460828630295792
AT3G59470	0.0	0.14608129732356215	0.14608129732356215
AT5G14000	0.0	0.14599505090961404	0.14599505090961404
AT3G10580	0.0	0.14598637319927335	0.14598637319927335
AT5G52010	0.0	0.1456565099602475	0.1456565099602475
AT5G27050	0.0	0.14563819218578447	0.14563819218578447
AT5G35900	0.0	0.14553055842649495	0.14553055842649495
AT5G13080	0.0	0.1454908960268969	0.1454908960268969
AT4G35040	0.0	0.1454238585809507	0.1454238585809507
AT5G47230	0.0	0.14532154683830642	0.14532154683830642
AT3G14020	0.0	0.14528449140465685	0.14528449140465685
AT5G03510	0.0	0.14524601353440494	0.14524601353440494
AT5G04340	0.0	0.14488819806294864	0.14488819806294864
AT1G62990	0.0	0.14470278235566156	0.14470278235566156
AT5G67060	0.0	0.14463380745066215	0.14463380745066215
AT3G25790	0.0	0.1446079807549379	0.1446079807549379
AT1G65620	0.0	0.14460618502312025	0.14460618502312025
AT3G01530	0.0	0.14457491319127955	0.14457491319127955
AT3G53340	0.0	0.14434812191180196	0.14434812191180196
AT5G67110	0.0	0.1442635660580396	0.1442635660580396
AT3G62090	0.0	0.14373927148964205	0.14373927148964205
AT4G17750	0.0	0.14364756337393125	0.14364756337393125
AT4G28500	0.0	0.14355103468915026	0.14355103468915026
AT2G06200	0.0	0.14339345762174402	0.14339345762174402
AT1G03490	0.0	0.14335934634933492	0.14335934634933492
AT3G10470	0.0	0.14330799424633406	0.14330799424633406
AT3G11440	0.0	0.1430827680484187	0.1430827680484187
AT3G15510	0.0	0.14302756201308225	0.14302756201308225
AT1G71930	0.0	0.14301324988551906	0.14301324988551906
AT5G21120	0.0	0.14282557763051126	0.14282557763051126
AT5G06650	0.0	0.14278847485261087	0.14278847485261087
AT1G75080	0.0	0.14278401531634827	0.14278401531634827
AT1G34310	0.0	0.142693275907669	0.142693275907669
AT2G38340	0.0	0.14265793803980756	0.14265793803980756
AT4G35900	0.0	0.14224475558680896	0.14224475558680896
AT4G35700	0.0	0.14221921376311966	0.14221921376311966
AT5G67000	0.0	0.14213882127458935	0.14213882127458935
AT5G26630	0.0	0.1420840021112255	0.1420840021112255
AT4G37850	0.0	0.14202738370702575	0.14202738370702575
AT5G07680	0.0	0.14192781025160398	0.14192781025160398
AT1G28420	0.0	0.1417792189198559	0.1417792189198559
AT5G04400	0.0	0.14163826205308702	0.14163826205308702
AT5G46010	0.0	0.14144462759450596	0.14144462759450596
AT3G01970	0.0	0.1411992900413801	0.1411992900413801
AT5G61620	0.0	0.14110198412632954	0.14110198412632954
AT1G07520	0.0	0.14102906553924272	0.14102906553924272
AT5G51990	0.0	0.14084455217370978	0.14084455217370978
AT1G66380	0.0	0.14032457673882415	0.14032457673882415
AT5G56620	0.0	0.14021489000477602	0.14021489000477602
AT4G24660	0.0	0.1402143997429055	0.1402143997429055
AT5G25830	0.0	0.14013117534460362	0.14013117534460362
AT2G45120	0.0	0.14011583940927752	0.14011583940927752
AT4G02670	0.0	0.1400171526560167	0.1400171526560167
AT2G43140	0.0	0.13981921565523234	0.13981921565523234
AT1G48000	0.0	0.13981661794689285	0.13981661794689285
AT1G55950	0.0	0.13980042792112254	0.13980042792112254
AT1G49950	0.0	0.13963330614840133	0.13963330614840133
AT3G57670	0.0	0.13960518369068026	0.13960518369068026
AT3G60030	0.0	0.1396033803967675	0.1396033803967675
AT2G29660	0.0	0.13947010730654005	0.13947010730654005
AT3G58190	0.0	0.13932359301663325	0.13932359301663325
AT5G18450	0.0	0.1391703075831321	0.1391703075831321
AT1G31630	0.0	0.13915436756737665	0.13915436756737665
AT3G48920	0.0	0.13911602673751286	0.13911602673751286
AT1G34370	0.0	0.1391137886937879	0.1391137886937879
AT1G26310	0.0	0.1390544631776239	0.1390544631776239
AT3G30530	0.0	0.1390267546470874	0.1390267546470874
AT4G09820	0.0	0.13872323298349395	0.13872323298349395
AT4G28110	0.0	0.1385069551305355	0.1385069551305355
AT4G25560	0.0	0.13850451212046835	0.13850451212046835
AT5G64220	0.0	0.13850168042867014	0.13850168042867014
AT5G06800	0.0	0.1384879047472145	0.1384879047472145
AT5G14340	0.0	0.13841590520737804	0.13841590520737804
AT3G53310	0.0	0.1383764959189256	0.1383764959189256
AT5G66940	0.0	0.1382542292397825	0.1382542292397825
AT5G56110	0.0	0.13772145501536062	0.13772145501536062
AT2G47460	0.0	0.13737255379781182	0.13737255379781182
AT2G24645	0.0	0.1372598098043872	0.1372598098043872
AT1G77200	0.0	0.13723203440396375	0.13723203440396375
AT4G28815	0.0	0.13719167612632194	0.13719167612632194
AT4G36740	0.0	0.13705696299359932	0.13705696299359932
AT5G58890	0.0	0.13685095493448213	0.13685095493448213
AT5G35550	0.0	0.13666289429233774	0.13666289429233774
AT1G10610	0.0	0.1366106247194236	0.1366106247194236
AT5G61430	0.0	0.13658183579368713	0.13658183579368713
AT2G41940	0.0	0.13630990239490895	0.13630990239490895
AT5G19490	0.0	0.136154308733662	0.136154308733662
AT4G33280	0.0	0.1360837077613421	0.1360837077613421
AT5G27810	0.0	0.13598708077012858	0.13598708077012858
AT5G65320	0.0	0.13577753071608192	0.13577753071608192
AT4G05100	0.0	0.13574391105394712	0.13574391105394712
AT4G24540	0.0	0.13532937743337026	0.13532937743337026
AT4G13980	0.0	0.13521936265459533	0.13521936265459533
AT5G61890	0.0	0.1349337255408105	0.1349337255408105
AT1G17310	0.0	0.13492766258653868	0.13492766258653868
AT2G46130	0.0	0.13485378291648106	0.13485378291648106
AT1G26260	0.0	0.1348517709090223	0.1348517709090223
AT3G10760	0.0	0.13477535433302434	0.13477535433302434
AT1G80840	0.0	0.1346555588873825	0.1346555588873825
AT1G12260	0.0	0.1345427947085298	0.1345427947085298
AT1G74650	0.0	0.1344530480224624	0.1344530480224624
AT2G36610	0.0	0.13441299776324833	0.13441299776324833
AT5G67420	0.0	0.13440270836339496	0.13440270836339496
AT1G61110	0.0	0.13436448326222594	0.13436448326222594
AT4G37780	0.0	0.13404312896886425	0.13404312896886425
AT2G22800	0.0	0.13382591563368695	0.13382591563368695
AT2G44430	0.0	0.13382067010409462	0.13382067010409462
AT3G24490	0.0	0.13381204498581528	0.13381204498581528
AT1G60350	0.0	0.13377058395246175	0.13377058395246175
AT2G20280	0.0	0.13361168622382058	0.13361168622382058
AT4G02235	0.0	0.13340896688635734	0.13340896688635734
AT4G35550	0.0	0.13338617854272905	0.13338617854272905
AT3G50890	0.0	0.1333444220968093	0.1333444220968093
AT5G24930	0.0	0.1332947295521795	0.1332947295521795
AT1G17040	0.0	0.13327434064999544	0.13327434064999544
AT4G22950	0.0	0.13315259780004132	0.13315259780004132
AT2G15740	0.0	0.1330549923169182	0.1330549923169182
AT1G80580	0.0	0.13303719287921148	0.13303719287921148
AT3G53820	0.0	0.13299329831424278	0.13299329831424278
AT5G06420.2	0.0	0.1326008332800345	0.1326008332800345
AT1G64100	0.0	0.13251352231792166	0.13251352231792166
AT5G06070	0.0	0.13222686925945787	0.13222686925945787
AT3G62420	0.0	0.13209739325321615	0.13209739325321615
AT5G65130	0.0	0.13190386267573215	0.13190386267573215
AT2G35550	0.0	0.1317278959381931	0.1317278959381931
AT4G36920	0.0	0.13131150787300536	0.13131150787300536
AT3G20840	0.0	0.13125263123797196	0.13125263123797196
AT5G17260	0.0	0.1309377182355498	0.1309377182355498
AT3G02310	0.0	0.13075670801302194	0.13075670801302194
AT5G51910	0.0	0.13053029127653012	0.13053029127653012
AT5G10970	0.0	0.1300627106672912	0.1300627106672912
AT5G09330	0.0	0.13006160286640578	0.13006160286640578
AT4G14540	0.0	0.12995358511641794	0.12995358511641794
AT5G13790	0.0	0.12988362760779526	0.12988362760779526
AT1G15720	0.0	0.12983349895409102	0.12983349895409102
AT1G13600	0.0	0.12939565681320125	0.12939565681320125
AT1G80010	0.0	0.12938288876045922	0.12938288876045922
AT5G52020	0.0	0.12933998878711095	0.12933998878711095
AT1G66810	0.0	0.12919377394577533	0.12919377394577533
AT5G17430	0.0	0.12918581552583486	0.12918581552583486
AT4G25610	0.0	0.12917000798801614	0.12917000798801614
AT2G33710	0.0	0.12909662374784853	0.12909662374784853
AT1G23420	0.0	0.12892680374828536	0.12892680374828536
AT2G42380	0.0	0.12876111006718172	0.12876111006718172
AT2G42150	0.0	0.12854291580575358	0.12854291580575358
AT5G25470	0.0	0.1284058401953735	0.1284058401953735
AT1G33760	0.0	0.1282702613845563	0.1282702613845563
AT1G15360	0.0	0.1281791950901736	0.1281791950901736
AT3G49930	0.0	0.12792862206907113	0.12792862206907113
AT3G29020	0.0	0.12787601502244542	0.12787601502244542
AT5G65070	0.0	0.12785898028519088	0.12785898028519088
AT3G58630	0.0	0.1278095017939659	0.1278095017939659
AT2G26960	0.0	0.1277943265652472	0.1277943265652472
AT5G32460	0.0	0.12737795307499028	0.12737795307499028
AT3G66656	0.0	0.1269866307187719	0.1269866307187719
AT2G41070	0.0	0.12690932738512198	0.12690932738512198
AT4G31680	0.0	0.12685115055341048	0.12685115055341048
AT2G40470	0.0	0.1268194545160734	0.1268194545160734
AT4G24150	0.0	0.12677165169831595	0.12677165169831595
AT1G72570	0.0	0.1266871275269414	0.1266871275269414
AT1G23380.1	0.0	0.12659574302143325	0.12659574302143325
AT1G16640	0.0	0.12654916218537046	0.12654916218537046
AT5G28650	0.0	0.12652147713519946	0.12652147713519946
AT4G28140	0.0	0.12645114594164494	0.12645114594164494
AT5G23260	0.0	0.12643132705267485	0.12643132705267485
AT1G68520	0.0	0.12627449146089126	0.12627449146089126
AT2G24430	0.0	0.12613964161539196	0.12613964161539196
AT5G15800	0.0	0.12611527434921746	0.12611527434921746
AT5G06250	0.0	0.12601098751497028	0.12601098751497028
AT3G57600	0.0	0.12568950620756433	0.12568950620756433
AT4G21340	0.0	0.12515085243285662	0.12515085243285662
AT1G67100	0.0	0.12513312111337274	0.12513312111337274
AT3G02990	0.0	0.12504697370684173	0.12504697370684173
AT1G13290	0.0	0.12499047577065273	0.12499047577065273
AT4G31630	0.0	0.12479611846740385	0.12479611846740385
AT5G04760	0.0	0.12476761498767287	0.12476761498767287
AT5G25160	0.0	0.1247096847122749	0.1247096847122749
AT3G13890	0.0	0.12457652443959848	0.12457652443959848
AT1G58100	0.0	0.12456357067144105	0.12456357067144105
AT1G76420	0.0	0.12444720606598444	0.12444720606598444
AT4G05170	0.0	0.12433644148689015	0.12433644148689015
AT1G60380	0.0	0.1242627700760762	0.1242627700760762
AT1G25250	0.0	0.12416768925623113	0.12416768925623113
AT1G22130	0.0	0.12415977999177225	0.12415977999177225
AT5G42910	0.0	0.12389273899785527	0.12389273899785527
AT5G63470	0.0	0.12381028148502947	0.12381028148502947
AT5G66700	0.0	0.1235062447354403	0.1235062447354403
AT5G23000	0.0	0.12349168723688927	0.12349168723688927
AT5G10120	0.0	0.12345103632955312	0.12345103632955312
AT4G38340	0.0	0.12331989727542053	0.12331989727542053
AT1G07530	0.0	0.12327095181869473	0.12327095181869473
AT5G46830	0.0	0.1232227799749341	0.1232227799749341
AT3G17730	0.0	0.12312457455393445	0.12312457455393445
AT5G60910	0.0	0.1229722162068544	0.1229722162068544
AT5G58010	0.0	0.12282851707719945	0.12282851707719945
AT2G04880	0.0	0.12277973886315555	0.12277973886315555
AT3G22830	0.0	0.12271811033240294	0.12271811033240294
AT2G45650	0.0	0.12266827825375608	0.12266827825375608
AT2G32930	0.0	0.12265034846098555	0.12265034846098555
AT2G30470	0.0	0.1226391584257032	0.1226391584257032
AT4G18870	0.0	0.12254589645816545	0.12254589645816545
AT2G27300	0.0	0.12243780190805326	0.12243780190805326
AT1G02250	0.0	0.12243042802257288	0.12243042802257288
AT2G47190	0.0	0.12214050528831105	0.12214050528831105
AT1G16490	0.0	0.12211444062556208	0.12211444062556208
AT5G62610	0.0	0.12209205220149792	0.12209205220149792
AT3G56520	0.0	0.12207428262635678	0.12207428262635678
AT1G42990	0.0	0.12198081983955207	0.12198081983955207
AT1G77570	0.0	0.12189894483391245	0.12189894483391245
AT3G03200	0.0	0.12177709462959398	0.12177709462959398
AT1G18860	0.0	0.12157564679675545	0.12157564679675545
AT2G17770	0.0	0.12152221858772372	0.12152221858772372
AT4G01460	0.0	0.12151717059764128	0.12151717059764128
AT2G42430	0.0	0.12127313141466925	0.12127313141466925
AT1G18750	0.0	0.1212274845258099	0.1212274845258099
AT1G66390	0.0	0.1212034838732912	0.1212034838732912
AT5G07700	0.0	0.12113051149220955	0.12113051149220955
AT4G01500	0.0	0.12108942918936301	0.12108942918936301
AT3G12250	0.0	0.12104110919378895	0.12104110919378895
AT3G56560	0.0	0.12100771099529438	0.12100771099529438
AT4G40060	0.0	0.12077918228264754	0.12077918228264754
AT3G53790	0.0	0.12077589753172745	0.12077589753172745
AT4G21610	0.0	0.12060850284908088	0.12060850284908088
AT1G63910	0.0	0.1203994914617076	0.1203994914617076
AT3G03660	0.0	0.12033913686360168	0.12033913686360168
AT2G36010	0.0	0.12030156490596795	0.12030156490596795
AT4G22680	0.0	0.12026993259928324	0.12026993259928324
AT1G80730	0.0	0.11989920057152514	0.11989920057152514
AT4G32800	0.0	0.11961014795180153	0.11961014795180153
AT3G06160	0.0	0.11953401904823367	0.11953401904823367
AT1G55580	0.0	0.11941929494903802	0.11941929494903802
AT5G06710	0.0	0.1190618277676712	0.1190618277676712
AT4G26930	0.0	0.11903536983550896	0.11903536983550896
AT1G71692	0.0	0.11896465359746315	0.11896465359746315
AT1G68640	0.0	0.1188249338035446	0.1188249338035446
AT5G06080	0.0	0.11878043920193795	0.11878043920193795
AT5G39690	0.0	0.11874946080764028	0.11874946080764028
AT3G58780	0.0	0.11872827129675073	0.11872827129675073
AT2G27990	0.0	0.1187159497030032	0.1187159497030032
AT5G05550	0.0	0.1183972594943688	0.1183972594943688
AT2G25230	0.0	0.11827186459180307	0.11827186459180307
AT4G11140	0.0	0.118196891072553	0.118196891072553
AT1G33070	0.0	0.11800752806600208	0.11800752806600208
AT2G24260	0.0	0.11799708224473608	0.11799708224473608
AT5G46760	0.0	0.11795839682281582	0.11795839682281582
AT5G51860	0.0	0.11780282390764985	0.11780282390764985
AT3G01470	0.0	0.11768820894393647	0.11768820894393647
AT4G21750	0.0	0.1176081066027332	0.1176081066027332
AT5G15480	0.0	0.11737556772133699	0.11737556772133699
AT3G28470	0.0	0.11719682070544285	0.11719682070544285
AT3G21430.1	0.0	0.11715276852881926	0.11715276852881926
AT5G64530	0.0	0.1170437424538629	0.1170437424538629
AT3G19500	0.0	0.1170245356210214	0.1170245356210214
AT2G30130	0.0	0.11680872463002505	0.11680872463002505
AT1G66550	0.0	0.11678185608369053	0.11678185608369053
AT1G29860	0.0	0.11666347578855435	0.11666347578855435
AT1G12630	0.0	0.11662961685602187	0.11662961685602187
AT3G04450	0.0	0.11655563926562384	0.11655563926562384
AT1G25340	0.0	0.1165067608937502	0.1165067608937502
AT1G66470	0.0	0.11631545900832342	0.11631545900832342
AT1G72830	0.0	0.11629267265815445	0.11629267265815445
AT5G16770	0.0	0.11614198334267135	0.11614198334267135
AT3G46070	0.0	0.11579192172988095	0.11579192172988095
AT1G71450	0.0	0.11568571781805992	0.11568571781805992
AT4G34680	0.0	0.11559729987645816	0.11559729987645816
AT2G12900	0.0	0.11558103440314504	0.11558103440314504
AT3G02940	0.0	0.11555470234531134	0.11555470234531134
AT3G25990	0.0	0.11548783141306172	0.11548783141306172
AT3G10040	0.0	0.11530950821592854	0.11530950821592854
AT5G46590	0.0	0.1152729043680852	0.1152729043680852
AT2G25650	0.0	0.11508239354731024	0.11508239354731024
AT1G07540	0.0	0.11507760267363695	0.11507760267363695
AT3G53600	0.0	0.11479775534461452	0.11479775534461452
AT3G23130	0.0	0.11469217373522266	0.11469217373522266
AT2G19510	0.0	0.1143303030521563	0.1143303030521563
AT2G32370	0.0	0.11404440297476374	0.11404440297476374
AT5G41090	0.0	0.11387088581304575	0.11387088581304575
AT1G31320	0.0	0.11334862149757555	0.11334862149757555
AT3G45610	0.0	0.11334492795865875	0.11334492795865875
AT5G67450	0.0	0.11313175219483547	0.11313175219483547
AT1G27740	0.0	0.1131248486800136	0.1131248486800136
AT2G27110	0.0	0.11305810854849455	0.11305810854849455
AT4G27330	0.0	0.1130477212741142	0.1130477212741142
AT2G35430	0.0	0.11291931074269584	0.11291931074269584
AT4G36590	0.0	0.11284821431083572	0.11284821431083572
AT4G13480	0.0	0.11282549103441394	0.11282549103441394
AT3G58070	0.0	0.11233941783534968	0.11233941783534968
AT1G17590	0.0	0.11222457983133444	0.11222457983133444
AT1G03840	0.0	0.11200250356502746	0.11200250356502746
AT1G52890	0.0	0.11194972949439486	0.11194972949439486
AT3G54340	0.0	0.11186025865329156	0.11186025865329156
AT5G66980	0.0	0.11160858570591113	0.11160858570591113
AT5G35770	0.0	0.11154953963432822	0.11154953963432822
AT3G03260	0.0	0.11138011222440723	0.11138011222440723
AT3G12910	0.0	0.11132986492585524	0.11132986492585524
AT4G25210	0.0	0.11130703043537343	0.11130703043537343
AT4G36060	0.0	0.1111726948487398	0.1111726948487398
AT5G60470	0.0	0.11111502762422636	0.11111502762422636
AT2G24830	0.0	0.1110414047609608	0.1110414047609608
AT5G57390	0.0	0.11078140213051746	0.11078140213051746
AT1G14687	0.0	0.11067244745477713	0.11067244745477713
AT5G25390	0.0	0.110624925878979	0.110624925878979
AT1G01530	0.0	0.11038051378859756	0.11038051378859756
AT3G13540	0.0	0.11028205308774204	0.11028205308774204
AT4G18770	0.0	0.10993708047728916	0.10993708047728916
AT3G51960	0.0	0.10974119807920098	0.10974119807920098
AT5G03740	0.0	0.10973903385028036	0.10973903385028036
AT3G53370	0.0	0.10968163721769417	0.10968163721769417
AT5G65590	0.0	0.10957508250540668	0.10957508250540668
AT1G19210	0.0	0.10947491934985992	0.10947491934985992
AT2G33880	0.0	0.10947422471598506	0.10947422471598506
AT3G01080	0.0	0.10942047487315758	0.10942047487315758
AT3G26790	0.0	0.10940633354036174	0.10940633354036174
AT3G23240	0.0	0.10911767332764293	0.10911767332764293
AT2G40210	0.0	0.10902841347025903	0.10902841347025903
AT1G28300	0.0	0.10891685249390552	0.10891685249390552
AT5G62165	0.0	0.10886538130003336	0.10886538130003336
AT3G22170	0.0	0.10873827432447056	0.10873827432447056
AT4G16150	0.0	0.10848243852560216	0.10848243852560216
AT2G37740	0.0	0.10836893329445686	0.10836893329445686
AT3G61120	0.0	0.10786378648670217	0.10786378648670217
AT1G34670	0.0	0.10763997303791066	0.10763997303791066
AT5G48670	0.0	0.10763950228502996	0.10763950228502996
AT2G46400	0.0	0.10756718163660048	0.10756718163660048
AT1G20980	0.0	0.10754545420107373	0.10754545420107373
AT2G26950	0.0	0.107369906163969	0.107369906163969
AT3G44350	0.0	0.10697042625350056	0.10697042625350056
AT4G31060	0.0	0.10692321533453468	0.10692321533453468
AT5G38800	0.0	0.10691418729212572	0.10691418729212572
AT5G53660	0.0	0.10688602957994046	0.10688602957994046
AT4G34410	0.0	0.10687098874639447	0.10687098874639447
AT1G28370	0.0	0.10681587113789144	0.10681587113789144
AT5G39820	0.0	0.10679116402820966	0.10679116402820966
AT2G34820	0.0	0.10672997281143136	0.10672997281143136
AT5G06839	0.0	0.1066967052429008	0.1066967052429008
AT4G23810	0.0	0.10634849474056099	0.10634849474056099
AT4G11880	0.0	0.10610429033450187	0.10610429033450187
AT1G22810	0.0	0.10601104593813272	0.10601104593813272
AT1G50680	0.0	0.10600868982332404	0.10600868982332404
AT3G26744	0.0	0.10583921295638732	0.10583921295638732
AT1G60040	0.0	0.10579851565470094	0.10579851565470094
AT4G25410	0.0	0.10521132238758917	0.10521132238758917
AT1G19000	0.0	0.10500971471169963	0.10500971471169963
AT5G42640	0.0	0.10495821919185601	0.10495821919185601
AT1G77640	0.0	0.10487546381314107	0.10487546381314107
AT5G18000	0.0	0.10474458591589243	0.10474458591589243
AT5G53950	0.0	0.10473047204710724	0.10473047204710724
AT3G11580	0.0	0.1046327325554673	0.1046327325554673
AT4G34400	0.0	0.104547835855928	0.104547835855928
AT5G49240	0.0	0.10448182156556572	0.10448182156556572
AT1G12610	0.0	0.10438737905144113	0.10438737905144113
AT3G12720	0.0	0.10436273916937328	0.10436273916937328
AT5G07500	0.0	0.10413022971213244	0.10413022971213244
AT5G66300	0.0	0.1040421246212873	0.1040421246212873
AT5G13180	0.0	0.10403275066931494	0.10403275066931494
AT1G65330	0.0	0.1040053909974276	0.1040053909974276
AT3G62610	0.0	0.10342331000417808	0.10342331000417808
AT1G29570	0.0	0.10296785083355134	0.10296785083355134
AT5G45980	0.0	0.10296363226636272	0.10296363226636272
AT2G20400	0.0	0.10293799619098644	0.10293799619098644
AT4G22070	0.0	0.10281549681555653	0.10281549681555653
AT1G28160	0.0	0.10263579372621273	0.10263579372621273
AT2G33720	0.0	0.10253089501415233	0.10253089501415233
AT2G13570	0.0	0.1025036198670252	0.1025036198670252
AT3G01220	0.0	0.10239441372916352	0.10239441372916352
AT1G24260	0.0	0.10235032700473433	0.10235032700473433
AT1G74480	0.0	0.10234716777678284	0.10234716777678284
AT4G36870	0.0	0.10226612233081137	0.10226612233081137
AT1G65910	0.0	0.10201860581948677	0.10201860581948677
AT3G23220	0.0	0.10195264716876763	0.10195264716876763
AT2G37430	0.0	0.10188881811564407	0.10188881811564407
AT2G37000	0.0	0.10187492937334043	0.10187492937334043
AT1G28460	0.0	0.10160133084798187	0.10160133084798187
AT4G38000	0.0	0.10150467918231232	0.10150467918231232
AT1G69560	0.0	0.10129050745425296	0.10129050745425296
AT5G58620	0.0	0.1011980813361407	0.1011980813361407
AT4G12350	0.0	0.1010847245823094	0.1010847245823094
AT5G01860	0.0	0.10105689802751026	0.10105689802751026
AT1G68320	0.0	0.10075116234441923	0.10075116234441923
AT3G61910	0.0	0.10073334441609293	0.10073334441609293
AT1G34180	0.0	0.10063631359577636	0.10063631359577636
AT1G79580	0.0	0.10047717172948624	0.10047717172948624
AT1G36000	0.0	0.10038205116883996	0.10038205116883996
AT5G62320	0.0	0.1001318297751366	0.1001318297751366
AT2G03060	0.0	0.09977680979998424	0.09977680979998424
AT1G61730	0.0	0.0997004697591954	0.0997004697591954
AT4G18450	0.0	0.0994647936845679	0.0994647936845679
AT2G16910	0.0	0.09939560840854474	0.09939560840854474
AT2G25820	0.0	0.09929813167421116	0.09929813167421116
AT1G51190	0.0	0.09922629452757764	0.09922629452757764
AT5G64060	0.0	0.09913241431346036	0.09913241431346036
AT1G12860	0.0	0.09884083758212142	0.09884083758212142
AT1G72350	0.0	0.09881881823807374	0.09881881823807374
AT4G09960	0.0	0.09879414608535796	0.09879414608535796
AT5G57620	0.0	0.09878595951212232	0.09878595951212232
AT5G45420	0.0	0.09873486013216924	0.09873486013216924
AT1G33280	0.0	0.09864262054100956	0.09864262054100956
AT1G63030	0.0	0.09856546743551932	0.09856546743551932
AT5G22570	0.0	0.09853553610525327	0.09853553610525327
AT4G03170	0.0	0.09838937538502016	0.09838937538502016
AT3G27650	0.0	0.09838750669142084	0.09838750669142084
AT5G62110	0.0	0.09832736502260896	0.09832736502260896
AT4G22700	0.0	0.09819376108859867	0.09819376108859867
AT3G57980	0.0	0.09817621368088644	0.09817621368088644
AT5G24590	0.0	0.09814360253978058	0.09814360253978058
AT5G65510	0.0	0.09806901858634644	0.09806901858634644
AT5G58280	0.0	0.09785765798609908	0.09785765798609908
AT4G31610	0.0	0.09779619510559726	0.09779619510559726
AT2G04038	0.0	0.09778922216922116	0.09778922216922116
AT1G74930	0.0	0.09768420178540382	0.09768420178540382
AT3G50870	0.0	0.09762215646099877	0.09762215646099877
AT1G66370	0.0	0.09748156073887147	0.09748156073887147
AT3G24650	0.0	0.0974428076483792	0.0974428076483792
AT3G56660	0.0	0.09709051082130536	0.09709051082130536
AT1G60240	0.0	0.09703923153639796	0.09703923153639796
AT5G58080	0.0	0.09700107738108656	0.09700107738108656
AT1G34410	0.0	0.09690782024986523	0.09690782024986523
AT5G67010	0.0	0.09637152109296404	0.09637152109296404
AT3G15500	0.0	0.09573443960331644	0.09573443960331644
AT5G56200	0.0	0.09551303946944506	0.09551303946944506
AT5G27580	0.0	0.09527075498094932	0.09527075498094932
AT4G26170	0.0	0.09526836626698568	0.09526836626698568
AT2G32460	0.0	0.0952127441257924	0.0952127441257924
AT2G18380	0.0	0.09507219055102097	0.09507219055102097
AT3G26620	0.0	0.09476342657409936	0.09476342657409936
AT2G03500	0.0	0.09463589485391356	0.09463589485391356
AT4G14410	0.0	0.09462141991273244	0.09462141991273244
AT5G15060	0.0	0.09459860269564707	0.09459860269564707
AT4G36540	0.0	0.09422287717402504	0.09422287717402504
AT2G44840	0.0	0.09408407650024472	0.09408407650024472
AT1G32770	0.0	0.09392877121846327	0.09392877121846327
AT4G25530	0.0	0.0938586635048592	0.0938586635048592
AT1G73410	0.0	0.09350191561360903	0.09350191561360903
AT1G63650	0.0	0.09349520556702222	0.09349520556702222
AT2G42440	0.0	0.09313898735055948	0.09313898735055948
AT1G77980	0.0	0.0931372820936718	0.0931372820936718
AT2G42660	0.0	0.09247897951851022	0.09247897951851022
AT3G08500	0.0	0.09247732569964727	0.09247732569964727
AT5G01310	0.0	0.09245581611397606	0.09245581611397606
AT1G19040	0.0	0.09196926847817498	0.09196926847817498
AT5G58850	0.0	0.09181100523685606	0.09181100523685606
AT3G46770	0.0	0.09174473494646324	0.09174473494646324
AT1G21970	0.0	0.09162279614759916	0.09162279614759916
AT2G26150	0.0	0.09158276960660323	0.09158276960660323
AT2G17180	0.0	0.0914853728703397	0.0914853728703397
AT3G16160	0.0	0.09136439220288944	0.09136439220288944
AT1G54330	0.0	0.09128788338303682	0.09128788338303682
AT5G04390	0.0	0.09126052808134663	0.09126052808134663
AT1G26870	0.0	0.09098712779019764	0.09098712779019764
AT5G17800	0.0	0.09077462669910298	0.09077462669910298
AT5G03790	0.0	0.09039410300731757	0.09039410300731757
AT2G47520	0.0	0.09034985956735088	0.09034985956735088
AT1G69120	0.0	0.09002936468688535	0.09002936468688535
AT4G00870	0.0	0.09000970033292158	0.09000970033292158
AT2G41690	0.0	0.08981239290852583	0.08981239290852583
AT2G28710	0.0	0.08979988468930193	0.08979988468930193
AT1G08970	0.0	0.0897204211428611	0.0897204211428611
AT1G54160	0.0	0.08942492887532713	0.08942492887532713
AT3G44460	0.0	0.08941200285582218	0.08941200285582218
AT5G44160	0.0	0.08915371065493755	0.08915371065493755
AT5G48150	0.0	0.08907166471591893	0.08907166471591893
AT1G62700	0.0	0.0888384059895257	0.0888384059895257
AT5G07210	0.0	0.08880725133903355	0.08880725133903355
AT3G20880	0.0	0.0884747774704346	0.0884747774704346
AT5G43410	0.0	0.08832855608590318	0.08832855608590318
AT3G09735	0.0	0.08801563004439514	0.08801563004439514
AT5G65230	0.0	0.08766653034037006	0.08766653034037006
AT5G52170	0.0	0.0873938080854172	0.0873938080854172
AT5G54680	0.0	0.08712804085532669	0.08712804085532669
AT1G75430	0.0	0.08697415050844874	0.08697415050844874
AT2G46590	0.0	0.08697369525197242	0.08697369525197242
AT4G21080	0.0	0.08691166662277049	0.08691166662277049
AT1G16530	0.0	0.08688847967922134	0.08688847967922134
AT1G31640	0.0	0.08645382553432232	0.08645382553432232
AT1G59530	0.0	0.08637120521550731	0.08637120521550731
AT5G50480	0.0	0.08621388090025556	0.08621388090025556
AT3G49950	0.0	0.0861540225301953	0.0861540225301953
AT2G22750	0.0	0.08595231285070805	0.08595231285070805
AT4G00220	0.0	0.08589390987926551	0.08589390987926551
AT5G61850	0.0	0.08588027631243493	0.08588027631243493
AT2G36270	0.0	0.0854332025844834	0.0854332025844834
AT5G09780	0.0	0.08530765445668323	0.08530765445668323
AT2G47070.2	0.0	0.08500649525770115	0.08500649525770115
AT2G32250	0.0	0.08489150933908317	0.08489150933908317
AT1G70920.1	0.0	0.08482449124386354	0.08482449124386354
AT2G01570	0.0	0.08465884790017585	0.08465884790017585
AT1G69180	0.0	0.08461457279405384	0.08461457279405384
AT2G34830	0.0	0.08455468632361236	0.08455468632361236
AT3G17010	0.0	0.08454435117781775	0.08454435117781775
AT4G08250	0.0	0.08438353058809205	0.08438353058809205
AT5G62380	0.0	0.08410893334956304	0.08410893334956304
AT5G65080	0.0	0.08376642614620201	0.08376642614620201
AT1G60280	0.0	0.08370895626605661	0.08370895626605661
AT5G23650	0.0	0.08359041500630696	0.08359041500630696
AT2G44745	0.0	0.08311559855777445	0.08311559855777445
AT2G18060	0.0	0.08293081200535822	0.08293081200535822
AT4G36620	0.0	0.0828346866229958	0.0828346866229958
AT5G07160	0.0	0.0825419797380386	0.0825419797380386
AT2G40220	0.0	0.0820225290265421	0.0820225290265421
AT2G21900	0.0	0.08196082862705975	0.08196082862705975
AT5G24110	0.0	0.08133109669751984	0.08133109669751984
AT3G13840	0.0	0.08111599954571465	0.08111599954571465
AT4G04890	0.0	0.08062943755400084	0.08062943755400084
AT2G28700	0.0	0.08059982737807883	0.08059982737807883
AT1G17920	0.0	0.08050445511300075	0.08050445511300075
AT3G15270	0.0	0.08034597684254496	0.08034597684254496
AT4G00390	0.0	0.08006747600541092	0.08006747600541092
AT1G26610	0.0	0.0797902448308404	0.0797902448308404
AT3G16280	0.0	0.07830858036986876	0.07830858036986876
AT3G06120	0.0	0.07791480243943857	0.07791480243943857
AT4G26440	0.0	0.07768651091041928	0.07768651091041928
AT5G53290	0.0	0.07681965832277332	0.07681965832277332
AT2G20880	0.0	0.07663163090520729	0.07663163090520729
AT2G46770	0.0	0.0764847383146343	0.0764847383146343
AT5G49520	0.0	0.07632353910289949	0.07632353910289949
AT5G06500	0.0	0.07607712918450844	0.07607712918450844
AT2G24790	0.0	0.07517158182610889	0.07517158182610889
AT3G27785.1	0.0	0.07482987296258724	0.07482987296258724
AT5G22380	0.0	0.07430562549154274	0.07430562549154274
AT5G27910	0.0	0.07391780758317308	0.07391780758317308
AT4G39410	0.0	0.07331172402882713	0.07331172402882713
AT2G17950	0.0	0.0732347923028833	0.0732347923028833
AT5G06510	0.0	0.07286545060499579	0.07286545060499579
AT5G50470	0.0	0.07260717450232339	0.07260717450232339
AT5G57520	0.0	0.07121654994187511	0.07121654994187511
AT2G22760	0.0	0.07054073708571866	0.07054073708571866
AT5G04410	0.0	0.07019144620661487	0.07019144620661487
AT1G10585	0.0	0.07004803095076728	0.07004803095076728
AT1G75490	0.0	0.07002136967392082	0.07002136967392082
AT3G10590	0.0	0.06891242154905129	0.06891242154905129
AT1G69170	0.0	0.06847206833266803	0.06847206833266803
AT4G04450	0.0	0.0681268740501842	0.0681268740501842
AT5G05660	0.0	0.06703964967554231	0.06703964967554231
AT5G46350	0.0	0.06690366764896702	0.06690366764896702
AT4G37730	0.0	0.0656786371657995	0.0656786371657995
AT1G65360	0.0	0.06376248500855107	0.06376248500855107
AT2G22850	0.0	0.06356071090442186	0.06356071090442186
AT3G60490	0.0	0.061972147105828324	0.061972147105828324
AT3G06220	0.0	0.05889349503401115	0.05889349503401115
AT1G26680	0.0	0.0588579868839261	0.0588579868839261
AT2G16210	0.0	0.058480378194522085	0.058480378194522085
AT1G80590	0.0	0.05804464336184015	0.05804464336184015
AT2G34440	0.0	0.05479587159750464	0.05479587159750464
AT5G62000.1	0.0	0.05344691421379321	0.05344691421379321
AT4G10350	0.0	0.052782036475216086	0.052782036475216086
