	Precision	Recall
0	0.03257328990228013	1.0
1	0.029411764705882353	0.9
2	0.029508196721311476	0.9
3	0.029605263157894735	0.9
4	0.0297029702970297	0.9
5	0.029801324503311258	0.9
6	0.029900332225913623	0.9
7	0.03	0.9
8	0.030100334448160536	0.9
9	0.030201342281879196	0.9
10	0.030303030303030304	0.9
11	0.030405405405405407	0.9
12	0.030508474576271188	0.9
13	0.030612244897959183	0.9
14	0.030716723549488054	0.9
15	0.030821917808219176	0.9
16	0.030927835051546393	0.9
17	0.03103448275862069	0.9
18	0.031141868512110725	0.9
19	0.03125	0.9
20	0.0313588850174216	0.9
21	0.03146853146853147	0.9
22	0.031578947368421054	0.9
23	0.03169014084507042	0.9
24	0.03180212014134275	0.9
25	0.031914893617021274	0.9
26	0.03202846975088968	0.9
27	0.03214285714285714	0.9
28	0.03225806451612903	0.9
29	0.03237410071942446	0.9
30	0.032490974729241874	0.9
31	0.03260869565217391	0.9
32	0.03272727272727273	0.9
33	0.032846715328467155	0.9
34	0.03296703296703297	0.9
35	0.03308823529411765	0.9
36	0.033210332103321034	0.9
37	0.03333333333333333	0.9
38	0.03345724907063197	0.9
39	0.033582089552238806	0.9
40	0.033707865168539325	0.9
41	0.03383458646616541	0.9
42	0.033962264150943396	0.9
43	0.03409090909090909	0.9
44	0.034220532319391636	0.9
45	0.03435114503816794	0.9
46	0.034482758620689655	0.9
47	0.03461538461538462	0.9
48	0.03474903474903475	0.9
49	0.03488372093023256	0.9
50	0.03501945525291829	0.9
51	0.03515625	0.9
52	0.03529411764705882	0.9
53	0.03543307086614173	0.9
54	0.03557312252964427	0.9
55	0.03571428571428571	0.9
56	0.035856573705179286	0.9
57	0.036	0.9
58	0.03614457831325301	0.9
59	0.036290322580645164	0.9
60	0.03643724696356275	0.9
61	0.036585365853658534	0.9
62	0.036734693877551024	0.9
63	0.036885245901639344	0.9
64	0.037037037037037035	0.9
65	0.0371900826446281	0.9
66	0.03734439834024896	0.9
67	0.0375	0.9
68	0.03765690376569038	0.9
69	0.037815126050420166	0.9
70	0.0379746835443038	0.9
71	0.038135593220338986	0.9
72	0.03829787234042553	0.9
73	0.038461538461538464	0.9
74	0.03862660944206009	0.9
75	0.03879310344827586	0.9
76	0.03896103896103896	0.9
77	0.0391304347826087	0.9
78	0.039301310043668124	0.9
79	0.039473684210526314	0.9
80	0.039647577092511016	0.9
81	0.03982300884955752	0.9
82	0.04	0.9
83	0.04017857142857143	0.9
84	0.04035874439461883	0.9
85	0.04054054054054054	0.9
86	0.04072398190045249	0.9
87	0.04090909090909091	0.9
88	0.0410958904109589	0.9
89	0.04128440366972477	0.9
90	0.041474654377880185	0.9
91	0.041666666666666664	0.9
92	0.04186046511627907	0.9
93	0.04205607476635514	0.9
94	0.04225352112676056	0.9
95	0.04245283018867924	0.9
96	0.04265402843601896	0.9
97	0.04285714285714286	0.9
98	0.0430622009569378	0.9
99	0.04326923076923077	0.9
100	0.043478260869565216	0.9
101	0.043689320388349516	0.9
102	0.04390243902439024	0.9
103	0.04411764705882353	0.9
104	0.04433497536945813	0.9
105	0.04455445544554455	0.9
106	0.04477611940298507	0.9
107	0.045	0.9
108	0.04522613065326633	0.9
109	0.045454545454545456	0.9
110	0.04568527918781726	0.9
111	0.04591836734693878	0.9
112	0.046153846153846156	0.9
113	0.04639175257731959	0.9
114	0.046632124352331605	0.9
115	0.046875	0.9
116	0.04712041884816754	0.9
117	0.04736842105263158	0.9
118	0.047619047619047616	0.9
119	0.047872340425531915	0.9
120	0.0481283422459893	0.9
121	0.04838709677419355	0.9
122	0.04864864864864865	0.9
123	0.04891304347826087	0.9
124	0.04918032786885246	0.9
125	0.04945054945054945	0.9
126	0.049723756906077346	0.9
127	0.05	0.9
128	0.05027932960893855	0.9
129	0.05056179775280899	0.9
130	0.05084745762711865	0.9
131	0.05113636363636364	0.9
132	0.05142857142857143	0.9
133	0.05172413793103448	0.9
134	0.05202312138728324	0.9
135	0.05232558139534884	0.9
136	0.05263157894736842	0.9
137	0.052941176470588235	0.9
138	0.05325443786982249	0.9
139	0.05357142857142857	0.9
140	0.05389221556886228	0.9
141	0.05421686746987952	0.9
142	0.05454545454545454	0.9
143	0.054878048780487805	0.9
144	0.05521472392638037	0.9
145	0.05555555555555555	0.9
146	0.055900621118012424	0.9
147	0.05625	0.9
148	0.05660377358490566	0.9
149	0.056962025316455694	0.9
150	0.05732484076433121	0.9
151	0.057692307692307696	0.9
152	0.05806451612903226	0.9
153	0.05844155844155844	0.9
154	0.05228758169934641	0.8
155	0.05263157894736842	0.8
156	0.052980132450331126	0.8
157	0.05333333333333334	0.8
158	0.053691275167785234	0.8
159	0.05405405405405406	0.8
160	0.05442176870748299	0.8
161	0.0547945205479452	0.8
162	0.05517241379310345	0.8
163	0.05555555555555555	0.8
164	0.055944055944055944	0.8
165	0.056338028169014086	0.8
166	0.05673758865248227	0.8
167	0.05714285714285714	0.8
168	0.05755395683453238	0.8
169	0.057971014492753624	0.8
170	0.058394160583941604	0.8
171	0.051470588235294115	0.7
172	0.05185185185185185	0.7
173	0.05223880597014925	0.7
174	0.05263157894736842	0.7
175	0.05303030303030303	0.7
176	0.05343511450381679	0.7
177	0.05384615384615385	0.7
178	0.05426356589147287	0.7
179	0.0546875	0.7
180	0.05511811023622047	0.7
181	0.05555555555555555	0.7
182	0.056	0.7
183	0.056451612903225805	0.7
184	0.056910569105691054	0.7
185	0.05737704918032787	0.7
186	0.05785123966942149	0.7
187	0.058333333333333334	0.7
188	0.058823529411764705	0.7
189	0.059322033898305086	0.7
190	0.05982905982905983	0.7
191	0.0603448275862069	0.7
192	0.06086956521739131	0.7
193	0.06140350877192982	0.7
194	0.061946902654867256	0.7
195	0.0625	0.7
196	0.06306306306306306	0.7
197	0.06363636363636363	0.7
198	0.06422018348623854	0.7
199	0.06481481481481481	0.7
200	0.06542056074766354	0.7
201	0.0660377358490566	0.7
202	0.06666666666666667	0.7
203	0.0673076923076923	0.7
204	0.06796116504854369	0.7
205	0.06862745098039216	0.7
206	0.06930693069306931	0.7
207	0.07	0.7
208	0.0707070707070707	0.7
209	0.07142857142857142	0.7
210	0.07216494845360824	0.7
211	0.07291666666666667	0.7
212	0.07368421052631578	0.7
213	0.07446808510638298	0.7
214	0.07526881720430108	0.7
215	0.07608695652173914	0.7
216	0.07692307692307693	0.7
217	0.07777777777777778	0.7
218	0.07865168539325842	0.7
219	0.07954545454545454	0.7
220	0.08045977011494253	0.7
221	0.08139534883720931	0.7
222	0.08235294117647059	0.7
223	0.08333333333333333	0.7
224	0.08433734939759036	0.7
225	0.08536585365853659	0.7
226	0.08641975308641975	0.7
227	0.0875	0.7
228	0.08860759493670886	0.7
229	0.08974358974358974	0.7
230	0.09090909090909091	0.7
231	0.09210526315789473	0.7
232	0.09333333333333334	0.7
233	0.0945945945945946	0.7
234	0.0958904109589041	0.7
235	0.09722222222222222	0.7
236	0.09859154929577464	0.7
237	0.1	0.7
238	0.10144927536231885	0.7
239	0.10294117647058823	0.7
240	0.1044776119402985	0.7
241	0.10606060606060606	0.7
242	0.1076923076923077	0.7
243	0.109375	0.7
244	0.1111111111111111	0.7
245	0.11290322580645161	0.7
246	0.11475409836065574	0.7
247	0.11666666666666667	0.7
248	0.11864406779661017	0.7
249	0.1206896551724138	0.7
250	0.12280701754385964	0.7
251	0.125	0.7
252	0.12727272727272726	0.7
253	0.12962962962962962	0.7
254	0.1320754716981132	0.7
255	0.1346153846153846	0.7
256	0.13725490196078433	0.7
257	0.14	0.7
258	0.14285714285714285	0.7
259	0.14583333333333334	0.7
260	0.14893617021276595	0.7
261	0.15217391304347827	0.7
262	0.15555555555555556	0.7
263	0.1590909090909091	0.7
264	0.16279069767441862	0.7
265	0.16666666666666666	0.7
266	0.17073170731707318	0.7
267	0.175	0.7
268	0.1794871794871795	0.7
269	0.18421052631578946	0.7
270	0.1891891891891892	0.7
271	0.19444444444444445	0.7
272	0.2	0.7
273	0.20588235294117646	0.7
274	0.21212121212121213	0.7
275	0.21875	0.7
276	0.22580645161290322	0.7
277	0.23333333333333334	0.7
278	0.25	0.7
279	0.25925925925925924	0.7
280	0.23076923076923078	0.6
281	0.24	0.6
282	0.25	0.6
283	0.2608695652173913	0.6
284	1.0	0.0
