genes	class	dl_reg_pval_norm	dl_reg_pval_norm_rerank
AT2G46790	1.0	2.694919447577625e-08	37106860.5
AT5G62430	0.0	2.694919447577625e-08	37106860.5
AT2G31380	0.0	2.694919447577625e-08	37106860.5
AT3G17609	0.0	2.694919447577625e-08	37106860.5
AT3G46640	1.0	2.694919447577625e-08	37106860.5
AT5G24470	1.0	2.694919447577625e-08	37106860.5
AT3G47500	0.0	2.694919447577625e-08	37106860.5
AT5G15850	0.0	2.694919447577625e-08	37106860.5
AT3G02380	0.0	2.694919447577625e-08	37106860.5
AT1G73870	0.0	2.694919447577625e-08	37106860.5
AT4G38960	0.0	2.694919447577625e-08	37106860.5
AT2G43010	0.0	2.694919447577625e-08	37106860.5
AT2G21320	0.0	2.694919447577625e-08	37106860.5
AT2G46830	1.0	2.694919447577625e-08	37106860.5
AT4G25480	0.0	2.694919447577625e-08	37106860.5
AT1G26790	0.0	2.694919447577625e-08	37106860.5
AT5G39660	0.0	2.694919447577625e-08	37106860.5
AT1G01060	1.0	2.694919447577625e-08	37106860.5
AT1G18330	0.0	2.694919447577625e-08	37106860.5
AT1G71030	0.0	2.694919447577625e-08	37106860.5
AT1G78600	0.0	2.694919447577625e-08	37106860.5
AT5G02810	1.0	2.694919447577625e-08	37106860.5
AT5G17300	0.0	2.694919447577625e-08	37106860.5
AT5G37260	0.0	1.886443613304337e-07	5300980.071428573
AT1G22070	0.0	4.0423791713664377e-07	2473790.7
AT5G15840	0.0	7.006790563701826e-07	1427186.9423076923
AT5G61380	1.0	1.4013581127403652e-06	713593.4711538461
AT3G07650	0.0	1.886443613304337e-06	530098.0071428573
AT1G49720	0.0	2.533224280722968e-06	394753.8351063829
AT3G61890	0.0	2.533224280722968e-06	394753.8351063829
AT4G32980	0.0	1.0671881012407396e-05	93704.19318181818
AT5G39860	0.0	1.7948163520866988e-05	55716.006756756746
AT1G67970	0.0	2.1828847525378767e-05	45810.93888888888
AT4G34000	0.0	2.2394780609370064e-05	44653.261732851985
AT1G06040	0.0	2.314935805469181e-05	43197.74214202559
AT5G44260	0.0	2.514359844589925e-05	39771.55466237941
AT5G15160	0.0	2.7056991253679362e-05	36959.02440239043
AT3G59060	0.0	3.7540227904756315e-05	26638.090811198854
AT5G05410	0.0	5.400618572945561e-05	18516.39745508982
AT5G05090	0.0	6.319586104569531e-05	15823.821108742004
AT4G00050	0.0	8.276097623510888e-05	12082.98941712797
AT5G59820	0.0	9.82567630586802e-05	10177.416483817884
AT2G40350	0.0	0.00011736374194200559	8520.519058553386
AT4G29190	0.0	0.00014382785091721786	6952.756323777403
AT5G53980	0.0	0.00016239584591102771	6157.792980418187
AT1G05805	0.0	0.00017050755344823632	5864.842816500712
AT3G24520	0.0	0.00017419959309141768	5740.541537747525
AT5G39610	0.0	0.00021225185569121377	4711.384014728288
AT1G27730	0.0	0.0002655843115587749	3765.2826484018274
AT2G28200	0.0	0.0002888414663913699	3462.1067829818994
AT4G26150	0.0	0.0003311247525238628	3020.0098071132093
AT5G67190	0.0	0.0003480218974601745	2873.382414433948
AT4G39070	0.0	0.00037340803865635577	2678.035544168591
AT3G50700	0.0	0.00037359668301768616	2676.6832936593814
AT5G57660	0.0	0.00037828584285647126	2643.503633254969
AT1G01520	0.0	0.00045492935194557893	2198.143504531722
AT2G47890	0.0	0.00045633071005831934	2191.39316718833
AT2G25900	0.0	0.0005586029030938902	1790.180456387495
AT2G39250	0.0	0.0007825237599931151	1277.9164686434547
AT1G20640	0.0	0.0009073524288049108	1102.1075915530605
AT1G77450	0.0	0.0010872922003196687	919.7159693649927
AT5G11060	0.0	0.0011092557938174265	901.5053205704428
AT1G28050	0.0	0.0011614833327114804	860.9680154991997
AT3G02150	0.0	0.0011653370675215164	858.1208200360762
AT5G25190	0.0	0.0012720019792566394	786.1622987288134
AT3G25890	0.0	0.0014867601100341	672.603463901829
AT5G10030	0.0	0.0015125504891474178	661.1349552791933
AT5G62470	0.0	0.0017945738093364165	557.2353696445465
AT1G75250	0.0	0.0018506550830405066	540.3492034599254
AT2G38470	0.0	0.0018730768128443528	533.880934910221
AT1G18710	0.0	0.0020157188992046358	496.1009198229877
AT4G25470	0.0	0.0021834776348163432	457.9849979018045
AT5G44190	0.0	0.0022208022691652934	450.2877243438058
AT2G22840	0.0	0.002225087191086942	449.4205908000872
AT1G17460	0.0	0.002300598834008067	434.66943702558336
AT1G14440	0.0	0.0026516390412495284	377.125236294896
AT2G43000	0.0	0.0027664965081052872	361.4680145339775
AT1G06180	0.0	0.002965004274613855	337.2676419261602
AT2G28350	0.0	0.002967860889228287	336.9430163082958
AT3G50650	0.0	0.003023888264543426	330.70004990775976
AT2G40140	0.0	0.00304676813065336	328.21664042598354
AT5G47220	0.0	0.003074714445324741	325.2334542872918
AT2G02080	0.0	0.003345958087723428	298.86805924708835
AT1G70000	0.0	0.003417858538584799	292.580862756848
AT3G56980	0.0	0.0034253773638435398	291.9386373470753
AT1G18400	0.0	0.004099430616071657	243.93631546769916
AT4G34590	0.0	0.004101344008879436	243.82251228743397
AT3G02830	0.0	0.004418455180275896	226.32344545759506
AT1G68550	0.0	0.004642968919453589	215.37943013361496
AT4G18390	0.0	0.004864140958516283	205.58614738521715
AT3G11090	0.0	0.004968838579054675	201.25427382876478
AT2G46270	0.0	0.005028692739985373	198.8588390077117
AT4G37790	0.0	0.005070490940617302	197.21956152006376
AT1G69490	0.0	0.005340602716848008	187.24478359816925
AT3G13040	0.0	0.006239304454226193	160.2742753357147
AT2G40970	0.0	0.006270996706929707	159.46428402600807
AT5G43170	0.0	0.006472495834025085	154.4999063179195
AT2G34720	0.0	0.0065706986986948145	152.190816510676
AT2G25180	0.0	0.00678734327308558	147.3330520890823
AT3G47640	0.0	0.0070008886901116296	142.83900862649696
AT5G07100	0.0	0.007586871974792909	131.8066264097327
AT1G02340	0.0	0.007761960891302028	128.83342418287492
AT5G46690	0.0	0.007983429371503956	125.2594534836619
AT5G41920	0.0	0.0080317762263935	124.50546078635323
AT5G58900	0.0	0.008905415212909214	112.29122686502124
AT5G59780	0.0	0.008942173914174173	111.82962997564914
AT4G01680	0.0	0.009033855073780765	110.6947135893657
AT5G59340	0.0	0.009083980575505708	110.08389897887136
AT1G02220	0.0	0.00929445378436152	107.5910454988286
AT2G45160	0.0	0.00948625120144562	105.41571994715983
AT1G51140	0.0	0.00970586018722872	103.03053832527196
AT2G03710	0.0	0.009924310357649362	100.76266903817955
AT4G37540	0.0	0.009979744850686034	100.20296259691021
AT3G61630	0.0	0.010051483606380552	99.4878009217677
AT4G23750	0.0	0.0102215330235227	97.83268299370663
AT4G17460	0.0	0.010757956739563026	92.95445447576866
AT2G19810	0.0	0.01114195581164836	89.75084957297621
AT2G33480	0.0	0.01165258914857537	85.81783732778896
AT5G29000	0.0	0.011790569024291344	84.8135486879187
AT2G46680	0.0	0.011935420944598641	83.78422551175697
AT5G16820	0.0	0.012129347348046328	82.44466674961451
AT5G47390	0.0	0.012701505695961532	78.73082325333696
AT1G24625	0.0	0.012819327574209626	78.0072117052251
AT4G01550	0.0	0.012824259276798694	77.97721321879176
AT1G52880	0.0	0.012854388476222613	77.79444365243424
AT1G64530	0.0	0.013670868221255206	73.1482436825204
AT3G19580	0.0	0.014951736485494376	66.88186358622379
AT3G44750	0.0	0.015434746898083709	64.78888229285796
AT5G28770	0.0	0.015445526575874018	64.74366510507997
AT5G53200	0.0	0.015533407899059527	64.37737336830929
AT1G35560	0.0	0.015922931556012397	62.80250571210968
AT5G43840	0.0	0.016844216718361286	59.367557228703625
AT1G66230	0.0	0.016882188133377656	59.23402772789311
AT2G20570	0.0	0.017106405431416113	58.457634715209565
AT2G30420	0.0	0.017291007413575178	57.833530232304426
AT1G69690	0.0	0.017759492210342075	56.30791624873482
AT5G08330	1.0	0.017784366316843218	56.22916117359323
AT2G36400	0.0	0.01802488787753952	55.47884718029683
AT3G50750	0.0	0.018174132516546367	55.02325896928313
AT3G56400	0.0	0.01817456370365798	55.02195355582213
AT1G80840	0.0	0.018503559469818256	54.04365585070979
AT5G61590	0.0	0.01854352512522583	53.92717906907797
AT1G13260	0.0	0.018691880440814983	53.49916522130285
AT5G39760	0.0	0.01914190503936597	52.24140428778988
AT1G29160	0.0	0.019317452092181168	51.76666131889903
AT1G08810	0.0	0.019743626653621102	50.64925596213064
AT5G11260	0.0	0.02065825536493447	48.40679826707003
AT1G25560	0.0	0.020756107890076016	48.17858942032786
AT5G05790	0.0	0.021053492251116208	47.498058187804084
AT1G69310	0.0	0.021660792348627826	46.16636288761377
AT4G16780	0.0	0.022765332033411988	43.92644036697248
AT3G29035	0.0	0.022903904791406436	43.66067747431437
AT4G12750	0.0	0.023228319194505825	43.05089798475514
AT5G02840	1.0	0.023791961596966685	42.03100261087734
AT2G46310	0.0	0.023839931163133567	41.94642984315388
AT1G55110	0.0	0.024669373470709008	40.53609230033111
AT1G09530	0.0	0.025354826232200367	39.44022297143612
AT3G55980	0.0	0.025764292293065327	38.81340844239523
AT3G13810	0.0	0.026688541866806543	37.46926321380391
AT2G36080	0.0	0.0268553573806116	37.23651805587054
AT1G49010	0.0	0.027919742765626858	35.81694890223491
AT1G53170	0.0	0.02863160573770449	34.92643790785078
AT2G03340	0.0	0.02878031139282182	34.74597568980483
AT5G57150	0.0	0.02884725319189965	34.66534554772797
AT4G17490	0.0	0.029159351813123617	34.294315127743495
AT5G08070	0.0	0.029684510765873067	33.687602530733116
AT5G65310	0.0	0.029740430344410308	33.62426126385724
AT4G37750	0.0	0.0305787119877738	32.70248924806994
AT1G13300	0.0	0.03067766942988885	32.59700031273279
AT5G12840	0.0	0.032080671443492234	31.17141739883553
AT5G44210	0.0	0.032570500002283946	30.70262967807915
AT3G23210	0.0	0.033242451217342955	30.082017522170233
AT2G45190	0.0	0.034779633270241216	28.752459585467747
AT5G58620	0.0	0.03525412773737622	28.36547275965662
AT2G31370	0.0	0.03571560574357941	27.99896513528319
AT3G18960	0.0	0.035946317797486534	27.819261089098887
AT1G14580	0.0	0.03779063981982523	26.461578972139897
AT5G28300	0.0	0.037950718035011335	26.34996257718899
AT2G30250	0.0	0.0383753025939772	26.058426446308847
AT4G17880	0.0	0.03873647569834155	25.8154615765113
AT1G22640	0.0	0.03992792653531009	25.045127227321817
AT5G63790	0.0	0.039946521479498384	25.03346882189045
AT1G21910	0.0	0.04191639979889972	23.857010735598752
AT1G62300	0.0	0.0420578291715086	23.776785908803728
AT4G37260	0.0	0.043010860484949946	23.24994172925029
AT3G01140	0.0	0.04305554224939079	23.225813629467165
AT2G38090	0.0	0.04354895505104778	22.962663485904702
AT5G47640	0.0	0.04515782196125162	22.144557832263605
AT5G04340	0.0	0.0455409856083082	21.958242375359713
AT3G60530	0.0	0.04564417407395595	21.908601049056745
AT2G18350	0.0	0.047412822758206664	21.091340734968377
AT3G54990	0.0	0.049687954603435135	20.12560202932696
AT1G79700	0.0	0.050503275533105255	19.800695884457888
AT5G16600	0.0	0.05050839588005567	19.798688566050295
AT4G14770	0.0	0.05165387139124853	19.359633132346886
AT1G56170	0.0	0.05361531461277895	18.651387336290195
AT5G47370	0.0	0.05362911260035055	18.646588606678968
AT4G17230	0.0	0.05467536117748361	18.28977401271964
AT5G16560	0.0	0.05583061924627119	17.911318439599572
AT5G41410	0.0	0.056647098991303775	17.653154668229625
AT1G33240	0.0	0.05911435164395005	16.916365860241033
AT5G56780	0.0	0.059171322241071835	16.900078655093544
AT1G03790	0.0	0.059391712753494724	16.837365915855962
AT3G16770	0.0	0.05940295056759114	16.834180633202024
AT1G19700	0.0	0.06076377709183992	16.457173136037518
AT2G22430	0.0	0.06118259452318797	16.344517714445793
AT5G38140	0.0	0.062047744513443824	16.116621286424536
AT2G23320	0.0	0.062072995908667626	16.110065018794494
AT5G07690	0.0	0.06355452787497343	15.734520158299864
AT3G02990	0.0	0.06520937011095293	15.335219436999813
AT4G31800	0.0	0.06580066238694594	15.197415401678205
AT1G74250	0.0	0.0658566628130666	15.184492461127112
AT5G22890	0.0	0.06749188603546775	14.81659587160579
AT4G38620	0.0	0.0683076381522495	14.639651246191832
AT3G04070	0.0	0.06902322011316478	14.487878113488222
AT5G08520	0.0	0.06945747943294744	14.397297572040108
AT2G23340	0.0	0.06971549102085853	14.344014298067627
AT3G51910	0.0	0.06994054374392572	14.297858530544369
AT3G50260	0.0	0.0708417248071957	14.115974769411963
AT2G40200	0.0	0.07086376924827688	14.111583544143977
AT3G04670	0.0	0.07286124354282142	13.72471771514973
AT1G58110	0.0	0.07337621570005902	13.628394302694948
AT2G42380	0.0	0.07344935581386629	13.614823287683796
AT1G01720	0.0	0.07426281724911757	13.465688981949882
AT1G06070	0.0	0.0752198909417303	13.294355887522599
AT3G45260	0.0	0.07522641264679343	13.293203341959781
AT5G04150	0.0	0.0756754670743433	13.214322139797348
AT4G01250	0.0	0.07625573712979572	13.113767404777546
AT2G34710	0.0	0.07677553319284447	13.02498280914838
AT1G73830	0.0	0.07708881757862539	12.972050050969683
AT3G25710	0.0	0.0778953800200909	12.8377318364976
AT1G22490	0.0	0.07831915610322247	12.768268323550727
AT1G66350	0.0	0.07924397161004769	12.619256451719863
AT5G13330	0.0	0.07959234384703605	12.564022513545304
AT3G11020	0.0	0.08098205990776289	12.348413971427524
AT5G50670	0.0	0.08137182610746603	12.289265804104254
AT1G76350	0.0	0.0814322731506752	12.280143502192146
AT5G56860	0.0	0.08188364520894997	12.212450941188667
AT4G08150	0.0	0.08201079150848667	12.19351723847852
AT1G22190	0.0	0.08337544481835105	11.993939009005427
AT1G72050	0.0	0.08697305448408926	11.497813960103455
AT4G00730	0.0	0.0878387704074291	11.38449451605055
AT5G06110	0.0	0.08801876407733282	11.361213833011849
AT1G29280	0.0	0.0883863510899824	11.313964064224605
AT1G03040	0.0	0.08864964472001073	11.280361056813934
AT5G60120	0.0	0.0886898529181686	11.275247022031587
AT4G37740	0.0	0.09084864509084513	11.007318810313997
AT4G36990	0.0	0.09164617955216127	10.91152959006699
AT5G40330	0.0	0.0935285807862942	10.691918893593876
AT1G18570	0.0	0.09357045983450957	10.687133543733976
AT1G07640	0.0	0.0937287324536658	10.669086989886946
AT4G00150	0.0	0.09439990214208502	10.593231320249258
AT3G28910	0.0	0.0959686686509089	10.420067445528007
AT3G06590	0.0	0.10053615287663584	9.946670639238231
AT2G41900	0.0	0.10128544827984033	9.873086578410673
AT2G31070	0.0	0.10290943368814508	9.717282120416504
AT5G10970	0.0	0.1030011956953351	9.708625159632877
AT2G46870	0.0	0.10414257492896764	9.602220808176371
AT3G11450	0.0	0.1082418977482614	9.238566773151963
AT1G68840	0.0	0.1085568529840998	9.211762984198417
AT2G20180	0.0	0.10907309175347776	9.1681640625
AT3G49940	0.0	0.10939661683315947	9.141050509131354
AT5G60450	0.0	0.11008942672474273	9.083524455988913
AT2G30590	0.0	0.1107130310849122	9.032360420455316
AT2G02070	0.0	0.11071316583088456	9.032349427415975
AT5G43270	0.0	0.11214969264241582	8.916653950969392
AT1G30500	0.0	0.11272481540172336	8.87116112309652
AT1G72360	0.0	0.11404985339570832	8.768095444457886
AT4G09460	0.0	0.11581863682593142	8.634188999331265
AT2G46530	0.0	0.12113856951061652	8.255009152244947
AT1G28520	0.0	0.12200148271773086	8.196621694456399
AT4G39780	0.0	0.12527810052806812	7.98224107633204
AT5G62020	0.0	0.12612214929904944	7.928821428731684
AT5G60850	0.0	0.12648254087677402	7.906229532297686
AT5G56270	0.0	0.12673756110409826	7.890320685425147
AT3G14230	0.0	0.12891667296940953	7.756948554181884
AT5G24800	0.0	0.13009211598485945	7.686860901827312
AT2G42280	0.0	0.13164735399805652	7.596050886178562
AT1G77920	0.0	0.13199955302066044	7.575783228928669
AT4G00238	0.0	0.1350031215925691	7.407236130568424
AT4G11660	0.0	0.1381656634626904	7.237688257256733
AT5G24590	0.0	0.13872580246986946	7.208464338976846
AT1G30210	0.0	0.13972936352295287	7.156691870536814
AT3G15030	0.0	0.14124140197740526	7.080076988756969
AT2G28450	0.0	0.1412644704878765	7.07892081106
AT2G33710	0.0	0.1412731211793032	7.078487341769738
AT3G13960	0.0	0.14207518310529127	7.038526913309727
AT2G28510	0.0	0.14210078484004324	7.037258809834563
AT1G50420	0.0	0.14437696770385627	6.926312526878831
AT5G15830	0.0	0.14468157444901594	6.911730148142589
AT2G02820	0.0	0.14520085847736972	6.887011622977801
AT1G68520	0.0	0.14607913272533524	6.845604716727381
AT3G60390	0.0	0.14761052070142122	6.774584868667643
AT5G66770	0.0	0.14835817220376268	6.740444325686009
AT4G27410	0.0	0.1523787764259927	6.562593711898454
AT5G60890	0.0	0.15420326384119726	6.4849470438565255
AT4G01280	0.0	0.15432197504286305	6.47995853942544
AT5G54230	0.0	0.15604432501100438	6.40843555143373
AT2G28160	0.0	0.15898736569212046	6.289807970883065
AT3G11280	0.0	0.159717688862414	6.261047271109917
AT5G18240	0.0	0.1604735329198761	6.231557203263523
AT5G67060	0.0	0.1605491793087696	6.228621063685359
AT1G30330	0.0	0.1635724207926456	6.113500033527418
AT4G35270	0.0	0.16423240656535734	6.088932269296338
AT1G68130	0.0	0.16877401956438756	5.9250825605803525
AT5G50915	0.0	0.16999624638144742	5.882482827039263
AT5G52660	1.0	0.17016610715422825	5.876610899335321
AT3G27010	0.0	0.17205535348375808	5.81208302881665
AT3G28920	0.0	0.1733500736339578	5.768673638475505
AT1G46768	0.0	0.1733525260106551	5.768592030430148
AT1G25550	0.0	0.17571941986307354	5.690890629955605
AT3G54810	0.0	0.1762908775319324	5.672443259685205
AT5G06960	0.0	0.1798402211903645	5.560491381633033
AT2G36010	0.0	0.18230089823955867	5.485436493493938
AT5G08130	0.0	0.1826169583923706	5.475942698877949
AT2G46510	0.0	0.18332971068786594	5.4546532378627
AT5G61600	0.0	0.1851775630546809	5.400222270474048
AT1G32640	0.0	0.18723939202563364	5.340756499909468
AT4G17810	0.0	0.1893774872169528	5.280458700217042
AT2G33860	0.0	0.1899588621893787	5.264297693060795
AT2G44940	0.0	0.195810340785904	5.106982583179223
AT4G32890	0.0	0.19660407541079905	5.086364552263356
AT1G49560	0.0	0.1971903012382306	5.071243330532138
AT1G76580	0.0	0.1987709523418183	5.030916178739944
AT1G54060	0.0	0.19923725425383265	5.0191416446945105
AT5G52510	0.0	0.2029101599689362	4.928289446684638
AT3G02550	0.0	0.2042584281685593	4.895758813804121
AT5G15150	0.0	0.2050994855789538	4.875682633611708
AT1G26960	0.0	0.21140597437500808	4.730235287608871
AT4G13980	0.0	0.21234305176531976	4.709360592147813
AT4G37180	0.0	0.2125548724338994	4.704667498558432
AT3G15500	0.0	0.21807040237208966	4.585675034861988
AT1G04990	0.0	0.21825831910516924	4.58172684596798
AT2G45050	0.0	0.21930130682977075	4.559936347193018
AT4G37650	0.0	0.219477931850365	4.556266735198585
AT4G02590	0.0	0.2310892887313924	4.327331679844124
AT5G14960	0.0	0.23273165349032965	4.296794118903777
AT5G15310	0.0	0.2375993786917112	4.208765214396942
AT2G01940	0.0	0.2380617729705265	4.200590407783807
AT1G51700	0.0	0.23872043823270905	4.189000352894718
AT4G16110	0.0	0.24322987389353515	4.111337082046562
AT1G32240	0.0	0.24365106285399696	4.104229993034055
AT3G22760	0.0	0.2480921553576326	4.030760257447353
AT3G18400	0.0	0.25066787851804384	3.9893424155980037
AT5G53210	0.0	0.25131072460306897	3.9791377848257103
AT3G16870	0.0	0.2516948314719322	3.973065295587983
AT1G78080	0.0	0.2518500318829183	3.9706169283507835
AT5G51910	0.0	0.2533841686768408	3.9465764780094545
AT2G26150	0.0	0.25386071128275595	3.939168038043417
AT3G19860	0.0	0.2543585437523069	3.9314582685054025
AT1G79840	0.0	0.25455209286703195	3.9284689775556503
AT3G15210	0.0	0.25655417547383186	3.8978122190102438
AT1G14410	0.0	0.2567478593345293	3.8948718115583243
AT1G75080	0.0	0.2571342568849229	3.8890189588683897
AT5G15130	0.0	0.25813682081781075	3.8739146040145336
AT2G22300	0.0	0.25974714298451634	3.8498979758156975
AT5G10140	0.0	0.2618356786071945	3.8191892156156406
AT2G22770	0.0	0.26299328125590143	3.802378506494871
AT5G65640	0.0	0.26334194993402904	3.797344100514614
AT3G53370	0.0	0.2634572655371909	3.7956819978412595
AT1G21450	0.0	0.26541210620607475	3.7677256485940656
AT1G64105	0.0	0.2663957787536351	3.7538132348741446
AT1G01010	0.0	0.2680409192796033	3.7307736545884005
AT1G13600	0.0	0.2714018072210663	3.684573843627595
AT1G32870	0.0	0.2720701472440656	3.6755226919583035
AT1G51600	0.0	0.2723250327254175	3.6720825477997447
AT5G28530	0.0	0.2725833407544678	3.668602773860491
AT5G60200	0.0	0.27281100754939913	3.6655412440384225
AT1G64380	0.0	0.2730129378636061	3.6628300762053545
AT5G15210	0.0	0.2734179034089936	3.657404974333904
AT2G45660	0.0	0.2755324450043409	3.6293366466669488
AT3G24140	0.0	0.2759977767453541	3.623217591794725
AT3G55730	0.0	0.276099159614972	3.6218871560294787
AT2G02450	0.0	0.2765095958468381	3.6165110181344726
AT4G36920	0.0	0.2812804925924682	3.555170110743673
AT5G16540	0.0	0.2832182744212489	3.5308456067797205
AT4G01720	0.0	0.28425805519170777	3.517930210722034
AT5G60970	0.0	0.2844917316570072	3.515040645208043
AT1G34670	0.0	0.2863490970894722	3.4922408003526604
AT5G11590	0.0	0.2876785008529622	3.476102652909466
AT1G74660	0.0	0.29011621718846303	3.4468945227918364
AT2G24260	0.0	0.2904078344218854	3.4434332737293367
AT2G40620	0.0	0.2905409095442068	3.4418560937555216
AT1G10240	0.0	0.2905449249741837	3.4418085261301834
AT2G25000	0.0	0.291694901000854	3.428239563217707
AT1G50640	0.0	0.2932485490115769	3.410076548956844
AT1G66140	0.0	0.2955128203314317	3.3839479413395748
AT1G19000	0.0	0.2960488128603604	3.3778213475616186
AT5G19790	0.0	0.2993347820411808	3.3407410698514335
AT3G61250	0.0	0.3037891604976929	3.291756685333065
AT2G02740	0.0	0.30682544539169515	3.259182101808389
AT1G79430	0.0	0.3079374769525436	3.247412461439731
AT5G11270	0.0	0.3096442772354724	3.2295122936812395
AT4G31920	0.0	0.3128022377425328	3.1969080759041724
AT5G25160	0.0	0.3154407525260726	3.1701674307835206
AT4G00180	0.0	0.317008468016312	3.154489866650956
AT1G14350	0.0	0.3205864856176663	3.1192830791769777
AT1G74500	0.0	0.3241009570184468	3.085458337425036
AT3G22830	0.0	0.3281577270596633	3.047315109597243
AT4G13640	0.0	0.3289405742099901	3.040062790677859
AT2G47850	0.0	0.3289859027550984	3.039643922810922
AT2G18300	0.0	0.3295204939259143	3.0347126155523085
AT2G38300	0.0	0.329669954158477	3.033336788463549
AT5G18830	0.0	0.3297722263515125	3.032396060346437
AT5G03150	0.0	0.3318652624896682	3.0132710862774696
AT3G46600	0.0	0.3333075294796228	3.0002322526624363
AT3G58120	0.0	0.33440463118673164	2.9903892073839127
AT1G19850	0.0	0.3344127698434633	2.990316429806476
AT1G71130	0.0	0.3353757454096662	2.9817302344821806
AT1G73730	0.0	0.335483407441597	2.980773349197862
AT1G53910	0.0	0.3441022988188397	2.906112523608778
AT1G67310	0.0	0.3467087171117589	2.8842655250506946
AT1G16060	0.0	0.3467196854339105	2.8841742826010193
AT5G07580	0.0	0.3491668339874779	2.863960441431453
AT2G36960	0.0	0.3507612022310537	2.850942446426213
AT1G27370	0.0	0.352572080303048	2.8362994572357096
AT3G01970	0.0	0.3552202428982101	2.8151548792408048
AT4G25490	0.0	0.3561184056516988	2.8080548046091414
AT5G06800	0.0	0.3565697777099736	2.8045001638175266
AT1G14920	0.0	0.3587358192159641	2.7875666338130167
AT4G17695	0.0	0.3602410934226029	2.7759187340320683
AT4G20380	0.0	0.3632535552286888	2.75289803941614
AT2G42200	0.0	0.3662410081823009	2.730442461818033
AT4G35580	0.0	0.3676426357869861	2.720032723787251
AT1G76890	0.0	0.3688296130576717	2.7112790421295045
AT1G78700	0.0	0.3696794020070763	2.7050465743310697
AT2G35940	0.0	0.3699508073446418	2.7030620832472243
AT2G01760	0.0	0.3785022179389173	2.6419924444442224
AT1G08320	0.0	0.3806615490954833	2.627005544363938
AT4G32010	0.0	0.38182351751369537	2.619011019833611
AT1G61730	0.0	0.3820016786383747	2.6177895436597254
AT2G28550	0.0	0.3833138349174003	2.6088283513572854
AT5G37020	0.0	0.38604217136612784	2.5903905691473947
AT1G25470	0.0	0.3867020493420617	2.5859702623800644
AT5G67180	0.0	0.3874748444428491	2.5808127013713684
AT4G29000	0.0	0.3905736245188407	2.5603367386416065
AT5G65210	0.0	0.39160383832526063	2.553601119633087
AT5G65410	0.0	0.4001523923049217	2.4990479108219
AT2G32250	0.0	0.4021699706985451	2.4865108607265234
AT5G67300	0.0	0.4026730852102134	2.4834041229200983
AT4G01460	0.0	0.40384955229505337	2.4761696387108976
AT4G36730	0.0	0.4051467248219504	2.4682415992365963
AT1G05710	0.0	0.4055258730390301	2.4659339057849814
AT3G03450	0.0	0.4063972482932097	2.46064658213068
AT4G24240	0.0	0.4071934352948022	2.4558352697312382
AT3G07340	0.0	0.41254586870802507	2.4239728860495253
AT3G61850	0.0	0.4146878984817377	2.4114520912262374
AT1G30490	0.0	0.4155406787917291	2.4065032643920876
AT3G11100	0.0	0.41598261863193736	2.4039465958667927
AT1G01250	0.0	0.4167095192545325	2.3997531944769057
AT1G14685	0.0	0.4184946338966079	2.389516899390058
AT5G51980	0.0	0.4221353892227019	2.368908235439222
AT3G10760	0.0	0.4309655083862457	2.320371307078632
AT5G09410	0.0	0.4353046790363739	2.2972415601267646
AT4G01120	0.0	0.4354600680917212	2.296421815167147
AT1G10585	0.0	0.4365858706909468	2.290500144719265
AT1G77850	0.0	0.4368112468043477	2.2893183436000455
AT2G23290	0.0	0.4403095756376371	2.271129349280773
AT1G76320	0.0	0.4404472590722139	2.2704193961984545
AT2G37630	0.0	0.4414908935774828	2.2650523817078403
AT2G22850	0.0	0.4429505427978743	2.2575883837584922
AT2G40750	0.0	0.44370021548980143	2.2537739786673265
AT4G31550	0.0	0.4438411867261042	2.2530581431080736
AT4G16750	0.0	0.4450731691515643	2.2468215774639564
AT2G26580	0.0	0.4452780369279692	2.245787838311383
AT3G12680	0.0	0.4491716834950238	2.226320217291878
AT4G36780	0.0	0.4511830096755289	2.216395517019039
AT2G34140	0.0	0.4633663632093046	2.1581195343441357
AT2G33500	0.0	0.4644094317814896	2.1532723746887905
AT3G14020	0.0	0.4674320264846982	2.1393484899193913
AT1G17520	0.0	0.4703154016492449	2.126232729128839
AT5G58010	0.0	0.4707582847112599	2.1242323979775546
AT1G06160	0.0	0.471524558106984	2.1207803131499046
AT1G75240	0.0	0.4770290927738282	2.0963082024729376
AT2G41940	0.0	0.4771607934872314	2.0957296023667533
AT3G61150	0.0	0.48010930485482595	2.082859027909024
AT1G43160	0.0	0.4802803783413582	2.08211712386312
AT3G16940	0.0	0.4815397141992113	2.0766719140974184
AT3G60630	0.0	0.4870335500358485	2.0532466396337465
AT1G25580	0.0	0.4872423523946468	2.0523667433368766
AT1G75410	0.0	0.4879832935475638	2.049250483003533
AT5G11510	0.0	0.491446372834479	2.0348100123974335
AT1G74080	0.0	0.4934217218403589	2.0266639179771233
AT3G05690	0.0	0.4961519177835053	2.015511709533183
AT5G66320	0.0	0.4993142979584597	2.0027465748300974
AT1G19220	0.0	0.5009702720606072	1.9961264285937916
AT3G50060	0.0	0.5012041371702679	1.9951950230216922
AT3G61950	0.0	0.503431946229997	1.9863657987710257
AT4G38900	0.0	0.5041688450037426	1.983462504496042
AT5G14000	0.0	0.5061945620540977	1.9755249758947995
AT4G24660	0.0	0.5080836197392662	1.968179963198127
AT4G24020	0.0	0.5103714716042873	1.9593571655888762
AT2G42400	0.0	0.5107525601633693	1.9578952275445078
AT1G68670	0.0	0.5113960260798673	1.9554316987277975
AT5G13080	0.0	0.5124278029395669	1.9514944237284775
AT4G00480	0.0	0.5129300281278175	1.9495836569560498
AT1G13960	0.0	0.5132162555223447	1.948496348741357
AT4G12240	0.0	0.5154164147085416	1.940178798080153
AT3G54620	0.0	0.5161583529816541	1.9373899390049067
AT3G06410	0.0	0.5228166096132009	1.9127165847692504
AT2G40950	0.0	0.5259027774661778	1.9014921442667465
AT3G20310	0.0	0.5266420747182317	1.8988228400380431
AT5G04760	0.0	0.5279719635672223	1.8940399661442975
AT2G42430	0.0	0.5329465692738947	1.8763607041554566
AT1G58100	0.0	0.5418135010370926	1.8456535285405151
AT5G63470	0.0	0.5423430796577361	1.843851313878816
AT4G40060	0.0	0.5425417491194114	1.843176127225379
AT1G10480	0.0	0.5460754891942422	1.8312486456323884
AT5G02030	0.0	0.5464057515725428	1.8301417895438028
AT3G23690	0.0	0.5524510757249324	1.8101150381285602
AT1G13450	0.0	0.5548773925511699	1.802199933578627
AT4G34610	0.0	0.5587295912571207	1.7897745450532472
AT3G49930	0.0	0.559511953321947	1.7872719145011602
AT5G24930	0.0	0.5652014403104785	1.7692807000822157
AT2G16720	0.0	0.5690134308182714	1.7574277615239189
AT4G17500	0.0	0.5702466798558721	1.7536270447953273
AT1G56010	0.0	0.5719269890806311	1.7484749261570842
AT3G06740	0.0	0.5728712619058678	1.7455928870879833
AT1G32360	0.0	0.5748461258262472	1.7395959632895912
AT4G35550	0.0	0.5793162695615276	1.7261728222424673
AT5G49520	0.0	0.5829565128529265	1.715393820897733
AT3G21810	0.0	0.5865723132249359	1.7048196402282714
AT5G44080	0.0	0.5877112131326767	1.701515944658773
AT3G15510	0.0	0.5905145491896303	1.6934383773817447
AT4G29940	0.0	0.5914830493407008	1.6906655247595925
AT3G57800	0.0	0.5927531918255387	1.687042792498912
AT4G36930	0.0	0.5949813242756012	1.6807250231215494
AT2G32930	0.0	0.5961525632167131	1.67742296469248
AT1G61660	0.0	0.5973340428517255	1.6741051543386203
AT1G69580	0.0	0.5974749332404449	1.6737103840933272
AT3G24120	0.0	0.6028836635209276	1.658694803836375
AT5G25475	0.0	0.6079000404790376	1.6450072929950452
AT2G23760	0.0	0.6126501054973379	1.63225304464482
AT2G24645	0.0	0.6156307672539422	1.624350265111927
AT1G46264	0.0	0.6158185761902438	1.6238548797707455
AT1G32540	0.0	0.6164664887238305	1.6221481918184004
AT2G31730	0.0	0.6179103457162591	1.6183577551866954
AT1G69810	0.0	0.6209830389719981	1.610349940725342
AT1G05230	0.0	0.6210718365677959	1.6101197013315875
AT4G18020	0.0	0.6219849561242187	1.6077559274605457
AT1G44810	0.0	0.6223775250401472	1.6067418243219722
AT3G49950	0.0	0.6244485436864162	1.601412974873038
AT5G45300	0.0	0.6252517105293777	1.5993558804554677
AT1G34370	0.0	0.6303621671254026	1.5863896219537277
AT5G58340	0.0	0.6312083448827475	1.5842629586682015
AT2G21230	0.0	0.6345698526556834	1.575870640269131
AT5G49330	0.0	0.6388337542056407	1.5653524777247443
AT3G57390	0.0	0.6414342975741643	1.5590061270217275
AT4G15090	0.0	0.6429437219567524	1.5553460837234288
AT3G10800	0.0	0.6444406419131039	1.5517332939017827
AT3G57230	0.0	0.6577891438700398	1.5202440011651686
AT1G42990	0.0	0.6579866006179639	1.5197877875641024
AT3G48920	0.0	0.6599127134455366	1.5153519240124949
AT2G01930	0.0	0.6611884613628254	1.5124280873547378
AT3G24490	0.0	0.6638742180842812	1.5063094374799875
AT4G16430	0.0	0.6652834723110029	1.5031186578651778
AT5G46760	0.0	0.6745884093320156	1.482385386654079
AT2G43500	0.0	0.6769700443938123	1.4771702356423209
AT1G47870	0.0	0.6850092316486867	1.4598343406163894
AT1G32330	0.0	0.6863385276153987	1.4570069430232637
AT1G71260	0.0	0.6865291123187315	1.4566024689361388
AT4G30080	0.0	0.6882829928444095	1.4528907591736122
AT3G55370	0.0	0.6896309646028932	1.4500508987090293
AT1G22985	0.0	0.6896660524541008	1.449977125076129
AT5G03720	0.0	0.6916899369592315	1.4457344925330906
AT3G62420	0.0	0.6922843014433948	1.4444932492547151
AT2G37650	0.0	0.6943885484464524	1.440115915271484
AT4G32040	0.0	0.7006968158893421	1.4271507695247263
AT2G46590	0.0	0.7035559906772495	1.4213509845000265
AT3G54220	0.0	0.7043431496986925	1.4197625126726725
AT4G18170	0.0	0.7072342862312483	1.4139585982586604
AT3G18990	0.0	0.7074544611501153	1.413518544182039
AT5G66730	0.0	0.7113747065721175	1.4057289228326286
AT2G35430	0.0	0.7118977904368925	1.4046960300105706
AT3G04030	0.0	0.7124456406113904	1.4036158592280006
AT5G67420	0.0	0.7156499806821437	1.3973311353223532
AT2G28810	0.0	0.7158260128204594	1.396987511057126
AT3G49850	0.0	0.7164870226625614	1.3956986914904146
AT4G31060	0.0	0.7176298032543065	1.3934761285905373
AT2G43280	0.0	0.7196678630357316	1.3895298808838847
AT4G17785	0.0	0.7205359504881854	1.387855802784676
AT1G69010	0.0	0.7227464312158663	1.3836111211475839
AT5G10280	0.0	0.723834909180743	1.3815304944767426
AT2G18120	0.0	0.7260830379331068	1.377252941821413
AT2G15740	0.0	0.7290102055386766	1.3717229092301733
AT4G23980	0.0	0.730433096057803	1.3690507801427232
AT1G06850	0.0	0.7316556732143912	1.3667631327270227
AT3G04060	0.0	0.7323244174753075	1.3655150315040778
AT4G28610	0.0	0.7331408163727566	1.3639944437243854
AT3G18380	0.0	0.7343449333311289	1.3617578805423345
AT3G19360	0.0	0.7349241254188023	1.3606846821502045
AT3G14180	0.0	0.7361464600326401	1.3584253328551779
AT1G35460	0.0	0.7371390797127663	1.356596099055907
AT5G65050	0.0	0.73781130041977	1.3553601028217654
AT4G29100	0.0	0.738933330131769	1.3533020628825563
AT5G61420	0.0	0.7407210588457086	1.3500358712068141
AT2G45880	0.0	0.7409998213133661	1.349527990745768
AT1G72650	0.0	0.7414008522763601	1.3487980178733947
AT4G22070	0.0	0.74158618188677	1.3484609401105134
AT1G63100	0.0	0.7509725054750994	1.331606673625627
AT3G19510	0.0	0.7518074993167371	1.3301277267236986
AT5G09330	0.0	0.7541717790972912	1.3259578622750297
AT3G10500	0.0	0.7627194976519234	1.311097989599792
AT1G58220	0.0	0.7631180762382201	1.3104131996577593
AT3G60110	0.0	0.7672185039744874	1.3034096477334876
AT5G25810	0.0	0.7714192635617879	1.2963119372762508
AT4G36710	0.0	0.7718751630847347	1.2955462849764248
AT1G69780	0.0	0.7750274373117607	1.290276900994077
AT1G44830	0.0	0.7752903806022609	1.289839297661839
AT1G36060	0.0	0.7809447797395848	1.280500268320459
AT3G56850	0.0	0.7813810871981476	1.279785262765662
AT1G75540	0.0	0.7818121934621767	1.2790795645839195
AT1G69600	0.0	0.7819312011049817	1.2788848924136236
AT3G25730	0.0	0.7885201174591422	1.268198461723858
AT2G22800	0.0	0.7886507402047661	1.2679884123869065
AT4G05100	0.0	0.7900446603398312	1.265751229265771
AT1G19510	0.0	0.7906357370222684	1.264804957800478
AT1G32150	0.0	0.7913006544975693	1.2637421621178146
AT1G73360	0.0	0.7923356922098005	1.2620913204238344
AT1G03970	0.0	0.7929303531351029	1.261144810570287
AT4G24470	0.0	0.7956931306543705	1.2567659082058549
AT4G36260	0.0	0.7970902307943837	1.2545631113850129
AT5G65590	0.0	0.8005140451049476	1.2491973202904887
AT4G18880	0.0	0.8060988614221352	1.2405426280292478
AT2G37060	0.0	0.8065500717852429	1.239848628103856
AT4G36060	0.0	0.8082174453966539	1.237290788135888
AT2G36270	0.0	0.8093422508756838	1.2355712294990535
AT5G45710	0.0	0.8129963191038487	1.2300178690873804
AT3G12130	0.0	0.8135120997369206	1.2292380166482921
AT4G12020	0.0	0.8139689424816741	1.2285481027705358
AT4G17570	0.0	0.8182864729286382	1.2220659061135535
AT4G14540	0.0	0.8193454145763692	1.2204864788521892
AT5G47230	0.0	0.8239176418603241	1.2137135427056756
AT4G26640	0.0	0.8270621008209519	1.2090990495240779
AT5G67580	0.0	0.8287775517953075	1.2065963874549792
AT1G74840	0.0	0.8328077499307709	1.2007573177400515
AT5G60690	0.0	0.8356920952663188	1.1966129698538306
AT2G02540	0.0	0.8374662954846315	1.1940779054532724
AT5G63260	0.0	0.8383641617969809	1.192799078930763
AT1G34310	0.0	0.8385180686466321	1.192580145129132
AT1G68810	0.0	0.8409744338247099	1.1890967903174532
AT2G26940	0.0	0.8415747540808526	1.1882485722758824
AT5G06950	0.0	0.8465960357923571	1.1812009006917532
AT1G31310	0.0	0.8472082675924577	1.1803473103983464
AT5G62940	0.0	0.8524119684013688	1.1731416698376735
AT1G75710	0.0	0.8553995830501478	1.1690442920655189
AT2G22200	0.0	0.855560631436335	1.16882423437504
AT3G06250	0.0	0.8564441068788344	1.1676185193734716
AT5G64220	0.0	0.859296086231817	1.1637432266044612
AT3G47600	0.0	0.8607496449342569	1.1617779988470154
AT4G34990	0.0	0.8607873468573285	1.1617271137301526
AT3G48440	0.0	0.8623516667490639	1.1596197219283515
AT4G35040	0.0	0.8625485036655149	1.1593550922068343
AT1G18860	0.0	0.8657280235281559	1.1550971815890134
AT1G10320	0.0	0.867445711285653	1.1528098957546133
AT2G01060	0.0	0.8706884539585341	1.1485164359921836
AT5G28040	0.0	0.8707263175767725	1.1484664926437453
AT1G17920	0.0	0.874669793204413	1.143288596187175
AT3G11440	0.0	0.8795383807800177	1.1369600484212536
AT5G25220	0.0	0.8798060940779401	1.1366140865937355
AT5G53290	0.0	0.8800660999062424	1.136278286490679
AT1G68150	0.0	0.8839364893184645	1.1313029975389104
AT2G40260	0.0	0.891386890572432	1.1218473264261477
AT1G22590	0.0	0.8930627531801025	1.119742141791386
AT3G50410	0.0	0.8935825222939571	1.1190908226728222
AT4G28110	0.0	0.8937936961818691	1.1188264185256909
AT2G34830	0.0	0.8948041292795438	1.117563014382997
AT5G14750	0.0	0.8949084496113595	1.117432738996128
AT5G18270	0.0	0.8982057374538598	1.1133306750352052
AT2G41710	0.0	0.9005537938193396	1.1104278354754344
AT1G33060	0.0	0.9020229022069921	1.1086193017419912
AT2G24830	0.0	0.9081875573925206	1.1010941427903729
AT1G49480	0.0	0.9114248024297288	1.0971832205291565
AT1G07520	0.0	0.9131220896470076	1.0951438053443405
AT2G27470	0.0	0.9158698025665633	1.0918582501548546
AT1G31320	0.0	0.916189770352574	1.0914769323555902
AT1G68920	0.0	0.9189250596934764	1.0882280219167901
AT3G59580	0.0	0.9283455548604012	1.0771851007035562
AT1G10610	0.0	0.9292224546994484	1.0761685696924361
AT2G03500	0.0	0.9315867075308084	1.0734373858237227
AT2G43140	0.0	0.9334440460140788	1.0713014928641125
AT3G01220	0.0	0.9342107775461088	1.0704222473505387
AT2G46400	0.0	0.9348832407958628	1.069652290641881
AT1G12860	0.0	0.9392953359662428	1.0646278776326628
AT1G20980	0.0	0.9393509860528352	1.0645648057516954
AT1G08000	0.0	0.9400731436172024	1.0637470145697512
AT3G46130	0.0	0.9402819459760008	1.0635107951179608
AT3G18100	0.0	0.9407214334395121	1.0630139427606649
AT3G22780	0.0	0.9432819033558498	1.0601284689575492
AT1G77570	0.0	0.9436982414613059	1.059660764495557
AT1G28470	0.0	0.9484516212305268	1.0543500349576018
AT4G02560	0.0	0.9491559114789568	1.053567688833986
AT3G22170	0.0	0.9511859134512336	1.0513191857222233
AT3G24050	0.0	0.951642190262903	1.0508151175219937
AT1G21200	0.0	0.9522720737853853	1.0501200523763037
AT5G59450	0.0	0.95347837362851	1.0487914856363754
AT2G44730	0.0	0.9538898608789608	1.0483390598979123
AT1G75340	0.0	0.9560491650863322	1.045971312479206
AT3G26744	0.0	0.9598359041989016	1.0418447524471592
AT3G58630	0.0	0.9657053848573366	1.035512502757484
AT5G52010	0.0	0.9669846361699072	1.0341425939928706
AT3G54430	0.0	0.9689523585537504	1.0320424850325882
AT1G67710	0.0	0.96980163546846	1.0311387024182042
AT1G52150	0.0	0.9714394727627254	1.0294002128161932
AT2G47810	0.0	0.9717555868139264	1.0290653468519568
AT1G56650	0.0	0.9747756213436596	1.0258771127467985
AT5G13180	0.0	0.9761509465345364	1.0244317270296472
AT1G74650	0.0	0.9766775607437876	1.0238793642790884
AT2G25650	0.0	0.9818588937212838	1.0184762865567787
AT5G65320	0.0	0.9826406090054424	1.0176660630910903
AT3G54390	0.0	0.9833592362253336	1.016922364850655
AT3G45610	0.0	0.9843191665325608	1.0159306391672507
AT1G51070	0.0	0.9872288980093048	1.0129363129629283
AT1G30970	0.0	0.9882202241280964	1.011920193074673
AT2G16400	0.0	0.9888321325378632	1.011293997327407
AT2G31230	0.0	0.9905976012171659	1.009491642995381
AT5G49200	0.0	0.9908068078138812	1.0092784911383508
AT2G04880	0.0	0.9913981539882633	1.008676479754509
AT1G10170	0.0	0.9935576737891904	1.0064840988910488
AT3G16350	0.0	0.9952589494872518	1.0047636351476072
AT3G19290	0.0	0.9971261783248948	1.0028821043289957
AT3G21270	0.0	1.001487716806438	0.998514493206984
AT1G30650	0.0	1.003365752271066	0.9966455380169716
AT2G36450	0.0	1.0035748510710034	0.9964378829668874
AT3G09370	0.0	1.0071357559338656	0.9929148023076104
AT5G22220	0.0	1.0079401624397732	0.9921223870863984
AT5G45050	0.0	1.007958676536378	0.99210416386937
AT5G13910	0.0	1.0082160143944272	0.9918509384128738
AT5G42520	0.0	1.0084962321185862	0.9915753456998666
AT5G06770	0.0	1.0101286795739564	0.9899728818924057
AT5G52830	0.0	1.0130397046120352	0.9871281406319321
AT2G37430	0.0	1.0167883375636158	0.9834888570773311
AT3G09735	0.0	1.0223668747184904	0.9781224575330171
AT1G54830	0.0	1.0228288647593886	0.9776806604252815
AT5G51190	0.0	1.0232421306566746	0.9772857958440797
AT4G16150	0.0	1.025575930898277	0.9750618846174796
AT4G37730	0.0	1.0276809324787797	0.9730646627723131
AT2G24790	0.0	1.0315992375587797	0.9693686885291255
AT1G09770	0.0	1.0331978637750827	0.96786882267276
AT1G75490	0.0	1.0332433809645525	0.9678261854109154
AT4G34680	0.0	1.0354590089883784	0.9657552750224067
AT5G03415	0.0	1.0358494219687489	0.9653912806162377
AT1G12260	0.0	1.0367049241473825	0.9645946273694324
AT3G58070	0.0	1.0392909957984724	0.9621944229697807
AT1G07530	0.0	1.039463686236673	0.9620345695966067
AT5G01310	0.0	1.0472827255218748	0.9548519951970819
AT3G47620	0.0	1.0479133097234137	0.9542774108518004
AT4G27240	0.0	1.0485833205964703	0.953667658409029
AT5G12850	0.0	1.0515897188337988	0.9509412103315243
AT1G69170	0.0	1.0517967155965675	0.9507540622360767
AT4G24060	0.0	1.054422537309509	0.9483864054647627
AT5G02470	0.0	1.059607023342759	0.9437461039520899
AT4G05170	0.0	1.0694392483028845	0.9350694783148467
AT1G28360	0.0	1.0700825255750217	0.9345073637779834
AT2G27110	0.0	1.0719821742936189	0.9328513327742121
AT5G18560	0.0	1.0725447117791065	0.9323620628749627
AT5G16770	0.0	1.0735336124703947	0.9315032043559581
AT2G18380	0.0	1.0742362049195728	0.9308939648658269
AT3G01470	0.0	1.0759036863277611	0.929451225706984
AT1G28370	0.0	1.0775661551857776	0.9280172685338239
AT3G01330	0.0	1.0784061346283929	0.9272944282207642
AT3G24310	0.0	1.0791485040886173	0.9266565224445534
AT5G20730	0.0	1.0794547277854454	0.926393645105941
AT3G25790	0.0	1.0850324025660971	0.9216314624660095
AT3G19500	0.0	1.0866835258132388	0.9202311217993595
AT5G45420	0.0	1.0891997990506366	0.9181052005992064
AT2G03060	0.0	1.093018095669937	0.914897936238719
AT1G62360	0.0	1.0947319566418183	0.9134656149689678
AT1G10120	0.0	1.0963376974454628	0.9121277160587146
AT2G24430	0.0	1.0985963363836722	0.9102524438519167
AT5G01200	0.0	1.0989128007744011	0.9099903097819066
AT4G36870	0.0	1.0996970492828408	0.9093413505584492
AT1G68880	0.0	1.1012739274992025	0.9080392943387141
AT2G29660	0.0	1.102986009824248	0.9066298131554197
AT3G61830	0.0	1.1043507439816955	0.9055094184973672
AT5G25830	0.0	1.1056664845035866	0.9044318644143149
AT4G25210	0.0	1.1064756610169164	0.9037704445129331
AT5G03740	0.0	1.106534733651207	0.9037221965010743
AT1G32770	0.0	1.1065749957477542	0.903689315087282
AT5G66350	0.0	1.106972792807411	0.9033645691181663
AT5G46350	0.0	1.1088711210154791	0.9018180571644995
AT4G36900	0.0	1.1097810066685647	0.9010786758748784
AT3G06490	0.0	1.1100481001350142	0.9008618634439092
AT1G52520	0.0	1.1106830501060578	0.9003468630447824
AT5G07700	0.0	1.1112404941937897	0.8998952119050564
AT3G04410	0.0	1.1121740951380137	0.8991398058735637
AT1G43700	0.0	1.115186368299738	0.8967111044628745
AT1G07980	0.0	1.1153058610280435	0.8966150317530303
AT5G08190	0.0	1.1156185794807405	0.8963637020687172
AT2G04890	0.0	1.116906535383127	0.8953300641731629
AT1G80580	0.0	1.12016356112908	0.8927267719653726
AT5G48150	0.0	1.1220470133817977	0.8912282534276762
AT2G42300	0.0	1.1228051211715957	0.8906265042294658
AT1G47655	0.0	1.1231720344543834	0.8903355579769059
AT1G66380	0.0	1.123780169976924	0.8898537513974234
AT3G10030	0.0	1.1239081786506837	0.8897524005925087
AT1G64620	0.0	1.124560160512636	0.8892365523105009
AT5G48560	0.0	1.1258784073096133	0.888195380165065
AT4G32880	0.0	1.1264583270255375	0.8877381222264509
AT1G09540	0.0	1.127660934829019	0.8867913830424785
AT2G16485	0.0	1.129176934815059	0.885600802821733
AT4G33280	0.0	1.1300920755610675	0.8848836494172571
AT1G25330	0.0	1.1302404847750458	0.8847674574310016
AT5G27050	0.0	1.1312491392258852	0.883978573176463
AT4G11140	0.0	1.1312680036620184	0.8839638324100992
AT3G57980	0.0	1.1357379048545484	0.8804848334511367
AT3G06220	0.0	1.1357958456226709	0.8804399169568856
AT3G23250	0.0	1.1363162345679991	0.8800367094818254
AT5G25470	0.0	1.13752269610629	0.8791033387052174
AT5G03510	0.0	1.1407020273245698	0.8766531276756159
AT4G30935	0.0	1.1421488487283908	0.8755426239875372
AT5G18960	0.0	1.143215039709436	0.8747260710059971
AT1G74930	0.0	1.1435429305586229	0.8744752586695613
AT1G50600	0.0	1.1437235710091938	0.8743371434739466
AT5G42780	0.0	1.1446145383277575	0.8736565599288697
AT3G12730	0.0	1.1458044800098357	0.8727492494979736
AT1G34180	0.0	1.1464412355769091	0.8722645077370953
AT1G60350	0.0	1.1476034734870657	0.8713811199624873
AT4G17750	0.0	1.1476267306418984	0.8713634610451024
AT2G30470	0.0	1.1484063708380825	0.8707719021710244
AT2G27050	0.0	1.1496200547604938	0.869852605527428
AT3G10490	0.0	1.1496888560539904	0.8698005505874358
AT5G57620	0.0	1.1499324228736625	0.8696163184102733
AT5G65790	0.0	1.150413465995055	0.8692526900622167
AT5G61470	0.0	1.1512865120992923	0.8685935164623516
AT4G39160	0.0	1.1531725514746796	0.8671729124329207
AT1G71200	0.0	1.1536646707150018	0.8668030021065257
AT1G01260	0.0	1.1538089297530305	0.8666946269986375
AT5G41090	0.0	1.1565058973393882	0.8646734982506881
AT4G00270	0.0	1.1624467664139897	0.8602544468207187
AT4G23810	0.0	1.1630227515475204	0.8598284071995994
AT1G68240	0.0	1.163653497444226	0.8593623464341712
AT2G44430	0.0	1.1640616429945616	0.8590610351419954
AT1G20700	0.0	1.1658405323727132	0.8577502430497974
AT3G51120	0.0	1.1667671265263737	0.857069056253871
AT1G76870	0.0	1.1672451243887907	0.856718078410166
AT4G19990	0.0	1.1678597816163945	0.8562671784243948
AT4G02235	0.0	1.167878753849305	0.8562532683328814
AT5G44160	0.0	1.1726184164785378	0.8527923371722883
AT1G60380	0.0	1.1726925806617352	0.8527384043273413
AT2G36890	0.0	1.1735325062059616	0.8521280788659248
AT4G31270	0.0	1.1755602444459023	0.8506582327231964
AT3G20910	0.0	1.1765716207653838	0.8499270102651971
AT3G60490	0.0	1.1774980262746828	0.8492583237389846
AT2G28710	0.0	1.1780011138371569	0.8488956319766577
AT3G13890	0.0	1.17878466166654	0.8483313640900466
AT3G11580	0.0	1.1789880741864431	0.8481850002512085
AT1G26260	0.0	1.1795202129805618	0.847802342846735
AT5G65230	0.0	1.181003119355786	0.846737814329805
AT3G10040	0.0	1.1819695444188818	0.8460454879923767
AT5G67450	0.0	1.182549464134806	0.8456305891032089
AT1G63650	0.0	1.1835355082114802	0.8449260652189193
AT1G01380	0.0	1.1848333814174337	0.8440005284149618
AT2G22630	0.0	1.1863032982809203	0.842954749809013
AT4G35590	0.0	1.1878138006312875	0.8418827929668184
AT2G01500	0.0	1.1892814807116328	0.8408438340447612
AT5G06100	0.0	1.1907047215702875	0.8398387794088963
AT2G46410	0.0	1.1912487719083644	0.8394552200864086
AT2G27990	0.0	1.1931333829764446	0.838129260540305
AT3G49530	0.0	1.1932381614445664	0.838055664251781
AT1G49190	0.0	1.1935263291810958	0.837853322168537
AT1G28420	0.0	1.1949064782777838	0.836885579063307
AT1G68200	0.0	1.196380895656748	0.835854202980276
AT4G36540	0.0	1.1990564386334974	0.8339890999123013
AT2G24570	0.0	1.2006701294495126	0.8328682253954993
AT1G18750	0.0	1.201916745287573	0.832004382933144
AT3G27920	0.0	1.2029784357531406	0.8312700961874988
AT4G02640	0.0	1.2042102025850447	0.830419803663287
AT2G17150	0.0	1.2051717228947458	0.8297572711032943
AT2G31180	0.0	1.2051812090112015	0.8297507399907573
AT1G59640	0.0	1.2060922534796497	0.8291239721629412
AT4G16610	0.0	1.2065449190992592	0.8288129054876345
AT5G53660	0.0	1.207699745980935	0.8280203778529123
AT1G49950	0.0	1.2083939302814368	0.8275447061928708
AT2G13570	0.0	1.211967797706842	0.8251044309032756
AT4G21610	0.0	1.2127657903044642	0.8245615171491196
AT2G21240	0.0	1.2133883705952433	0.8241384409423976
AT1G32730	0.0	1.2137184712783773	0.8239142961602345
AT2G37590	0.0	1.2138959586731946	0.8237938291622736
AT5G04400	0.0	1.214444779018694	0.8234215480822672
AT5G26630	0.0	1.2150446680877247	0.8230150102825695
AT4G18450	0.0	1.2150645296440532	0.8230015572036695
AT5G66940	0.0	1.2160415457405782	0.8223403250511417
AT5G10510	0.0	1.2160723217206697	0.8223195135179623
AT4G18890	0.0	1.216235202652081	0.8222093866543527
AT1G65620	0.0	1.2167307983384903	0.8218744864234163
AT2G35530	0.0	1.2169301145808331	0.8217398748032841
AT4G21440	0.0	1.2178768128335729	0.8211011076509045
AT2G42410	0.0	1.2180509585282755	0.8209837141857036
AT2G13960	0.0	1.2185218148541561	0.8206664729426195
AT5G24110	0.0	1.2189779030214642	0.8203594154753038
AT1G08970	0.0	1.2191864897867066	0.8202190627743482
AT5G07680	0.0	1.21967879767139	0.8198879917476628
AT1G62990	0.0	1.2208180748678537	0.8191228657130131
AT2G35700	0.0	1.2227703823124567	0.8178150325401553
AT5G60910	0.0	1.2233939597234318	0.8173981831870957
AT4G38340	0.0	1.223848538735849	0.8170945736740682
AT1G57560	0.0	1.2253835379039948	0.816071025166936
AT2G18550	0.0	1.226438059883832	0.8153693469808984
AT5G67000	0.0	1.2281425155868413	0.8142377511637333
AT1G16530	0.0	1.228167820880454	0.814220974527012
AT2G16910	0.0	1.230122203413032	0.812927363822434
AT5G06710	0.0	1.230918713804958	0.8124013298236786
AT3G26620	0.0	1.2314047964257175	0.8120806439138499
AT1G73410	0.0	1.231407545243554	0.8120788311413302
AT2G16210	0.0	1.2323369151642456	0.8114663998900984
AT5G18550	0.0	1.2333691501602513	0.8107872650050233
AT3G50890	0.0	1.2335254285390165	0.8106845443667884
AT4G00940	0.0	1.2352793899122778	0.8095334611476146
AT1G01030	0.0	1.2353034555429447	0.8095176901779787
AT3G21175	0.0	1.2353617466505955	0.8094794927164244
AT1G71692	0.0	1.2360330510849873	0.8090398546561535
AT3G46070	0.0	1.2365613630934906	0.8086941981579564
AT3G57480	0.0	1.2367221689369274	0.8085890470125467
AT3G53200	0.0	1.237776205831264	0.807900487413572
AT5G35900	0.0	1.2379082029858064	0.8078143416353675
AT1G24260	0.0	1.237927902846968	0.8078014864195362
AT4G31680	0.0	1.2387275123962591	0.8072800434258119
AT3G61970	0.0	1.2388923875680615	0.8071726083998257
AT2G40210	0.0	1.239013119959313	0.8070939555771921
AT5G49620	0.0	1.2397469465248885	0.8066162234180785
AT5G22290	0.0	1.240854046383148	0.8058965540023089
AT3G23240	0.0	1.2425094006538224	0.8048228846186506
AT2G44910	0.0	1.2427907771933442	0.8046406670786127
AT3G18650	0.0	1.2440738283423358	0.8038108167040604
AT3G59470	0.0	1.2443884062894517	0.8036076155529486
AT1G68640	0.0	1.2444816774515322	0.8035473869312522
AT5G40360	0.0	1.2448793667144111	0.8032906856182241
AT5G07310	0.0	1.2448858614702798	0.8032864947304841
AT3G66656	0.0	1.245584384591092	0.8028360120525162
AT5G03680	0.0	1.247465546162279	0.801625345947561
AT5G58850	0.0	1.2481165578532305	0.8012072219601086
AT1G80010	0.0	1.2487834965181168	0.8007793206654477
AT2G37120	0.0	1.2527216631544456	0.7982619199558872
AT5G13790	0.0	1.2527317421531796	0.7982554974468936
AT2G20280	0.0	1.253259757720543	0.7979191814303703
AT5G62380	0.0	1.2583595963339451	0.7946854006703332
AT1G27740	0.0	1.2591855891446273	0.7941641078336247
AT2G34820	0.0	1.2595290027298325	0.7939475770964036
AT2G01570	0.0	1.260205319714396	0.7935214876149173
AT2G25820	0.0	1.2603653440311933	0.7934207368805998
AT5G18450	0.0	1.2608458481686964	0.7931183668903226
AT4G31610	0.0	1.260886541452355	0.7930927701457958
AT4G10240	0.0	1.2621241023610714	0.7923151123802227
AT1G66470	0.0	1.2626296961986314	0.7919978462495185
AT2G04038	0.0	1.2628405736454045	0.7918655932263323
AT1G14687	0.0	1.263985752715458	0.7911481580007294
AT5G44180	0.0	1.2646219154002534	0.7907501742791636
AT2G37000	0.0	1.265148017574809	0.7904213468372836
AT5G17800	0.0	1.2655430388674354	0.7901746280355063
AT1G68510	0.0	1.2660799207197817	0.789839554071348
AT1G79180	0.0	1.2661027736366972	0.7898252976159625
AT1G60300	0.0	1.266374259821846	0.7896559743252207
AT5G46880	0.0	1.2671513398445553	0.7891717181332678
AT3G53310	0.0	1.2676060266537503	0.7888886443998837
AT3G04420	0.0	1.2689240309079772	0.7880692426357874
AT2G24840	0.0	1.2690525785656268	0.7879894157973115
AT4G00232	0.0	1.2692789787484178	0.787848862813483
AT4G25610	0.0	1.270527561877675	0.787074621602171
AT1G33280	0.0	1.2705728095751998	0.7870465922644272
AT1G31640	0.0	1.2708926965136271	0.7868484906265079
AT5G04240	0.0	1.2709321770835342	0.7868240477589806
AT1G69540	0.0	1.2712352746738034	0.7866364471805568
AT5G40350	0.0	1.2715272691959485	0.7864558033681425
AT1G48000	0.0	1.2716973725114795	0.7863506063750817
AT1G72830	0.0	1.272989370793037	0.7855525135901392
AT5G57720	0.0	1.2734094548365256	0.7852933682892871
AT3G20770	0.0	1.2735510728534958	0.7852060441984614
AT5G06250	0.0	1.2737417653536065	0.7850884906191229
AT4G28530	0.0	1.273806820709071	0.7850483948918918
AT5G62110	0.0	1.2739694590977322	0.7849481734893656
AT5G65080	0.0	1.274049444306936	0.7848988942057781
AT2G27220	0.0	1.2747858579951812	0.7844454766486593
AT5G65100	0.0	1.275298458623305	0.784130172226122
AT4G31615	0.0	1.2754511797083992	0.7840362813640782
AT4G32800	0.0	1.2775444314401103	0.7827516408746358
AT2G39880	0.0	1.2775742103000065	0.7827333957885506
AT3G02940	0.0	1.2785418211276591	0.7821410168014774
AT2G20400	0.0	1.2791990850317287	0.7817391457680697
AT2G27300	0.0	1.2793700776706776	0.781634663381122
AT4G09820	0.0	1.2799474372131263	0.7812820830965798
AT5G02460	0.0	1.2810638884418692	0.7806011932912095
AT1G53160	0.0	1.2817843751561788	0.7801624199687682
AT5G39690	0.0	1.282947017304253	0.7794554151590879
AT1G72740	0.0	1.2834879415357707	0.7791269147440838
AT5G62610	0.0	1.2837045322117724	0.7789954579945584
AT1G60240	0.0	1.2837054484843848	0.7789949019696508
AT4G22680	0.0	1.2843773458010548	0.7785873857626389
AT5G39700	0.0	1.28468860899725	0.778398744253317
AT4G29230	0.0	1.2850138049269892	0.778201756405891
AT1G61110	0.0	1.285267774135729	0.7780479835592582
AT1G21340	0.0	1.2852750504182373	0.7780435788235313
AT3G12250	0.0	1.2855531122068384	0.7778752900246609
AT2G26320	0.0	1.2861264024209216	0.7775285524950458
AT2G17950	0.0	1.2867156735073288	0.777172471424243
AT1G26590	0.0	1.2870912105323489	0.7769457143494857
AT1G27360	0.0	1.2874227934211788	0.7767456076667824
AT1G01530	0.0	1.2882588921797895	0.776241488469726
AT3G58710	0.0	1.2882763283086156	0.7762309824577037
AT3G03200	0.0	1.2889741776995658	0.7758107317438286
AT4G33450	0.0	1.2890065706313258	0.7757912355017887
AT2G36610	0.0	1.2890894933027277	0.77574133153311
AT2G38340	0.0	1.2891029678999657	0.7757332229473232
AT3G12480	0.0	1.289103048747549	0.77573317429632
AT3G15270	0.0	1.2900225013646736	0.7751802770433321
AT4G13480	0.0	1.2900856972257189	0.7751423042286746
AT2G45420	0.0	1.2904883451403817	0.7749004504889334
AT5G50820	0.0	1.2909324409161482	0.774633875720344
AT1G26780	0.0	1.2910395639641894	0.774569601050381
AT2G17040	0.0	1.2911287118995152	0.7745161197203917
AT1G35515	0.0	1.291198429465624	0.7744743001382526
AT4G26170	0.0	1.2917038885572116	0.7741712391351282
AT2G14210	0.0	1.2919256804277472	0.774038332970444
AT1G69560	0.0	1.2926897170403302	0.7735808421912289
AT3G28470	0.0	1.2929380538674242	0.7734322591935548
AT5G67110	0.0	1.293771754147727	0.7729338631749235
AT5G51990	0.0	1.2939327216863308	0.7728377088236396
AT1G21970	0.0	1.294683580142815	0.7723894975865001
AT2G40220	0.0	1.294737182090627	0.772357520763626
AT5G22990	0.0	1.2950237598246823	0.7721866046190364
AT3G44350	0.0	1.2950803261838872	0.7721528771474913
AT5G05550	0.0	1.2950863358542553	0.7721492940780565
AT5G17260	0.0	1.2953661762896918	0.7719824851875421
AT1G15790	0.0	1.2956398992579825	0.7718193925431777
AT1G59530	0.0	1.2958327746428453	0.7717045127799133
AT1G03840	0.0	1.2959629123029688	0.7716270199607542
AT3G56560	0.0	1.2960498234551532	0.7715752758131544
AT5G58280	0.0	1.2960789016359926	0.7715579651344813
AT3G57670	0.0	1.2961159567783969	0.7715359067761055
AT2G21900	0.0	1.296672700187072	0.7712046377283406
AT5G03790	0.0	1.2969024959683668	0.7710679893890738
AT3G15170	0.0	1.297693400927842	0.7705980467227519
AT1G28300	0.0	1.2978350997923955	0.770513912098665
AT5G11050	0.0	1.2978657140773202	0.7704957370808743
AT5G67010	0.0	1.2981758184581529	0.7703116833494117
AT2G45120	0.0	1.2982488238259875	0.7702683658537528
AT1G50680	0.0	1.2988015787538802	0.7699405485474063
AT5G18000	0.0	1.2992707372805092	0.7696625278370312
AT1G70510	0.0	1.3001163760539645	0.7691619138243149
AT5G06839	0.0	1.3003885090197809	0.7690009509187292
AT5G06650	0.0	1.300549153168051	0.7689059637339093
AT2G35550	0.0	1.3006650077551023	0.7688374747053136
AT5G42630	0.0	1.3008629495885269	0.7687204869016431
AT5G54070	0.0	1.3010807260290858	0.7685918175515613
AT1G66550	0.0	1.3012130735231562	0.7685136434207553
AT5G25390	0.0	1.3015699617055991	0.7683029183383913
AT5G45980	0.0	1.3016915564710736	0.7682311489451704
AT1G68120	0.0	1.3024094021643249	0.7678077249275187
AT5G63280	0.0	1.302422149133312	0.7678002102969789
AT5G64530	0.0	1.3027250041808307	0.7676217135548206
AT5G60440	0.0	1.3029126244727711	0.7675111755131347
AT2G46130	0.0	1.302962184041412	0.7674819823997416
AT2G30340	0.0	1.3032499744892188	0.7673125030306859
AT4G11880	0.0	1.30330748407023	0.7672786446963379
AT1G34190	0.0	1.3035284674649317	0.7671485701764336
AT5G52260	0.0	1.3035782426271278	0.76711927776938
AT1G71930	0.0	1.3038526393252805	0.766957836981855
AT3G04100	0.0	1.3040538959096255	0.7668394712340193
AT5G12870	0.0	1.304176433896907	0.7667674204263748
AT3G30210	0.0	1.3046769343367108	0.7664732729473702
AT4G01500	0.0	1.3048099286114492	0.7663951492645206
AT5G58080	0.0	1.305417067013794	0.7660387053829084
AT3G12910	0.0	1.3060208367668291	0.7656845678477757
AT2G47460	0.0	1.3060333950914549	0.7656772053137088
AT4G35280	0.0	1.3061182581048592	0.7656274566217088
AT2G44745	0.0	1.3061666319089429	0.7655991016540631
AT1G17590	0.0	1.3064700798387403	0.7654212793938853
AT1G80590	0.0	1.3077224358552242	0.764688264559765
AT1G59750	0.0	1.3078535167371543	0.7646116229398608
AT4G03170	0.0	1.3084319003489937	0.7642736314616552
AT4G21080	0.0	1.308650107976664	0.7641461945440287
AT3G23230	0.0	1.3088034758424254	0.764056650565005
AT2G47260	0.0	1.3090973568081836	0.7638851264952372
AT3G04450	0.0	1.3097471018869946	0.7635061750159767
AT2G38250	0.0	1.3098283267591446	0.7634588285888271
AT1G60280	0.0	1.3099006044987287	0.7634167024319215
AT1G34650	0.0	1.3100012597400958	0.7633580445551632
AT4G18870	0.0	1.3101029929492418	0.7632987676402809
AT3G17010	0.0	1.3101050141388275	0.7632975900464978
AT5G20240	0.0	1.3104922201650555	0.7630720614839291
AT3G16280	0.0	1.310596190157343	0.7630115267464233
AT4G26930	0.0	1.3107736236537717	0.7629082413273678
AT1G65910	0.0	1.3109480657896129	0.7628067244583622
AT2G38880	0.0	1.3114221290696366	0.7625309790291788
AT5G26660	0.0	1.3117337695545543	0.7623498176307418
AT4G04890	0.0	1.3125606247394603	0.7618695709377212
AT2G01430	0.0	1.3126929452843363	0.7617927738488719
AT4G35900	0.0	1.3127521526645998	0.7617584156843458
AT3G63350	0.0	1.312919668857461	0.761661222479992
AT3G03660	0.0	1.3132446761428391	0.761472723374842
AT4G14410	0.0	1.3133596953048614	0.7614060364231573
AT5G57520	0.0	1.3134446122166548	0.7613568099474973
AT1G69180	0.0	1.313901616656575	0.7610919929793938
AT1G72350	0.0	1.3145395310390109	0.7607226533610602
AT5G64060	0.0	1.315169684053438	0.7603581591980857
AT5G57390	0.0	1.3153064512154031	0.7602790962333944
AT5G39810	0.0	1.315310035458268	0.760277024459552
AT5G66300	0.0	1.3154367775198874	0.7602037719253911
AT1G29570	0.0	1.3154676073983678	0.7601859554548244
AT4G39410	0.0	1.3156019491328297	0.7601083296198697
AT1G33760	0.0	1.3159354723636618	0.7599156805187539
AT1G26610	0.0	1.3161920286950712	0.7597675553402664
AT5G04410	0.0	1.3162191934831031	0.7597518748786104
AT5G55020	0.0	1.3164090505581845	0.759642300830414
AT1G65330	0.0	1.316453031643569	0.7596169221104054
AT4G37850	0.0	1.3166829352216418	0.7594842868011095
AT1G68320	0.0	1.3167787935063922	0.7594289981972934
AT5G38800	0.0	1.3168028860862535	0.7594151034800343
AT5G17490	0.0	1.3171306960878568	0.7592260987996113
AT5G46590	0.0	1.3171538454459115	0.7592127551823366
AT4G17710	0.0	1.3177342502473364	0.7588783548824825
AT1G23420	0.0	1.3178830367500372	0.7587926789512732
AT5G27910	0.0	1.3179935823457771	0.7587290358578156
AT3G56660	0.0	1.319128035636429	0.7580765270579198
AT5G66980	0.0	1.3195686819153023	0.7578233810069963
AT3G12720	0.0	1.3196990621181763	0.7577485115394074
AT4G36620	0.0	1.3198109551736397	0.757684269917608
AT2G33880	0.0	1.3198282835056876	0.7576743221048654
AT5G43410	0.0	1.3198847959665034	0.7576418813641508
AT1G52890	0.0	1.3199387752030385	0.7576108974040677
AT2G20110	0.0	1.3203372190433629	0.7573822699056685
AT1G25250	0.0	1.3207615341103838	0.7571389491393411
AT5G66700	0.0	1.320938105232589	0.7570377416161534
AT5G22570	0.0	1.3209537088161905	0.7570287992121828
AT4G18960	0.0	1.3210388952199283	0.7569799826624474
AT4G21340	0.0	1.3211192038194663	0.7569339671309873
AT5G27810	0.0	1.3211235426397767	0.7569314812162607
AT2G23660	0.0	1.3212202094003611	0.7568761005054958
AT1G71450	0.0	1.3222778305375629	0.7562707147509665
AT2G06020	0.0	1.3224061356524626	0.7561973383514359
AT2G40740	0.0	1.3226238312454377	0.7560728730090689
AT2G13150	0.0	1.3227872242115444	0.7559794815799316
AT3G62610	0.0	1.3227999711805314	0.7559721966939197
AT4G36160	0.0	1.3229518837897911	0.7558853895240334
AT1G55580	0.0	1.3230499249592942	0.7558293766055477
AT1G77200	0.0	1.3235515303160719	0.7555429290774905
AT4G17980	0.0	1.323677275257496	0.7554711550105514
AT5G39820	0.0	1.3237336799215338	0.7554389641723677
AT5G05660	0.0	1.3238904164366048	0.7553495271093577
AT2G17770	0.0	1.3239163954600794	0.7553347049928225
AT5G07500	0.0	1.3239551214525411	0.7553126112786039
AT3G29020	0.0	1.3240957154001214	0.7552324113501231
AT4G25560	0.0	1.3242293834047212	0.7551561780247646
AT5G15800	0.0	1.3242564134467802	0.755140764164544
AT3G17730	0.0	1.324955529449871	0.7547423123062897
AT3G60580	0.0	1.3254020776023343	0.7544880281227642
AT2G26950	0.0	1.3257288365853532	0.7543020657042319
AT3G10580	0.0	1.32580817501389	0.7542569270924305
AT4G26440	0.0	1.3260175433057722	0.7541378355425014
AT1G16640	0.0	1.3263600945167542	0.7539430688046596
AT1G75520	0.0	1.326563560935046	0.753827430097007
AT5G32460	0.0	1.3267146111700827	0.7537416046982854
AT4G21750	0.0	1.3268115743718063	0.7536865213686887
AT5G27580	0.0	1.3268234050681815	0.7536798010799433
AT5G22380	0.0	1.326852375452243	0.7536633452980487
AT3G51960	0.0	1.3273064154807708	0.7534055349516146
AT3G10470	0.0	1.327562890964597	0.7532599824882178
AT3G50870	0.0	1.3275826986225363	0.7532487437788793
AT2G26960	0.0	1.3279265433948528	0.7530537023858966
AT1G55600	0.0	1.3280685117513507	0.7529732021740956
AT2G37260	0.0	1.3281239192951937	0.7529417891447043
AT5G51870	0.0	1.3281955233049156	0.7529011974921622
AT3G53790	0.0	1.32827111579542	0.7528583495555133
AT5G07210	0.0	1.3283495649005392	0.752813887566467
AT5G65070	0.0	1.328652204354502	0.7526424121546761
AT3G23220	0.0	1.3290710217858501	0.752405239154426
AT1G77640	0.0	1.3292413676441317	0.7523088163982893
AT5G17430	0.0	1.3292620915746831	0.7522970874881194
AT5G06080	0.0	1.3296318614720857	0.752087874077312
AT1G15360	0.0	1.3296628260965382	0.752070359773596
AT1G13290	0.0	1.3297706767728303	0.7520093633188406
AT2G25230	0.0	1.3298046327578696	0.7519901610856244
AT1G34410	0.0	1.3298429545124142	0.7519684911716882
AT1G28160	0.0	1.3301678001026251	0.7517848499436296
AT1G03490	0.0	1.330188416236399	0.7517731982882352
AT3G49690	0.0	1.3305259009988193	0.7515825127863388
AT5G56620	0.0	1.3307390152287335	0.7514621488933466
AT3G10590	0.0	1.3307732676549124	0.7514428072050163
AT1G67100	0.0	1.3307811368196991	0.7514383637791862
AT3G06120	0.0	1.3308292950302276	0.7514111717666139
AT1G63030	0.0	1.3308533606608943	0.7513975841060397
AT2G18060	0.0	1.330921649919696	0.7513590300829032
AT5G04640	0.0	1.3310189365117535	0.7513041118864424
AT5G46830	0.0	1.3313039242433349	0.7511432827544349
AT5G15480	0.0	1.3315444727532255	0.7510075858993329
AT5G42700	0.0	1.3317356233896425	0.7508997900459539
AT5G60130	0.0	1.3319753364745046	0.7507646520293817
AT1G28460	0.0	1.3320090499167936	0.7507456500107614
AT5G23000	0.0	1.3322243739806552	0.7506243088857648
AT5G26930	0.0	1.3322396272247286	0.750615714744323
AT1G12610	0.0	1.3322781645728288	0.750594002507451
AT2G12940	0.0	1.3323519514673037	0.7505524339111086
AT3G49760	0.0	1.3323750199777749	0.7505394389761831
AT1G15720	0.0	1.3326253779944548	0.75039843643452
AT1G17950	0.0	1.3333685289813189	0.7499802029705851
AT5G23090	0.0	1.3333949391919049	0.749965348305614
AT1G09030	0.0	1.3336590951961564	0.7498168037109353
AT3G19070	0.0	1.3337128049407467	0.7497866079529972
AT1G17040	0.0	1.3337818487769937	0.7497477949013523
AT5G01860	0.0	1.3338491948139888	0.7497099401401629
AT1G31630	0.0	1.3338696762017903	0.7496984284458073
AT4G00130	0.0	1.3342824570135756	0.7494664976996138
AT2G31210	0.0	1.3343351965871648	0.7494368750503656
AT3G05860	0.0	1.3345444031838802	0.7493193914074772
AT5G18090	0.0	1.334598247674443	0.7492891600468641
AT2G47190	0.0	1.3346822213644294	0.7492420173078443
AT3G53340	0.0	1.334738787723634	0.7492102643585242
AT1G66810	0.0	1.3347428301028057	0.7492079953132074
AT1G22810	0.0	1.3348346729575788	0.7491564463068004
AT1G77980	0.0	1.3348591967245518	0.749142682953961
AT2G20880	0.0	1.334860786727026	0.7491417906221679
AT4G09960	0.0	1.3349108313811673	0.7491137059434514
AT4G37780	0.0	1.3350031323722469	0.749061912853373
AT4G28140	0.0	1.3350181161243757	0.7490535056580729
AT1G17310	0.0	1.335020864942212	0.749051963351364
AT1G29860	0.0	1.3350768923175271	0.7490205288956239
AT3G12820	0.0	1.3352370783294911	0.7489306702380489
AT5G23650	0.0	1.335316928792723	0.7488858850191563
AT1G22130	0.0	1.3353589425869106	0.7488623231614117
AT1G79580	0.0	1.3355032016249393	0.7487814321847193
AT3G01080	0.0	1.3355966075329924	0.7487290656174399
AT2G22760	0.0	1.335665570521656	0.7486904072921795
AT5G56110	0.0	1.3357433189477186	0.7486468289340105
AT3G27650	0.0	1.3361142746096777	0.7484389763683442
AT1G26310	0.0	1.3363748194218694	0.7482930578059014
AT3G08500	0.0	1.3366097624993094	0.7481615263157384
AT4G21050	0.0	1.3366147211510928	0.7481587507421734
AT3G57600	0.0	1.3366179820036244	0.7481569255120858
AT5G61620	0.0	1.3366438262811269	0.7481424597472962
AT2G20350	0.0	1.3366481651014372	0.7481400312430839
AT2G42440	0.0	1.3366930894086284	0.7481148873466638
AT3G25990	0.0	1.3367478501718033	0.7480842403236158
AT1G29962	0.0	1.336805225006842	0.7480521330210105
AT5G58890	0.0	1.3368410943846891	0.7480320617015983
AT5G14340	0.0	1.3368767481689807	0.748012112088586
AT5G19490	0.0	1.337442115319888	0.7476959103839952
AT4G25410	0.0	1.3374934535353644	0.7476672108986582
AT3G56520	0.0	1.3375309129156858	0.7476462714570823
AT5G42640	0.0	1.3375394558103346	0.7476414962234966
AT1G06170	0.0	1.3376220011930138	0.7475953588593104
AT5G12330	0.0	1.337678890942552	0.7475635645976161
AT4G28815	0.0	1.3379129985949634	0.7474327561285153
AT4G12350	0.0	1.3380252958883438	0.7473700258679179
AT1G62700	0.0	1.3380458042253398	0.7473585708666745
AT1G74480	0.0	1.3380830749613	0.7473377540695088
AT5G50470	0.0	1.3382188989014578	0.747261902235052
AT3G53820	0.0	1.3382390030005369	0.747250676267727
AT5G06510	0.0	1.3383693293050216	0.7471779112864702
AT4G18770	0.0	1.3383761744004186	0.7471740898615381
AT5G65510	0.0	1.3384861001646853	0.7471127267417731
AT5G47670	0.0	1.3386203610515637	0.7470377928619301
AT1G66370	0.0	1.3386436721047847	0.7470247839947383
AT4G22700	0.0	1.3386832874206644	0.7470026774792793
AT2G44840	0.0	1.3387246274849902	0.7469796098983112
AT1G25340	0.0	1.3391588059571895	0.7467374261749568
AT3G20840	0.0	1.3391812007377988	0.7467249386782515
AT1G72570	0.0	1.3393409016642623	0.7466359003577073
AT3G01530	0.0	1.339405444985032	0.7465999214384075
AT2G29065	0.0	1.3394192699217975	0.7465922153399999
AT3G58780	0.0	1.3394322324843408	0.746584990078392
AT5G52020	0.0	1.3395303006030381	0.7465303319751809
AT1G16490	0.0	1.3399669045027405	0.7462870886136538
AT2G06200	0.0	1.3400028816773653	0.7462670518650211
AT5G61850	0.0	1.3400540851468694	0.7462385369993484
AT4G25530	0.0	1.3401993143558992	0.7461576716897521
AT5G07160	0.0	1.3402446698502022	0.7461324208152001
AT4G36740	0.0	1.3403771520902448	0.7460586734416912
AT5G01380	0.0	1.3404966448185505	0.7459921692943587
AT3G54340	0.0	1.3405595711876517	0.7459571521421183
AT4G24150	0.0	1.3405644489918516	0.7459544378877366
AT1G33070	0.0	1.34065475574254	0.7459041902597335
AT5G35770	0.0	1.3406748059432299	0.7458930350350332
AT3G24650	0.0	1.3407222904238962	0.7458666176750369
AT1G54160	0.0	1.3407450355440338	0.7458539643924397
AT5G04390	0.0	1.3407497247038724	0.7458513558306843
AT5G56200	0.0	1.3409212024283217	0.7457559759582179
AT5G40430	0.0	1.3409794935359731	0.7457235586527439
AT5G54680	0.0	1.3411671677263024	0.7456192069593477
AT3G26790	0.0	1.3413645436266428	0.7455094923683485
AT5G42910	0.0	1.3413684243106474	0.7455073355509448
AT1G51190	0.0	1.341457949534696	0.7454575824362324
AT1G65360	0.0	1.3415030085878594	0.7454325436456944
AT2G17180	0.0	1.341506377237169	0.7454306717941207
AT4G38180	0.0	1.3415090721566163	0.7454291743196304
AT3G46770	0.0	1.3415526759532783	0.7454049460185539
AT2G28700	0.0	1.34156286274879	0.7453992859872804
AT2G19510	0.0	1.3415722680176625	0.7453940602675267
AT5G15060	0.0	1.3416553793334256	0.7453478854583581
AT5G10120	0.0	1.3416707942726656	0.7453393218879084
AT1G07540	0.0	1.3417228601163929	0.7453103988354579
AT1G66390	0.0	1.3418882203736962	0.7452185545838644
AT2G42150	0.0	1.3419492602991838	0.745184657560788
AT3G20880	0.0	1.3419730294887111	0.7451714587594938
AT1G02250	0.0	1.3419832971318066	0.7451657573810937
AT2G30130	0.0	1.3420343658553382	0.7451374014276121
AT1G60040	0.0	1.3423558966946287	0.744958920702301
AT5G09780	0.0	1.3423926553958938	0.7449385215126072
AT1G63910	0.0	1.3425096148999185	0.7448736224317828
AT4G38070	0.0	1.3425464274995726	0.7448531980100318
AT2G12900	0.0	1.3425507124214942	0.7448508207159997
AT1G64100	0.0	1.3425519251352456	0.7448501478996891
AT5G60140	0.0	1.3426028860619992	0.7448218757618712
AT3G13540	0.0	1.3426600453034825	0.7447901674723397
AT3G03260	0.0	1.3428212284356422	0.7447007679234997
AT5G62320	0.0	1.3428634578233856	0.744677349118484
AT2G42660	0.0	1.3429002973722342	0.7446569205150851
AT3G02310	0.0	1.3429896609011156	0.7446073704908663
AT2G33720	0.0	1.343001518546685	0.7446007961942883
AT3G60030	0.0	1.3430176341649815	0.744591861313681
AT3G23130	0.0	1.3430651455948424	0.7445655210992025
AT4G28500	0.0	1.3430996136145767	0.7445464132841048
AT4G02670	0.0	1.3431037368413317	0.7445441275830026
AT3G16160	0.0	1.3431910791806276	0.7444957128586792
AT1G76420	0.0	1.3432424982436872	0.7444672137067709
AT3G61910	0.0	1.3433235344714758	0.7444223035915508
AT4G37940	0.0	1.3433606435122691	0.7444017396441366
AT5G06500	0.0	1.3434501956855125	0.7443521190524948
AT5G50480	0.0	1.3435488566864882	0.7442974589448413
AT2G46770	0.0	1.343624880364104	0.7442553458291228
AT5G51860	0.0	1.3438126354020168	0.7441513598365881
AT5G21120	0.0	1.3438504181726718	0.7441304377906661
AT4G21550	0.0	1.3438514961404509	0.7441298408879298
AT2G35310	0.0	1.3438826763584593	0.7441125758907141
AT4G22950	0.0	1.3440042711239342	0.744045254531626
AT5G62165	0.0	1.3440666046107566	0.7440107481054492
AT3G57920	0.0	1.3441017733095475	0.7439912809115083
AT2G34440	0.0	1.344116595366509	0.7439830766521587
AT1G43950	0.0	1.3441269708063823	0.7439773337782738
AT2G41690	0.0	1.3442278685904996	0.7439214908172954
AT1G26870	0.0	1.3442543865978638	0.7439068155327894
AT1G80730	0.0	1.3443538560746742	0.7438517734607915
AT4G27330	0.0	1.3443566587908993	0.7438502226778048
AT5G61430	0.0	1.3443916657945234	0.7438308533466019
AT3G62090	0.0	1.3444884673010804	0.7437772984452556
AT2G18490	0.0	1.3445103230978002	0.7437652079129925
AT5G53950	0.0	1.3446008454420444	0.7437151355287486
AT1G19210	0.0	1.3446119485101684	0.7437089943369916
AT3G06160	0.0	1.3448092974613146	0.743599856044843
AT1G54330	0.0	1.3448624682220152	0.7435704569271362
AT4G10350	0.0	1.3449413754634405	0.7435268319077621
AT2G41070	0.0	1.3449877280779383	0.7435012075753696
AT5G61890	0.0	1.3450452915573388	0.7434693881885318
AT1G64000	0.0	1.3451402335694769	0.7434169130057099
AT1G36000	0.0	1.345181411938636	0.7433941557063514
AT4G34400	0.0	1.3452317799831113	0.7433663216108042
AT2G32370	0.0	1.345345963720105	0.7433032297765505
AT5G26650	0.0	1.3453645317150988	0.7432929711066332
AT5G06070	0.0	1.3454391540346025	0.7432517457227811
AT4G36590	0.0	1.345601010896624	0.7431623429991798
AT3G61120	0.0	1.345625157374874	0.7431490073735391
AT4G31630	0.0	1.3456473904603166	0.7431367289003711
AT3G13840	0.0	1.345656068100938	0.7431319366851692
AT1G75430	0.0	1.34570659784058	0.7431040329330879
AT4G00390	0.0	1.3457117181875304	0.7431012054698077
AT2G32460	0.0	1.3457935628911533	0.7430560136219638
AT1G26680	0.0	1.345885028457204	0.7430055159661788
AT1G34170	0.0	1.3459709694383872	0.742958074658367
AT4G00870	0.0	1.346005329661344	0.7429391087564273
AT2G47520	0.0	1.346045025824807	0.7429171987669854
AT5G49240	0.0	1.3460499844765903	0.7429144619684006
AT3G44460	0.0	1.346092456407084	0.7428910215195359
AT1G55950	0.0	1.3461324759608806	0.7428689359018633
AT4G35700	0.0	1.3462232138986805	0.7428188651598026
AT4G08250	0.0	1.3462548253038007	0.7428014230324756
AT3G53600	0.0	1.3462654163372296	0.7427955794338754
AT2G28610	0.0	1.3463041692788855	0.7427741982969757
AT3G19184	0.0	1.3463381522131197	0.7427554499263007
AT5G49420	0.0	1.3463756654918302	0.7427347549650644
AT2G42830	0.0	1.3464381876230138	0.7427002659256036
AT5G35550	0.0	1.3465555783141503	0.7426355184328685
AT4G34410	0.0	1.3466397945468869	0.7425890754524129
AT3G58190	0.0	1.3467713874635123	0.7425165171376146
AT4G00220	0.0	1.346820542794236	0.7424894172799811
AT4G04450	0.0	1.3468377094311172	0.742479953596179
AT5G46010	0.0	1.3468676769353742	0.7424634335834479
AT5G52170	0.0	1.3468775672897468	0.7424579815463473
AT1G69120	0.0	1.3469211441372142	0.7424339608541534
AT4G38000	0.0	1.3469402511160975	0.7424234290803791
AT1G77950	0.0	1.3469999974802502	0.7423904987903773
AT5G17320	0.0	1.3470183768308828	0.7423803692661495
AT5G23260	0.0	1.3470374568605716	0.7423698538648041
AT5G65130	0.0	1.3470395588977409	0.7423686954066017
AT5G60470	0.0	1.3470876093114912	0.7423422152261568
AT1G12630	0.0	1.3470921098269686	0.7423397351265372
AT2G22750	0.0	1.3471402410883022	0.7423132124626749
AT2G40470	0.0	1.347151209410454	0.7423071686493339
AT5G48670	0.0	1.3472026284735137	0.7422788368020619
AT4G15250	0.0	1.3472123032343304	0.7422735062612197
AT5G28650	0.0	1.3473384254644771	0.742204023206169
AT1G19040	0.0	1.3473687433082624	0.7421873224880143
AT2G37740	0.0	1.3473755614544651	0.7421835667855812
AT2G45650	0.0	1.347377205355328	0.7421826612661758
AT3G30530	0.0	1.3473976328447406	0.7421714092585385
AT4G24540	0.0	1.3474342298508384	0.7421512515016785
