	Precision	Recall
0	0.010036496350364963	1.0
1	0.0091324200913242	0.9090909090909091
2	0.009140767824497258	0.9090909090909091
3	0.009157509157509158	0.9090909090909091
4	0.00916590284142988	0.9090909090909091
5	0.009182736455463728	0.9090909090909091
6	0.009191176470588236	0.9090909090909091
7	0.00919963201471941	0.9090909090909091
8	0.009208103130755065	0.9090909090909091
9	0.00922509225092251	0.9090909090909091
10	0.009233610341643583	0.9090909090909091
11	0.009242144177449169	0.9090909090909091
12	0.009250693802035153	0.9090909090909091
13	0.009259259259259259	0.9090909090909091
14	0.009267840593141797	0.9090909090909091
15	0.00927643784786642	0.9090909090909091
16	0.009285051067780872	0.9090909090909091
17	0.00929368029739777	0.9090909090909091
18	0.009302325581395349	0.9090909090909091
19	0.00931098696461825	0.9090909090909091
20	0.009328358208955223	0.9090909090909091
21	0.009337068160597572	0.9090909090909091
22	0.009345794392523364	0.9090909090909091
23	0.009354536950420954	0.9090909090909091
24	0.009363295880149813	0.9090909090909091
25	0.00937207122774133	0.9090909090909091
26	0.009380863039399626	0.9090909090909091
27	0.009389671361502348	0.9090909090909091
28	0.009398496240601503	0.9090909090909091
29	0.00940733772342427	0.9090909090909091
30	0.009416195856873822	0.9090909090909091
31	0.00942507068803016	0.9090909090909091
32	0.009433962264150943	0.9090909090909091
33	0.009442870632672332	0.9090909090909091
34	0.00945179584120983	0.9090909090909091
35	0.00946073793755913	0.9090909090909091
36	0.00946969696969697	0.9090909090909091
37	0.009478672985781991	0.9090909090909091
38	0.009487666034155597	0.9090909090909091
39	0.00949667616334283	0.9090909090909091
40	0.009505703422053232	0.9090909090909091
41	0.009514747859181731	0.9090909090909091
42	0.009532888465204958	0.9090909090909091
43	0.009541984732824428	0.9090909090909091
44	0.009551098376313277	0.9090909090909091
45	0.009560229445506692	0.9090909090909091
46	0.009569377990430622	0.9090909090909091
47	0.009578544061302681	0.9090909090909091
48	0.009587727708533078	0.9090909090909091
49	0.009596928982725527	0.9090909090909091
50	0.009606147934678195	0.9090909090909091
51	0.009615384615384616	0.9090909090909091
52	0.009624639076034648	0.9090909090909091
53	0.009633911368015413	0.9090909090909091
54	0.009643201542912247	0.9090909090909091
55	0.009652509652509652	0.9090909090909091
56	0.009671179883945842	0.9090909090909091
57	0.00968054211035818	0.9090909090909091
58	0.009689922480620155	0.9090909090909091
59	0.009699321047526674	0.9090909090909091
60	0.009708737864077669	0.9090909090909091
61	0.009718172983479106	0.9090909090909091
62	0.009727626459143969	0.9090909090909091
63	0.009737098344693282	0.9090909090909091
64	0.009746588693957114	0.9090909090909091
65	0.00975609756097561	0.9090909090909091
66	0.009765625	0.9090909090909091
67	0.009784735812133072	0.9090909090909091
68	0.009794319294809012	0.9090909090909091
69	0.00980392156862745	0.9090909090909091
70	0.009813542688910697	0.9090909090909091
71	0.009823182711198428	0.9090909090909091
72	0.00983284169124877	0.9090909090909091
73	0.00984251968503937	0.9090909090909091
74	0.009852216748768473	0.9090909090909091
75	0.009871668311944718	0.9090909090909091
76	0.009881422924901186	0.9090909090909091
77	0.009891196834817012	0.9090909090909091
78	0.009900990099009901	0.9090909090909091
79	0.009910802775024777	0.9090909090909091
80	0.00992063492063492	0.9090909090909091
81	0.009930486593843098	0.9090909090909091
82	0.009940357852882704	0.9090909090909091
83	0.009950248756218905	0.9090909090909091
84	0.00998003992015968	0.9090909090909091
85	0.00999000999000999	0.9090909090909091
86	0.01	0.9090909090909091
87	0.01001001001001001	0.9090909090909091
88	0.01002004008016032	0.9090909090909091
89	0.010030090270812437	0.9090909090909091
90	0.010040160642570281	0.9090909090909091
91	0.010050251256281407	0.9090909090909091
92	0.01006036217303823	0.9090909090909091
93	0.010070493454179255	0.9090909090909091
94	0.010080645161290322	0.9090909090909091
95	0.010090817356205853	0.9090909090909091
96	0.010101010101010102	0.9090909090909091
97	0.010111223458038422	0.9090909090909091
98	0.010131712259371834	0.9090909090909091
99	0.010141987829614604	0.9090909090909091
100	0.01015228426395939	0.9090909090909091
101	0.01016260162601626	0.9090909090909091
102	0.01017293997965412	0.9090909090909091
103	0.010183299389002037	0.9090909090909091
104	0.010193679918450561	0.9090909090909091
105	0.01020408163265306	0.9090909090909091
106	0.010214504596527068	0.9090909090909091
107	0.010224948875255624	0.9090909090909091
108	0.01023541453428864	0.9090909090909091
109	0.010245901639344262	0.9090909090909091
110	0.010256410256410256	0.9090909090909091
111	0.01026694045174538	0.9090909090909091
112	0.010277492291880781	0.9090909090909091
113	0.0102880658436214	0.9090909090909091
114	0.010309278350515464	0.9090909090909091
115	0.010319917440660475	0.9090909090909091
116	0.010330578512396695	0.9090909090909091
117	0.010341261633919338	0.9090909090909091
118	0.010351966873706004	0.9090909090909091
119	0.010362694300518135	0.9090909090909091
120	0.01037344398340249	0.9090909090909091
121	0.010384215991692628	0.9090909090909091
122	0.010395010395010396	0.9090909090909091
123	0.01040582726326743	0.9090909090909091
124	0.010416666666666666	0.9090909090909091
125	0.010427528675703858	0.9090909090909091
126	0.01044932079414838	0.9090909090909091
127	0.010471204188481676	0.9090909090909091
128	0.010482180293501049	0.9090909090909091
129	0.01049317943336831	0.9090909090909091
130	0.01050420168067227	0.9090909090909091
131	0.010515247108307046	0.9090909090909091
132	0.010526315789473684	0.9090909090909091
133	0.01053740779768177	0.9090909090909091
134	0.010548523206751054	0.9090909090909091
135	0.010559662090813094	0.9090909090909091
136	0.010570824524312896	0.9090909090909091
137	0.010582010582010581	0.9090909090909091
138	0.01059322033898305	0.9090909090909091
139	0.010604453870625663	0.9090909090909091
140	0.010615711252653927	0.9090909090909091
141	0.010626992561105207	0.9090909090909091
142	0.010638297872340425	0.9090909090909091
143	0.010649627263045794	0.9090909090909091
144	0.010660980810234541	0.9090909090909091
145	0.010672358591248666	0.9090909090909091
146	0.010683760683760684	0.9090909090909091
147	0.0106951871657754	0.9090909090909091
148	0.010706638115631691	0.9090909090909091
149	0.010718113612004287	0.9090909090909091
150	0.01072961373390558	0.9090909090909091
151	0.010741138560687433	0.9090909090909091
152	0.010764262648008612	0.9090909090909091
153	0.010775862068965518	0.9090909090909091
154	0.010787486515641856	0.9090909090909091
155	0.01079913606911447	0.9090909090909091
156	0.010810810810810811	0.9090909090909091
157	0.010834236186348862	0.9090909090909091
158	0.010845986984815618	0.9090909090909091
159	0.010857763300760043	0.9090909090909091
160	0.010869565217391304	0.9090909090909091
161	0.01088139281828074	0.9090909090909091
162	0.010893246187363835	0.9090909090909091
163	0.010905125408942203	0.9090909090909091
164	0.010917030567685589	0.9090909090909091
165	0.01092896174863388	0.9090909090909091
166	0.01095290251916758	0.9090909090909091
167	0.010976948408342482	0.9090909090909091
168	0.01098901098901099	0.9090909090909091
169	0.011001100110011002	0.9090909090909091
170	0.011013215859030838	0.9090909090909091
171	0.011037527593818985	0.9090909090909091
172	0.011049723756906077	0.9090909090909091
173	0.011061946902654867	0.9090909090909091
174	0.01107419712070875	0.9090909090909091
175	0.011086474501108648	0.9090909090909091
176	0.011098779134295227	0.9090909090909091
177	0.011111111111111112	0.9090909090909091
178	0.011123470522803115	0.9090909090909091
179	0.011135857461024499	0.9090909090909091
180	0.011148272017837236	0.9090909090909091
181	0.011160714285714286	0.9090909090909091
182	0.011198208286674132	0.9090909090909091
183	0.011210762331838564	0.9090909090909091
184	0.01122334455667789	0.9090909090909091
185	0.011235955056179775	0.9090909090909091
186	0.01124859392575928	0.9090909090909091
187	0.01126126126126126	0.9090909090909091
188	0.011273957158962795	0.9090909090909091
189	0.011286681715575621	0.9090909090909091
190	0.011299435028248588	0.9090909090909091
191	0.011312217194570135	0.9090909090909091
192	0.011325028312570781	0.9090909090909091
193	0.011337868480725623	0.9090909090909091
194	0.011350737797956867	0.9090909090909091
195	0.011376564277588168	0.9090909090909091
196	0.011389521640091117	0.9090909090909091
197	0.011402508551881414	0.9090909090909091
198	0.01141552511415525	0.9090909090909091
199	0.011428571428571429	0.9090909090909091
200	0.011441647597254004	0.9090909090909091
201	0.011454753722794959	0.9090909090909091
202	0.011467889908256881	0.9090909090909091
203	0.011481056257175661	0.9090909090909091
204	0.011494252873563218	0.9090909090909091
205	0.01152073732718894	0.9090909090909091
206	0.011534025374855825	0.9090909090909091
207	0.011547344110854504	0.9090909090909091
208	0.011560693641618497	0.9090909090909091
209	0.011574074074074073	0.9090909090909091
210	0.011587485515643106	0.9090909090909091
211	0.01160092807424594	0.9090909090909091
212	0.011614401858304297	0.9090909090909091
213	0.011627906976744186	0.9090909090909091
214	0.011655011655011656	0.9090909090909091
215	0.011668611435239206	0.9090909090909091
216	0.011682242990654205	0.9090909090909091
217	0.0117096018735363	0.9090909090909091
218	0.011723329425556858	0.9090909090909091
219	0.011737089201877934	0.9090909090909091
220	0.011750881316098707	0.9090909090909091
221	0.011764705882352941	0.9090909090909091
222	0.011778563015312132	0.9090909090909091
223	0.011806375442739079	0.9090909090909091
224	0.01182033096926714	0.9090909090909091
225	0.011834319526627219	0.9090909090909091
226	0.011848341232227487	0.9090909090909091
227	0.011862396204033215	0.9090909090909091
228	0.011876484560570071	0.9090909090909091
229	0.011890606420927468	0.9090909090909091
230	0.011904761904761904	0.9090909090909091
231	0.011918951132300357	0.9090909090909091
232	0.011933174224343675	0.9090909090909091
233	0.011947431302270013	0.9090909090909091
234	0.011961722488038277	0.9090909090909091
235	0.011976047904191617	0.9090909090909091
236	0.011990407673860911	0.9090909090909091
237	0.01201923076923077	0.9090909090909091
238	0.012033694344163659	0.9090909090909091
239	0.012048192771084338	0.9090909090909091
240	0.012062726176115802	0.9090909090909091
241	0.012077294685990338	0.9090909090909091
242	0.012091898428053204	0.9090909090909091
243	0.012106537530266344	0.9090909090909091
244	0.012121212121212121	0.9090909090909091
245	0.012135922330097087	0.9090909090909091
246	0.012150668286755772	0.9090909090909091
247	0.012165450121654502	0.9090909090909091
248	0.012180267965895249	0.9090909090909091
249	0.01221001221001221	0.9090909090909091
250	0.012224938875305624	0.9090909090909091
251	0.012239902080783354	0.9090909090909091
252	0.012254901960784314	0.9090909090909091
253	0.012269938650306749	0.9090909090909091
254	0.012285012285012284	0.9090909090909091
255	0.012300123001230012	0.9090909090909091
256	0.012315270935960592	0.9090909090909091
257	0.012330456226880395	0.9090909090909091
258	0.012345679012345678	0.9090909090909091
259	0.012360939431396786	0.9090909090909091
260	0.012376237623762377	0.9090909090909091
261	0.01240694789081886	0.9090909090909091
262	0.012422360248447204	0.9090909090909091
263	0.012453300124533	0.9090909090909091
264	0.012468827930174564	0.9090909090909091
265	0.012484394506866416	0.9090909090909091
266	0.0125	0.9090909090909091
267	0.012531328320802004	0.9090909090909091
268	0.012547051442910916	0.9090909090909091
269	0.01256281407035176	0.9090909090909091
270	0.012578616352201259	0.9090909090909091
271	0.012594458438287154	0.9090909090909091
272	0.012610340479192938	0.9090909090909091
273	0.012626262626262626	0.9090909090909091
274	0.012642225031605562	0.9090909090909091
275	0.012658227848101266	0.9090909090909091
276	0.012674271229404309	0.9090909090909091
277	0.012690355329949238	0.9090909090909091
278	0.012706480304955527	0.9090909090909091
279	0.012738853503184714	0.9090909090909091
280	0.012755102040816327	0.9090909090909091
281	0.01277139208173691	0.9090909090909091
282	0.01278772378516624	0.9090909090909091
283	0.012804097311139564	0.9090909090909091
284	0.012836970474967908	0.9090909090909091
285	0.01287001287001287	0.9090909090909091
286	0.01288659793814433	0.9090909090909091
287	0.012903225806451613	0.9090909090909091
288	0.012919896640826873	0.9090909090909091
289	0.0129366106080207	0.9090909090909091
290	0.012953367875647668	0.9090909090909091
291	0.013003901170351105	0.9090909090909091
292	0.013020833333333334	0.9090909090909091
293	0.01303780964797914	0.9090909090909091
294	0.013054830287206266	0.9090909090909091
295	0.013071895424836602	0.9090909090909091
296	0.01310615989515072	0.9090909090909091
297	0.013123359580052493	0.9090909090909091
298	0.013140604467805518	0.9090909090909091
299	0.013192612137203167	0.9090909090909091
300	0.013210039630118891	0.9090909090909091
301	0.013227513227513227	0.9090909090909091
302	0.013245033112582781	0.9090909090909091
303	0.013262599469496022	0.9090909090909091
304	0.013280212483399735	0.9090909090909091
305	0.013297872340425532	0.9090909090909091
306	0.013315579227696404	0.9090909090909091
307	0.013333333333333334	0.9090909090909091
308	0.01335113484646195	0.9090909090909091
309	0.013368983957219251	0.9090909090909091
310	0.013386880856760375	0.9090909090909091
311	0.013404825737265416	0.9090909090909091
312	0.013422818791946308	0.9090909090909091
313	0.013440860215053764	0.9090909090909091
314	0.013458950201884253	0.9090909090909091
315	0.01349527665317139	0.9090909090909091
316	0.013513513513513514	0.9090909090909091
317	0.013531799729364006	0.9090909090909091
318	0.013550135501355014	0.9090909090909091
319	0.013568521031207599	0.9090909090909091
320	0.01358695652173913	0.9090909090909091
321	0.013605442176870748	0.9090909090909091
322	0.013623978201634877	0.9090909090909091
323	0.013642564802182811	0.9090909090909091
324	0.01366120218579235	0.9090909090909091
325	0.013679890560875513	0.9090909090909091
326	0.0136986301369863	0.9090909090909091
327	0.013736263736263736	0.9090909090909091
328	0.013755158184319119	0.9090909090909091
329	0.013774104683195593	0.9090909090909091
330	0.013793103448275862	0.9090909090909091
331	0.013831258644536652	0.9090909090909091
332	0.013850415512465374	0.9090909090909091
333	0.013869625520110958	0.9090909090909091
334	0.013888888888888888	0.9090909090909091
335	0.013908205841446454	0.9090909090909091
336	0.013927576601671309	0.9090909090909091
337	0.01394700139470014	0.9090909090909091
338	0.013966480446927373	0.9090909090909091
339	0.014005602240896359	0.9090909090909091
340	0.014025245441795231	0.9090909090909091
341	0.014064697609001406	0.9090909090909091
342	0.014084507042253521	0.9090909090909091
343	0.014104372355430184	0.9090909090909091
344	0.014124293785310734	0.9090909090909091
345	0.014164305949008499	0.9090909090909091
346	0.014204545454545454	0.9090909090909091
347	0.01422475106685633	0.9090909090909091
348	0.014265335235378032	0.9090909090909091
349	0.014285714285714285	0.9090909090909091
350	0.01430615164520744	0.9090909090909091
351	0.014326647564469915	0.9090909090909091
352	0.014347202295552367	0.9090909090909091
353	0.014367816091954023	0.9090909090909091
354	0.014388489208633094	0.9090909090909091
355	0.01440922190201729	0.9090909090909091
356	0.01443001443001443	0.9090909090909091
357	0.014492753623188406	0.9090909090909091
358	0.01451378809869376	0.9090909090909091
359	0.014534883720930232	0.9090909090909091
360	0.014577259475218658	0.9090909090909091
361	0.014598540145985401	0.9090909090909091
362	0.014619883040935672	0.9090909090909091
363	0.01466275659824047	0.9090909090909091
364	0.014684287812041116	0.9090909090909091
365	0.014705882352941176	0.9090909090909091
366	0.014727540500736377	0.9090909090909091
367	0.014749262536873156	0.9090909090909091
368	0.014771048744460856	0.9090909090909091
369	0.014792899408284023	0.9090909090909091
370	0.014814814814814815	0.9090909090909091
371	0.01483679525222552	0.9090909090909091
372	0.014858841010401188	0.9090909090909091
373	0.01488095238095238	0.9090909090909091
374	0.014903129657228018	0.9090909090909091
375	0.014925373134328358	0.9090909090909091
376	0.014970059880239521	0.9090909090909091
377	0.014992503748125937	0.9090909090909091
378	0.015015015015015015	0.9090909090909091
379	0.015037593984962405	0.9090909090909091
380	0.015060240963855422	0.9090909090909091
381	0.015105740181268883	0.9090909090909091
382	0.015128593040847202	0.9090909090909091
383	0.015174506828528073	0.9090909090909091
384	0.015197568389057751	0.9090909090909091
385	0.015220700152207	0.9090909090909091
386	0.01524390243902439	0.9090909090909091
387	0.015267175572519083	0.9090909090909091
388	0.01529051987767584	0.9090909090909091
389	0.015313935681470138	0.9090909090909091
390	0.015337423312883436	0.9090909090909091
391	0.015360983102918587	0.9090909090909091
392	0.015384615384615385	0.9090909090909091
393	0.015408320493066256	0.9090909090909091
394	0.015432098765432098	0.9090909090909091
395	0.015455950540958269	0.9090909090909091
396	0.015479876160990712	0.9090909090909091
397	0.015503875968992248	0.9090909090909091
398	0.015527950310559006	0.9090909090909091
399	0.01557632398753894	0.9090909090909091
400	0.015600624024960999	0.9090909090909091
401	0.015625	0.9090909090909091
402	0.01564945226917058	0.9090909090909091
403	0.015698587127158554	0.9090909090909091
404	0.015723270440251572	0.9090909090909091
405	0.015748031496062992	0.9090909090909091
406	0.01579778830963665	0.9090909090909091
407	0.015822784810126583	0.9090909090909091
408	0.01584786053882726	0.9090909090909091
409	0.015873015873015872	0.9090909090909091
410	0.01589825119236884	0.9090909090909091
411	0.01597444089456869	0.9090909090909091
412	0.016	0.9090909090909091
413	0.016025641025641024	0.9090909090909091
414	0.016051364365971106	0.9090909090909091
415	0.01607717041800643	0.9090909090909091
416	0.01610305958132045	0.9090909090909091
417	0.016129032258064516	0.9090909090909091
418	0.016233766233766232	0.9090909090909091
419	0.016286644951140065	0.9090909090909091
420	0.016339869281045753	0.9090909090909091
421	0.016366612111292964	0.9090909090909091
422	0.01639344262295082	0.9090909090909091
423	0.016420361247947456	0.9090909090909091
424	0.01644736842105263	0.9090909090909091
425	0.016474464579901153	0.9090909090909091
426	0.0165016501650165	0.9090909090909091
427	0.01652892561983471	0.9090909090909091
428	0.016556291390728478	0.9090909090909091
429	0.01658374792703151	0.9090909090909091
430	0.016611295681063124	0.9090909090909091
431	0.016638935108153077	0.9090909090909091
432	0.016666666666666666	0.9090909090909091
433	0.01669449081803005	0.9090909090909091
434	0.016722408026755852	0.9090909090909091
435	0.01675041876046901	0.9090909090909091
436	0.016778523489932886	0.9090909090909091
437	0.016835016835016835	0.9090909090909091
438	0.016863406408094434	0.9090909090909091
439	0.016891891891891893	0.9090909090909091
440	0.01694915254237288	0.9090909090909091
441	0.01697792869269949	0.9090909090909091
442	0.017035775127768313	0.9090909090909091
443	0.017094017094017096	0.9090909090909091
444	0.017123287671232876	0.9090909090909091
445	0.017152658662092625	0.9090909090909091
446	0.01718213058419244	0.9090909090909091
447	0.01721170395869191	0.9090909090909091
448	0.017241379310344827	0.9090909090909091
449	0.01730103806228374	0.9090909090909091
450	0.01733102253032929	0.9090909090909091
451	0.017361111111111112	0.9090909090909091
452	0.017391304347826087	0.9090909090909091
453	0.017421602787456445	0.9090909090909091
454	0.017452006980802792	0.9090909090909091
455	0.017482517482517484	0.9090909090909091
456	0.017543859649122806	0.9090909090909091
457	0.01757469244288225	0.9090909090909091
458	0.017605633802816902	0.9090909090909091
459	0.01763668430335097	0.9090909090909091
460	0.0176678445229682	0.9090909090909091
461	0.017699115044247787	0.9090909090909091
462	0.01773049645390071	0.9090909090909091
463	0.017761989342806393	0.9090909090909091
464	0.017825311942959002	0.9090909090909091
465	0.017857142857142856	0.9090909090909091
466	0.017889087656529516	0.9090909090909091
467	0.017953321364452424	0.9090909090909091
468	0.017985611510791366	0.9090909090909091
469	0.018018018018018018	0.9090909090909091
470	0.018050541516245487	0.9090909090909091
471	0.018115942028985508	0.9090909090909091
472	0.018148820326678767	0.9090909090909091
473	0.018214936247723135	0.9090909090909091
474	0.018281535648994516	0.9090909090909091
475	0.018315018315018316	0.9090909090909091
476	0.01838235294117647	0.9090909090909091
477	0.01841620626151013	0.9090909090909091
478	0.018518518518518517	0.9090909090909091
479	0.01855287569573284	0.9090909090909091
480	0.01858736059479554	0.9090909090909091
481	0.0186219739292365	0.9090909090909091
482	0.018656716417910446	0.9090909090909091
483	0.018691588785046728	0.9090909090909091
484	0.01876172607879925	0.9090909090909091
485	0.018796992481203006	0.9090909090909091
486	0.018832391713747645	0.9090909090909091
487	0.01890359168241966	0.9090909090909091
488	0.01893939393939394	0.9090909090909091
489	0.018975332068311195	0.9090909090909091
490	0.019011406844106463	0.9090909090909091
491	0.01904761904761905	0.9090909090909091
492	0.019083969465648856	0.9090909090909091
493	0.019120458891013385	0.9090909090909091
494	0.019157088122605363	0.9090909090909091
495	0.019193857965451054	0.9090909090909091
496	0.019230769230769232	0.9090909090909091
497	0.019305019305019305	0.9090909090909091
498	0.019342359767891684	0.9090909090909091
499	0.01937984496124031	0.9090909090909091
500	0.019417475728155338	0.9090909090909091
501	0.019455252918287938	0.9090909090909091
502	0.01949317738791423	0.9090909090909091
503	0.01953125	0.9090909090909091
504	0.019569471624266144	0.9090909090909091
505	0.0196078431372549	0.9090909090909091
506	0.019646365422396856	0.9090909090909091
507	0.01972386587771203	0.9090909090909091
508	0.019762845849802372	0.9090909090909091
509	0.019801980198019802	0.9090909090909091
510	0.019880715705765408	0.9090909090909091
511	0.0199203187250996	0.9090909090909091
512	0.01996007984031936	0.9090909090909091
513	0.02	0.9090909090909091
514	0.02004008016032064	0.9090909090909091
515	0.020080321285140562	0.9090909090909091
516	0.02012072434607646	0.9090909090909091
517	0.020161290322580645	0.9090909090909091
518	0.020202020202020204	0.9090909090909091
519	0.02028397565922921	0.9090909090909091
520	0.02032520325203252	0.9090909090909091
521	0.020366598778004074	0.9090909090909091
522	0.02040816326530612	0.9090909090909091
523	0.02044989775051125	0.9090909090909091
524	0.020491803278688523	0.9090909090909091
525	0.02053388090349076	0.9090909090909091
526	0.0205761316872428	0.9090909090909091
527	0.020618556701030927	0.9090909090909091
528	0.02066115702479339	0.9090909090909091
529	0.020703933747412008	0.9090909090909091
530	0.02074688796680498	0.9090909090909091
531	0.02079002079002079	0.9090909090909091
532	0.020833333333333332	0.9090909090909091
533	0.020876826722338204	0.9090909090909091
534	0.02092050209205021	0.9090909090909091
535	0.020964360587002098	0.9090909090909091
536	0.02100840336134454	0.9090909090909091
537	0.021052631578947368	0.9090909090909091
538	0.02109704641350211	0.9090909090909091
539	0.021141649048625793	0.9090909090909091
540	0.021231422505307854	0.9090909090909091
541	0.02127659574468085	0.9090909090909091
542	0.021321961620469083	0.9090909090909091
543	0.021413276231263382	0.9090909090909091
544	0.02145922746781116	0.9090909090909091
545	0.021505376344086023	0.9090909090909091
546	0.021551724137931036	0.9090909090909091
547	0.021645021645021644	0.9090909090909091
548	0.021691973969631236	0.9090909090909091
549	0.021739130434782608	0.9090909090909091
550	0.021834061135371178	0.9090909090909091
551	0.02188183807439825	0.9090909090909091
552	0.021929824561403508	0.9090909090909091
553	0.02197802197802198	0.9090909090909091
554	0.022026431718061675	0.9090909090909091
555	0.022123893805309734	0.9090909090909091
556	0.022172949002217297	0.9090909090909091
557	0.022222222222222223	0.9090909090909091
558	0.022271714922048998	0.9090909090909091
559	0.022321428571428572	0.9090909090909091
560	0.02237136465324385	0.9090909090909091
561	0.02247191011235955	0.9090909090909091
562	0.02252252252252252	0.9090909090909091
563	0.022573363431151242	0.9090909090909091
564	0.02262443438914027	0.9090909090909091
565	0.022675736961451247	0.9090909090909091
566	0.022727272727272728	0.9090909090909091
567	0.0228310502283105	0.9090909090909091
568	0.02288329519450801	0.9090909090909091
569	0.022935779816513763	0.9090909090909091
570	0.022988505747126436	0.9090909090909091
571	0.02304147465437788	0.9090909090909091
572	0.023094688221709007	0.9090909090909091
573	0.023148148148148147	0.9090909090909091
574	0.02320185614849188	0.9090909090909091
575	0.023255813953488372	0.9090909090909091
576	0.023310023310023312	0.9090909090909091
577	0.02336448598130841	0.9090909090909091
578	0.0234192037470726	0.9090909090909091
579	0.023474178403755867	0.9090909090909091
580	0.023529411764705882	0.9090909090909091
581	0.02358490566037736	0.9090909090909091
582	0.02364066193853428	0.9090909090909091
583	0.023696682464454975	0.9090909090909091
584	0.023752969121140142	0.9090909090909091
585	0.023809523809523808	0.9090909090909091
586	0.023923444976076555	0.9090909090909091
587	0.023980815347721823	0.9090909090909091
588	0.02403846153846154	0.9090909090909091
589	0.024096385542168676	0.9090909090909091
590	0.024154589371980676	0.9090909090909091
591	0.024213075060532687	0.9090909090909091
592	0.024271844660194174	0.9090909090909091
593	0.024330900243309004	0.9090909090909091
594	0.02444987775061125	0.9090909090909091
595	0.02457002457002457	0.9090909090909091
596	0.024691358024691357	0.9090909090909091
597	0.024752475247524754	0.9090909090909091
598	0.02481389578163772	0.9090909090909091
599	0.024875621890547265	0.9090909090909091
600	0.02493765586034913	0.9090909090909091
601	0.025	0.9090909090909091
602	0.02506265664160401	0.9090909090909091
603	0.02512562814070352	0.9090909090909091
604	0.02518891687657431	0.9090909090909091
605	0.02531645569620253	0.9090909090909091
606	0.025380710659898477	0.9090909090909091
607	0.02544529262086514	0.9090909090909091
608	0.02557544757033248	0.9090909090909091
609	0.02570694087403599	0.9090909090909091
610	0.02577319587628866	0.9090909090909091
611	0.025906735751295335	0.9090909090909091
612	0.025974025974025976	0.9090909090909091
613	0.02610966057441253	0.9090909090909091
614	0.02617801047120419	0.9090909090909091
615	0.026246719160104987	0.9090909090909091
616	0.026385224274406333	0.9090909090909091
617	0.026455026455026454	0.9090909090909091
618	0.026525198938992044	0.9090909090909091
619	0.026595744680851064	0.9090909090909091
620	0.026737967914438502	0.9090909090909091
621	0.02680965147453083	0.9090909090909091
622	0.026881720430107527	0.9090909090909091
623	0.026954177897574125	0.9090909090909091
624	0.02702702702702703	0.9090909090909091
625	0.02717391304347826	0.9090909090909091
626	0.027247956403269755	0.9090909090909091
627	0.0273224043715847	0.9090909090909091
628	0.0273972602739726	0.9090909090909091
629	0.027472527472527472	0.9090909090909091
630	0.027548209366391185	0.9090909090909091
631	0.027700831024930747	0.9090909090909091
632	0.027777777777777776	0.9090909090909091
633	0.027855153203342618	0.9090909090909091
634	0.027932960893854747	0.9090909090909091
635	0.028011204481792718	0.9090909090909091
636	0.028089887640449437	0.9090909090909091
637	0.028169014084507043	0.9090909090909091
638	0.02824858757062147	0.9090909090909091
639	0.028328611898016998	0.9090909090909091
640	0.028409090909090908	0.9090909090909091
641	0.02857142857142857	0.9090909090909091
642	0.02865329512893983	0.9090909090909091
643	0.028735632183908046	0.9090909090909091
644	0.02881844380403458	0.9090909090909091
645	0.028985507246376812	0.9090909090909091
646	0.029069767441860465	0.9090909090909091
647	0.029154518950437316	0.9090909090909091
648	0.029239766081871343	0.9090909090909091
649	0.02932551319648094	0.9090909090909091
650	0.029411764705882353	0.9090909090909091
651	0.029498525073746312	0.9090909090909091
652	0.02967359050445104	0.9090909090909091
653	0.02976190476190476	0.9090909090909091
654	0.029850746268656716	0.9090909090909091
655	0.03003003003003003	0.9090909090909091
656	0.030120481927710843	0.9090909090909091
657	0.030211480362537766	0.9090909090909091
658	0.030303030303030304	0.9090909090909091
659	0.030395136778115502	0.9090909090909091
660	0.03048780487804878	0.9090909090909091
661	0.03067484662576687	0.9090909090909091
662	0.03076923076923077	0.9090909090909091
663	0.030864197530864196	0.9090909090909091
664	0.031055900621118012	0.9090909090909091
665	0.03115264797507788	0.9090909090909091
666	0.03125	0.9090909090909091
667	0.03134796238244514	0.9090909090909091
668	0.031446540880503145	0.9090909090909091
669	0.031545741324921134	0.9090909090909091
670	0.03164556962025317	0.9090909090909091
671	0.031746031746031744	0.9090909090909091
672	0.03184713375796178	0.9090909090909091
673	0.03194888178913738	0.9090909090909091
674	0.03205128205128205	0.9090909090909091
675	0.032362459546925564	0.9090909090909091
676	0.032467532467532464	0.9090909090909091
677	0.032679738562091505	0.9090909090909091
678	0.03278688524590164	0.9090909090909091
679	0.033003300330033	0.9090909090909091
680	0.033112582781456956	0.9090909090909091
681	0.03322259136212625	0.9090909090909091
682	0.03333333333333333	0.9090909090909091
683	0.033444816053511704	0.9090909090909091
684	0.03355704697986577	0.9090909090909091
685	0.03389830508474576	0.9090909090909091
686	0.034013605442176874	0.9090909090909091
687	0.034129692832764506	0.9090909090909091
688	0.03424657534246575	0.9090909090909091
689	0.03436426116838488	0.9090909090909091
690	0.034482758620689655	0.9090909090909091
691	0.03460207612456748	0.9090909090909091
692	0.03484320557491289	0.9090909090909091
693	0.03496503496503497	0.9090909090909091
694	0.03508771929824561	0.9090909090909091
695	0.035211267605633804	0.9090909090909091
696	0.0353356890459364	0.9090909090909091
697	0.03546099290780142	0.9090909090909091
698	0.03571428571428571	0.9090909090909091
699	0.035842293906810034	0.9090909090909091
700	0.03597122302158273	0.9090909090909091
701	0.036101083032490974	0.9090909090909091
702	0.036231884057971016	0.9090909090909091
703	0.03636363636363636	0.9090909090909091
704	0.0364963503649635	0.9090909090909091
705	0.03663003663003663	0.9090909090909091
706	0.03690036900369004	0.9090909090909091
707	0.037037037037037035	0.9090909090909091
708	0.03717472118959108	0.9090909090909091
709	0.03745318352059925	0.9090909090909091
710	0.03759398496240601	0.9090909090909091
711	0.03773584905660377	0.9090909090909091
712	0.03787878787878788	0.9090909090909091
713	0.038314176245210725	0.9090909090909091
714	0.038461538461538464	0.9090909090909091
715	0.03861003861003861	0.9090909090909091
716	0.038910505836575876	0.9090909090909091
717	0.0390625	0.9090909090909091
718	0.0392156862745098	0.9090909090909091
719	0.03937007874015748	0.9090909090909091
720	0.039525691699604744	0.9090909090909091
721	0.0398406374501992	0.9090909090909091
722	0.04	0.9090909090909091
723	0.040160642570281124	0.9090909090909091
724	0.04048582995951417	0.9090909090909091
725	0.04065040650406504	0.9090909090909091
726	0.04081632653061224	0.9090909090909091
727	0.0411522633744856	0.9090909090909091
728	0.04149377593360996	0.9090909090909091
729	0.04184100418410042	0.9090909090909091
730	0.0425531914893617	0.9090909090909091
731	0.042735042735042736	0.9090909090909091
732	0.04291845493562232	0.9090909090909091
733	0.04310344827586207	0.9090909090909091
734	0.04329004329004329	0.9090909090909091
735	0.043668122270742356	0.9090909090909091
736	0.043859649122807015	0.9090909090909091
737	0.04405286343612335	0.9090909090909091
738	0.04424778761061947	0.9090909090909091
739	0.044444444444444446	0.9090909090909091
740	0.04484304932735426	0.9090909090909091
741	0.04504504504504504	0.9090909090909091
742	0.04524886877828054	0.9090909090909091
743	0.04090909090909091	0.8181818181818182
744	0.0410958904109589	0.8181818181818182
745	0.041666666666666664	0.8181818181818182
746	0.04205607476635514	0.8181818181818182
747	0.04225352112676056	0.8181818181818182
748	0.04245283018867924	0.8181818181818182
749	0.04285714285714286	0.8181818181818182
750	0.0430622009569378	0.8181818181818182
751	0.04326923076923077	0.8181818181818182
752	0.043478260869565216	0.8181818181818182
753	0.043689320388349516	0.8181818181818182
754	0.04390243902439024	0.8181818181818182
755	0.04411764705882353	0.8181818181818182
756	0.04455445544554455	0.8181818181818182
757	0.04522613065326633	0.8181818181818182
758	0.04568527918781726	0.8181818181818182
759	0.046153846153846156	0.8181818181818182
760	0.04639175257731959	0.8181818181818182
761	0.046875	0.8181818181818182
762	0.04736842105263158	0.8181818181818182
763	0.047619047619047616	0.8181818181818182
764	0.047872340425531915	0.8181818181818182
765	0.04838709677419355	0.8181818181818182
766	0.04918032786885246	0.8181818181818182
767	0.04945054945054945	0.8181818181818182
768	0.049723756906077346	0.8181818181818182
769	0.05	0.8181818181818182
770	0.05027932960893855	0.8181818181818182
771	0.05142857142857143	0.8181818181818182
772	0.05202312138728324	0.8181818181818182
773	0.05263157894736842	0.8181818181818182
774	0.05325443786982249	0.8181818181818182
775	0.05521472392638037	0.8181818181818182
776	0.05625	0.8181818181818182
777	0.056962025316455694	0.8181818181818182
778	0.05128205128205128	0.7272727272727273
779	0.05194805194805195	0.7272727272727273
780	0.05228758169934641	0.7272727272727273
781	0.05263157894736842	0.7272727272727273
782	0.05333333333333334	0.7272727272727273
783	0.0547945205479452	0.7272727272727273
784	0.05555555555555555	0.7272727272727273
785	0.055944055944055944	0.7272727272727273
786	0.05673758865248227	0.7272727272727273
787	0.05714285714285714	0.7272727272727273
788	0.05755395683453238	0.7272727272727273
789	0.057971014492753624	0.7272727272727273
790	0.058394160583941604	0.7272727272727273
791	0.058823529411764705	0.7272727272727273
792	0.05970149253731343	0.7272727272727273
793	0.06015037593984962	0.7272727272727273
794	0.06299212598425197	0.7272727272727273
795	0.06349206349206349	0.7272727272727273
796	0.064	0.7272727272727273
797	0.06451612903225806	0.7272727272727273
798	0.05785123966942149	0.6363636363636364
799	0.058333333333333334	0.6363636363636364
800	0.059322033898305086	0.6363636363636364
801	0.06140350877192982	0.6363636363636364
802	0.061946902654867256	0.6363636363636364
803	0.06306306306306306	0.6363636363636364
804	0.06481481481481481	0.6363636363636364
805	0.06542056074766354	0.6363636363636364
806	0.06666666666666667	0.6363636363636364
807	0.06796116504854369	0.6363636363636364
808	0.07142857142857142	0.6363636363636364
809	0.07291666666666667	0.6363636363636364
810	0.07526881720430108	0.6363636363636364
811	0.07692307692307693	0.6363636363636364
812	0.07865168539325842	0.6363636363636364
813	0.07954545454545454	0.6363636363636364
814	0.08641975308641975	0.6363636363636364
815	0.09210526315789473	0.6363636363636364
816	0.0945945945945946	0.6363636363636364
817	0.08450704225352113	0.5454545454545454
818	0.08955223880597014	0.5454545454545454
819	0.09230769230769231	0.5454545454545454
820	0.1016949152542373	0.5454545454545454
821	0.08928571428571429	0.45454545454545453
822	0.1	0.45454545454545453
823	0.08888888888888889	0.36363636363636365
824	0.09523809523809523	0.36363636363636365
825	0.12121212121212122	0.36363636363636365
826	0.12903225806451613	0.36363636363636365
827	0.16	0.36363636363636365
828	0.0625	0.09090909090909091
829	1.0	0.0
