	Precision	Recall
0	0.018032786885245903	1.0
1	0.016420361247947456	0.9090909090909091
2	0.01644736842105263	0.9090909090909091
3	0.016474464579901153	0.9090909090909091
4	0.01652892561983471	0.9090909090909091
5	0.016556291390728478	0.9090909090909091
6	0.01658374792703151	0.9090909090909091
7	0.016611295681063124	0.9090909090909091
8	0.016638935108153077	0.9090909090909091
9	0.01669449081803005	0.9090909090909091
10	0.016722408026755852	0.9090909090909091
11	0.01675041876046901	0.9090909090909091
12	0.016778523489932886	0.9090909090909091
13	0.01680672268907563	0.9090909090909091
14	0.016835016835016835	0.9090909090909091
15	0.016863406408094434	0.9090909090909091
16	0.016891891891891893	0.9090909090909091
17	0.01692047377326565	0.9090909090909091
18	0.01694915254237288	0.9090909090909091
19	0.01697792869269949	0.9090909090909091
20	0.017006802721088437	0.9090909090909091
21	0.017064846416382253	0.9090909090909091
22	0.017094017094017096	0.9090909090909091
23	0.017123287671232876	0.9090909090909091
24	0.017152658662092625	0.9090909090909091
25	0.01721170395869191	0.9090909090909091
26	0.017241379310344827	0.9090909090909091
27	0.017271157167530225	0.9090909090909091
28	0.01730103806228374	0.9090909090909091
29	0.01733102253032929	0.9090909090909091
30	0.017361111111111112	0.9090909090909091
31	0.017391304347826087	0.9090909090909091
32	0.017482517482517484	0.9090909090909091
33	0.017513134851138354	0.9090909090909091
34	0.017543859649122806	0.9090909090909091
35	0.01757469244288225	0.9090909090909091
36	0.017605633802816902	0.9090909090909091
37	0.01763668430335097	0.9090909090909091
38	0.0176678445229682	0.9090909090909091
39	0.017699115044247787	0.9090909090909091
40	0.01773049645390071	0.9090909090909091
41	0.017761989342806393	0.9090909090909091
42	0.017793594306049824	0.9090909090909091
43	0.017825311942959002	0.9090909090909091
44	0.017857142857142856	0.9090909090909091
45	0.017889087656529516	0.9090909090909091
46	0.017953321364452424	0.9090909090909091
47	0.017985611510791366	0.9090909090909091
48	0.018018018018018018	0.9090909090909091
49	0.018050541516245487	0.9090909090909091
50	0.018083182640144666	0.9090909090909091
51	0.018115942028985508	0.9090909090909091
52	0.018148820326678767	0.9090909090909091
53	0.01818181818181818	0.9090909090909091
54	0.018214936247723135	0.9090909090909091
55	0.01824817518248175	0.9090909090909091
56	0.018281535648994516	0.9090909090909091
57	0.01834862385321101	0.9090909090909091
58	0.01838235294117647	0.9090909090909091
59	0.01841620626151013	0.9090909090909091
60	0.01845018450184502	0.9090909090909091
61	0.018484288354898338	0.9090909090909091
62	0.018518518518518517	0.9090909090909091
63	0.01855287569573284	0.9090909090909091
64	0.0186219739292365	0.9090909090909091
65	0.018656716417910446	0.9090909090909091
66	0.018691588785046728	0.9090909090909091
67	0.018726591760299626	0.9090909090909091
68	0.01876172607879925	0.9090909090909091
69	0.018796992481203006	0.9090909090909091
70	0.018832391713747645	0.9090909090909091
71	0.018867924528301886	0.9090909090909091
72	0.01890359168241966	0.9090909090909091
73	0.018975332068311195	0.9090909090909091
74	0.019011406844106463	0.9090909090909091
75	0.01904761904761905	0.9090909090909091
76	0.019083969465648856	0.9090909090909091
77	0.019120458891013385	0.9090909090909091
78	0.019157088122605363	0.9090909090909091
79	0.019230769230769232	0.9090909090909091
80	0.019342359767891684	0.9090909090909091
81	0.01937984496124031	0.9090909090909091
82	0.019417475728155338	0.9090909090909091
83	0.019455252918287938	0.9090909090909091
84	0.01949317738791423	0.9090909090909091
85	0.01953125	0.9090909090909091
86	0.019569471624266144	0.9090909090909091
87	0.0196078431372549	0.9090909090909091
88	0.019646365422396856	0.9090909090909091
89	0.01968503937007874	0.9090909090909091
90	0.019762845849802372	0.9090909090909091
91	0.019801980198019802	0.9090909090909091
92	0.01984126984126984	0.9090909090909091
93	0.019880715705765408	0.9090909090909091
94	0.0199203187250996	0.9090909090909091
95	0.01996007984031936	0.9090909090909091
96	0.02	0.9090909090909091
97	0.020080321285140562	0.9090909090909091
98	0.02012072434607646	0.9090909090909091
99	0.020161290322580645	0.9090909090909091
100	0.020202020202020204	0.9090909090909091
101	0.020242914979757085	0.9090909090909091
102	0.02028397565922921	0.9090909090909091
103	0.020366598778004074	0.9090909090909091
104	0.02040816326530612	0.9090909090909091
105	0.02044989775051125	0.9090909090909091
106	0.020491803278688523	0.9090909090909091
107	0.02053388090349076	0.9090909090909091
108	0.0205761316872428	0.9090909090909091
109	0.020618556701030927	0.9090909090909091
110	0.020703933747412008	0.9090909090909091
111	0.02074688796680498	0.9090909090909091
112	0.02079002079002079	0.9090909090909091
113	0.020876826722338204	0.9090909090909091
114	0.02092050209205021	0.9090909090909091
115	0.020964360587002098	0.9090909090909091
116	0.02100840336134454	0.9090909090909091
117	0.021052631578947368	0.9090909090909091
118	0.021141649048625793	0.9090909090909091
119	0.021231422505307854	0.9090909090909091
120	0.02127659574468085	0.9090909090909091
121	0.021321961620469083	0.9090909090909091
122	0.021367521367521368	0.9090909090909091
123	0.021413276231263382	0.9090909090909091
124	0.02145922746781116	0.9090909090909091
125	0.021551724137931036	0.9090909090909091
126	0.02159827213822894	0.9090909090909091
127	0.021691973969631236	0.9090909090909091
128	0.02178649237472767	0.9090909090909091
129	0.021834061135371178	0.9090909090909091
130	0.021929824561403508	0.9090909090909091
131	0.02197802197802198	0.9090909090909091
132	0.022123893805309734	0.9090909090909091
133	0.022172949002217297	0.9090909090909091
134	0.022222222222222223	0.9090909090909091
135	0.022321428571428572	0.9090909090909091
136	0.02242152466367713	0.9090909090909091
137	0.02247191011235955	0.9090909090909091
138	0.022573363431151242	0.9090909090909091
139	0.02262443438914027	0.9090909090909091
140	0.022675736961451247	0.9090909090909091
141	0.0228310502283105	0.9090909090909091
142	0.02288329519450801	0.9090909090909091
143	0.022935779816513763	0.9090909090909091
144	0.022988505747126436	0.9090909090909091
145	0.02304147465437788	0.9090909090909091
146	0.023094688221709007	0.9090909090909091
147	0.023148148148148147	0.9090909090909091
148	0.02320185614849188	0.9090909090909091
149	0.023255813953488372	0.9090909090909091
150	0.023310023310023312	0.9090909090909091
151	0.0234192037470726	0.9090909090909091
152	0.02358490566037736	0.9090909090909091
153	0.02364066193853428	0.9090909090909091
154	0.023752969121140142	0.9090909090909091
155	0.02386634844868735	0.9090909090909091
156	0.023980815347721823	0.9090909090909091
157	0.02403846153846154	0.9090909090909091
158	0.024096385542168676	0.9090909090909091
159	0.024154589371980676	0.9090909090909091
160	0.024213075060532687	0.9090909090909091
161	0.024271844660194174	0.9090909090909091
162	0.024390243902439025	0.9090909090909091
163	0.024509803921568627	0.9090909090909091
164	0.02457002457002457	0.9090909090909091
165	0.024691358024691357	0.9090909090909091
166	0.024752475247524754	0.9090909090909091
167	0.024875621890547265	0.9090909090909091
168	0.025	0.9090909090909091
169	0.02518891687657431	0.9090909090909091
170	0.025252525252525252	0.9090909090909091
171	0.02531645569620253	0.9090909090909091
172	0.02544529262086514	0.9090909090909091
173	0.025510204081632654	0.9090909090909091
174	0.02557544757033248	0.9090909090909091
175	0.02564102564102564	0.9090909090909091
176	0.02570694087403599	0.9090909090909091
177	0.02577319587628866	0.9090909090909091
178	0.025839793281653745	0.9090909090909091
179	0.025906735751295335	0.9090909090909091
180	0.02610966057441253	0.9090909090909091
181	0.026246719160104987	0.9090909090909091
182	0.02631578947368421	0.9090909090909091
183	0.026385224274406333	0.9090909090909091
184	0.026595744680851064	0.9090909090909091
185	0.02666666666666667	0.9090909090909091
186	0.02680965147453083	0.9090909090909091
187	0.026954177897574125	0.9090909090909091
188	0.02702702702702703	0.9090909090909091
189	0.02710027100271003	0.9090909090909091
190	0.027247956403269755	0.9090909090909091
191	0.0273224043715847	0.9090909090909091
192	0.0273972602739726	0.9090909090909091
193	0.027472527472527472	0.9090909090909091
194	0.027548209366391185	0.9090909090909091
195	0.027624309392265192	0.9090909090909091
196	0.027700831024930747	0.9090909090909091
197	0.027777777777777776	0.9090909090909091
198	0.028089887640449437	0.9090909090909091
199	0.02824858757062147	0.9090909090909091
200	0.028328611898016998	0.9090909090909091
201	0.028409090909090908	0.9090909090909091
202	0.02849002849002849	0.9090909090909091
203	0.028735632183908046	0.9090909090909091
204	0.028901734104046242	0.9090909090909091
205	0.028985507246376812	0.9090909090909091
206	0.029069767441860465	0.9090909090909091
207	0.029154518950437316	0.9090909090909091
208	0.029239766081871343	0.9090909090909091
209	0.029411764705882353	0.9090909090909091
210	0.02976190476190476	0.9090909090909091
211	0.029850746268656716	0.9090909090909091
212	0.029940119760479042	0.9090909090909091
213	0.03003003003003003	0.9090909090909091
214	0.030120481927710843	0.9090909090909091
215	0.030211480362537766	0.9090909090909091
216	0.030395136778115502	0.9090909090909091
217	0.03048780487804878	0.9090909090909091
218	0.03067484662576687	0.9090909090909091
219	0.03076923076923077	0.9090909090909091
220	0.031055900621118012	0.9090909090909091
221	0.03115264797507788	0.9090909090909091
222	0.03125	0.9090909090909091
223	0.031446540880503145	0.9090909090909091
224	0.03164556962025317	0.9090909090909091
225	0.031746031746031744	0.9090909090909091
226	0.03205128205128205	0.9090909090909091
227	0.03215434083601286	0.9090909090909091
228	0.032362459546925564	0.9090909090909091
229	0.032467532467532464	0.9090909090909091
230	0.032679738562091505	0.9090909090909091
231	0.03278688524590164	0.9090909090909091
232	0.03322259136212625	0.9090909090909091
233	0.03333333333333333	0.9090909090909091
234	0.03355704697986577	0.9090909090909091
235	0.03367003367003367	0.9090909090909091
236	0.033783783783783786	0.9090909090909091
237	0.034129692832764506	0.9090909090909091
238	0.03460207612456748	0.9090909090909091
239	0.034722222222222224	0.9090909090909091
240	0.03484320557491289	0.9090909090909091
241	0.03496503496503497	0.9090909090909091
242	0.0353356890459364	0.9090909090909091
243	0.03571428571428571	0.9090909090909091
244	0.035842293906810034	0.9090909090909091
245	0.03260869565217391	0.8181818181818182
246	0.032846715328467155	0.8181818181818182
247	0.03308823529411765	0.8181818181818182
248	0.03333333333333333	0.8181818181818182
249	0.033582089552238806	0.8181818181818182
250	0.033707865168539325	0.8181818181818182
251	0.033962264150943396	0.8181818181818182
252	0.034220532319391636	0.8181818181818182
253	0.03474903474903475	0.8181818181818182
254	0.03515625	0.8181818181818182
255	0.03557312252964427	0.8181818181818182
256	0.035856573705179286	0.8181818181818182
257	0.036	0.8181818181818182
258	0.036290322580645164	0.8181818181818182
259	0.036585365853658534	0.8181818181818182
260	0.036734693877551024	0.8181818181818182
261	0.036885245901639344	0.8181818181818182
262	0.037037037037037035	0.8181818181818182
263	0.0371900826446281	0.8181818181818182
264	0.03734439834024896	0.8181818181818182
265	0.038135593220338986	0.8181818181818182
266	0.03862660944206009	0.8181818181818182
267	0.0391304347826087	0.8181818181818182
268	0.04	0.8181818181818182
269	0.04017857142857143	0.8181818181818182
270	0.04054054054054054	0.8181818181818182
271	0.04072398190045249	0.8181818181818182
272	0.041666666666666664	0.8181818181818182
273	0.04245283018867924	0.8181818181818182
274	0.04265402843601896	0.8181818181818182
275	0.0430622009569378	0.8181818181818182
276	0.04411764705882353	0.8181818181818182
277	0.04455445544554455	0.8181818181818182
278	0.04522613065326633	0.8181818181818182
279	0.046153846153846156	0.8181818181818182
280	0.047872340425531915	0.8181818181818182
281	0.04891304347826087	0.8181818181818182
282	0.05	0.8181818181818182
283	0.05084745762711865	0.8181818181818182
284	0.05325443786982249	0.8181818181818182
285	0.054878048780487805	0.8181818181818182
286	0.05660377358490566	0.8181818181818182
287	0.05844155844155844	0.8181818181818182
288	0.05921052631578947	0.8181818181818182
289	0.060810810810810814	0.8181818181818182
290	0.0625	0.8181818181818182
291	0.06569343065693431	0.8181818181818182
292	0.06666666666666667	0.8181818181818182
293	0.06153846153846154	0.7272727272727273
294	0.06299212598425197	0.7272727272727273
295	0.06451612903225806	0.7272727272727273
296	0.06779661016949153	0.7272727272727273
297	0.07142857142857142	0.7272727272727273
298	0.07692307692307693	0.7272727272727273
299	0.07608695652173914	0.6363636363636364
300	0.08333333333333333	0.6363636363636364
301	0.08695652173913043	0.5454545454545454
302	0.0847457627118644	0.45454545454545453
303	0.10526315789473684	0.36363636363636365
304	1.0	0.0
