	Precision	Recall
0	0.06293364170076499	1.0
1	0.06041452300455681	0.2904593639575972
2	0.06269307650372524	0.24381625441696114
3	0.06270447110141766	0.24381625441696114
4	0.06492314751089699	0.2
5	0.06583258862079237	0.15618374558303888
6	0.06587183308494785	0.15618374558303888
7	0.06831042845594179	0.11943462897526502
8	0.06833805095026284	0.11943462897526502
9	0.06937394247038917	0.08692579505300353
10	0.06941309255079006	0.08692579505300353
11	0.07782426778242678	0.0657243816254417
12	0.07788944723618091	0.0657243816254417
13	0.08397932816537468	0.045936395759717315
14	0.08408796895213454	0.045936395759717315
15	0.07900677200902935	0.024734982332155476
16	0.07918552036199095	0.024734982332155476
17	0.08438818565400844	0.014134275618374558
18	0.0847457627118644	0.014134275618374558
19	0.07216494845360824	0.0049469964664310955
20	0.027777777777777776	0.0007067137809187279
21	0.0	0.0
22	0.0	0.0
23	1.0	0.0
