	athaliana_20M_dl_reg_pval_norm	athaliana_20M_dl_reg_score	athaliana_20M_dl_reg_pval_norm_TF	athaliana_20M_dl_reg_score_TF
full-Recall	0.048030425871374245	0.10637348515645216	0.21229539824727534	0.3379219646633154
25%-Recall	0.0	0.24358974358974358	0.0	0.5833333333333333
50%-Recall	0.0	0.1831719767646541	0.0	0.530952380952381
