	athaliana_1M_dl_reg_pval_norm	athaliana_1M_dl_reg_score	athaliana_1M_dl_reg_pval_norm_TF	athaliana_1M_dl_reg_score_TF
full-Recall	0.027443907300718204	0.10637348515645216	0.18994090089277801	0.3379219646633154
25%-Recall	0.0	0.24358974358974358	0.0	0.5833333333333333
50%-Recall	0.0	0.1831719767646541	0.0	0.530952380952381
