	Precision	Recall
0	0.03536977491961415	1.0
1	0.03225806451612903	0.9090909090909091
2	0.032362459546925564	0.9090909090909091
3	0.032467532467532464	0.9090909090909091
4	0.03257328990228013	0.9090909090909091
5	0.032679738562091505	0.9090909090909091
6	0.03278688524590164	0.9090909090909091
7	0.03289473684210526	0.9090909090909091
8	0.033003300330033	0.9090909090909091
9	0.033112582781456956	0.9090909090909091
10	0.03322259136212625	0.9090909090909091
11	0.03333333333333333	0.9090909090909091
12	0.033444816053511704	0.9090909090909091
13	0.03355704697986577	0.9090909090909091
14	0.03367003367003367	0.9090909090909091
15	0.033783783783783786	0.9090909090909091
16	0.03389830508474576	0.9090909090909091
17	0.034013605442176874	0.9090909090909091
18	0.034129692832764506	0.9090909090909091
19	0.03424657534246575	0.9090909090909091
20	0.03436426116838488	0.9090909090909091
21	0.034482758620689655	0.9090909090909091
22	0.03460207612456748	0.9090909090909091
23	0.034722222222222224	0.9090909090909091
24	0.03484320557491289	0.9090909090909091
25	0.03496503496503497	0.9090909090909091
26	0.03508771929824561	0.9090909090909091
27	0.035211267605633804	0.9090909090909091
28	0.0353356890459364	0.9090909090909091
29	0.03546099290780142	0.9090909090909091
30	0.03558718861209965	0.9090909090909091
31	0.03571428571428571	0.9090909090909091
32	0.035842293906810034	0.9090909090909091
33	0.03597122302158273	0.9090909090909091
34	0.036101083032490974	0.9090909090909091
35	0.036231884057971016	0.9090909090909091
36	0.03636363636363636	0.9090909090909091
37	0.0364963503649635	0.9090909090909091
38	0.03663003663003663	0.9090909090909091
39	0.03676470588235294	0.9090909090909091
40	0.03690036900369004	0.9090909090909091
41	0.037037037037037035	0.9090909090909091
42	0.03717472118959108	0.9090909090909091
43	0.03745318352059925	0.9090909090909091
44	0.03759398496240601	0.9090909090909091
45	0.03773584905660377	0.9090909090909091
46	0.03787878787878788	0.9090909090909091
47	0.03802281368821293	0.9090909090909091
48	0.03816793893129771	0.9090909090909091
49	0.038314176245210725	0.9090909090909091
50	0.038461538461538464	0.9090909090909091
51	0.03861003861003861	0.9090909090909091
52	0.03875968992248062	0.9090909090909091
53	0.038910505836575876	0.9090909090909091
54	0.0390625	0.9090909090909091
55	0.0392156862745098	0.9090909090909091
56	0.03937007874015748	0.9090909090909091
57	0.039525691699604744	0.9090909090909091
58	0.03968253968253968	0.9090909090909091
59	0.0398406374501992	0.9090909090909091
60	0.04	0.9090909090909091
61	0.040160642570281124	0.9090909090909091
62	0.04032258064516129	0.9090909090909091
63	0.04048582995951417	0.9090909090909091
64	0.04065040650406504	0.9090909090909091
65	0.04081632653061224	0.9090909090909091
66	0.040983606557377046	0.9090909090909091
67	0.0411522633744856	0.9090909090909091
68	0.04132231404958678	0.9090909090909091
69	0.04149377593360996	0.9090909090909091
70	0.041666666666666664	0.9090909090909091
71	0.04184100418410042	0.9090909090909091
72	0.04201680672268908	0.9090909090909091
73	0.04219409282700422	0.9090909090909091
74	0.0423728813559322	0.9090909090909091
75	0.0425531914893617	0.9090909090909091
76	0.042735042735042736	0.9090909090909091
77	0.04291845493562232	0.9090909090909091
78	0.04310344827586207	0.9090909090909091
79	0.04329004329004329	0.9090909090909091
80	0.043478260869565216	0.9090909090909091
81	0.043668122270742356	0.9090909090909091
82	0.043859649122807015	0.9090909090909091
83	0.04405286343612335	0.9090909090909091
84	0.04424778761061947	0.9090909090909091
85	0.044444444444444446	0.9090909090909091
86	0.044642857142857144	0.9090909090909091
87	0.04484304932735426	0.9090909090909091
88	0.04504504504504504	0.9090909090909091
89	0.04524886877828054	0.9090909090909091
90	0.045454545454545456	0.9090909090909091
91	0.045662100456621	0.9090909090909091
92	0.045871559633027525	0.9090909090909091
93	0.04608294930875576	0.9090909090909091
94	0.046296296296296294	0.9090909090909091
95	0.046511627906976744	0.9090909090909091
96	0.04672897196261682	0.9090909090909091
97	0.046948356807511735	0.9090909090909091
98	0.04716981132075472	0.9090909090909091
99	0.04739336492890995	0.9090909090909091
100	0.047619047619047616	0.9090909090909091
101	0.04784688995215311	0.9090909090909091
102	0.04807692307692308	0.9090909090909091
103	0.04830917874396135	0.9090909090909091
104	0.04854368932038835	0.9090909090909091
105	0.04878048780487805	0.9090909090909091
106	0.049019607843137254	0.9090909090909091
107	0.04926108374384237	0.9090909090909091
108	0.04950495049504951	0.9090909090909091
109	0.04975124378109453	0.9090909090909091
110	0.05	0.9090909090909091
111	0.05025125628140704	0.9090909090909091
112	0.050505050505050504	0.9090909090909091
113	0.050761421319796954	0.9090909090909091
114	0.05102040816326531	0.9090909090909091
115	0.05128205128205128	0.9090909090909091
116	0.05154639175257732	0.9090909090909091
117	0.05181347150259067	0.9090909090909091
118	0.052083333333333336	0.9090909090909091
119	0.05235602094240838	0.9090909090909091
120	0.05263157894736842	0.9090909090909091
121	0.05291005291005291	0.9090909090909091
122	0.05319148936170213	0.9090909090909091
123	0.053475935828877004	0.9090909090909091
124	0.053763440860215055	0.9090909090909091
125	0.05405405405405406	0.9090909090909091
126	0.05434782608695652	0.9090909090909091
127	0.0546448087431694	0.9090909090909091
128	0.054945054945054944	0.9090909090909091
129	0.055248618784530384	0.9090909090909091
130	0.05555555555555555	0.9090909090909091
131	0.055865921787709494	0.9090909090909091
132	0.056179775280898875	0.9090909090909091
133	0.05649717514124294	0.9090909090909091
134	0.056818181818181816	0.9090909090909091
135	0.05714285714285714	0.9090909090909091
136	0.05747126436781609	0.9090909090909091
137	0.057803468208092484	0.9090909090909091
138	0.05813953488372093	0.9090909090909091
139	0.05847953216374269	0.9090909090909091
140	0.058823529411764705	0.9090909090909091
141	0.05917159763313609	0.9090909090909091
142	0.05952380952380952	0.9090909090909091
143	0.059880239520958084	0.9090909090909091
144	0.060240963855421686	0.9090909090909091
145	0.06060606060606061	0.9090909090909091
146	0.06097560975609756	0.9090909090909091
147	0.06134969325153374	0.9090909090909091
148	0.06172839506172839	0.9090909090909091
149	0.062111801242236024	0.9090909090909091
150	0.0625	0.9090909090909091
151	0.06289308176100629	0.9090909090909091
152	0.06329113924050633	0.9090909090909091
153	0.05732484076433121	0.8181818181818182
154	0.057692307692307696	0.8181818181818182
155	0.05806451612903226	0.8181818181818182
156	0.05844155844155844	0.8181818181818182
157	0.058823529411764705	0.8181818181818182
158	0.05921052631578947	0.8181818181818182
159	0.059602649006622516	0.8181818181818182
160	0.06	0.8181818181818182
161	0.06040268456375839	0.8181818181818182
162	0.060810810810810814	0.8181818181818182
163	0.061224489795918366	0.8181818181818182
164	0.06164383561643835	0.8181818181818182
165	0.06206896551724138	0.8181818181818182
166	0.0625	0.8181818181818182
167	0.06293706293706294	0.8181818181818182
168	0.06338028169014084	0.8181818181818182
169	0.06382978723404255	0.8181818181818182
170	0.05714285714285714	0.7272727272727273
171	0.05755395683453238	0.7272727272727273
172	0.057971014492753624	0.7272727272727273
173	0.058394160583941604	0.7272727272727273
174	0.058823529411764705	0.7272727272727273
175	0.05925925925925926	0.7272727272727273
176	0.05970149253731343	0.7272727272727273
177	0.06015037593984962	0.7272727272727273
178	0.06060606060606061	0.7272727272727273
179	0.061068702290076333	0.7272727272727273
180	0.06153846153846154	0.7272727272727273
181	0.06201550387596899	0.7272727272727273
182	0.0625	0.7272727272727273
183	0.06299212598425197	0.7272727272727273
184	0.06349206349206349	0.7272727272727273
185	0.064	0.7272727272727273
186	0.06451612903225806	0.7272727272727273
187	0.06504065040650407	0.7272727272727273
188	0.06557377049180328	0.7272727272727273
189	0.06611570247933884	0.7272727272727273
190	0.06666666666666667	0.7272727272727273
191	0.06722689075630252	0.7272727272727273
192	0.06779661016949153	0.7272727272727273
193	0.06837606837606838	0.7272727272727273
194	0.06896551724137931	0.7272727272727273
195	0.06956521739130435	0.7272727272727273
196	0.07017543859649122	0.7272727272727273
197	0.07079646017699115	0.7272727272727273
198	0.07142857142857142	0.7272727272727273
199	0.07207207207207207	0.7272727272727273
200	0.07272727272727272	0.7272727272727273
201	0.07339449541284404	0.7272727272727273
202	0.07407407407407407	0.7272727272727273
203	0.07476635514018691	0.7272727272727273
204	0.07547169811320754	0.7272727272727273
205	0.0761904761904762	0.7272727272727273
206	0.07692307692307693	0.7272727272727273
207	0.07766990291262135	0.7272727272727273
208	0.0784313725490196	0.7272727272727273
209	0.07920792079207921	0.7272727272727273
210	0.08	0.7272727272727273
211	0.08080808080808081	0.7272727272727273
212	0.08163265306122448	0.7272727272727273
213	0.08247422680412371	0.7272727272727273
214	0.08333333333333333	0.7272727272727273
215	0.08421052631578947	0.7272727272727273
216	0.0851063829787234	0.7272727272727273
217	0.08602150537634409	0.7272727272727273
218	0.08695652173913043	0.7272727272727273
219	0.08791208791208792	0.7272727272727273
220	0.08888888888888889	0.7272727272727273
221	0.0898876404494382	0.7272727272727273
222	0.09090909090909091	0.7272727272727273
223	0.09195402298850575	0.7272727272727273
224	0.09302325581395349	0.7272727272727273
225	0.09411764705882353	0.7272727272727273
226	0.09523809523809523	0.7272727272727273
227	0.0963855421686747	0.7272727272727273
228	0.0975609756097561	0.7272727272727273
229	0.1	0.7272727272727273
230	0.10126582278481013	0.7272727272727273
231	0.10256410256410256	0.7272727272727273
232	0.1038961038961039	0.7272727272727273
233	0.10526315789473684	0.7272727272727273
234	0.10666666666666667	0.7272727272727273
235	0.10810810810810811	0.7272727272727273
236	0.1095890410958904	0.7272727272727273
237	0.1111111111111111	0.7272727272727273
238	0.11267605633802817	0.7272727272727273
239	0.11428571428571428	0.7272727272727273
240	0.11594202898550725	0.7272727272727273
241	0.11764705882352941	0.7272727272727273
242	0.11940298507462686	0.7272727272727273
243	0.12121212121212122	0.7272727272727273
244	0.12307692307692308	0.7272727272727273
245	0.125	0.7272727272727273
246	0.12698412698412698	0.7272727272727273
247	0.12903225806451613	0.7272727272727273
248	0.13114754098360656	0.7272727272727273
249	0.13333333333333333	0.7272727272727273
250	0.13559322033898305	0.7272727272727273
251	0.14035087719298245	0.7272727272727273
252	0.14814814814814814	0.7272727272727273
253	0.1509433962264151	0.7272727272727273
254	0.15384615384615385	0.7272727272727273
255	0.1568627450980392	0.7272727272727273
256	0.16	0.7272727272727273
257	0.16326530612244897	0.7272727272727273
258	0.16666666666666666	0.7272727272727273
259	0.1702127659574468	0.7272727272727273
260	0.17391304347826086	0.7272727272727273
261	0.17777777777777778	0.7272727272727273
262	0.18181818181818182	0.7272727272727273
263	0.18604651162790697	0.7272727272727273
264	0.19047619047619047	0.7272727272727273
265	0.1951219512195122	0.7272727272727273
266	0.2	0.7272727272727273
267	0.20512820512820512	0.7272727272727273
268	0.21052631578947367	0.7272727272727273
269	0.21621621621621623	0.7272727272727273
270	0.22857142857142856	0.7272727272727273
271	0.23529411764705882	0.7272727272727273
272	0.24242424242424243	0.7272727272727273
273	0.25	0.7272727272727273
274	0.25806451612903225	0.7272727272727273
275	0.27586206896551724	0.7272727272727273
276	1.0	0.0
