	Precision	Recall
0	0.016666666666666666	1.0
1	0.015494636471990465	0.9285714285714286
2	0.015513126491646777	0.9285714285714286
3	0.015531660692951015	0.9285714285714286
4	0.01555023923444976	0.9285714285714286
5	0.015568862275449102	0.9285714285714286
6	0.015587529976019185	0.9285714285714286
7	0.015606242496998799	0.9285714285714286
8	0.015625	0.9285714285714286
9	0.015643802647412757	0.9285714285714286
10	0.01566265060240964	0.9285714285714286
11	0.014475271411338963	0.8571428571428571
12	0.014492753623188406	0.8571428571428571
13	0.014510278113663845	0.8571428571428571
14	0.014527845036319613	0.8571428571428571
15	0.014545454545454545	0.8571428571428571
16	0.014563106796116505	0.8571428571428571
17	0.014580801944106925	0.8571428571428571
18	0.014598540145985401	0.8571428571428571
19	0.014616321559074299	0.8571428571428571
20	0.014634146341463415	0.8571428571428571
21	0.014652014652014652	0.8571428571428571
22	0.014669926650366748	0.8571428571428571
23	0.014687882496940025	0.8571428571428571
24	0.014705882352941176	0.8571428571428571
25	0.014723926380368098	0.8571428571428571
26	0.014742014742014743	0.8571428571428571
27	0.014760147601476014	0.8571428571428571
28	0.014778325123152709	0.8571428571428571
29	0.014796547472256474	0.8571428571428571
30	0.014814814814814815	0.8571428571428571
31	0.014833127317676144	0.8571428571428571
32	0.01486988847583643	0.8571428571428571
33	0.01488833746898263	0.8571428571428571
34	0.014925373134328358	0.8571428571428571
35	0.014943960149439602	0.8571428571428571
36	0.014962593516209476	0.8571428571428571
37	0.0149812734082397	0.8571428571428571
38	0.015	0.8571428571428571
39	0.015018773466833541	0.8571428571428571
40	0.015056461731493099	0.8571428571428571
41	0.01507537688442211	0.8571428571428571
42	0.01509433962264151	0.8571428571428571
43	0.015113350125944584	0.8571428571428571
44	0.015132408575031526	0.8571428571428571
45	0.015151515151515152	0.8571428571428571
46	0.015170670037926675	0.8571428571428571
47	0.015189873417721518	0.8571428571428571
48	0.015209125475285171	0.8571428571428571
49	0.015228426395939087	0.8571428571428571
50	0.015247776365946633	0.8571428571428571
51	0.015267175572519083	0.8571428571428571
52	0.015306122448979591	0.8571428571428571
53	0.01532567049808429	0.8571428571428571
54	0.015345268542199489	0.8571428571428571
55	0.015364916773367477	0.8571428571428571
56	0.015384615384615385	0.8571428571428571
57	0.015424164524421594	0.8571428571428571
58	0.015444015444015444	0.8571428571428571
59	0.015463917525773196	0.8571428571428571
60	0.015503875968992248	0.8571428571428571
61	0.015523932729624839	0.8571428571428571
62	0.015544041450777202	0.8571428571428571
63	0.01556420233463035	0.8571428571428571
64	0.015584415584415584	0.8571428571428571
65	0.015604681404421327	0.8571428571428571
66	0.015625	0.8571428571428571
67	0.01564537157757497	0.8571428571428571
68	0.015665796344647518	0.8571428571428571
69	0.01568627450980392	0.8571428571428571
70	0.015706806282722512	0.8571428571428571
71	0.015727391874180863	0.8571428571428571
72	0.015748031496062992	0.8571428571428571
73	0.01576872536136662	0.8571428571428571
74	0.015789473684210527	0.8571428571428571
75	0.015810276679841896	0.8571428571428571
76	0.0158311345646438	0.8571428571428571
77	0.015873015873015872	0.8571428571428571
78	0.015894039735099338	0.8571428571428571
79	0.015915119363395226	0.8571428571428571
80	0.01593625498007968	0.8571428571428571
81	0.015957446808510637	0.8571428571428571
82	0.015978695073235686	0.8571428571428571
83	0.01602136181575434	0.8571428571428571
84	0.016042780748663103	0.8571428571428571
85	0.01606425702811245	0.8571428571428571
86	0.016107382550335572	0.8571428571428571
87	0.016129032258064516	0.8571428571428571
88	0.016150740242261104	0.8571428571428571
89	0.016172506738544475	0.8571428571428571
90	0.016194331983805668	0.8571428571428571
91	0.016216216216216217	0.8571428571428571
92	0.016238159675236806	0.8571428571428571
93	0.016260162601626018	0.8571428571428571
94	0.016282225237449117	0.8571428571428571
95	0.016304347826086956	0.8571428571428571
96	0.0163265306122449	0.8571428571428571
97	0.01634877384196185	0.8571428571428571
98	0.01637107776261937	0.8571428571428571
99	0.01639344262295082	0.8571428571428571
100	0.016415868673050615	0.8571428571428571
101	0.01646090534979424	0.8571428571428571
102	0.016483516483516484	0.8571428571428571
103	0.016506189821182942	0.8571428571428571
104	0.01652892561983471	0.8571428571428571
105	0.016551724137931035	0.8571428571428571
106	0.016574585635359115	0.8571428571428571
107	0.016597510373443983	0.8571428571428571
108	0.016643550624133148	0.8571428571428571
109	0.016666666666666666	0.8571428571428571
110	0.016689847009735744	0.8571428571428571
111	0.016713091922005572	0.8571428571428571
112	0.016736401673640166	0.8571428571428571
113	0.01675977653631285	0.8571428571428571
114	0.016783216783216783	0.8571428571428571
115	0.01680672268907563	0.8571428571428571
116	0.016830294530154277	0.8571428571428571
117	0.016853932584269662	0.8571428571428571
118	0.016877637130801686	0.8571428571428571
119	0.016901408450704224	0.8571428571428571
120	0.01692524682651622	0.8571428571428571
121	0.01694915254237288	0.8571428571428571
122	0.016973125884016973	0.8571428571428571
123	0.0169971671388102	0.8571428571428571
124	0.017045454545454544	0.8571428571428571
125	0.017069701280227598	0.8571428571428571
126	0.017094017094017096	0.8571428571428571
127	0.017118402282453638	0.8571428571428571
128	0.017142857142857144	0.8571428571428571
129	0.017167381974248927	0.8571428571428571
130	0.017191977077363897	0.8571428571428571
131	0.01721664275466284	0.8571428571428571
132	0.017241379310344827	0.8571428571428571
133	0.017266187050359712	0.8571428571428571
134	0.01729106628242075	0.8571428571428571
135	0.017316017316017316	0.8571428571428571
136	0.017366136034732273	0.8571428571428571
137	0.017391304347826087	0.8571428571428571
138	0.01741654571843251	0.8571428571428571
139	0.01744186046511628	0.8571428571428571
140	0.017467248908296942	0.8571428571428571
141	0.01749271137026239	0.8571428571428571
142	0.017518248175182483	0.8571428571428571
143	0.017543859649122806	0.8571428571428571
144	0.017569546120058566	0.8571428571428571
145	0.017595307917888565	0.8571428571428571
146	0.01762114537444934	0.8571428571428571
147	0.01764705882352941	0.8571428571428571
148	0.017673048600883652	0.8571428571428571
149	0.017699115044247787	0.8571428571428571
150	0.01772525849335303	0.8571428571428571
151	0.01775147928994083	0.8571428571428571
152	0.017804154302670624	0.8571428571428571
153	0.017830609212481426	0.8571428571428571
154	0.017857142857142856	0.8571428571428571
155	0.01788375558867362	0.8571428571428571
156	0.01791044776119403	0.8571428571428571
157	0.017937219730941704	0.8571428571428571
158	0.017964071856287425	0.8571428571428571
159	0.017991004497751123	0.8571428571428571
160	0.018018018018018018	0.8571428571428571
161	0.01804511278195489	0.8571428571428571
162	0.018072289156626505	0.8571428571428571
163	0.01812688821752266	0.8571428571428571
164	0.018154311649016642	0.8571428571428571
165	0.01818181818181818	0.8571428571428571
166	0.018209408194233688	0.8571428571428571
167	0.0182370820668693	0.8571428571428571
168	0.0182648401826484	0.8571428571428571
169	0.018292682926829267	0.8571428571428571
170	0.0183206106870229	0.8571428571428571
171	0.01834862385321101	0.8571428571428571
172	0.018376722817764167	0.8571428571428571
173	0.018404907975460124	0.8571428571428571
174	0.018433179723502304	0.8571428571428571
175	0.018461538461538463	0.8571428571428571
176	0.01848998459167951	0.8571428571428571
177	0.018518518518518517	0.8571428571428571
178	0.01854714064914992	0.8571428571428571
179	0.018575851393188854	0.8571428571428571
180	0.018633540372670808	0.8571428571428571
181	0.01866251944012442	0.8571428571428571
182	0.0187207488299532	0.8571428571428571
183	0.01875	0.8571428571428571
184	0.018779342723004695	0.8571428571428571
185	0.018808777429467086	0.8571428571428571
186	0.018838304552590265	0.8571428571428571
187	0.018867924528301886	0.8571428571428571
188	0.01889763779527559	0.8571428571428571
189	0.01892744479495268	0.8571428571428571
190	0.018957345971563982	0.8571428571428571
191	0.0189873417721519	0.8571428571428571
192	0.01901743264659271	0.8571428571428571
193	0.019077901430842606	0.8571428571428571
194	0.01910828025477707	0.8571428571428571
195	0.019138755980861243	0.8571428571428571
196	0.019169329073482427	0.8571428571428571
197	0.0192	0.8571428571428571
198	0.019230769230769232	0.8571428571428571
199	0.019261637239165328	0.8571428571428571
200	0.01929260450160772	0.8571428571428571
201	0.01935483870967742	0.8571428571428571
202	0.01938610662358643	0.8571428571428571
203	0.019417475728155338	0.8571428571428571
204	0.019448946515397084	0.8571428571428571
205	0.01948051948051948	0.8571428571428571
206	0.01951219512195122	0.8571428571428571
207	0.019543973941368076	0.8571428571428571
208	0.0196078431372549	0.8571428571428571
209	0.019639934533551555	0.8571428571428571
210	0.019672131147540985	0.8571428571428571
211	0.019704433497536946	0.8571428571428571
212	0.019736842105263157	0.8571428571428571
213	0.019769357495881382	0.8571428571428571
214	0.019834710743801654	0.8571428571428571
215	0.01990049751243781	0.8571428571428571
216	0.019933554817275746	0.8571428571428571
217	0.019966722129783693	0.8571428571428571
218	0.02	0.8571428571428571
219	0.02003338898163606	0.8571428571428571
220	0.020066889632107024	0.8571428571428571
221	0.020100502512562814	0.8571428571428571
222	0.020134228187919462	0.8571428571428571
223	0.020168067226890758	0.8571428571428571
224	0.020202020202020204	0.8571428571428571
225	0.02023608768971332	0.8571428571428571
226	0.02027027027027027	0.8571428571428571
227	0.02030456852791878	0.8571428571428571
228	0.020338983050847456	0.8571428571428571
229	0.02037351443123939	0.8571428571428571
230	0.02040816326530612	0.8571428571428571
231	0.020442930153321975	0.8571428571428571
232	0.020512820512820513	0.8571428571428571
233	0.02054794520547945	0.8571428571428571
234	0.02058319039451115	0.8571428571428571
235	0.020618556701030927	0.8571428571428571
236	0.020654044750430294	0.8571428571428571
237	0.020689655172413793	0.8571428571428571
238	0.02072538860103627	0.8571428571428571
239	0.020761245674740483	0.8571428571428571
240	0.02079722703639515	0.8571428571428571
241	0.020833333333333332	0.8571428571428571
242	0.020869565217391306	0.8571428571428571
243	0.020905923344947737	0.8571428571428571
244	0.020942408376963352	0.8571428571428571
245	0.02097902097902098	0.8571428571428571
246	0.021015761821366025	0.8571428571428571
247	0.021052631578947368	0.8571428571428571
248	0.0210896309314587	0.8571428571428571
249	0.02112676056338028	0.8571428571428571
250	0.021164021164021163	0.8571428571428571
251	0.02120141342756184	0.8571428571428571
252	0.021238938053097345	0.8571428571428571
253	0.021314387211367674	0.8571428571428571
254	0.0213903743315508	0.8571428571428571
255	0.02142857142857143	0.8571428571428571
256	0.02146690518783542	0.8571428571428571
257	0.021505376344086023	0.8571428571428571
258	0.02154398563734291	0.8571428571428571
259	0.02158273381294964	0.8571428571428571
260	0.021621621621621623	0.8571428571428571
261	0.021660649819494584	0.8571428571428571
262	0.0216998191681736	0.8571428571428571
263	0.021739130434782608	0.8571428571428571
264	0.021778584392014518	0.8571428571428571
265	0.02181818181818182	0.8571428571428571
266	0.02185792349726776	0.8571428571428571
267	0.021897810218978103	0.8571428571428571
268	0.021937842778793418	0.8571428571428571
269	0.02197802197802198	0.8571428571428571
270	0.022018348623853212	0.8571428571428571
271	0.022058823529411766	0.8571428571428571
272	0.022099447513812154	0.8571428571428571
273	0.02214022140221402	0.8571428571428571
274	0.022222222222222223	0.8571428571428571
275	0.022263450834879406	0.8571428571428571
276	0.022304832713754646	0.8571428571428571
277	0.0223463687150838	0.8571428571428571
278	0.022429906542056073	0.8571428571428571
279	0.02247191011235955	0.8571428571428571
280	0.0225140712945591	0.8571428571428571
281	0.022556390977443608	0.8571428571428571
282	0.022598870056497175	0.8571428571428571
283	0.022684310018903593	0.8571428571428571
284	0.022727272727272728	0.8571428571428571
285	0.022770398481973434	0.8571428571428571
286	0.022813688212927757	0.8571428571428571
287	0.022857142857142857	0.8571428571428571
288	0.022900763358778626	0.8571428571428571
289	0.022988505747126436	0.8571428571428571
290	0.023032629558541268	0.8571428571428571
291	0.023076923076923078	0.8571428571428571
292	0.023121387283236993	0.8571428571428571
293	0.023166023166023165	0.8571428571428571
294	0.02321083172147002	0.8571428571428571
295	0.023255813953488372	0.8571428571428571
296	0.02330097087378641	0.8571428571428571
297	0.023346303501945526	0.8571428571428571
298	0.023391812865497075	0.8571428571428571
299	0.0234375	0.8571428571428571
300	0.023529411764705882	0.8571428571428571
301	0.023575638506876228	0.8571428571428571
302	0.023622047244094488	0.8571428571428571
303	0.023715415019762844	0.8571428571428571
304	0.023762376237623763	0.8571428571428571
305	0.02385685884691849	0.8571428571428571
306	0.02390438247011952	0.8571428571428571
307	0.023952095808383235	0.8571428571428571
308	0.024	0.8571428571428571
309	0.02404809619238477	0.8571428571428571
310	0.024096385542168676	0.8571428571428571
311	0.02414486921529175	0.8571428571428571
312	0.024193548387096774	0.8571428571428571
313	0.024242424242424242	0.8571428571428571
314	0.024291497975708502	0.8571428571428571
315	0.02434077079107505	0.8571428571428571
316	0.024390243902439025	0.8571428571428571
317	0.024439918533604887	0.8571428571428571
318	0.024489795918367346	0.8571428571428571
319	0.024539877300613498	0.8571428571428571
320	0.02459016393442623	0.8571428571428571
321	0.024640657084188913	0.8571428571428571
322	0.024691358024691357	0.8571428571428571
323	0.024742268041237112	0.8571428571428571
324	0.024793388429752067	0.8571428571428571
325	0.024844720496894408	0.8571428571428571
326	0.024896265560165973	0.8571428571428571
327	0.02494802494802495	0.8571428571428571
328	0.025052192066805846	0.8571428571428571
329	0.02510460251046025	0.8571428571428571
330	0.025157232704402517	0.8571428571428571
331	0.025210084033613446	0.8571428571428571
332	0.02526315789473684	0.8571428571428571
333	0.02531645569620253	0.8571428571428571
334	0.02536997885835095	0.8571428571428571
335	0.025423728813559324	0.8571428571428571
336	0.02553191489361702	0.8571428571428571
337	0.0255863539445629	0.8571428571428571
338	0.02564102564102564	0.8571428571428571
339	0.02569593147751606	0.8571428571428571
340	0.02575107296137339	0.8571428571428571
341	0.025806451612903226	0.8571428571428571
342	0.02586206896551724	0.8571428571428571
343	0.025974025974025976	0.8571428571428571
344	0.02608695652173913	0.8571428571428571
345	0.026143790849673203	0.8571428571428571
346	0.026200873362445413	0.8571428571428571
347	0.0262582056892779	0.8571428571428571
348	0.02631578947368421	0.8571428571428571
349	0.026373626373626374	0.8571428571428571
350	0.026490066225165563	0.8571428571428571
351	0.02654867256637168	0.8571428571428571
352	0.026607538802660754	0.8571428571428571
353	0.02666666666666667	0.8571428571428571
354	0.026726057906458798	0.8571428571428571
355	0.026785714285714284	0.8571428571428571
356	0.026845637583892617	0.8571428571428571
357	0.026905829596412557	0.8571428571428571
358	0.02696629213483146	0.8571428571428571
359	0.02702702702702703	0.8571428571428571
360	0.02708803611738149	0.8571428571428571
361	0.027149321266968326	0.8571428571428571
362	0.027210884353741496	0.8571428571428571
363	0.02727272727272727	0.8571428571428571
364	0.02733485193621868	0.8571428571428571
365	0.0273972602739726	0.8571428571428571
366	0.02745995423340961	0.8571428571428571
367	0.027522935779816515	0.8571428571428571
368	0.027586206896551724	0.8571428571428571
369	0.027649769585253458	0.8571428571428571
370	0.02771362586605081	0.8571428571428571
371	0.027777777777777776	0.8571428571428571
372	0.027842227378190254	0.8571428571428571
373	0.027972027972027972	0.8571428571428571
374	0.028037383177570093	0.8571428571428571
375	0.02810304449648712	0.8571428571428571
376	0.028169014084507043	0.8571428571428571
377	0.02823529411764706	0.8571428571428571
378	0.02830188679245283	0.8571428571428571
379	0.028368794326241134	0.8571428571428571
380	0.028503562945368172	0.8571428571428571
381	0.02857142857142857	0.8571428571428571
382	0.028639618138424822	0.8571428571428571
383	0.028708133971291867	0.8571428571428571
384	0.02877697841726619	0.8571428571428571
385	0.02891566265060241	0.8571428571428571
386	0.028985507246376812	0.8571428571428571
387	0.029055690072639227	0.8571428571428571
388	0.02912621359223301	0.8571428571428571
389	0.029197080291970802	0.8571428571428571
390	0.02926829268292683	0.8571428571428571
391	0.029339853300733496	0.8571428571428571
392	0.029411764705882353	0.8571428571428571
393	0.029556650246305417	0.8571428571428571
394	0.027160493827160494	0.7857142857142857
395	0.027227722772277228	0.7857142857142857
396	0.02729528535980149	0.7857142857142857
397	0.02736318407960199	0.7857142857142857
398	0.02743142144638404	0.7857142857142857
399	0.0275	0.7857142857142857
400	0.02756892230576441	0.7857142857142857
401	0.02763819095477387	0.7857142857142857
402	0.027707808564231738	0.7857142857142857
403	0.027777777777777776	0.7857142857142857
404	0.027918781725888325	0.7857142857142857
405	0.02806122448979592	0.7857142857142857
406	0.028132992327365727	0.7857142857142857
407	0.028205128205128206	0.7857142857142857
408	0.028277634961439587	0.7857142857142857
409	0.028350515463917526	0.7857142857142857
410	0.028423772609819122	0.7857142857142857
411	0.02849740932642487	0.7857142857142857
412	0.02857142857142857	0.7857142857142857
413	0.028645833333333332	0.7857142857142857
414	0.028720626631853787	0.7857142857142857
415	0.028795811518324606	0.7857142857142857
416	0.028871391076115485	0.7857142857142857
417	0.02894736842105263	0.7857142857142857
418	0.029023746701846966	0.7857142857142857
419	0.0291005291005291	0.7857142857142857
420	0.029177718832891247	0.7857142857142857
421	0.02925531914893617	0.7857142857142857
422	0.029333333333333333	0.7857142857142857
423	0.029411764705882353	0.7857142857142857
424	0.029490616621983913	0.7857142857142857
425	0.029649595687331536	0.7857142857142857
426	0.02972972972972973	0.7857142857142857
427	0.02981029810298103	0.7857142857142857
428	0.029891304347826088	0.7857142857142857
429	0.030054644808743168	0.7857142857142857
430	0.030136986301369864	0.7857142857142857
431	0.03021978021978022	0.7857142857142857
432	0.030303030303030304	0.7857142857142857
433	0.03038674033149171	0.7857142857142857
434	0.030470914127423823	0.7857142857142857
435	0.03064066852367688	0.7857142857142857
436	0.030726256983240222	0.7857142857142857
437	0.03081232492997199	0.7857142857142857
438	0.03089887640449438	0.7857142857142857
439	0.030985915492957747	0.7857142857142857
440	0.02824858757062147	0.7142857142857143
441	0.028409090909090908	0.7142857142857143
442	0.02849002849002849	0.7142857142857143
443	0.02857142857142857	0.7142857142857143
444	0.02865329512893983	0.7142857142857143
445	0.028735632183908046	0.7142857142857143
446	0.02881844380403458	0.7142857142857143
447	0.028985507246376812	0.7142857142857143
448	0.029154518950437316	0.7142857142857143
449	0.02932551319648094	0.7142857142857143
450	0.029411764705882353	0.7142857142857143
451	0.029498525073746312	0.7142857142857143
452	0.029585798816568046	0.7142857142857143
453	0.02967359050445104	0.7142857142857143
454	0.02976190476190476	0.7142857142857143
455	0.029850746268656716	0.7142857142857143
456	0.03003003003003003	0.7142857142857143
457	0.030120481927710843	0.7142857142857143
458	0.030303030303030304	0.7142857142857143
459	0.030395136778115502	0.7142857142857143
460	0.03058103975535168	0.7142857142857143
461	0.03067484662576687	0.7142857142857143
462	0.03076923076923077	0.7142857142857143
463	0.030864197530864196	0.7142857142857143
464	0.030959752321981424	0.7142857142857143
465	0.031055900621118012	0.7142857142857143
466	0.03115264797507788	0.7142857142857143
467	0.03125	0.7142857142857143
468	0.03134796238244514	0.7142857142857143
469	0.031446540880503145	0.7142857142857143
470	0.031545741324921134	0.7142857142857143
471	0.03164556962025317	0.7142857142857143
472	0.031746031746031744	0.7142857142857143
473	0.03184713375796178	0.7142857142857143
474	0.03194888178913738	0.7142857142857143
475	0.03215434083601286	0.7142857142857143
476	0.03225806451612903	0.7142857142857143
477	0.032362459546925564	0.7142857142857143
478	0.032467532467532464	0.7142857142857143
479	0.03257328990228013	0.7142857142857143
480	0.032679738562091505	0.7142857142857143
481	0.03278688524590164	0.7142857142857143
482	0.03289473684210526	0.7142857142857143
483	0.033003300330033	0.7142857142857143
484	0.033112582781456956	0.7142857142857143
485	0.03322259136212625	0.7142857142857143
486	0.033444816053511704	0.7142857142857143
487	0.03367003367003367	0.7142857142857143
488	0.033783783783783786	0.7142857142857143
489	0.03389830508474576	0.7142857142857143
490	0.034013605442176874	0.7142857142857143
491	0.034129692832764506	0.7142857142857143
492	0.03424657534246575	0.7142857142857143
493	0.034482758620689655	0.7142857142857143
494	0.03460207612456748	0.7142857142857143
495	0.034722222222222224	0.7142857142857143
496	0.03496503496503497	0.7142857142857143
497	0.0353356890459364	0.7142857142857143
498	0.03546099290780142	0.7142857142857143
499	0.03571428571428571	0.7142857142857143
500	0.035842293906810034	0.7142857142857143
501	0.03597122302158273	0.7142857142857143
502	0.036101083032490974	0.7142857142857143
503	0.036231884057971016	0.7142857142857143
504	0.03636363636363636	0.7142857142857143
505	0.03676470588235294	0.7142857142857143
506	0.03690036900369004	0.7142857142857143
507	0.037037037037037035	0.7142857142857143
508	0.03717472118959108	0.7142857142857143
509	0.03731343283582089	0.7142857142857143
510	0.03745318352059925	0.7142857142857143
511	0.03759398496240601	0.7142857142857143
512	0.03773584905660377	0.7142857142857143
513	0.03787878787878788	0.7142857142857143
514	0.03802281368821293	0.7142857142857143
515	0.03816793893129771	0.7142857142857143
516	0.038314176245210725	0.7142857142857143
517	0.038461538461538464	0.7142857142857143
518	0.03861003861003861	0.7142857142857143
519	0.03875968992248062	0.7142857142857143
520	0.038910505836575876	0.7142857142857143
521	0.0390625	0.7142857142857143
522	0.03937007874015748	0.7142857142857143
523	0.03968253968253968	0.7142857142857143
524	0.0398406374501992	0.7142857142857143
525	0.04	0.7142857142857143
526	0.040160642570281124	0.7142857142857143
527	0.04065040650406504	0.7142857142857143
528	0.04081632653061224	0.7142857142857143
529	0.040983606557377046	0.7142857142857143
530	0.0411522633744856	0.7142857142857143
531	0.04149377593360996	0.7142857142857143
532	0.04184100418410042	0.7142857142857143
533	0.04201680672268908	0.7142857142857143
534	0.0423728813559322	0.7142857142857143
535	0.0425531914893617	0.7142857142857143
536	0.042735042735042736	0.7142857142857143
537	0.04291845493562232	0.7142857142857143
538	0.04310344827586207	0.7142857142857143
539	0.04329004329004329	0.7142857142857143
540	0.043478260869565216	0.7142857142857143
541	0.043668122270742356	0.7142857142857143
542	0.043859649122807015	0.7142857142857143
543	0.04405286343612335	0.7142857142857143
544	0.04424778761061947	0.7142857142857143
545	0.044642857142857144	0.7142857142857143
546	0.04484304932735426	0.7142857142857143
547	0.04504504504504504	0.7142857142857143
548	0.04524886877828054	0.7142857142857143
549	0.045454545454545456	0.7142857142857143
550	0.045662100456621	0.7142857142857143
551	0.045871559633027525	0.7142857142857143
552	0.046296296296296294	0.7142857142857143
553	0.046511627906976744	0.7142857142857143
554	0.04672897196261682	0.7142857142857143
555	0.04716981132075472	0.7142857142857143
556	0.04739336492890995	0.7142857142857143
557	0.047619047619047616	0.7142857142857143
558	0.04784688995215311	0.7142857142857143
559	0.04807692307692308	0.7142857142857143
560	0.04830917874396135	0.7142857142857143
561	0.04854368932038835	0.7142857142857143
562	0.04878048780487805	0.7142857142857143
563	0.049019607843137254	0.7142857142857143
564	0.04926108374384237	0.7142857142857143
565	0.04950495049504951	0.7142857142857143
566	0.05	0.7142857142857143
567	0.050505050505050504	0.7142857142857143
568	0.050761421319796954	0.7142857142857143
569	0.05102040816326531	0.7142857142857143
570	0.05154639175257732	0.7142857142857143
571	0.05181347150259067	0.7142857142857143
572	0.052083333333333336	0.7142857142857143
573	0.05235602094240838	0.7142857142857143
574	0.05263157894736842	0.7142857142857143
575	0.05291005291005291	0.7142857142857143
576	0.05319148936170213	0.7142857142857143
577	0.053475935828877004	0.7142857142857143
578	0.05405405405405406	0.7142857142857143
579	0.05434782608695652	0.7142857142857143
580	0.054945054945054944	0.7142857142857143
581	0.055248618784530384	0.7142857142857143
582	0.05	0.6428571428571429
583	0.0449438202247191	0.5714285714285714
584	0.045454545454545456	0.5714285714285714
585	0.045714285714285714	0.5714285714285714
586	0.04597701149425287	0.5714285714285714
587	0.046242774566473986	0.5714285714285714
588	0.046511627906976744	0.5714285714285714
589	0.04678362573099415	0.5714285714285714
590	0.047058823529411764	0.5714285714285714
591	0.047337278106508875	0.5714285714285714
592	0.04819277108433735	0.5714285714285714
593	0.04878048780487805	0.5714285714285714
594	0.049079754601226995	0.5714285714285714
595	0.04938271604938271	0.5714285714285714
596	0.049689440993788817	0.5714285714285714
597	0.05	0.5714285714285714
598	0.05063291139240506	0.5714285714285714
599	0.050955414012738856	0.5714285714285714
600	0.05128205128205128	0.5714285714285714
601	0.05161290322580645	0.5714285714285714
602	0.05194805194805195	0.5714285714285714
603	0.05263157894736842	0.5714285714285714
604	0.052980132450331126	0.5714285714285714
605	0.05333333333333334	0.5714285714285714
606	0.053691275167785234	0.5714285714285714
607	0.05442176870748299	0.5714285714285714
608	0.0547945205479452	0.5714285714285714
609	0.05555555555555555	0.5714285714285714
610	0.056338028169014086	0.5714285714285714
611	0.05673758865248227	0.5714285714285714
612	0.05755395683453238	0.5714285714285714
613	0.057971014492753624	0.5714285714285714
614	0.058394160583941604	0.5714285714285714
615	0.05925925925925926	0.5714285714285714
616	0.05970149253731343	0.5714285714285714
617	0.06015037593984962	0.5714285714285714
618	0.061068702290076333	0.5714285714285714
619	0.06153846153846154	0.5714285714285714
620	0.06299212598425197	0.5714285714285714
621	0.06451612903225806	0.5714285714285714
622	0.06611570247933884	0.5714285714285714
623	0.06666666666666667	0.5714285714285714
624	0.06722689075630252	0.5714285714285714
625	0.06779661016949153	0.5714285714285714
626	0.06837606837606838	0.5714285714285714
627	0.06896551724137931	0.5714285714285714
628	0.06956521739130435	0.5714285714285714
629	0.07079646017699115	0.5714285714285714
630	0.07142857142857142	0.5714285714285714
631	0.07207207207207207	0.5714285714285714
632	0.07272727272727272	0.5714285714285714
633	0.07339449541284404	0.5714285714285714
634	0.07547169811320754	0.5714285714285714
635	0.0761904761904762	0.5714285714285714
636	0.07766990291262135	0.5714285714285714
637	0.0784313725490196	0.5714285714285714
638	0.07920792079207921	0.5714285714285714
639	0.08080808080808081	0.5714285714285714
640	0.08163265306122448	0.5714285714285714
641	0.08333333333333333	0.5714285714285714
642	0.08421052631578947	0.5714285714285714
643	0.0851063829787234	0.5714285714285714
644	0.08602150537634409	0.5714285714285714
645	0.08695652173913043	0.5714285714285714
646	0.08888888888888889	0.5714285714285714
647	0.09090909090909091	0.5714285714285714
648	0.09302325581395349	0.5714285714285714
649	0.09523809523809523	0.5714285714285714
650	0.0975609756097561	0.5714285714285714
651	0.09876543209876543	0.5714285714285714
652	0.1	0.5714285714285714
653	0.10256410256410256	0.5714285714285714
654	0.1038961038961039	0.5714285714285714
655	0.10526315789473684	0.5714285714285714
656	0.10666666666666667	0.5714285714285714
657	0.0945945945945946	0.5
658	0.09722222222222222	0.5
659	0.1	0.5
660	0.10294117647058823	0.5
661	0.1044776119402985	0.5
662	0.1076923076923077	0.5
663	0.09523809523809523	0.42857142857142855
664	0.1	0.42857142857142855
665	0.1016949152542373	0.42857142857142855
666	0.10526315789473684	0.42857142857142855
667	0.08928571428571429	0.35714285714285715
668	0.07272727272727272	0.2857142857142857
669	0.07547169811320754	0.2857142857142857
670	0.08	0.2857142857142857
671	0.08695652173913043	0.2857142857142857
672	0.08888888888888889	0.2857142857142857
673	0.09090909090909091	0.2857142857142857
674	0.0975609756097561	0.2857142857142857
675	0.1	0.2857142857142857
676	0.10810810810810811	0.2857142857142857
677	0.11764705882352941	0.2857142857142857
678	0.125	0.2857142857142857
679	0.13793103448275862	0.2857142857142857
680	0.15384615384615385	0.2857142857142857
681	0.16	0.2857142857142857
682	0.17391304347826086	0.2857142857142857
683	0.125	0.14285714285714285
684	0.13333333333333333	0.14285714285714285
685	0.07692307692307693	0.07142857142857142
686	0.08333333333333333	0.07142857142857142
687	0.09090909090909091	0.07142857142857142
688	0.1111111111111111	0.07142857142857142
689	0.16666666666666666	0.07142857142857142
690	0.25	0.07142857142857142
691	0.0	0.0
692	1.0	0.0
