genes	class	dlxjtk_score	dlxjtk_score_rerank
ENSMUSG00000055116	1.0	1.3403451878811313e-15	746076465258056.5
ENSMUSG00000059824	1.0	2.07452056519799e-13	4820390873804.431
ENSMUSG00000026077	1.0	3.36059124204927e-13	2975666863281.4907
ENSMUSG00000020889	1.0	3.122942979937512e-12	320210777597.9981
ENSMUSG00000021775	1.0	3.05166126463065e-11	32769036707.651512
ENSMUSG00000030256	1.0	6.330733970210833e-10	1579595675.1705
ENSMUSG00000029238	1.0	3.34095196534366e-09	299315886.7212678
ENSMUSG00000056749	1.0	5.833714532164789e-09	171417369.5826898
ENSMUSG00000036120	0.0	4.8984385061836936e-08	20414668.852893006
ENSMUSG00000028150	1.0	9.28036962205874e-08	10775432.883870006
ENSMUSG00000022389	1.0	1.2197884093700318e-07	8198143.155963065
ENSMUSG00000063889	0.0	1.4873299050870194e-07	6723457.899822789
ENSMUSG00000038418	0.0	1.1161921012829728e-06	895903.1324899904
ENSMUSG00000002250	0.0	6.274586448002193e-06	159373.0532341931
ENSMUSG00000046962	0.0	5.174115549582867e-05	19326.974637831954
ENSMUSG00000055053	0.0	0.00019816526958257508	5046.292935722028
ENSMUSG00000026491	0.0	0.0002360121460850793	4237.070068586695
ENSMUSG00000038539	0.0	0.0003621092757147475	2761.5973051951105
ENSMUSG00000022500	0.0	0.0004206640709716947	2377.1937491359636
ENSMUSG00000037465	0.0	0.0007556463065736601	1323.3704595663505
ENSMUSG00000052040	0.0	0.0007919097431677522	1262.7701687314227
ENSMUSG00000019768	0.0	0.0013803530348865938	724.4523500338863
ENSMUSG00000020919	0.0	0.002239033966355326	446.6211835221904
ENSMUSG00000020538	0.0	0.0024857723935819104	402.289446363605
ENSMUSG00000074622	0.0	0.008310911854558815	120.32374034282006
ENSMUSG00000067071	0.0	0.00910510579479677	109.82848772295021
ENSMUSG00000052751	0.0	0.0146825225778971	68.10818745175223
ENSMUSG00000020679	0.0	0.017825254075930445	56.10018212028217
ENSMUSG00000026638	0.0	0.018547181892609208	53.916546771910724
ENSMUSG00000028901	0.0	0.02348483397961666	42.58067146090691
ENSMUSG00000059552	0.0	0.02651720176958189	37.71136972480666
ENSMUSG00000021127	0.0	0.04647612105063971	21.516425583589786
ENSMUSG00000023079	0.0	0.05230147224639302	19.11992066473741
ENSMUSG00000037583	0.0	0.053291381787350885	18.764760200632622
ENSMUSG00000022383	0.0	0.09121166799932257	10.963509624749182
ENSMUSG00000040943	0.0	0.11652423252156445	8.581905912273964
ENSMUSG00000000567	0.0	0.14654944470768536	6.823635544949683
ENSMUSG00000021944	0.0	0.15717351977979566	6.362394895787961
ENSMUSG00000054893	0.0	0.19964724261455646	5.008834516841402
ENSMUSG00000058756	0.0	0.22189558058110365	4.506624230104918
ENSMUSG00000038705	0.0	0.2831918921104626	3.531174542277988
ENSMUSG00000067916	0.0	0.2842776750239617	3.517687415713212
ENSMUSG00000066829	0.0	0.31307155427416417	3.1941579691532
ENSMUSG00000039354	0.0	0.33691061406397216	2.9681463220690376
ENSMUSG00000045268	0.0	0.4155068632578526	2.4066991148096304
ENSMUSG00000075595	0.0	0.425039652694535	2.3527216664621977
ENSMUSG00000042496	0.0	0.6230130208720873	1.6051028895033528
ENSMUSG00000017491	0.0	0.7913322579572684	1.2636916920098555
ENSMUSG00000037896	0.0	0.8899286065448034	1.1236856447199228
ENSMUSG00000022346	0.0	1.1844201777879333	0.8442949712893585
ENSMUSG00000032369	0.0	1.2379854352780886	0.8077639457651374
ENSMUSG00000029556	0.0	1.4044508195256535	0.7120220844313688
ENSMUSG00000034518	0.0	1.56329324346987	0.6396752523412754
ENSMUSG00000046179	0.0	1.6522823070866306	0.6052234510476842
ENSMUSG00000005677	0.0	1.85437578776962	0.5392650220065512
ENSMUSG00000044646	0.0	1.9207575136322288	0.5206279256505212
ENSMUSG00000034377	0.0	2.231570755980262	0.44811485242856663
ENSMUSG00000021327	0.0	2.508115361653924	0.3987057434792677
ENSMUSG00000002265	0.0	2.592484057346703	0.385730433776884
ENSMUSG00000031431	0.0	2.7235363535089236	0.367169690506106
ENSMUSG00000032652	0.0	2.745409766892855	0.3642443514476748
ENSMUSG00000069184	0.0	2.7988164869066003	0.35729387928011413
ENSMUSG00000022463	0.0	3.193519626125615	0.31313413320499994
ENSMUSG00000052253	0.0	3.2804123889006767	0.304839721793368
ENSMUSG00000020472	0.0	3.433293316536158	0.2912655307321361
ENSMUSG00000071757	0.0	3.874650944231838	0.2580877643929944
ENSMUSG00000059878	0.0	4.699809119836723	0.21277459881918379
ENSMUSG00000001419	0.0	6.869515955968126	0.1455706641355445
ENSMUSG00000003949	1.0	8.123243232721356	0.12310354021801112
ENSMUSG00000049321	0.0	8.299624922256	0.12048737254600905
ENSMUSG00000067928	0.0	10.130574570548816	0.0987110842564802
ENSMUSG00000030199	0.0	10.15022232058818	0.09852000955404222
ENSMUSG00000046311	0.0	10.541890651810046	0.0948596445390277
ENSMUSG00000027201	0.0	10.588750221264293	0.09443985164479593
ENSMUSG00000030067	0.0	13.587326506029134	0.07359799586447473
ENSMUSG00000020171	0.0	15.472726721864404	0.06462984953950662
ENSMUSG00000001280	0.0	16.778135365853895	0.059601378710721034
ENSMUSG00000027796	0.0	16.821688552182007	0.05944706424078254
ENSMUSG00000040857	0.0	17.930726138838228	0.055770189799172976
ENSMUSG00000035158	0.0	20.37387812544629	0.04908245714648865
ENSMUSG00000051390	0.0	20.505151376623033	0.048768232998272494
ENSMUSG00000028423	0.0	20.847136380595874	0.04796821883559899
ENSMUSG00000037935	0.0	21.878211263204	0.04570757581456652
ENSMUSG00000029729	0.0	22.13356741565805	0.04518024506490379
ENSMUSG00000042622	0.0	28.330045523796496	0.03529821366365353
ENSMUSG00000061894	0.0	30.094453559653353	0.03322871432165385
ENSMUSG00000004043	0.0	31.47860456442332	0.03176760894700478
ENSMUSG00000033713	0.0	32.61380287184805	0.030661864362441192
ENSMUSG00000048728	0.0	35.41580047713391	0.028235984688406143
ENSMUSG00000041272	0.0	44.11006744998678	0.022670561570413097
ENSMUSG00000015843	0.0	47.75020007741229	0.020942320626485482
ENSMUSG00000028042	0.0	53.146881038122	0.01881577959923377
ENSMUSG00000058239	0.0	53.183275331864564	0.01880290361509295
ENSMUSG00000040033	0.0	53.71951504960594	0.018615208999496275
ENSMUSG00000034538	0.0	61.56278811058982	0.01624357880289024
ENSMUSG00000053477	0.0	90.65463766601496	0.011030875261827722
ENSMUSG00000048756	0.0	107.94180331457387	0.009264251377065737
ENSMUSG00000074283	0.0	110.38834537177635	0.00905892734085383
ENSMUSG00000057894	0.0	119.65104218737272	0.008357637189937775
ENSMUSG00000015522	0.0	125.43002705173672	0.00797257262479522
ENSMUSG00000033863	0.0	143.04654017710726	0.00699073181890237
ENSMUSG00000017667	0.0	157.51890702662624	0.0063484442526697115
ENSMUSG00000052837	0.0	162.9940655596616	0.006135192692852762
ENSMUSG00000059142	0.0	192.97187477446903	0.005182102320189015
ENSMUSG00000028163	0.0	202.18053036101608	0.004946074670070295
ENSMUSG00000042323	0.0	205.2527752160424	0.004872041310756615
ENSMUSG00000025255	0.0	288.0547813192892	0.003471561886319005
ENSMUSG00000021264	0.0	324.14578567742257	0.003085031625230388
ENSMUSG00000020037	0.0	348.3286755122793	0.0028708517853987246
ENSMUSG00000055817	0.0	388.125304715822	0.002576487510218333
ENSMUSG00000040891	0.0	395.1576864537496	0.002530635324278433
ENSMUSG00000026740	0.0	404.1452059588958	0.0024743581892239653
ENSMUSG00000021144	0.0	517.3621280595726	0.0019328821066795466
ENSMUSG00000074519	0.0	535.7474880720129	0.0018665509820656114
ENSMUSG00000055240	0.0	551.6872634404426	0.0018126211465600655
ENSMUSG00000018143	0.0	555.1901188537863	0.001801184794254881
ENSMUSG00000024927	0.0	657.3995160990581	0.001521145019901898
ENSMUSG00000016503	0.0	681.7618522923506	0.0014667878477471394
ENSMUSG00000017421	0.0	709.5581034054072	0.0014093278551829155
ENSMUSG00000059975	0.0	723.400878835775	0.001382359393327497
ENSMUSG00000038845	0.0	842.4963218900607	0.0011869488020512596
ENSMUSG00000002325	0.0	978.3241109314777	0.001022156143170063
ENSMUSG00000005373	0.0	1008.6047700064098	0.0009914686403809541
ENSMUSG00000001911	0.0	1049.8571214571339	0.0009525105650681919
ENSMUSG00000069114	0.0	1106.1493857897506	0.0009040370250588136
ENSMUSG00000089857	0.0	1146.9267390652387	0.0008718952710222921
ENSMUSG00000113450	0.0	1366.6732685328616	0.0007317037824801466
ENSMUSG00000004040	0.0	1572.7102582826199	0.0006358450291358737
ENSMUSG00000027684	0.0	1749.1429163151904	0.0005717085726228919
ENSMUSG00000052446	0.0	1998.3257667690266	0.0005004189089834138
ENSMUSG00000062397	0.0	2019.5318677142402	0.0004951642586020821
ENSMUSG00000020137	0.0	2256.2220532023584	0.00044321878628065647
ENSMUSG00000007880	0.0	2410.522853207373	0.00041484775747694264
ENSMUSG00000027210	0.0	2477.9036144820525	0.0004035669483492103
ENSMUSG00000025880	0.0	2661.84942830408	0.0003756786501019785
ENSMUSG00000038718	0.0	2664.6496893003878	0.0003752838521383849
ENSMUSG00000029478	0.0	2973.051403477963	0.0003363547629315021
ENSMUSG00000023932	0.0	3147.420362782407	0.00031772050909525544
ENSMUSG00000034429	0.0	3233.338995246433	0.00030927780893688314
ENSMUSG00000056501	0.0	3526.0207301403075	0.0002836058198558033
ENSMUSG00000095325	0.0	3795.545861027318	0.0002634667150957138
ENSMUSG00000050714	0.0	3850.8048942657374	0.00025968596889681624
ENSMUSG00000039191	0.0	4399.479192984244	0.00022729963164610001
ENSMUSG00000026305	0.0	4570.076790752612	0.00021881470395059102
ENSMUSG00000057469	0.0	5437.00290250302	0.00018392486042993143
ENSMUSG00000002108	0.0	5520.072277411357	0.00018115704826766343
ENSMUSG00000078861	0.0	6006.784748512487	0.00016647841430436457
ENSMUSG00000002996	0.0	6146.744463580686	0.00016268774567170899
ENSMUSG00000036983	0.0	6513.982644243838	0.00015351591409038562
ENSMUSG00000037243	0.0	7627.587103561778	0.00013110305872915433
ENSMUSG00000017801	0.0	8054.801949709702	0.0001241495453573555
ENSMUSG00000058291	0.0	8355.964534253711	0.00011967499334166479
ENSMUSG00000000938	0.0	9840.93249908803	0.0001016163864646639
ENSMUSG00000028329	0.0	10612.519978525796	9.422832673328091e-05
ENSMUSG00000093668	0.0	10784.889911711109	9.272231874282915e-05
ENSMUSG00000022335	0.0	10843.820117126412	9.221842387634496e-05
ENSMUSG00000087598	0.0	11867.52146792272	8.42635930933807e-05
ENSMUSG00000060301	0.0	12353.492368848598	8.094876899116137e-05
ENSMUSG00000035443	0.0	12808.333271544998	7.807417083857435e-05
ENSMUSG00000027361	0.0	13386.18377367323	7.470388998892366e-05
ENSMUSG00000035877	0.0	15608.738170003468	6.406667785111407e-05
ENSMUSG00000038415	0.0	16152.401015315045	6.191030045946983e-05
ENSMUSG00000040721	0.0	16328.517371622458	6.124254745491547e-05
ENSMUSG00000024955	0.0	18012.458962261422	5.551712856612956e-05
ENSMUSG00000025612	0.0	18385.669167647968	5.439018786216566e-05
ENSMUSG00000059689	0.0	21175.59487654382	4.722417508599481e-05
ENSMUSG00000007817	0.0	21904.918919972813	4.565184667669343e-05
ENSMUSG00000074733	0.0	24523.076419798643	4.077791802633101e-05
ENSMUSG00000020644	0.0	24880.985258631357	4.019133445099784e-05
ENSMUSG00000039089	0.0	27262.91774372604	3.667985977876957e-05
ENSMUSG00000042508	0.0	29070.50175983511	3.439913105943143e-05
ENSMUSG00000072294	0.0	33679.718292844176	2.969145974752606e-05
ENSMUSG00000057396	0.0	36370.874499306956	2.749452724924321e-05
ENSMUSG00000060601	0.0	37289.30381002658	2.6817341645598487e-05
ENSMUSG00000038615	0.0	38324.70897274913	2.609282697256885e-05
ENSMUSG00000066880	0.0	42693.99871315264	2.342249567014514e-05
ENSMUSG00000062761	0.0	44258.19016646088	2.259468803940849e-05
ENSMUSG00000022205	0.0	47980.66176805568	2.084173004603648e-05
ENSMUSG00000038507	0.0	49546.944880666764	2.018287913429351e-05
ENSMUSG00000067430	0.0	49980.63647359595	2.0007748411292954e-05
ENSMUSG00000057409	0.0	50870.69175620597	1.96576843262212e-05
ENSMUSG00000037025	0.0	59261.587068071676	1.687433714610673e-05
ENSMUSG00000037017	0.0	68130.94804456258	1.4677617568831238e-05
ENSMUSG00000034957	0.0	70017.02798039831	1.4282240032809675e-05
ENSMUSG00000050945	0.0	72015.12522208107	1.3885971827670763e-05
ENSMUSG00000030678	0.0	81695.46814108305	1.2240581059809358e-05
ENSMUSG00000023892	0.0	83145.83655975058	1.202706042029388e-05
ENSMUSG00000025586	0.0	85057.33186684351	1.1756776024499464e-05
ENSMUSG00000026380	0.0	86068.49566528818	1.1618653170015897e-05
ENSMUSG00000020923	0.0	108529.22467418906	9.214108024838998e-06
ENSMUSG00000001156	0.0	117088.99337594345	8.540512401445372e-06
ENSMUSG00000022528	0.0	117822.37826989387	8.487352018216062e-06
ENSMUSG00000031734	0.0	124963.16971255506	8.002357833113847e-06
ENSMUSG00000033249	0.0	149176.77435854374	6.703456381195894e-06
ENSMUSG00000030103	1.0	149786.36986208323	6.676174881070664e-06
ENSMUSG00000008393	0.0	193448.68956377808	5.1693294085112426e-06
ENSMUSG00000030087	0.0	209720.0489252864	4.768261332783944e-06
ENSMUSG00000024298	0.0	210743.90933043906	4.745095614754091e-06
ENSMUSG00000023990	0.0	253132.9662089491	3.950492956237664e-06
ENSMUSG00000073176	0.0	262781.885536335	3.805437341919557e-06
ENSMUSG00000022553	0.0	289296.0240570911	3.4566669322861317e-06
ENSMUSG00000015846	0.0	305343.57769402483	3.274999289495679e-06
ENSMUSG00000037007	0.0	315027.781096028	3.1743232184820426e-06
ENSMUSG00000042406	0.0	322982.21633200446	3.096145699155355e-06
ENSMUSG00000024140	0.0	351055.49405069445	2.848552485139555e-06
ENSMUSG00000035478	0.0	365876.9252601679	2.7331595161102863e-06
ENSMUSG00000001472	0.0	371203.2560344375	2.6939418869408497e-06
ENSMUSG00000047407	0.0	450152.3175615663	2.221470291249211e-06
ENSMUSG00000024515	0.0	472356.11728814547	2.1170467861009675e-06
ENSMUSG00000043059	0.0	578117.7093910804	1.7297515432510788e-06
ENSMUSG00000020653	0.0	592185.1344383624	1.6886610991145793e-06
ENSMUSG00000026663	0.0	652570.9729238721	1.53240036944864e-06
ENSMUSG00000029553	0.0	759918.388486458	1.3159307830301575e-06
ENSMUSG00000029177	0.0	765985.7664822965	1.3055072871554618e-06
ENSMUSG00000014592	0.0	990051.2292458031	1.0100487433986378e-06
ENSMUSG00000068130	0.0	1010854.440890408	9.892621128707247e-07
ENSMUSG00000066687	0.0	1069619.01637511	9.349123236317865e-07
ENSMUSG00000049470	0.0	1209753.999808469	8.266143365992774e-07
ENSMUSG00000025225	0.0	1249358.866433326	8.004105360494247e-07
ENSMUSG00000063108	0.0	1379046.87470225	7.251385129427962e-07
ENSMUSG00000062944	0.0	1394541.4357766807	7.170815971079816e-07
ENSMUSG00000015461	0.0	1478045.398851119	6.765692046924252e-07
ENSMUSG00000047412	0.0	1501885.089197442	6.65829900831073e-07
ENSMUSG00000025369	0.0	1534190.4625824846	6.518095532393754e-07
ENSMUSG00000031706	0.0	1545907.1273473955	6.468693896999418e-07
ENSMUSG00000030057	0.0	1560564.0021391208	6.407939684814364e-07
ENSMUSG00000054939	0.0	1599751.692085768	6.250970103342679e-07
ENSMUSG00000039967	0.0	1640607.8557432557	6.09530179012195e-07
ENSMUSG00000023882	0.0	1845997.40541748	5.41712570703124e-07
ENSMUSG00000036461	0.0	1932812.9805047389	5.173806312801448e-07
ENSMUSG00000029913	0.0	2100818.4331627055	4.760049627394674e-07
ENSMUSG00000067424	0.0	2431509.977163273	4.1126707658697433e-07
ENSMUSG00000008398	0.0	2650955.727730099	3.7722244454691727e-07
ENSMUSG00000037608	0.0	2794864.9293353017	3.5779904406250803e-07
ENSMUSG00000059842	0.0	2882002.550316632	3.469809559641558e-07
ENSMUSG00000029196	0.0	3017047.44146784	3.314498758804683e-07
ENSMUSG00000004535	0.0	3121547.3441932523	3.203539430084937e-07
ENSMUSG00000022961	0.0	3144279.604931536	3.180378737411217e-07
ENSMUSG00000001065	0.0	3725500.6941431626	2.684202962496005e-07
ENSMUSG00000055639	0.0	3810386.0810772036	2.624405975462985e-07
ENSMUSG00000025959	0.0	4014906.4166404144	2.490718079642758e-07
ENSMUSG00000034042	0.0	4235220.543160167	2.3611521284646882e-07
ENSMUSG00000042745	0.0	5010965.879046191	1.9956232473695157e-07
ENSMUSG00000037169	0.0	5332449.318671774	1.8753108379266952e-07
ENSMUSG00000072889	0.0	5874669.2396810725	1.702223494125243e-07
ENSMUSG00000068823	0.0	6230312.219035286	1.6050559985496874e-07
ENSMUSG00000060427	0.0	6248845.703013723	1.6002955546137348e-07
ENSMUSG00000063894	0.0	7132296.139695883	1.4020730216659784e-07
ENSMUSG00000069208	0.0	7325318.284734074	1.3651283959688072e-07
ENSMUSG00000055917	0.0	8805341.418733297	1.1356743054534009e-07
ENSMUSG00000039087	0.0	9156511.063745173	1.092119032061741e-07
ENSMUSG00000063568	0.0	9644000.70732486	1.0369140674579948e-07
ENSMUSG00000043013	0.0	10266425.891430598	9.74048817548765e-08
ENSMUSG00000027806	0.0	10479886.842436483	9.542087763301732e-08
ENSMUSG00000027104	0.0	11935397.797317967	8.378438800127068e-08
ENSMUSG00000007415	0.0	12425254.906771675	8.048124626038916e-08
ENSMUSG00000031885	0.0	14129468.86923311	7.077406866846198e-08
ENSMUSG00000004359	0.0	14704882.613141775	6.800462311112219e-08
ENSMUSG00000026826	0.0	16675711.665769665	5.996745566503804e-08
ENSMUSG00000035011	0.0	17382501.369516592	5.7529119586533364e-08
ENSMUSG00000044296	0.0	18265125.76041304	5.474914397618615e-08
ENSMUSG00000072623	0.0	18965424.37627538	5.2727530908875454e-08
ENSMUSG00000002393	0.0	21375307.364618126	4.678295300938075e-08
ENSMUSG00000044876	0.0	21661701.583796207	4.616442508597934e-08
ENSMUSG00000022508	0.0	21878966.91697533	4.570599717046629e-08
ENSMUSG00000026565	0.0	24781757.59648532	4.0352262994527284e-08
ENSMUSG00000029290	0.0	25245493.37986761	3.961103017291255e-08
ENSMUSG00000055799	0.0	27422842.44398289	3.646594994821259e-08
ENSMUSG00000025323	0.0	28724071.96964332	3.48140055162387e-08
ENSMUSG00000052435	0.0	28821008.66793853	3.4696911947860935e-08
ENSMUSG00000036686	0.0	30317064.57144013	3.29847237566014e-08
ENSMUSG00000026098	0.0	37473890.73194304	2.6685246193227332e-08
ENSMUSG00000073423	0.0	48815205.95703109	2.048542007341393e-08
ENSMUSG00000032329	0.0	50721240.67141929	1.971560606094334e-08
ENSMUSG00000028522	0.0	50763603.29241813	1.9699153234643537e-08
ENSMUSG00000046351	0.0	55298319.75045501	1.8083732100951798e-08
ENSMUSG00000060630	0.0	63157753.21796356	1.5833368811409463e-08
ENSMUSG00000021779	0.0	64471631.73441472	1.5510697854203738e-08
ENSMUSG00000023284	0.0	68906408.28251737	1.4512438319234171e-08
ENSMUSG00000037235	0.0	74149197.3091318	1.3486322661470613e-08
ENSMUSG00000070902	0.0	77434990.12364493	1.2914058598099413e-08
ENSMUSG00000041164	0.0	81369016.38905881	1.2289690159440883e-08
ENSMUSG00000032238	1.0	82808477.96466966	1.2076058207791855e-08
ENSMUSG00000008976	0.0	88005444.17322907	1.1362933388889097e-08
ENSMUSG00000066798	0.0	95071720.66044326	1.05183748969011e-08
ENSMUSG00000020160	0.0	96718594.98396663	1.0339273437189336e-08
ENSMUSG00000061544	0.0	101203730.80457558	9.881058653173568e-09
ENSMUSG00000015217	0.0	101557850.02156743	9.846604667070383e-09
ENSMUSG00000031618	0.0	102814230.38772748	9.726280070656114e-09
ENSMUSG00000022708	0.0	115140227.40034416	8.68506188130918e-09
ENSMUSG00000029723	0.0	115290810.52693066	8.673718186467352e-09
ENSMUSG00000019256	0.0	116152635.76777472	8.609361237392076e-09
ENSMUSG00000018750	0.0	116994444.09810393	8.547414432444887e-09
ENSMUSG00000030189	0.0	118345790.65530536	8.44981468679867e-09
ENSMUSG00000045251	0.0	125058990.88401614	7.996226364303812e-09
ENSMUSG00000037640	0.0	125192635.62023078	7.987690290613251e-09
ENSMUSG00000079509	0.0	150058409.80614337	6.664071685764726e-09
ENSMUSG00000009733	0.0	151176301.66185617	6.614793383666387e-09
ENSMUSG00000042390	0.0	155528246.48739657	6.429700215780651e-09
ENSMUSG00000059475	0.0	161034237.35571614	6.2098595703661e-09
ENSMUSG00000025019	0.0	162270051.51638463	6.162566602125153e-09
ENSMUSG00000022484	0.0	164732582.7493933	6.070444494403964e-09
ENSMUSG00000043991	0.0	164796887.19962695	6.068075780998512e-09
ENSMUSG00000000823	0.0	170129359.4303341	5.877880239768303e-09
ENSMUSG00000058093	0.0	188240181.37992075	5.312362072057949e-09
ENSMUSG00000034701	0.0	193181095.13317183	5.176489963009255e-09
ENSMUSG00000019947	0.0	193189810.68250424	5.1762564312640665e-09
ENSMUSG00000032515	0.0	194728007.46236092	5.135368111817662e-09
ENSMUSG00000039205	0.0	195376802.06181115	5.118314914805654e-09
ENSMUSG00000071281	0.0	206354834.08303568	4.846021681263872e-09
ENSMUSG00000057551	0.0	208897572.2949752	4.787035047913067e-09
ENSMUSG00000035397	0.0	209769973.12994352	4.767126510430274e-09
ENSMUSG00000026104	0.0	213377565.59919629	4.686528301097867e-09
ENSMUSG00000053390	0.0	235926792.90197265	4.2386029483963656e-09
ENSMUSG00000038679	0.0	236721982.57153785	4.224364755384718e-09
ENSMUSG00000054191	0.0	249122320.2330724	4.014092350554643e-09
ENSMUSG00000025498	0.0	267609408.88889337	3.736789390746654e-09
ENSMUSG00000052271	0.0	276219922.62210613	3.6203036714628673e-09
ENSMUSG00000044934	0.0	293841460.62599325	3.4031957160491322e-09
ENSMUSG00000030446	0.0	300285606.1477787	3.3301629499612877e-09
ENSMUSG00000055150	0.0	301159202.67284423	3.3205028806186664e-09
ENSMUSG00000047473	0.0	302056406.74920905	3.3106399257085733e-09
ENSMUSG00000037001	0.0	308068176.8373836	3.2460347260335767e-09
ENSMUSG00000031627	0.0	312345735.29520243	3.201580450761992e-09
ENSMUSG00000031902	0.0	318047912.8928433	3.144180356048807e-09
ENSMUSG00000048249	0.0	320649235.38992226	3.1186726479605047e-09
ENSMUSG00000048015	0.0	322309748.66562283	3.1026055033707355e-09
ENSMUSG00000071637	0.0	327905350.50061965	3.0496605147591522e-09
ENSMUSG00000018604	0.0	330995197.46421385	3.02119187124495e-09
ENSMUSG00000046160	0.0	345099353.3435145	2.8977162382700626e-09
ENSMUSG00000043467	0.0	350483022.30462617	2.853205252067357e-09
ENSMUSG00000005621	0.0	357698703.6020044	2.7956489356267166e-09
ENSMUSG00000018651	0.0	370119642.3576281	2.70182904541378e-09
ENSMUSG00000069727	0.0	389626897.77905387	2.5665579191277266e-09
ENSMUSG00000040321	0.0	392169047.58169866	2.5499207705617687e-09
ENSMUSG00000050410	0.0	428330061.1198405	2.3346481855267557e-09
ENSMUSG00000061079	0.0	441190899.67493427	2.266592535650195e-09
ENSMUSG00000032411	0.0	452124312.8450581	2.2117810778795645e-09
ENSMUSG00000052684	0.0	471412924.923621	2.121282525637203e-09
ENSMUSG00000007216	0.0	482515726.62621593	2.072471309882624e-09
ENSMUSG00000039852	0.0	483519738.88787824	2.068167893827984e-09
ENSMUSG00000097084	0.0	486710579.72460544	2.0546091284184293e-09
ENSMUSG00000026586	0.0	491777054.37670213	2.0334417620753775e-09
ENSMUSG00000006705	0.0	492238021.5247633	2.0315375007042043e-09
ENSMUSG00000045302	0.0	497950855.2295375	2.008230309272259e-09
ENSMUSG00000022811	0.0	526972877.6791625	1.8976308693610437e-09
ENSMUSG00000022228	0.0	562526195.5688765	1.7776949906994306e-09
ENSMUSG00000061371	0.0	612183513.8858566	1.633497108820302e-09
ENSMUSG00000003382	0.0	625108825.5789025	1.5997214550185199e-09
ENSMUSG00000049295	0.0	645520598.7760987	1.5491372419346354e-09
ENSMUSG00000028358	0.0	652574462.3259554	1.5323921755008986e-09
ENSMUSG00000037621	0.0	656556892.0226188	1.5230972550137352e-09
ENSMUSG00000019826	0.0	681088154.2113982	1.4682387203721897e-09
ENSMUSG00000005893	0.0	689030080.1171638	1.4513154488552349e-09
ENSMUSG00000017688	0.0	748111757.2516133	1.3366986821243994e-09
ENSMUSG00000027868	0.0	762988541.9213651	1.31063567151584e-09
ENSMUSG00000020491	0.0	902702563.5579053	1.1077846018943463e-09
ENSMUSG00000022010	0.0	914215712.2200994	1.0938337491176784e-09
ENSMUSG00000015697	0.0	959514560.48945	1.0421936687338004e-09
ENSMUSG00000047907	0.0	978291277.1210213	1.0221904491910268e-09
ENSMUSG00000031365	0.0	1134361528.236225	8.815531689926593e-10
ENSMUSG00000057156	0.0	1203864567.0442808	8.306582213439445e-10
ENSMUSG00000020335	0.0	1206742700.0169065	8.286770659445381e-10
ENSMUSG00000050295	0.0	1319883175.649955	7.576428114613751e-10
ENSMUSG00000050855	0.0	1351590750.0582256	7.39868928488095e-10
ENSMUSG00000005774	0.0	1377776791.4762015	7.258069711920191e-10
ENSMUSG00000056493	0.0	1424176604.3945785	7.021601091566189e-10
ENSMUSG00000000078	0.0	1466440944.6575325	6.819231307221421e-10
ENSMUSG00000036898	0.0	1482452075.0510561	6.745580628402842e-10
ENSMUSG00000054519	0.0	1490967501.3554664	6.707054305951548e-10
ENSMUSG00000027663	0.0	1573694140.3195221	6.354474954052764e-10
ENSMUSG00000028466	0.0	1624725631.3102708	6.15488535866541e-10
ENSMUSG00000037326	0.0	1625609137.4460366	6.151540225537123e-10
ENSMUSG00000026279	0.0	1633969658.4362295	6.120064683190248e-10
ENSMUSG00000046470	0.0	1641207881.0010178	6.093073349063328e-10
ENSMUSG00000009739	0.0	1719214523.8961108	5.816609772082336e-10
ENSMUSG00000057982	0.0	1745492892.3405142	5.729040802103238e-10
ENSMUSG00000025958	0.0	1767096807.8532202	5.658999527110587e-10
ENSMUSG00000020871	0.0	1776134666.2982981	5.630203716952012e-10
ENSMUSG00000028639	0.0	1808384109.1402566	5.529798647011009e-10
ENSMUSG00000038766	0.0	1946707738.2471547	5.136877921389552e-10
ENSMUSG00000030322	0.0	2234392884.8116493	4.47548865196237e-10
ENSMUSG00000032405	0.0	2284512977.830209	4.377300587496696e-10
ENSMUSG00000049672	0.0	2306937659.8489428	4.334750857834102e-10
ENSMUSG00000029771	0.0	2308794486.629006	4.3312646742329447e-10
ENSMUSG00000025408	0.0	2313302333.521885	4.322824498592672e-10
ENSMUSG00000032368	0.0	2356173198.734078	4.2441701676993817e-10
ENSMUSG00000066838	0.0	2356816771.419323	4.2430112180412724e-10
ENSMUSG00000031028	0.0	2414027525.806834	4.1424548366148915e-10
ENSMUSG00000037730	0.0	2457438756.1948323	4.069277403065085e-10
ENSMUSG00000042812	0.0	2483111371.177461	4.0272055921753206e-10
ENSMUSG00000079215	0.0	2518778966.03514	3.970177667372377e-10
ENSMUSG00000042063	0.0	2652800512.1723585	3.769601202244595e-10
ENSMUSG00000001418	0.0	2681246322.240216	3.7296088453540035e-10
ENSMUSG00000063047	0.0	2715577950.557517	3.6824573560655724e-10
ENSMUSG00000028807	0.0	2898601718.011931	3.4499393062040676e-10
ENSMUSG00000092416	0.0	3030607089.863309	3.299668912360076e-10
ENSMUSG00000026628	0.0	3053641862.3516464	3.27477826502512e-10
ENSMUSG00000062627	0.0	3421221619.267323	2.9229325407284097e-10
ENSMUSG00000058186	0.0	3432191830.317148	2.913590059759556e-10
ENSMUSG00000031860	0.0	3525025398.273239	2.8368589925333804e-10
ENSMUSG00000040270	0.0	3585335432.1820908	2.7891393118310956e-10
ENSMUSG00000046897	0.0	4006664918.093274	2.495841355448033e-10
ENSMUSG00000046572	0.0	4113372416.988336	2.4310952148897916e-10
ENSMUSG00000028736	0.0	4139499749.306571	2.415750840829294e-10
ENSMUSG00000022556	0.0	4160484977.241042	2.403565943562507e-10
ENSMUSG00000076431	0.0	4266167287.232307	2.344024349426658e-10
ENSMUSG00000035868	0.0	4613794644.686875	2.1674133267972247e-10
ENSMUSG00000056829	0.0	4797279457.17004	2.084514794120227e-10
ENSMUSG00000073427	0.0	5081194606.106697	1.9680411350476065e-10
ENSMUSG00000053950	0.0	5107280356.3517065	1.9579892432502608e-10
ENSMUSG00000005836	0.0	5360607918.4747	1.8654600657392205e-10
ENSMUSG00000062518	0.0	5520009883.755425	1.8115909591808024e-10
ENSMUSG00000058665	0.0	5540512445.645204	1.804887200977216e-10
ENSMUSG00000004500	0.0	5731862723.574583	1.7446335479862403e-10
ENSMUSG00000047638	0.0	5875336909.049274	1.7020300545825487e-10
ENSMUSG00000051490	0.0	6439653913.469257	1.5528784829700056e-10
ENSMUSG00000030604	0.0	6636978355.496456	1.506709750186007e-10
ENSMUSG00000071350	0.0	6968500787.483003	1.4350288971714336e-10
ENSMUSG00000030469	0.0	7215718381.844675	1.3858633985994797e-10
ENSMUSG00000000435	0.0	7226565867.755036	1.383783138906965e-10
ENSMUSG00000028389	0.0	7289873101.422715	1.3717659911046143e-10
ENSMUSG00000044452	0.0	7327699884.231333	1.364684711162811e-10
ENSMUSG00000010505	0.0	7329356413.089509	1.3643762748583197e-10
ENSMUSG00000018899	0.0	7377345017.78893	1.3555011966889287e-10
ENSMUSG00000056216	0.0	7867353881.881694	1.271075402242898e-10
ENSMUSG00000000552	0.0	8050733606.17247	1.2421228286988695e-10
ENSMUSG00000015709	0.0	8082252861.673762	1.237278784906649e-10
ENSMUSG00000046532	0.0	9009774946.827866	1.1099056368240108e-10
ENSMUSG00000048280	0.0	9158720434.837265	1.091855578642049e-10
ENSMUSG00000035451	0.0	9186460863.209784	1.0885584937337841e-10
ENSMUSG00000015627	0.0	9441158058.985613	1.0591920967240359e-10
ENSMUSG00000063972	0.0	9558845734.983557	1.0461514158976227e-10
ENSMUSG00000026890	0.0	10033312361.472404	9.96679824142591e-11
ENSMUSG00000022601	0.0	10395999431.043642	9.619084789615183e-11
ENSMUSG00000022809	0.0	10493119829.845982	9.530054132762897e-11
ENSMUSG00000024561	0.0	10614500019.331379	9.4210749274933e-11
ENSMUSG00000003929	0.0	10807642754.725512	9.252711462569042e-11
ENSMUSG00000071267	0.0	10982348128.169128	9.105520862474339e-11
ENSMUSG00000062116	0.0	11528153201.399393	8.674416296606909e-11
ENSMUSG00000055942	0.0	11804867680.930115	8.47108182004806e-11
ENSMUSG00000059839	0.0	12356900830.385357	8.092644051500528e-11
ENSMUSG00000038721	0.0	12704692032.675966	7.871107756315852e-11
ENSMUSG00000033080	0.0	12779493854.3949	7.825036041283415e-11
ENSMUSG00000038535	0.0	12833223799.019808	7.792274300370101e-11
ENSMUSG00000053080	0.0	13024549595.990492	7.677808684515603e-11
ENSMUSG00000045817	0.0	13110872102.268446	7.627257685070238e-11
ENSMUSG00000031965	0.0	13218641719.06558	7.56507378937183e-11
ENSMUSG00000022676	0.0	13692605327.011292	7.303212033923946e-11
ENSMUSG00000041540	0.0	13733930383.372154	7.281236849800206e-11
ENSMUSG00000047264	0.0	15983758962.905022	6.25635060138727e-11
ENSMUSG00000021514	0.0	16636007367.891869	6.011057688818041e-11
ENSMUSG00000038648	0.0	16797049779.507462	5.953426423847408e-11
ENSMUSG00000032119	0.0	17396211825.366894	5.748377922955704e-11
ENSMUSG00000026743	0.0	17468889508.808777	5.724462333428492e-11
ENSMUSG00000039238	0.0	17766425136.108192	5.628594342075133e-11
ENSMUSG00000032744	0.0	18202021646.753326	5.4938952354139675e-11
ENSMUSG00000025105	0.0	19625844541.40006	5.0953221294020425e-11
ENSMUSG00000071256	0.0	20245873173.417164	4.939278199732083e-11
ENSMUSG00000056383	0.0	20798650582.044563	4.8080042311172734e-11
ENSMUSG00000025215	0.0	21364575813.60755	4.680645235947436e-11
ENSMUSG00000036721	0.0	21473952022.841675	4.656804667051076e-11
ENSMUSG00000067367	0.0	21513779153.952843	4.6481838120768504e-11
ENSMUSG00000051977	0.0	22243420094.458282	4.495711521669906e-11
ENSMUSG00000037638	0.0	24461823951.361744	4.088002603519399e-11
ENSMUSG00000032425	0.0	24493416137.11066	4.0827298013561775e-11
ENSMUSG00000040841	0.0	25191665642.928688	3.9695668169551956e-11
ENSMUSG00000025925	0.0	26264206082.92856	3.8074632708962366e-11
ENSMUSG00000037214	0.0	26554068024.253853	3.765901326631474e-11
ENSMUSG00000060862	0.0	26681930079.82861	3.7478548103834307e-11
ENSMUSG00000025997	0.0	27397815190.22432	3.64992607277972e-11
ENSMUSG00000069476	0.0	27668754263.79969	3.6141851218374014e-11
ENSMUSG00000044167	0.0	28390567997.55678	3.522296560202872e-11
ENSMUSG00000040929	0.0	29301715374.64395	3.4127694819715006e-11
ENSMUSG00000010175	0.0	29331692702.73366	3.4092815922171506e-11
ENSMUSG00000032497	0.0	29472596026.96315	3.392982413510995e-11
ENSMUSG00000001504	0.0	29923786562.699787	3.3418230607436127e-11
ENSMUSG00000026222	0.0	30686938688.409424	3.258715410337441e-11
ENSMUSG00000094483	0.0	31661541319.614437	3.1584059345225134e-11
ENSMUSG00000044676	0.0	34059517514.89229	2.936036893543066e-11
ENSMUSG00000009734	0.0	35098596394.26461	2.8491167816710983e-11
ENSMUSG00000052056	0.0	37638633154.311584	2.6568446199950485e-11
ENSMUSG00000024215	0.0	38255435718.8114	2.614007607573186e-11
ENSMUSG00000038482	0.0	40692306140.22502	2.4574670124470617e-11
ENSMUSG00000065999	0.0	40977597893.52697	2.4403577842662297e-11
ENSMUSG00000018973	0.0	41054197906.23058	2.4358044999053194e-11
ENSMUSG00000049878	0.0	41065871127.656235	2.4351121077924478e-11
ENSMUSG00000015942	0.0	41326114063.69656	2.4197774764370173e-11
ENSMUSG00000095253	0.0	41410740372.44959	2.4148324589368998e-11
ENSMUSG00000027109	0.0	42968729746.94897	2.3272738242186597e-11
ENSMUSG00000033726	0.0	43408415698.451324	2.3037007545881867e-11
ENSMUSG00000029178	0.0	43681133929.24265	2.2893178588721177e-11
ENSMUSG00000020248	0.0	44348398648.23073	2.2548728488078e-11
ENSMUSG00000032481	0.0	45566257661.706665	2.1946063848916607e-11
ENSMUSG00000031103	0.0	47031235602.54544	2.1262464980738835e-11
ENSMUSG00000059325	0.0	58984197954.32507	1.6953693271787108e-11
ENSMUSG00000031162	0.0	60872443718.47765	1.6427794563740388e-11
ENSMUSG00000032897	0.0	61111929877.82299	1.6363417126561597e-11
ENSMUSG00000075394	0.0	61226899844.97856	1.6332690411108795e-11
ENSMUSG00000004661	0.0	61249500922.449486	1.6326663645245716e-11
ENSMUSG00000053600	0.0	61268063688.902985	1.6321717054379872e-11
ENSMUSG00000054648	0.0	62896475975.865166	1.589914195484852e-11
ENSMUSG00000051910	0.0	68684133667.8792	1.4559403265322974e-11
ENSMUSG00000062040	0.0	71834141939.64117	1.3920956985053884e-11
ENSMUSG00000030059	0.0	73045146353.62549	1.3690163548428109e-11
ENSMUSG00000071064	0.0	75455407546.68814	1.3252860630051578e-11
ENSMUSG00000036916	0.0	75962053574.1544	1.3164467690750313e-11
ENSMUSG00000074221	0.0	75976075442.2953	1.3162038104475551e-11
ENSMUSG00000047141	0.0	79035421114.60196	1.2652554840569425e-11
ENSMUSG00000063488	0.0	81643393712.27628	1.2248388443088879e-11
ENSMUSG00000032727	0.0	82579157312.61246	1.210959317754225e-11
ENSMUSG00000054199	0.0	84084345118.08603	1.1892820222309208e-11
ENSMUSG00000057835	0.0	86194675134.3533	1.1601644747094653e-11
ENSMUSG00000027667	0.0	88965061885.92278	1.1240367609503491e-11
ENSMUSG00000017861	0.0	89840457555.0581	1.1130842687295498e-11
ENSMUSG00000028101	0.0	94606418183.05106	1.0570107390231504e-11
ENSMUSG00000074862	0.0	95227745728.9108	1.0501141157396984e-11
ENSMUSG00000029249	0.0	96977499992.50478	1.0311670233582926e-11
ENSMUSG00000045680	0.0	100848125327.99423	9.915900734373017e-12
ENSMUSG00000015882	0.0	102951755391.808	9.713287512138635e-12
ENSMUSG00000050600	0.0	103452648458.604	9.666258089082604e-12
ENSMUSG00000034522	0.0	104784441420.882	9.543401543587506e-12
ENSMUSG00000053347	0.0	105163979091.7077	9.508959328440352e-12
ENSMUSG00000067931	0.0	108020822583.83086	9.257474402436974e-12
ENSMUSG00000022895	0.0	113692303885.8581	8.795670118568047e-12
ENSMUSG00000008575	0.0	115921550379.30734	8.626523685439818e-12
ENSMUSG00000000317	0.0	117577506641.6926	8.505028117728457e-12
ENSMUSG00000049532	0.0	118973330394.0972	8.405245080452203e-12
ENSMUSG00000011427	0.0	121078275548.275	8.259119940978107e-12
ENSMUSG00000042185	0.0	122225769977.18774	8.181580694371084e-12
ENSMUSG00000015501	0.0	123105294222.6119	8.123127492727447e-12
ENSMUSG00000079277	0.0	124308568890.31273	8.044497727927179e-12
ENSMUSG00000026872	0.0	126434035928.7285	7.909262665345153e-12
ENSMUSG00000005503	0.0	128304521585.035	7.793957591254809e-12
ENSMUSG00000055633	0.0	128364038589.58153	7.79034386100379e-12
ENSMUSG00000003282	0.0	128390873094.93495	7.788715629814113e-12
ENSMUSG00000069036	0.0	129041396999.37074	7.749451131599857e-12
ENSMUSG00000049764	0.0	135646630788.2632	7.372096116127971e-12
ENSMUSG00000054716	0.0	136310909200.31468	7.336169979839673e-12
ENSMUSG00000048118	0.0	136349511835.52425	7.334092997753306e-12
ENSMUSG00000022529	0.0	136996263447.94087	7.299469159463638e-12
ENSMUSG00000026803	0.0	137857999668.91992	7.25384092618203e-12
ENSMUSG00000013089	0.0	145003753198.34326	6.896373217541141e-12
ENSMUSG00000074472	0.0	148530197831.76187	6.732637635968723e-12
ENSMUSG00000025469	0.0	149436595467.7349	6.691801274446939e-12
ENSMUSG00000045252	0.0	155303283004.0641	6.439013913014519e-12
ENSMUSG00000038193	0.0	156294839992.78546	6.398163880817561e-12
ENSMUSG00000042507	0.0	161986472144.29974	6.173355013924783e-12
ENSMUSG00000027230	0.0	163968358705.1342	6.098737633876724e-12
ENSMUSG00000055835	0.0	164163480692.08826	6.091488775604368e-12
ENSMUSG00000041649	0.0	164559054433.40402	6.0768458073797055e-12
ENSMUSG00000021010	0.0	165348994019.13144	6.047814236379912e-12
ENSMUSG00000046711	0.0	167139657757.35513	5.983020507626917e-12
ENSMUSG00000026641	0.0	170729414990.59937	5.857221499031444e-12
ENSMUSG00000030551	0.0	172302344892.47202	5.803751542813104e-12
ENSMUSG00000047036	0.0	183589918424.34146	5.4469221871358156e-12
ENSMUSG00000033454	0.0	184287501923.06198	5.426303952057959e-12
ENSMUSG00000040712	0.0	186487411683.08014	5.362292237180153e-12
ENSMUSG00000046541	0.0	192425445995.1927	5.19681788875772e-12
ENSMUSG00000016831	0.0	192943879825.08966	5.182854210802306e-12
ENSMUSG00000048763	0.0	192986788687.80865	5.181701850159715e-12
ENSMUSG00000002111	0.0	193825559124.62866	5.159278293927201e-12
ENSMUSG00000049755	0.0	202135456554.4712	4.947177585989331e-12
ENSMUSG00000063455	0.0	202420164433.99966	4.940219284952e-12
ENSMUSG00000055210	0.0	205586965795.78992	4.8641215951078464e-12
ENSMUSG00000035934	0.0	208822334338.734	4.7887597998875165e-12
ENSMUSG00000029313	0.0	209964592979.08826	4.7627077775898935e-12
ENSMUSG00000062794	0.0	211614293788.84705	4.725578703099422e-12
ENSMUSG00000062519	0.0	211804205749.10226	4.721341563843043e-12
ENSMUSG00000007812	0.0	212789255825.39325	4.699485395167516e-12
ENSMUSG00000060397	0.0	220718982130.95352	4.530647932250321e-12
ENSMUSG00000055991	0.0	220794109821.51468	4.529106328100777e-12
ENSMUSG00000048047	0.0	221072004331.32602	4.523413098029706e-12
ENSMUSG00000016477	0.0	224846704759.1464	4.447474563041474e-12
ENSMUSG00000049421	0.0	228293074979.2097	4.38033435789092e-12
ENSMUSG00000051037	0.0	228409893308.7864	4.37809407251946e-12
ENSMUSG00000023034	0.0	232041665572.9713	4.3095708588832076e-12
ENSMUSG00000026135	0.0	237138248461.38995	4.216949422913599e-12
ENSMUSG00000037174	0.0	238093814326.8413	4.200025115424705e-12
ENSMUSG00000019878	0.0	240469905630.64005	4.158524524628011e-12
ENSMUSG00000018347	0.0	240935253072.9176	4.150492662430583e-12
ENSMUSG00000024985	0.0	253883410977.9575	3.9388158373483545e-12
ENSMUSG00000012640	0.0	253946101770.6772	3.937843475553869e-12
ENSMUSG00000023027	0.0	256599922166.7545	3.8971173161546725e-12
ENSMUSG00000052713	0.0	259467259156.56226	3.85405080876351e-12
ENSMUSG00000059436	0.0	263808922380.7924	3.790622360211759e-12
ENSMUSG00000021366	0.0	264473030383.0832	3.7811038749452925e-12
ENSMUSG00000003923	0.0	264524274359.3509	3.7803713947307545e-12
ENSMUSG00000027168	0.0	266050424371.2392	3.7586859797849015e-12
ENSMUSG00000057637	0.0	270735110885.6683	3.693647258121245e-12
ENSMUSG00000063659	0.0	271139786801.4908	3.688134492530706e-12
ENSMUSG00000035529	0.0	271184444849.6756	3.6875271387867595e-12
ENSMUSG00000051451	0.0	272731140697.7293	3.666614664690271e-12
ENSMUSG00000049823	0.0	279451083075.04584	3.5784438156264103e-12
ENSMUSG00000054737	0.0	280420971346.4475	3.566067099755335e-12
ENSMUSG00000050846	0.0	281525542721.6734	3.5520755606486375e-12
ENSMUSG00000022526	0.0	300062592234.1127	3.3326380091383973e-12
ENSMUSG00000058881	0.0	302831481953.06354	3.3021665830469765e-12
ENSMUSG00000028890	0.0	305339287403.5892	3.275045306168633e-12
ENSMUSG00000037674	0.0	315344175605.8231	3.1711383223706323e-12
ENSMUSG00000039095	0.0	315934892926.31445	3.1652091060205564e-12
ENSMUSG00000049184	0.0	316808260486.9438	3.1564833519901596e-12
ENSMUSG00000094870	0.0	317317130201.8981	3.1514214166872556e-12
ENSMUSG00000068551	0.0	320360168283.6444	3.1214866859309668e-12
ENSMUSG00000056014	0.0	320503854685.7496	3.120087279388539e-12
ENSMUSG00000066551	0.0	330955621014.2223	3.0215531524603615e-12
ENSMUSG00000041583	0.0	336196127822.60913	2.9744542463250528e-12
ENSMUSG00000024050	0.0	336624145698.1648	2.9706722253270966e-12
ENSMUSG00000038342	0.0	350688976304.8625	2.8515296104736283e-12
ENSMUSG00000015605	0.0	355483576997.0768	2.8130694769289532e-12
ENSMUSG00000071266	0.0	355697590218.8551	2.8113769322550537e-12
ENSMUSG00000050619	0.0	359015018135.0428	2.7853987980632385e-12
ENSMUSG00000099083	0.0	362464991466.3173	2.7588871299117635e-12
ENSMUSG00000019900	0.0	366235208172.6405	2.73048570340787e-12
ENSMUSG00000047603	0.0	368005986381.77625	2.717347100333801e-12
ENSMUSG00000031665	0.0	379483987866.6868	2.635157297733735e-12
ENSMUSG00000062175	0.0	389029840092.7466	2.5704969052286456e-12
ENSMUSG00000026987	0.0	389286491284.3209	2.568802212223788e-12
ENSMUSG00000037029	0.0	400235849174.0322	2.498526811288151e-12
ENSMUSG00000022641	0.0	401273024709.63824	2.4920688369810092e-12
ENSMUSG00000071291	0.0	403999034975.7982	2.4752534373254273e-12
ENSMUSG00000060284	0.0	405794823164.8669	2.4642995497104178e-12
ENSMUSG00000048938	0.0	408663689680.1097	2.446999880960238e-12
ENSMUSG00000002578	0.0	412972972151.6921	2.4214659734019657e-12
ENSMUSG00000033964	0.0	414068420670.3888	2.4150598067367006e-12
ENSMUSG00000048897	0.0	414919784736.1105	2.410104402796799e-12
ENSMUSG00000055320	0.0	419257804406.4809	2.385167287262887e-12
ENSMUSG00000020167	0.0	427827605791.4938	2.3373900759628876e-12
ENSMUSG00000044149	0.0	428187827338.2922	2.3354236999594676e-12
ENSMUSG00000029832	0.0	429057185080.8233	2.3306916531688564e-12
ENSMUSG00000058638	0.0	433213472954.0269	2.308330794010465e-12
ENSMUSG00000045598	0.0	436345764595.2076	2.2917605283225044e-12
ENSMUSG00000035125	0.0	437407539275.11536	2.2861974479388935e-12
ENSMUSG00000074405	0.0	446470861472.91656	2.2397878255727136e-12
ENSMUSG00000004934	0.0	455667457467.0332	2.1945828775195087e-12
ENSMUSG00000027439	0.0	463750184478.2679	2.1563333740234053e-12
ENSMUSG00000041515	0.0	470826035022.9	2.123926727950297e-12
ENSMUSG00000108367	0.0	470864744499.6424	2.123752121349912e-12
ENSMUSG00000005897	0.0	474002942949.6906	2.1096915427930946e-12
ENSMUSG00000020420	0.0	475308859096.0708	2.103895142837801e-12
ENSMUSG00000044501	0.0	475815437421.2738	2.1016552245963127e-12
ENSMUSG00000029627	0.0	476450846650.3278	2.0988523937578607e-12
ENSMUSG00000046185	0.0	477050916230.1976	2.0962123035048464e-12
ENSMUSG00000098905	0.0	477719397435.137	2.0932790365410614e-12
ENSMUSG00000021972	0.0	497478442227.9022	2.0101373549406693e-12
ENSMUSG00000026017	0.0	514745106413.261	1.9427090953190223e-12
ENSMUSG00000020052	0.0	519283988864.4164	1.925728544388256e-12
ENSMUSG00000028610	0.0	524639742910.6786	1.90606985748362e-12
ENSMUSG00000029587	0.0	531606551258.0414	1.881090437342261e-12
ENSMUSG00000021250	0.0	535763229502.8303	1.8664961403341647e-12
ENSMUSG00000031323	0.0	536920147120.6248	1.8624743462557002e-12
ENSMUSG00000046714	0.0	537166722799.322	1.8616194145250245e-12
ENSMUSG00000024081	0.0	548956119057.2124	1.8216392263145167e-12
ENSMUSG00000031393	0.0	557011418014.0396	1.79529533445721e-12
ENSMUSG00000058900	0.0	558101811830.3375	1.7917877684726082e-12
ENSMUSG00000051034	0.0	560540469669.2777	1.7839925109956933e-12
ENSMUSG00000057101	0.0	562400142681.8778	1.7780934322515828e-12
ENSMUSG00000041483	0.0	566396912283.9817	1.765546347997422e-12
ENSMUSG00000034673	0.0	568235380440.7202	1.7598341011860358e-12
ENSMUSG00000056592	0.0	575788872251.3207	1.7367477007501447e-12
ENSMUSG00000045757	0.0	579757336019.7505	1.724859588436382e-12
ENSMUSG00000058192	0.0	592288135633.2234	1.6883674344259593e-12
ENSMUSG00000028565	0.0	592634031134.2437	1.6873820055289394e-12
ENSMUSG00000020275	0.0	592721779657.6351	1.6871321998284165e-12
ENSMUSG00000029112	0.0	601018994716.6011	1.6638409248139167e-12
ENSMUSG00000004151	0.0	606020555263.5708	1.6501090455010713e-12
ENSMUSG00000003847	0.0	606221599964.8911	1.6495618104962183e-12
ENSMUSG00000048410	0.0	624352911806.5817	1.6016582626426352e-12
ENSMUSG00000060314	0.0	633701999861.209	1.5780287899028506e-12
ENSMUSG00000009248	0.0	636306083633.1509	1.5715707042910018e-12
ENSMUSG00000026577	0.0	636358658554.4423	1.5714408636657959e-12
ENSMUSG00000040167	0.0	640273081719.5645	1.561833580937569e-12
ENSMUSG00000039634	0.0	641596425903.3225	1.5586121736761087e-12
ENSMUSG00000097333	0.0	645909221631.8496	1.5482051757576118e-12
ENSMUSG00000026788	0.0	646002153033.5637	1.5479824568758734e-12
ENSMUSG00000030753	0.0	647483560367.2397	1.5444407568167753e-12
ENSMUSG00000072774	0.0	650097298479.9376	1.538231280668613e-12
ENSMUSG00000041703	0.0	652195436463.2799	1.5332827310518944e-12
ENSMUSG00000058748	0.0	654166871010.3616	1.5286619428701712e-12
ENSMUSG00000032402	0.0	660773295231.9227	1.5133783511166462e-12
ENSMUSG00000031921	0.0	664960341036.8418	1.503849084354033e-12
ENSMUSG00000028799	0.0	665382723932.5074	1.502894445605465e-12
ENSMUSG00000039219	0.0	666745856093.9833	1.4998218449505321e-12
ENSMUSG00000040148	0.0	669447791655.0928	1.49376846479346e-12
ENSMUSG00000009471	0.0	672776794079.0835	1.4863770700783894e-12
ENSMUSG00000036098	0.0	677010928962.5021	1.477081029596477e-12
ENSMUSG00000032419	0.0	677860797374.434	1.4752291383028958e-12
ENSMUSG00000030145	0.0	681274472028.2546	1.4678371802525528e-12
ENSMUSG00000056459	0.0	681912928037.1984	1.4664628853398861e-12
ENSMUSG00000025592	0.0	681964832434.5847	1.466351272733586e-12
ENSMUSG00000006310	0.0	682243320366.033	1.4657527162940725e-12
ENSMUSG00000075327	0.0	682372753107.0219	1.4654746917234577e-12
ENSMUSG00000024619	0.0	689145242400.9684	1.4510729211682864e-12
ENSMUSG00000068959	0.0	690424042039.1282	1.44838525183242e-12
ENSMUSG00000015839	0.0	691298751399.259	1.4465525910120599e-12
ENSMUSG00000057406	0.0	703619553407.9265	1.4212225842169647e-12
ENSMUSG00000048001	0.0	731790351773.2772	1.3665115938967986e-12
ENSMUSG00000002249	0.0	731931749082.2423	1.3662476060833326e-12
ENSMUSG00000047002	0.0	740608921193.4875	1.3502402838849213e-12
ENSMUSG00000044807	0.0	741170424478.6615	1.349217355378689e-12
ENSMUSG00000020364	0.0	746537873723.0303	1.339516768269155e-12
ENSMUSG00000061013	0.0	753362974462.8135	1.327381400331031e-12
ENSMUSG00000060969	0.0	760072690967.8898	1.3156636357064514e-12
ENSMUSG00000033943	0.0	769734181885.9845	1.2991497890217422e-12
ENSMUSG00000000440	0.0	776084405570.412	1.2885196414493252e-12
ENSMUSG00000033972	0.0	789104849510.4504	1.267258718052976e-12
ENSMUSG00000074502	0.0	789690601621.3062	1.2663187303317395e-12
ENSMUSG00000024622	0.0	798077499142.3215	1.2530111437481707e-12
ENSMUSG00000021506	0.0	801908158759.9475	1.2470255964802468e-12
ENSMUSG00000048138	0.0	803341285140.7993	1.244800956326716e-12
ENSMUSG00000012350	0.0	805201866535.5647	1.241924592528042e-12
ENSMUSG00000038895	0.0	805778747696.4609	1.241035461482167e-12
ENSMUSG00000071773	0.0	809846987884.1134	1.234801159923678e-12
ENSMUSG00000016087	0.0	813393141441.6136	1.2294177920257042e-12
ENSMUSG00000028952	0.0	815615123364.8606	1.2260684866588183e-12
ENSMUSG00000023781	0.0	825234204866.8254	1.2117772071279788e-12
ENSMUSG00000068079	0.0	831254131748.9254	1.2030015392477388e-12
ENSMUSG00000047861	0.0	833430077311.895	1.1998607048420325e-12
ENSMUSG00000041258	0.0	837379023639.1705	1.194202352542931e-12
ENSMUSG00000004071	0.0	837956842434.1569	1.1933788822526094e-12
ENSMUSG00000078768	0.0	843261148309.8561	1.1858722555928193e-12
ENSMUSG00000030380	0.0	845582940660.7854	1.1826161005785482e-12
ENSMUSG00000048562	0.0	845694768350.7632	1.1824597211948658e-12
ENSMUSG00000029755	0.0	847869741363.5679	1.1794264510392504e-12
ENSMUSG00000043969	0.0	849722035214.1144	1.1768554404359048e-12
ENSMUSG00000038765	0.0	855210347213.2957	1.1693029712029346e-12
ENSMUSG00000057842	0.0	872549816847.0945	1.1460663685810388e-12
ENSMUSG00000000134	0.0	874364770334.9763	1.1436874333544932e-12
ENSMUSG00000000731	0.0	881871930864.3354	1.1339515013476906e-12
ENSMUSG00000099032	0.0	886729951424.7585	1.12773905786451e-12
ENSMUSG00000096014	0.0	891987661286.9979	1.1210917408399542e-12
ENSMUSG00000045515	0.0	892738572468.2098	1.1201487544502954e-12
ENSMUSG00000039789	0.0	898105978036.3212	1.1134543410861898e-12
ENSMUSG00000059897	0.0	900943561891.2284	1.1099474398827334e-12
ENSMUSG00000019338	0.0	910286238241.6708	1.0985555509788024e-12
ENSMUSG00000032745	0.0	912510771910.85	1.0958774743074458e-12
ENSMUSG00000032035	0.0	920588088481.8596	1.086262154064038e-12
ENSMUSG00000063672	0.0	922185567967.9541	1.0843804487241227e-12
ENSMUSG00000055435	0.0	929533468149.4352	1.075808493470228e-12
ENSMUSG00000054715	0.0	929994091934.6896	1.0752756481707056e-12
ENSMUSG00000027552	0.0	930149830032.9302	1.075095611171156e-12
ENSMUSG00000052942	0.0	931664103543.158	1.073348212297713e-12
ENSMUSG00000073209	0.0	933081621774.9084	1.0717176039731652e-12
ENSMUSG00000027582	0.0	940630758410.9904	1.06311641529701e-12
ENSMUSG00000045179	0.0	945602769405.9274	1.057526513620775e-12
ENSMUSG00000026398	0.0	950231617117.1759	1.0523750020377263e-12
ENSMUSG00000033961	0.0	967242915319.437	1.0338664508798648e-12
ENSMUSG00000078580	0.0	970683986376.6128	1.0302013982252026e-12
ENSMUSG00000031681	0.0	977331618391.9764	1.0231941555777356e-12
ENSMUSG00000068327	0.0	983788086278.824	1.0164790709984074e-12
ENSMUSG00000034271	0.0	985564099723.01	1.014647347931045e-12
ENSMUSG00000053129	0.0	987402145034.4172	1.0127585857787898e-12
ENSMUSG00000002617	0.0	991120410054.7192	1.0089591434655154e-12
ENSMUSG00000054160	0.0	996857117064.9044	1.0031527917906121e-12
ENSMUSG00000025470	0.0	999966467854.5204	1.000033533269922e-12
ENSMUSG00000078995	0.0	1000698600008.3763	9.993018876928872e-13
ENSMUSG00000023391	0.0	1004457277590.986	9.955625015713201e-13
ENSMUSG00000039699	0.0	1012608260651.4688	9.87548728228469e-13
ENSMUSG00000095139	0.0	1024308721709.0514	9.762681687719183e-13
ENSMUSG00000039275	0.0	1033132984301.0968	9.679296036380923e-13
ENSMUSG00000057691	0.0	1035015145439.782	9.661694366560173e-13
ENSMUSG00000029754	0.0	1038250666548.5088	9.631585437111571e-13
ENSMUSG00000014039	0.0	1043875107659.6792	9.579690066965528e-13
ENSMUSG00000034266	0.0	1050499915271.1464	9.519277302767686e-13
ENSMUSG00000021379	0.0	1052222836131.3308	9.5036903368935e-13
ENSMUSG00000070709	0.0	1059355586583.298	9.43970100941521e-13
ENSMUSG00000037034	0.0	1061639190600.4094	9.419396051444282e-13
ENSMUSG00000095432	0.0	1064552022875.5924	9.39362265546006e-13
ENSMUSG00000097918	0.0	1066290409470.2653	9.378308114923415e-13
ENSMUSG00000021575	0.0	1073265098151.176	9.317362520430566e-13
ENSMUSG00000038872	0.0	1074004276050.2032	9.310949893771708e-13
ENSMUSG00000061524	0.0	1093766443813.3998	9.142719688067184e-13
ENSMUSG00000048921	0.0	1098329392981.8728	9.10473676102834e-13
ENSMUSG00000064141	0.0	1099332065408.423	9.096432565427634e-13
ENSMUSG00000052135	0.0	1107649279289.4097	9.0281284762044e-13
ENSMUSG00000044519	0.0	1108166688374.505	9.023913193662523e-13
ENSMUSG00000029563	0.0	1115928057015.5295	8.961151157668973e-13
ENSMUSG00000100512	0.0	1116283616732.298	8.958296843299594e-13
ENSMUSG00000050954	0.0	1116597183646.4993	8.955781141541796e-13
ENSMUSG00000032228	0.0	1117243622621.5942	8.950599312023962e-13
ENSMUSG00000005148	0.0	1126573871361.0857	8.876470735042313e-13
ENSMUSG00000001288	0.0	1127339615917.152	8.870441399209107e-13
ENSMUSG00000058331	0.0	1129238155934.4749	8.855527903876691e-13
ENSMUSG00000063281	0.0	1132068732850.7021	8.833385915375163e-13
ENSMUSG00000060510	0.0	1132250143288.6392	8.831970619985824e-13
ENSMUSG00000019803	0.0	1133694397946.3433	8.820719250368291e-13
ENSMUSG00000044617	0.0	1141260023216.2766	8.762245059472246e-13
ENSMUSG00000025229	0.0	1143337324637.181	8.746325152267144e-13
ENSMUSG00000015597	0.0	1145802285578.8608	8.727509209800526e-13
ENSMUSG00000034800	0.0	1154078286918.8457	8.664923440070921e-13
ENSMUSG00000053211	0.0	1156190680051.6326	8.649092379427782e-13
ENSMUSG00000074165	0.0	1156609552583.1362	8.645960062897896e-13
ENSMUSG00000025025	0.0	1158125384800.429	8.63464365019788e-13
ENSMUSG00000036602	0.0	1161282714023.5847	8.611167529870688e-13
ENSMUSG00000014859	0.0	1163702629126.0994	8.593260640400594e-13
ENSMUSG00000046982	0.0	1164567698554.0725	8.58687735579134e-13
ENSMUSG00000063804	0.0	1167977091621.6555	8.561811761321184e-13
ENSMUSG00000056019	0.0	1175658688535.8364	8.505870026320296e-13
ENSMUSG00000056758	0.0	1178142126315.4685	8.487940271921252e-13
ENSMUSG00000022061	0.0	1188067005717.8154	8.417033678970087e-13
ENSMUSG00000044186	0.0	1188433740827.387	8.414436292458345e-13
ENSMUSG00000069743	0.0	1191853584646.0728	8.390292338609321e-13
ENSMUSG00000047591	0.0	1192213108299.795	8.387762162975138e-13
ENSMUSG00000003032	0.0	1201405407576.333	8.323584975510971e-13
ENSMUSG00000024563	0.0	1205960848609.4456	8.292143158321165e-13
ENSMUSG00000000093	0.0	1207761259726.0945	8.27978205085654e-13
ENSMUSG00000025056	0.0	1209139964807.914	8.270341144160773e-13
ENSMUSG00000066000	0.0	1209781298863.7107	8.265956838142992e-13
ENSMUSG00000000439	0.0	1213088367048.329	8.243422549943226e-13
ENSMUSG00000042477	0.0	1213153033944.6748	8.242983135840754e-13
ENSMUSG00000042472	0.0	1213532998373.304	8.240402208596412e-13
ENSMUSG00000063060	0.0	1215005098432.9497	8.230418138078169e-13
ENSMUSG00000046792	0.0	1215260005775.266	8.228691763472109e-13
ENSMUSG00000001510	0.0	1222834421530.5234	8.177722039819426e-13
ENSMUSG00000030796	0.0	1223114805649.3271	8.175847396999826e-13
ENSMUSG00000042372	0.0	1227814557363.1255	8.144552400059634e-13
ENSMUSG00000021239	0.0	1228352437142.5503	8.140986005012094e-13
ENSMUSG00000075040	0.0	1229306337324.7378	8.134668874938343e-13
ENSMUSG00000071477	0.0	1233053330060.8057	8.109949307307632e-13
ENSMUSG00000061911	0.0	1241374034246.2236	8.055589793347106e-13
ENSMUSG00000028977	0.0	1245084166989.448	8.031585546685977e-13
ENSMUSG00000001103	0.0	1247783828393.325	8.014208689397929e-13
ENSMUSG00000032318	0.0	1248632392334.5942	8.008762275742975e-13
ENSMUSG00000029546	0.0	1256588811490.874	7.958052712673405e-13
ENSMUSG00000027490	0.0	1259789937241.9187	7.937831303759406e-13
ENSMUSG00000028654	0.0	1261597883765.8684	7.926455908557812e-13
ENSMUSG00000052763	0.0	1267727039591.2842	7.888133397567985e-13
ENSMUSG00000017950	0.0	1268529749891.1584	7.883141882055201e-13
ENSMUSG00000049577	0.0	1269342610356.469	7.878093682832961e-13
ENSMUSG00000012396	0.0	1270642724287.334	7.870032865146027e-13
ENSMUSG00000085111	0.0	1275697409750.924	7.838849497979673e-13
ENSMUSG00000068134	0.0	1276888938440.7974	7.831534676939836e-13
ENSMUSG00000022306	0.0	1278127241165.6067	7.823947161066964e-13
ENSMUSG00000021485	0.0	1284460917749.9175	7.785367278840775e-13
ENSMUSG00000001493	0.0	1288643075992.3262	7.760100672018472e-13
ENSMUSG00000028940	0.0	1289648984922.332	7.754047897461216e-13
ENSMUSG00000074529	0.0	1290339534809.585	7.749898170387918e-13
ENSMUSG00000017724	0.0	1290529058051.1614	7.748760043498038e-13
ENSMUSG00000030507	0.0	1291069556128.305	7.745516074275871e-13
ENSMUSG00000041309	0.0	1295872810233.1929	7.716806712072688e-13
ENSMUSG00000029697	0.0	1298835705720.0908	7.699203183250859e-13
ENSMUSG00000015579	0.0	1298861085212.0134	7.699052742324401e-13
ENSMUSG00000061374	0.0	1299576076712.3247	7.694816932378487e-13
ENSMUSG00000055197	0.0	1304524731002.7888	7.6656269998906e-13
ENSMUSG00000042002	0.0	1306061021060.6108	7.656610096118876e-13
ENSMUSG00000050240	0.0	1307148186003.7441	7.650242036117056e-13
ENSMUSG00000019789	0.0	1312030860455.4167	7.621771942566136e-13
ENSMUSG00000074500	0.0	1312299194321.4153	7.620213472104554e-13
ENSMUSG00000045518	0.0	1314685686931.0137	7.606380825019765e-13
ENSMUSG00000030443	0.0	1319548628908.019	7.578348975494304e-13
ENSMUSG00000058669	0.0	1320651818937.66	7.572018496172639e-13
ENSMUSG00000042414	0.0	1321849774999.519	7.565156184259772e-13
ENSMUSG00000025930	0.0	1321875082824.4785	7.565011346331446e-13
ENSMUSG00000041565	0.0	1322491835071.3071	7.561483356500883e-13
ENSMUSG00000024220	0.0	1323039890711.6653	7.558351089944071e-13
ENSMUSG00000069729	0.0	1323703754503.12	7.554560426364968e-13
ENSMUSG00000075304	0.0	1324286424318.7551	7.551236512255452e-13
ENSMUSG00000051351	0.0	1324804972798.0562	7.548280845353023e-13
ENSMUSG00000042320	0.0	1325843549525.248	7.542368029456231e-13
ENSMUSG00000001988	0.0	1327575712350.6396	7.532527076963274e-13
ENSMUSG00000045991	0.0	1333770177255.293	7.497543557750377e-13
ENSMUSG00000033006	0.0	1339310267489.3057	7.46652978233802e-13
ENSMUSG00000026497	0.0	1340545398396.0125	7.459650387047829e-13
ENSMUSG00000001823	0.0	1343454838182.559	7.443495468391117e-13
ENSMUSG00000070420	0.0	1344454441626.9548	7.437961220834506e-13
ENSMUSG00000040524	0.0	1344467426750.3474	7.437889383583325e-13
ENSMUSG00000061898	0.0	1357551074083.936	7.366205361185335e-13
ENSMUSG00000040289	0.0	1357616421494.21	7.365850796791241e-13
ENSMUSG00000034161	0.0	1359276948895.63	7.356852485525256e-13
ENSMUSG00000026436	0.0	1362047502535.8044	7.341887842665111e-13
ENSMUSG00000034041	0.0	1362243983705.0474	7.340828896745707e-13
ENSMUSG00000028707	0.0	1363458219659.7458	7.334291477222913e-13
ENSMUSG00000041420	0.0	1363925761703.385	7.331777345059573e-13
ENSMUSG00000022330	0.0	1369987239849.0957	7.299338058872359e-13
ENSMUSG00000020647	0.0	1370701791256.4858	7.295532889639888e-13
ENSMUSG00000031870	0.0	1372443179815.035	7.286276143940405e-13
ENSMUSG00000005698	0.0	1372750378528.208	7.28464559647143e-13
ENSMUSG00000042903	0.0	1376796506192.4216	7.263237490088747e-13
ENSMUSG00000035799	0.0	1377143937932.9636	7.261405089586778e-13
ENSMUSG00000008193	0.0	1380885825920.3696	7.241728325609348e-13
ENSMUSG00000000942	0.0	1382975419504.483	7.230786504927888e-13
ENSMUSG00000058028	0.0	1385835488376.1367	7.215863703791838e-13
ENSMUSG00000053747	0.0	1389150673128.654	7.198643166243397e-13
ENSMUSG00000044518	0.0	1393069386236.212	7.178393336901869e-13
ENSMUSG00000039656	0.0	1394754256525.5125	7.169721800965217e-13
ENSMUSG00000053985	0.0	1399239067223.0625	7.14674156421751e-13
ENSMUSG00000031688	0.0	1401591873948.295	7.134744561432084e-13
ENSMUSG00000043099	0.0	1401631925596.9626	7.134540686022792e-13
ENSMUSG00000039476	0.0	1404820702261.0005	7.118346123391701e-13
ENSMUSG00000026815	0.0	1406015509504.8257	7.112297078089719e-13
ENSMUSG00000054381	0.0	1406573020604.5308	7.109478038830932e-13
ENSMUSG00000041730	0.0	1408157155696.6455	7.101480086612056e-13
ENSMUSG00000034762	0.0	1409157334397.5542	7.096439663549153e-13
ENSMUSG00000031907	0.0	1410475256436.952	7.089808881342116e-13
ENSMUSG00000071661	0.0	1410922196088.1582	7.087563033401435e-13
ENSMUSG00000039834	0.0	1415016078971.4688	7.067057504582343e-13
ENSMUSG00000044636	0.0	1418938394433.0776	7.047522316143541e-13
ENSMUSG00000059246	0.0	1421717525538.905	7.033746029268001e-13
ENSMUSG00000074366	0.0	1421879266698.5996	7.032945928818957e-13
ENSMUSG00000022974	0.0	1422926388062.315	7.02777043415268e-13
ENSMUSG00000025128	0.0	1424486787623.0056	7.020072131863484e-13
ENSMUSG00000030699	0.0	1425094167603.3171	7.017080153248902e-13
ENSMUSG00000031099	0.0	1426611121379.8591	7.00961870416916e-13
ENSMUSG00000024518	0.0	1426710188417.3523	7.009131974513329e-13
ENSMUSG00000069378	0.0	1428494179432.6902	7.000378541249208e-13
ENSMUSG00000018554	0.0	1429373206052.998	6.996073494069135e-13
ENSMUSG00000000247	0.0	1436214853998.8596	6.962746536256017e-13
ENSMUSG00000039841	0.0	1437757793219.469	6.955274419071455e-13
ENSMUSG00000039377	0.0	1441599570035.9585	6.936739027849853e-13
ENSMUSG00000045608	0.0	1443454946316.982	6.92782273912691e-13
ENSMUSG00000037572	0.0	1443704568159.5488	6.926624893033424e-13
ENSMUSG00000062101	0.0	1445193819648.5388	6.919487105495602e-13
ENSMUSG00000024238	0.0	1447552379502.0212	6.908212885146266e-13
ENSMUSG00000055480	0.0	1447888876298.4148	6.906607381061864e-13
ENSMUSG00000025602	0.0	1449385554185.2837	6.899475416409208e-13
ENSMUSG00000023411	0.0	1450509877482.0076	6.894127475615237e-13
ENSMUSG00000026468	0.0	1451917238072.8132	6.887444916125793e-13
ENSMUSG00000062861	0.0	1452883332201.7402	6.882865112676129e-13
ENSMUSG00000067942	0.0	1453234330946.5918	6.881202698732221e-13
ENSMUSG00000036281	0.0	1454100673583.715	6.877102928062349e-13
ENSMUSG00000045639	0.0	1454679947188.6987	6.874364370888531e-13
ENSMUSG00000045440	0.0	1456423256483.7334	6.866135895236365e-13
ENSMUSG00000046556	0.0	1456989446749.8486	6.863467695189769e-13
ENSMUSG00000001815	0.0	1460087823813.5188	6.848903084392266e-13
ENSMUSG00000054967	0.0	1460325638651.502	6.847787736736738e-13
ENSMUSG00000066224	0.0	1460714430046.5625	6.845965093725565e-13
ENSMUSG00000074194	0.0	1462119227788.9436	6.839387520484408e-13
ENSMUSG00000018168	0.0	1462865463522.3718	6.835898617718012e-13
ENSMUSG00000042821	0.0	1463076103584.5764	6.834914448742431e-13
ENSMUSG00000033730	0.0	1463089841682.252	6.834850270371681e-13
ENSMUSG00000033740	0.0	1465472411529.8638	6.823738148410867e-13
ENSMUSG00000096916	0.0	1467192215252.6934	6.815739543899984e-13
ENSMUSG00000005442	0.0	1468256873902.5464	6.810797332363613e-13
ENSMUSG00000067860	0.0	1469331232239.5432	6.805817354578434e-13
ENSMUSG00000026934	0.0	1470364763220.8145	6.80103349191743e-13
ENSMUSG00000029135	0.0	1472493064867.0552	6.791203462070536e-13
ENSMUSG00000067438	0.0	1473785756421.6584	6.785246740530272e-13
ENSMUSG00000043753	0.0	1474595798967.6802	6.781519387889682e-13
ENSMUSG00000052534	0.0	1475931175538.475	6.775383680307196e-13
ENSMUSG00000058440	0.0	1476640634164.367	6.772128416782337e-13
ENSMUSG00000048450	0.0	1477866598131.1892	6.766510598889865e-13
ENSMUSG00000048485	0.0	1478724254140.114	6.762586041313736e-13
ENSMUSG00000022738	0.0	1480615957922.769	6.753945846990265e-13
ENSMUSG00000050064	0.0	1481797937088.305	6.748558457065843e-13
ENSMUSG00000007670	0.0	1482264437798.3003	6.746434539611315e-13
ENSMUSG00000025902	0.0	1483673771807.2546	6.740026136486228e-13
ENSMUSG00000050966	0.0	1485014622548.0583	6.733940426015151e-13
ENSMUSG00000049739	0.0	1486907057209.4456	6.72536992242643e-13
ENSMUSG00000030557	0.0	1486948718094.2666	6.725181493021765e-13
ENSMUSG00000035576	0.0	1487258884697.0308	6.723778962017832e-13
ENSMUSG00000013419	0.0	1491104824578.1172	6.706436620127851e-13
ENSMUSG00000051817	0.0	1491976873104.9998	6.702516761663126e-13
ENSMUSG00000018983	0.0	1493369143962.9692	6.696267992696632e-13
ENSMUSG00000036867	0.0	1494636862932.252	6.69058836163154e-13
ENSMUSG00000021743	0.0	1495031720380.8652	6.688821289659634e-13
ENSMUSG00000043602	0.0	1495575343779.2866	6.686389984693259e-13
ENSMUSG00000048377	0.0	1498034909897.785	6.675411857179168e-13
ENSMUSG00000037335	0.0	1500026852543.2878	6.666547324166265e-13
ENSMUSG00000019230	0.0	1500278297786.0608	6.665430017055407e-13
ENSMUSG00000034430	0.0	1501065409846.258	6.661934872661025e-13
ENSMUSG00000038797	0.0	1505196431634.1538	6.643651147341117e-13
ENSMUSG00000068859	0.0	1505238433447.9736	6.6434657644859e-13
ENSMUSG00000048387	0.0	1506536207665.4119	6.637742889363672e-13
ENSMUSG00000026610	0.0	1506536207665.4119	6.637742889363672e-13
ENSMUSG00000078796	0.0	1506550216489.87	6.637681167574436e-13
ENSMUSG00000058388	0.0	1506765029339.6514	6.636734862623245e-13
ENSMUSG00000003545	0.0	1507498348712.7695	6.633506437031159e-13
ENSMUSG00000024922	0.0	1507652516160.9648	6.632828117094024e-13
ENSMUSG00000037992	0.0	1510270293864.829	6.621331321037698e-13
ENSMUSG00000049606	0.0	1512268384254.2542	6.612582861693102e-13
ENSMUSG00000055305	0.0	1514750899858.971	6.601745541746196e-13
ENSMUSG00000026630	0.0	1515435239613.6208	6.598764327632783e-13
ENSMUSG00000062939	0.0	1515932218149.5808	6.596601009117991e-13
ENSMUSG00000057093	0.0	1517494187714.6863	6.589811072067291e-13
ENSMUSG00000036442	0.0	1518329554259.1792	6.586185437771566e-13
ENSMUSG00000034071	0.0	1519724078613.8618	6.580141843327893e-13
ENSMUSG00000014603	0.0	1519799228734.3655	6.579816472421586e-13
ENSMUSG00000032998	0.0	1521208752244.7988	6.573719737835667e-13
ENSMUSG00000045336	0.0	1522341700518.174	6.568827482421459e-13
ENSMUSG00000070691	0.0	1522539201326.3318	6.567975386964542e-13
ENSMUSG00000074607	0.0	1523682219900.2832	6.563048297993821e-13
ENSMUSG00000040187	1.0	1523715154835.4587	6.562906438428034e-13
ENSMUSG00000020120	0.0	1523799846848.049	6.562541675460074e-13
ENSMUSG00000039158	0.0	1524981156927.4792	6.557458073874123e-13
ENSMUSG00000050100	0.0	1525258923986.3438	6.556263885914188e-13
ENSMUSG00000049657	0.0	1525772175571.0974	6.554058436841657e-13
ENSMUSG00000001497	0.0	1526685954024.704	6.550135588552212e-13
ENSMUSG00000044220	0.0	1527915891255.2314	6.544862879713021e-13
ENSMUSG00000051510	0.0	1530368309658.9604	6.534374723316428e-13
ENSMUSG00000003198	0.0	1530703362568.7107	6.532944425769573e-13
ENSMUSG00000071341	0.0	1530962944209.219	6.531836735712276e-13
ENSMUSG00000048528	0.0	1531779637790.831	6.528354179209639e-13
ENSMUSG00000038227	0.0	1532166842545.6394	6.526704352500779e-13
ENSMUSG00000051499	0.0	1532983964180.3188	6.523225443748829e-13
ENSMUSG00000024134	0.0	1533645431322.0393	6.52041195165936e-13
ENSMUSG00000027985	0.0	1534486714266.195	6.516837133244315e-13
ENSMUSG00000071646	0.0	1537608763201.7073	6.503604973723849e-13
ENSMUSG00000042439	0.0	1538735630984.0298	6.498842165372453e-13
ENSMUSG00000006270	0.0	1539095587057.4893	6.49732224826818e-13
ENSMUSG00000038805	0.0	1539976768985.5586	6.493604450012178e-13
ENSMUSG00000026805	0.0	1540009938311.7412	6.493464588262755e-13
ENSMUSG00000043290	0.0	1540924651628.3694	6.489609981534475e-13
ENSMUSG00000039068	0.0	1541242279268.0122	6.488272567210741e-13
ENSMUSG00000021685	0.0	1541261243492.7563	6.488192733204868e-13
ENSMUSG00000040489	0.0	1541915604513.6887	6.485439261867994e-13
ENSMUSG00000019564	0.0	1542342461468.5125	6.48364435903469e-13
ENSMUSG00000002266	0.0	1544003209625.8145	6.476670474294854e-13
ENSMUSG00000003184	0.0	1544007956327.6897	6.47665056324209e-13
ENSMUSG00000024565	0.0	1546382525962.3882	6.466705250550163e-13
ENSMUSG00000032292	0.0	1546814959336.5618	6.464897394248799e-13
ENSMUSG00000000690	0.0	1549573022618.8489	6.453390614079965e-13
ENSMUSG00000028717	0.0	1551234194723.3782	6.446479863592252e-13
ENSMUSG00000068966	0.0	1551815170911.2412	6.44406639878891e-13
ENSMUSG00000037477	0.0	1551953293143.9856	6.443492883565943e-13
ENSMUSG00000024276	0.0	1552343890014.9958	6.441871588068929e-13
ENSMUSG00000031621	0.0	1552396292141.1543	6.441654138588173e-13
ENSMUSG00000039501	0.0	1552901318521.334	6.439559217788518e-13
ENSMUSG00000020656	0.0	1553201527597.4949	6.438314553725738e-13
ENSMUSG00000022510	0.0	1554140526264.2278	6.434424578089823e-13
ENSMUSG00000034998	0.0	1555347003421.8186	6.429433417751566e-13
ENSMUSG00000029844	0.0	1555943319360.0718	6.426969334662395e-13
ENSMUSG00000055148	0.0	1556258235650.3164	6.425668806707572e-13
ENSMUSG00000026572	0.0	1556730689753.3638	6.423718672614029e-13
ENSMUSG00000025216	0.0	1557456259922.579	6.42072606295672e-13
ENSMUSG00000030486	0.0	1557546972042.6477	6.420352117461653e-13
ENSMUSG00000023333	0.0	1558774318887.8264	6.415296864227866e-13
ENSMUSG00000050368	0.0	1559285505478.6309	6.413193712674477e-13
ENSMUSG00000051184	0.0	1560002310329.9854	6.41024691680406e-13
ENSMUSG00000024497	0.0	1560810173602.1194	6.406929022586697e-13
ENSMUSG00000070643	0.0	1562130123877.2825	6.401515371318439e-13
ENSMUSG00000070990	0.0	1562445874375.8918	6.400221706236339e-13
ENSMUSG00000023927	0.0	1562622904629.9468	6.399496622230911e-13
ENSMUSG00000037446	0.0	1562852585425.6443	6.398556135911239e-13
ENSMUSG00000034777	0.0	1563307228349.843	6.396695299973474e-13
ENSMUSG00000070345	0.0	1564006114604.5547	6.393836895278643e-13
ENSMUSG00000044597	0.0	1564604641606.9636	6.391390984069475e-13
ENSMUSG00000038056	0.0	1567383804996.165	6.380058265323513e-13
ENSMUSG00000007805	0.0	1567422161276.0547	6.37990213935657e-13
ENSMUSG00000024406	0.0	1567422161276.0547	6.37990213935657e-13
ENSMUSG00000029014	0.0	1567767395954.5566	6.378497234860126e-13
ENSMUSG00000011267	0.0	1569935860659.5488	6.369686972943519e-13
ENSMUSG00000068284	0.0	1570430281531.3518	6.36768159503957e-13
ENSMUSG00000027067	0.0	1570478289085.3254	6.367486942989946e-13
ENSMUSG00000038203	0.0	1572961612689.2178	6.357434230644367e-13
ENSMUSG00000023443	0.0	1575086760849.5542	6.348856614480273e-13
ENSMUSG00000042570	0.0	1575288797530.6626	6.348042349869725e-13
ENSMUSG00000047143	0.0	1578490014418.0142	6.335168362586683e-13
ENSMUSG00000048251	0.0	1578514100129.8308	6.335071697603153e-13
ENSMUSG00000001521	0.0	1582433696563.3003	6.319380092649576e-13
ENSMUSG00000043219	0.0	1582771480246.544	6.318031456090129e-13
ENSMUSG00000024431	0.0	1582969347295.9202	6.317241718598232e-13
ENSMUSG00000079681	0.0	1582978999768.9172	6.317203198185066e-13
ENSMUSG00000003154	0.0	1583896163642.673	6.31354518657449e-13
ENSMUSG00000021381	0.0	1584654297891.1372	6.310524644591587e-13
ENSMUSG00000015053	0.0	1584770212337.7336	6.31006307548446e-13
ENSMUSG00000009097	0.0	1585093836750.8472	6.308774766608249e-13
ENSMUSG00000047342	0.0	1586456440387.15	6.303356175073837e-13
ENSMUSG00000042596	0.0	1587800480451.6497	6.298020515244775e-13
ENSMUSG00000030543	0.0	1587989093529.6238	6.297272469153423e-13
ENSMUSG00000050397	0.0	1590229410673.2632	6.288400863977387e-13
ENSMUSG00000030757	0.0	1591997019963.1147	6.281418793253578e-13
ENSMUSG00000021095	0.0	1592466988386.3982	6.279565022652505e-13
ENSMUSG00000052675	0.0	1593858055177.5896	6.274084425219276e-13
ENSMUSG00000040732	0.0	1595929189994.2712	6.265942162531594e-13
ENSMUSG00000038700	0.0	1596181534987.089	6.264951561465649e-13
ENSMUSG00000036672	0.0	1596482442626.6064	6.263770733079619e-13
ENSMUSG00000006642	0.0	1596696012924.4631	6.262932905859947e-13
ENSMUSG00000036036	0.0	1597152340552.2085	6.261143502781046e-13
ENSMUSG00000035187	0.0	1597297995328.9597	6.260572560188134e-13
ENSMUSG00000019982	0.0	1598162395821.9102	6.257186394913988e-13
ENSMUSG00000021540	0.0	1598230395602.965	6.256920170903955e-13
ENSMUSG00000030353	0.0	1598779321595.3247	6.254771915627235e-13
ENSMUSG00000017007	0.0	1599338092122.7869	6.252586647721928e-13
ENSMUSG00000020232	0.0	1599887271703.3433	6.250440375935584e-13
ENSMUSG00000028634	0.0	1599906713992.008	6.250364419715756e-13
ENSMUSG00000051341	0.0	1602026867876.1074	6.242092564438407e-13
ENSMUSG00000029705	0.0	1602163088516.6917	6.241561843281611e-13
ENSMUSG00000019913	0.0	1602839441014.5874	6.238928082322496e-13
ENSMUSG00000032015	0.0	1603204458461.1682	6.237507603739124e-13
ENSMUSG00000040629	0.0	1603282336021.3264	6.23720462411867e-13
ENSMUSG00000050605	0.0	1603399157090.2449	6.236750191479092e-13
ENSMUSG00000067724	0.0	1605244708914.671	6.229579792081137e-13
ENSMUSG00000014030	0.0	1605878073837.896	6.227122820165886e-13
ENSMUSG00000004842	0.0	1606092481234.5967	6.226291522336896e-13
ENSMUSG00000043668	0.0	1606896678940.9634	6.223175472980983e-13
ENSMUSG00000049691	0.0	1608398566161.4138	6.217364408540781e-13
ENSMUSG00000059625	0.0	1609462155635.7646	6.213255754404384e-13
ENSMUSG00000009406	0.0	1609769610543.0825	6.212069065352982e-13
ENSMUSG00000045333	0.0	1610345583811.3958	6.209847190894152e-13
ENSMUSG00000022760	0.0	1610941226033.3408	6.207551112602189e-13
ENSMUSG00000018654	0.0	1611283054269.4065	6.206234201683598e-13
ENSMUSG00000055560	0.0	1611297705131.446	6.206177770968911e-13
ENSMUSG00000014303	0.0	1611493058445.0469	6.20542542680832e-13
ENSMUSG00000074676	0.0	1612357686379.944	6.202097763091229e-13
ENSMUSG00000063632	0.0	1612689942037.4854	6.200819971237571e-13
ENSMUSG00000063383	0.0	1612968485620.2695	6.19974915142529e-13
ENSMUSG00000068302	0.0	1613530557143.3533	6.197589475903278e-13
ENSMUSG00000035277	0.0	1613818974946.3416	6.196481857782403e-13
ENSMUSG00000055874	0.0	1615261579517.0637	6.190947724386433e-13
ENSMUSG00000028487	0.0	1615496389687.748	6.190047878678859e-13
ENSMUSG00000028640	0.0	1615696974727.8904	6.189279398560589e-13
ENSMUSG00000003051	0.0	1616328192058.4473	6.186862327300417e-13
ENSMUSG00000038518	0.0	1616891043770.8396	6.184708634836925e-13
ENSMUSG00000001819	0.0	1617938785180.7524	6.180703554172368e-13
ENSMUSG00000020875	0.0	1618168957215.5732	6.179824396833856e-13
ENSMUSG00000026751	0.0	1618457927478.9143	6.178721009805355e-13
ENSMUSG00000002057	0.0	1618722438887.9685	6.177711360367507e-13
ENSMUSG00000005718	0.0	1619398543421.443	6.175132144352888e-13
ENSMUSG00000022952	0.0	1619692560625.4082	6.174011193913691e-13
ENSMUSG00000066721	0.0	1620035625673.0962	6.17270376128005e-13
ENSMUSG00000024206	0.0	1620207176361.494	6.17205018339509e-13
ENSMUSG00000021109	0.0	1620388543114.4446	6.171359358527458e-13
ENSMUSG00000060257	0.0	1621580017874.3472	6.166824880531353e-13
ENSMUSG00000040610	0.0	1622384470775.1997	6.163767084889472e-13
ENSMUSG00000073043	0.0	1623110668813.671	6.161009345905529e-13
ENSMUSG00000049728	0.0	1623316791507.8315	6.160227043984074e-13
ENSMUSG00000024548	0.0	1623665276697.8025	6.158904882376939e-13
ENSMUSG00000051176	0.0	1624008902467.4224	6.157601713147382e-13
ENSMUSG00000036816	0.0	1624303477426.5356	6.156485003555798e-13
ENSMUSG00000031189	0.0	1624514611391.2812	6.155684861114122e-13
ENSMUSG00000000861	0.0	1624534252690.1836	6.155610436308301e-13
ENSMUSG00000025912	0.0	1624868178994.337	6.154345398153589e-13
ENSMUSG00000012520	0.0	1625428099278.4229	6.15222537646501e-13
ENSMUSG00000038692	0.0	1625575468097.536	6.151667637863241e-13
ENSMUSG00000051550	0.0	1626022541337.0237	6.149976243119814e-13
ENSMUSG00000030232	0.0	1627236439027.604	6.145388439049307e-13
ENSMUSG00000056854	0.0	1627614984063.07	6.143959165967288e-13
ENSMUSG00000024176	0.0	1628032926621.2942	6.142381911619749e-13
ENSMUSG00000027186	0.0	1628391922627.85	6.141027759375212e-13
ENSMUSG00000046886	0.0	1628706702265.4429	6.13984088485087e-13
ENSMUSG00000038255	0.0	1628760809100.6492	6.139636921594207e-13
ENSMUSG00000061517	0.0	1629105153401.1047	6.138339185240969e-13
ENSMUSG00000029646	0.0	1629739857880.1152	6.135948600414979e-13
ENSMUSG00000043342	0.0	1630148320775.5408	6.134411128456406e-13
ENSMUSG00000044243	0.0	1630719298918.8281	6.132263232936551e-13
ENSMUSG00000074824	0.0	1631029454978.4902	6.131097123645679e-13
ENSMUSG00000002147	0.0	1631679433287.762	6.128654805589135e-13
ENSMUSG00000033237	0.0	1631679433287.762	6.128654805589135e-13
ENSMUSG00000039830	0.0	1631773004985.9023	6.128303366610967e-13
ENSMUSG00000038346	0.0	1632122699308.4705	6.126990332428435e-13
ENSMUSG00000030001	0.0	1632329584255.1875	6.12621378455435e-13
ENSMUSG00000034486	0.0	1632561119090.1365	6.125344946088896e-13
ENSMUSG00000021217	0.0	1633738837107.2344	6.120929351050021e-13
ENSMUSG00000040054	0.0	1633955717203.63	6.120116900789767e-13
ENSMUSG00000042448	0.0	1635434956730.62	6.114581297681743e-13
ENSMUSG00000049600	0.0	1635760509192.4077	6.113364360982834e-13
ENSMUSG00000046658	0.0	1636012102046.9548	6.112424221977419e-13
ENSMUSG00000029127	0.0	1636165043642.6392	6.111852859132552e-13
ENSMUSG00000005583	0.0	1636559775669.4153	6.110378703344104e-13
ENSMUSG00000055341	0.0	1636618990948.6416	6.110157620866693e-13
ENSMUSG00000007946	0.0	1637383983357.4224	6.107302930553409e-13
ENSMUSG00000021055	0.0	1637665363085.654	6.106253588436537e-13
ENSMUSG00000074365	0.0	1637759163491.499	6.105903861152114e-13
ENSMUSG00000048626	0.0	1638129463225.3748	6.104523619464498e-13
ENSMUSG00000050919	0.0	1638628221723.425	6.102665551239264e-13
ENSMUSG00000023467	0.0	1638885047750.962	6.101709216105777e-13
ENSMUSG00000039759	0.0	1639052986969.7532	6.101084028093437e-13
ENSMUSG00000090125	0.0	1639280217114.4512	6.100238321427764e-13
ENSMUSG00000030393	0.0	1639393840061.8909	6.099815526708626e-13
ENSMUSG00000021099	0.0	1639448183327.4675	6.099613334349937e-13
ENSMUSG00000020185	0.0	1639695213306.6926	6.098694390790769e-13
ENSMUSG00000047003	0.0	1639887913915.981	6.09797774295466e-13
ENSMUSG00000021356	0.0	1640307954733.195	6.096416207178946e-13
ENSMUSG00000021318	0.0	1640817041480.9353	6.094524707626393e-13
ENSMUSG00000024912	0.0	1641039491079.734	6.093698569935345e-13
ENSMUSG00000069171	0.0	1641528950966.0552	6.091881592532929e-13
ENSMUSG00000058794	0.0	1641909709267.9255	6.090468887268275e-13
ENSMUSG00000073197	0.0	1642161932242.349	6.08953343982657e-13
ENSMUSG00000024968	0.0	1642602147927.575	6.087901451131499e-13
ENSMUSG00000040478	0.0	1643032547159.2937	6.086306699942986e-13
ENSMUSG00000051469	0.0	1643151291211.173	6.085866866604208e-13
ENSMUSG00000020857	0.0	1643690659110.3872	6.083869823420599e-13
ENSMUSG00000038560	0.0	1644042053968.3423	6.082569467041481e-13
ENSMUSG00000041578	0.0	1644636074618.0625	6.080372523947173e-13
ENSMUSG00000027466	0.0	1644715288180.6687	6.080079678143978e-13
ENSMUSG00000058886	0.0	1645487753717.442	6.077225416845715e-13
ENSMUSG00000037188	0.0	1645492706199.6218	6.077207126062372e-13
ENSMUSG00000018501	0.0	1645606616032.4165	6.076786458303235e-13
ENSMUSG00000018698	0.0	1645671002176.281	6.076548706743768e-13
ENSMUSG00000018678	0.0	1645997911583.306	6.075341851667889e-13
ENSMUSG00000033016	0.0	1646230737096.9895	6.07448261938924e-13
ENSMUSG00000002983	0.0	1646731138547.0068	6.072636732201165e-13
ENSMUSG00000042097	0.0	1647038365898.8394	6.071503983784065e-13
ENSMUSG00000000782	0.0	1647097833670.637	6.071284774696423e-13
ENSMUSG00000004231	0.0	1647206861636.6292	6.070882918775736e-13
ENSMUSG00000060261	0.0	1647578584043.712	6.069513221916637e-13
ENSMUSG00000034968	0.0	1647900788695.93	6.068326484577705e-13
ENSMUSG00000035420	0.0	1647945404958.3794	6.068162191485076e-13
ENSMUSG00000038331	0.0	1648123878061.3008	6.067505078418661e-13
ENSMUSG00000033669	0.0	1648451112216.4202	6.066300617526066e-13
ENSMUSG00000038151	0.0	1648733758387.4631	6.065260657839903e-13
ENSMUSG00000051413	0.0	1648733758387.4631	6.065260657839903e-13
ENSMUSG00000021255	0.0	1648847817744.8567	6.064841092295035e-13
ENSMUSG00000057895	0.0	1648867654691.8018	6.064768128324496e-13
ENSMUSG00000025407	0.0	1649150348473.5337	6.063728518904342e-13
ENSMUSG00000062327	0.0	1649244586913.9155	6.063382035233542e-13
ENSMUSG00000046518	0.0	1649810092948.9668	6.061303687459819e-13
ENSMUSG00000026976	0.0	1649929163320.8013	6.060866261599417e-13
ENSMUSG00000021604	0.0	1650152435709.2988	6.060046201550838e-13
ENSMUSG00000068154	0.0	1650316181595.2517	6.05944491820571e-13
ENSMUSG00000000103	0.0	1650574227398.1064	6.058497602839447e-13
ENSMUSG00000048402	0.0	1650663557211.9868	6.058169731989636e-13
ENSMUSG00000029026	0.0	1650723112211.7869	6.05795116456636e-13
ENSMUSG00000027547	0.0	1650926602602.6245	6.057204471861663e-13
ENSMUSG00000021510	0.0	1651025872276.163	6.056840276048275e-13
ENSMUSG00000000094	0.0	1651100327142.7234	6.056567148348452e-13
ENSMUSG00000026686	0.0	1651214495618.8982	6.056148384436184e-13
ENSMUSG00000071665	0.0	1651269099793.9712	6.055948119690303e-13
ENSMUSG00000006215	0.0	1651477599535.4666	6.055183553693272e-13
ENSMUSG00000036192	1.0	1651477599535.4666	6.055183553693272e-13
ENSMUSG00000033837	0.0	1651705976532.27	6.054346319551885e-13
ENSMUSG00000027583	0.0	1651790382054.6934	6.054036945996023e-13
ENSMUSG00000038932	0.0	1652614728290.4329	6.051017111740629e-13
ENSMUSG00000029706	0.0	1652679297103.6414	6.050780703506864e-13
ENSMUSG00000011349	0.0	1652907784870.1565	6.049944280942174e-13
ENSMUSG00000001661	0.0	1652987263812.045	6.04965338749099e-13
ENSMUSG00000035041	0.0	1653185972313.2776	6.048926235447761e-13
ENSMUSG00000039081	0.0	1653195908156.3403	6.048889880904735e-13
ENSMUSG00000024837	0.0	1653484064923.008	6.047835725871138e-13
ENSMUSG00000036972	0.0	1653633124664.5032	6.04729056938119e-13
ENSMUSG00000022987	0.0	1653648031131.3457	6.047236057335904e-13
ENSMUSG00000058670	0.0	1653662937687.7676	6.047181545945808e-13
ENSMUSG00000027794	0.0	1653782193364.1106	6.046745478410358e-13
ENSMUSG00000001657	0.0	1653911393483.431	6.046273119225708e-13
ENSMUSG00000074731	0.0	1653995874122.7048	6.045964295590577e-13
ENSMUSG00000037447	0.0	1654025691505.7568	6.045855304034856e-13
ENSMUSG00000055102	0.0	1654154904306.6392	6.045383037564811e-13
ENSMUSG00000016458	0.0	1654184723600.932	6.04527405998006e-13
ENSMUSG00000031737	0.0	1654264243471.0493	6.044983465892706e-13
ENSMUSG00000001444	0.0	1654766271470.3357	6.043149520514786e-13
ENSMUSG00000001496	0.0	1654960151044.6829	6.042441561923751e-13
ENSMUSG00000029275	0.0	1654975065485.3225	6.042387108151078e-13
ENSMUSG00000062713	0.0	1655059582341.498	6.042078549131436e-13
ENSMUSG00000032033	0.0	1655084440787.9702	6.041987800476871e-13
ENSMUSG00000029644	0.0	1655770632154.422	6.039483854710239e-13
ENSMUSG00000041911	0.0	1655939722910.8672	6.038867152979252e-13
ENSMUSG00000028946	0.0	1656029246206.9895	6.038540697819346e-13
ENSMUSG00000036144	0.0	1656198354569.4866	6.037924124492569e-13
ENSMUSG00000054360	0.0	1656258042622.4531	6.037706530418653e-13
ENSMUSG00000042109	0.0	1656357525897.5264	6.03734389686268e-13
ENSMUSG00000022485	0.0	1656387371656.8398	6.03723511245879e-13
ENSMUSG00000071766	0.0	1656675899147.7378	6.036183664616846e-13
ENSMUSG00000000282	0.0	1656695798830.3496	6.036111159972844e-13
ENSMUSG00000026459	0.0	1656740573698.8623	6.035948028769441e-13
ENSMUSG00000025423	0.0	1656750523779.1985	6.035911778189206e-13
ENSMUSG00000018263	0.0	1656904755118.8623	6.035349931313719e-13
ENSMUSG00000029595	0.0	1657188366755.6023	6.034317039998129e-13
ENSMUSG00000006311	0.0	1657213246513.215	6.034226446741268e-13
ENSMUSG00000053007	0.0	1657377459158.8403	6.033628576724608e-13
ENSMUSG00000062931	0.0	1657447128406.85	6.033374958760869e-13
ENSMUSG00000034384	0.0	1657531729404.1836	6.033067013199561e-13
ENSMUSG00000038210	0.0	1657681032304.5613	6.032523630977233e-13
ENSMUSG00000042589	0.0	1657745733012.3025	6.032288185612713e-13
ENSMUSG00000022479	0.0	1658004552678.7646	6.031346526668724e-13
ENSMUSG00000035951	0.0	1658099128122.4941	6.031002507867695e-13
ENSMUSG00000048540	0.0	1658104105877.0503	6.030984402339757e-13
ENSMUSG00000049604	0.0	1658138950437.8953	6.030857665673384e-13
ENSMUSG00000031241	0.0	1658198685106.4956	6.030640411078219e-13
ENSMUSG00000039410	0.0	1658407767744.3171	6.029880102166608e-13
ENSMUSG00000005917	0.0	1658412746116.561	6.029862001131263e-13
ENSMUSG00000038402	0.0	1658502358520.6704	6.02953619488348e-13
ENSMUSG00000015619	0.0	1658522272826.6294	6.029463796682658e-13
ENSMUSG00000020484	0.0	1658711466684.0127	6.028776071580035e-13
ENSMUSG00000024137	0.0	1658761256932.4678	6.02859510867339e-13
ENSMUSG00000044647	0.0	1658791131559.8018	6.028486534405785e-13
ENSMUSG00000042258	0.0	1658816027356.584	6.02839605784106e-13
ENSMUSG00000073705	0.0	1658915613034.6848	6.028034169686796e-13
ENSMUSG00000040310	0.0	1659010223120.5576	6.027690402769336e-13
ENSMUSG00000030544	0.0	1659084917834.4907	6.027419026298203e-13
ENSMUSG00000001656	0.0	1659189494200.5427	6.027039126605825e-13
ENSMUSG00000094504	0.0	1659249254096.9858	6.026822055401378e-13
ENSMUSG00000053552	0.0	1659318975789.7478	6.026568818837578e-13
ENSMUSG00000006720	0.0	1659358817633.9458	6.026424118599524e-13
ENSMUSG00000038253	0.0	1659553055757.366	6.025718771272622e-13
ENSMUSG00000062012	0.0	1659553055757.366	6.025718771272622e-13
ENSMUSG00000048904	0.0	1659632747577.3232	6.02542942985288e-13
ENSMUSG00000039153	0.0	1659896744953.0369	6.024471118703789e-13
ENSMUSG00000024420	0.0	1659996373879.3584	6.02410954466745e-13
ENSMUSG00000074220	0.0	1660081061601.099	6.023802229485888e-13
ENSMUSG00000047371	0.0	1660115933853.1057	6.023675694016225e-13
ENSMUSG00000025821	0.0	1660170734092.942	6.023476859724096e-13
ENSMUSG00000027434	0.0	1660195643691.5283	6.023386483393306e-13
ENSMUSG00000062743	0.0	1660305248885.4082	6.022988849016272e-13
ENSMUSG00000051251	0.0	1660325177620.7483	6.022916555617156e-13
ENSMUSG00000046957	0.0	1660564334883.6719	6.022049125064783e-13
ENSMUSG00000027967	0.0	1660584265692.1719	6.021976846704468e-13
ENSMUSG00000047534	0.0	1660619144990.7893	6.021850362357147e-13
ENSMUSG00000030386	0.0	1660619144990.7893	6.021850362357147e-13
ENSMUSG00000009741	0.0	1660619144990.7893	6.021850362357147e-13
ENSMUSG00000035456	0.0	1660763650145.2563	6.021326393509012e-13
ENSMUSG00000044312	0.0	1660768633231.1318	6.021308326701931e-13
ENSMUSG00000057098	0.0	1660783582548.5662	6.021254126714353e-13
ENSMUSG00000096225	0.0	1660848363960.766	6.021019267618237e-13
ENSMUSG00000074282	0.0	1660853347216.0945	6.021001202039842e-13
ENSMUSG00000034227	0.0	1660888230282.499	6.020874745014665e-13
ENSMUSG00000034057	0.0	1660913147057.5415	6.020784420736213e-13
ENSMUSG00000006587	0.0	1660957997880.6062	6.020621841587848e-13
ENSMUSG00000031738	0.0	1660967964839.8257	6.020585713683131e-13
ENSMUSG00000010476	0.0	1660982915353.4158	6.020531522368037e-13
ENSMUSG00000048385	0.0	1660982915353.4158	6.020531522368037e-13
ENSMUSG00000004328	0.0	1660987898877.8816	6.020513458740866e-13
ENSMUSG00000078302	0.0	1661027767432.4685	6.020368952324913e-13
ENSMUSG00000037279	0.0	1661032751046.6484	6.020350889348093e-13
ENSMUSG00000034460	0.0	1661067636625.0232	6.020224450533585e-13
ENSMUSG00000044542	0.0	1661077604022.8462	6.020188325808324e-13
ENSMUSG00000021469	0.0	1661077604022.8462	6.020188325808324e-13
ENSMUSG00000053297	0.0	1661077604022.8462	6.020188325808324e-13
ENSMUSG00000063535	0.0	1661147376924.065	6.01993546082403e-13
ENSMUSG00000048012	0.0	1661172296290.8596	6.019845155333044e-13
ENSMUSG00000045493	0.0	1661182264107.3572	6.019809033642397e-13
ENSMUSG00000050328	0.0	1661192231963.7302	6.01977291224074e-13
ENSMUSG00000075588	0.0	1661202199859.9763	6.01973679112808e-13
ENSMUSG00000024513	0.0	1661207183823.0532	6.019718730680116e-13
ENSMUSG00000068962	0.0	1661207183823.0532	6.019718730680116e-13
ENSMUSG00000025927	0.0	1661232103787.965	6.019628429524001e-13
ENSMUSG00000056824	0.0	1661247055886.5342	6.019574249697281e-13
ENSMUSG00000036139	0.0	1661247055886.5342	6.019574249697281e-13
ENSMUSG00000066797	0.0	1661247055886.5342	6.019574249697281e-13
ENSMUSG00000045903	0.0	1661266992157.5242	6.019502010939722e-13
ENSMUSG00000023902	0.0	1661341754594.2869	6.019231125893228e-13
ENSMUSG00000040632	0.0	1661346738836.4888	6.019213067468036e-13
ENSMUSG00000045591	0.0	1661361691622.9067	6.019158892625884e-13
ENSMUSG00000074637	0.0	1661381628811.0305	6.019086660514303e-13
ENSMUSG00000047171	0.0	1661391597464.906	6.01905054489192e-13
ENSMUSG00000027102	0.0	1661426488067.4944	6.018924142488907e-13
ENSMUSG00000050197	0.0	1661426488067.4944	6.018924142488907e-13
ENSMUSG00000054931	0.0	1661436456900.8127	6.018888028166699e-13
ENSMUSG00000038630	0.0	1661441441332.4246	6.018869971113944e-13
ENSMUSG00000027833	0.0	1661461379158.5676	6.0187977436252e-13
ENSMUSG00000032496	0.0	1661461379158.5676	6.0187977436252e-13
ENSMUSG00000053909	0.0	1661466363640.0254	6.018779686933588e-13
ENSMUSG00000031079	0.0	1661466363640.0254	6.018779686933588e-13
ENSMUSG00000021362	0.0	1661466363640.0254	6.018779686933588e-13
ENSMUSG00000045519	0.0	1661466363640.0254	6.018779686933588e-13
ENSMUSG00000001655	0.0	1661466363640.0254	6.018779686933588e-13
ENSMUSG00000055202	0.0	1661486301665.5503	6.01870746088941e-13
ENSMUSG00000021359	0.0	1661496270738.1274	6.018671348300682e-13
ENSMUSG00000014704	0.0	1661496270738.1274	6.018671348300682e-13
ENSMUSG00000051038	0.0	1661496270738.1274	6.018671348300682e-13
ENSMUSG00000051367	0.0	1661501255289.3718	6.018653292114649e-13
ENSMUSG00000040726	0.0	1661501255289.3718	6.018653292114649e-13
ENSMUSG00000028023	0.0	1661501255289.3718	6.018653292114649e-13
ENSMUSG00000043456	0.0	1661501255289.3718	6.018653292114649e-13
ENSMUSG00000028417	0.0	1661501255289.3718	6.018653292114649e-13
ENSMUSG00000027938	0.0	1661501255289.3718	6.018653292114649e-13
ENSMUSG00000057173	0.0	1661506239850.5818	6.018635236000855e-13
ENSMUSG00000005267	0.0	1661506239850.5818	6.018635236000855e-13
ENSMUSG00000026735	0.0	1661506239850.5818	6.018635236000855e-13
ENSMUSG00000022286	0.0	1661511224421.7632	6.018617179959278e-13
ENSMUSG00000001566	0.0	1661511224421.7632	6.018617179959278e-13
ENSMUSG00000004872	0.0	1661511224421.7632	6.018617179959278e-13
ENSMUSG00000079038	0.0	1661511224421.7632	6.018617179959278e-13
ENSMUSG00000029736	0.0	1661521193594.0332	6.0185810680928e-13
ENSMUSG00000021848	0.0	1661531162806.1802	6.018544956515217e-13
ENSMUSG00000037138	0.0	1661531162806.1802	6.018544956515217e-13
ENSMUSG00000035946	0.0	1661531162806.1802	6.018544956515217e-13
ENSMUSG00000035033	0.0	1661531162806.1802	6.018544956515217e-13
ENSMUSG00000032446	0.0	1661531162806.1802	6.018544956515217e-13
ENSMUSG00000035923	0.0	1661531162806.1802	6.018544956515217e-13
ENSMUSG00000031374	0.0	1661531162806.1802	6.018544956515217e-13
ENSMUSG00000022053	0.0	1661536147427.2075	6.018526900834761e-13
ENSMUSG00000025529	0.0	1661551101350.1057	6.018472734226726e-13
ENSMUSG00000034551	0.0	1661551101350.1057	6.018472734226726e-13
ENSMUSG00000070495	0.0	1661551101350.1057	6.018472734226726e-13
ENSMUSG00000037984	0.0	1661556086011.0105	6.018454678835159e-13
ENSMUSG00000027544	0.0	1661556086011.0105	6.018454678835159e-13
ENSMUSG00000048349	0.0	1661556086011.0105	6.018454678835159e-13
ENSMUSG00000079560	0.0	1661556086011.0105	6.018454678835159e-13
ENSMUSG00000031326	0.0	1661556086011.0105	6.018454678835159e-13
ENSMUSG00000028341	0.0	1661556086011.0105	6.018454678835159e-13
ENSMUSG00000098022	0.0	1661556086011.0105	6.018454678835159e-13
ENSMUSG00000045802	0.0	1661556086011.0105	6.018454678835159e-13
ENSMUSG00000048686	0.0	1661556086011.0105	6.018454678835159e-13
