	Precision	Recall
0	0.01192368839427663	1.0
1	0.011137629276054098	0.9333333333333333
2	0.011146496815286623	0.9333333333333333
3	0.011155378486055778	0.9333333333333333
4	0.011164274322169059	0.9333333333333333
5	0.0111731843575419	0.9333333333333333
6	0.011182108626198083	0.9333333333333333
7	0.011191047162270184	0.9333333333333333
8	0.0112	0.9333333333333333
9	0.01120896717373899	0.9333333333333333
10	0.011217948717948718	0.9333333333333333
11	0.011226944667201283	0.9333333333333333
12	0.011235955056179775	0.9333333333333333
13	0.011244979919678716	0.9333333333333333
14	0.011254019292604502	0.9333333333333333
15	0.011263073209975865	0.9333333333333333
16	0.011272141706924315	0.9333333333333333
17	0.011281224818694601	0.9333333333333333
18	0.01129032258064516	0.9333333333333333
19	0.011299435028248588	0.9333333333333333
20	0.011308562197092083	0.9333333333333333
21	0.01131770412287793	0.9333333333333333
22	0.011326860841423949	0.9333333333333333
23	0.011336032388663968	0.9333333333333333
24	0.011345218800648298	0.9333333333333333
25	0.0113544201135442	0.9333333333333333
26	0.011363636363636364	0.9333333333333333
27	0.011372867587327376	0.9333333333333333
28	0.011382113821138212	0.9333333333333333
29	0.011391375101708706	0.9333333333333333
30	0.011400651465798045	0.9333333333333333
31	0.011409942950285249	0.9333333333333333
32	0.011419249592169658	0.9333333333333333
33	0.011428571428571429	0.9333333333333333
34	0.011437908496732025	0.9333333333333333
35	0.011447260834014717	0.9333333333333333
36	0.011456628477905073	0.9333333333333333
37	0.011466011466011465	0.9333333333333333
38	0.011475409836065573	0.9333333333333333
39	0.011484823625922888	0.9333333333333333
40	0.011494252873563218	0.9333333333333333
41	0.011503697617091208	0.9333333333333333
42	0.011513157894736841	0.9333333333333333
43	0.011522633744855968	0.9333333333333333
44	0.011532125205930808	0.9333333333333333
45	0.011541632316570486	0.9333333333333333
46	0.01155115511551155	0.9333333333333333
47	0.011560693641618497	0.9333333333333333
48	0.011570247933884297	0.9333333333333333
49	0.011579818031430935	0.9333333333333333
50	0.011589403973509934	0.9333333333333333
51	0.0115990057995029	0.9333333333333333
52	0.011608623548922056	0.9333333333333333
53	0.011618257261410789	0.9333333333333333
54	0.011627906976744186	0.9333333333333333
55	0.011637572734829594	0.9333333333333333
56	0.011647254575707155	0.9333333333333333
57	0.011656952539550375	0.9333333333333333
58	0.011666666666666667	0.9333333333333333
59	0.011676396997497914	0.9333333333333333
60	0.011686143572621035	0.9333333333333333
61	0.011695906432748537	0.9333333333333333
62	0.011705685618729096	0.9333333333333333
63	0.011715481171548118	0.9333333333333333
64	0.011725293132328308	0.9333333333333333
65	0.01173512154233026	0.9333333333333333
66	0.01174496644295302	0.9333333333333333
67	0.011754827875734676	0.9333333333333333
68	0.011764705882352941	0.9333333333333333
69	0.011774600504625737	0.9333333333333333
70	0.011784511784511785	0.9333333333333333
71	0.011794439764111205	0.9333333333333333
72	0.011804384485666104	0.9333333333333333
73	0.01181434599156118	0.9333333333333333
74	0.011824324324324325	0.9333333333333333
75	0.011834319526627219	0.9333333333333333
76	0.011844331641285956	0.9333333333333333
77	0.011854360711261643	0.9333333333333333
78	0.011864406779661017	0.9333333333333333
79	0.011874469889737066	0.9333333333333333
80	0.011884550084889643	0.9333333333333333
81	0.0118946474086661	0.9333333333333333
82	0.011904761904761904	0.9333333333333333
83	0.011914893617021277	0.9333333333333333
84	0.01192504258943782	0.9333333333333333
85	0.011935208866155157	0.9333333333333333
86	0.011945392491467578	0.9333333333333333
87	0.011955593509820665	0.9333333333333333
88	0.011965811965811967	0.9333333333333333
89	0.011976047904191617	0.9333333333333333
90	0.011986301369863013	0.9333333333333333
91	0.011996572407883462	0.9333333333333333
92	0.012006861063464836	0.9333333333333333
93	0.01201716738197425	0.9333333333333333
94	0.012027491408934709	0.9333333333333333
95	0.012037833190025795	0.9333333333333333
96	0.012048192771084338	0.9333333333333333
97	0.012058570198105082	0.9333333333333333
98	0.01206896551724138	0.9333333333333333
99	0.012079378774805867	0.9333333333333333
100	0.012089810017271158	0.9333333333333333
101	0.012100259291270527	0.9333333333333333
102	0.012110726643598616	0.9333333333333333
103	0.012121212121212121	0.9333333333333333
104	0.012131715771230503	0.9333333333333333
105	0.012142237640936688	0.9333333333333333
106	0.012152777777777778	0.9333333333333333
107	0.01216333622936577	0.9333333333333333
108	0.01217391304347826	0.9333333333333333
109	0.012184508268059183	0.9333333333333333
110	0.012195121951219513	0.9333333333333333
111	0.012205754141238012	0.9333333333333333
112	0.012216404886561954	0.9333333333333333
113	0.01222707423580786	0.9333333333333333
114	0.012237762237762238	0.9333333333333333
115	0.012248468941382326	0.9333333333333333
116	0.012259194395796848	0.9333333333333333
117	0.012269938650306749	0.9333333333333333
118	0.012280701754385965	0.9333333333333333
119	0.012291483757682178	0.9333333333333333
120	0.012302284710017574	0.9333333333333333
121	0.012313104661389622	0.9333333333333333
122	0.01232394366197183	0.9333333333333333
123	0.012334801762114538	0.9333333333333333
124	0.012345679012345678	0.9333333333333333
125	0.01235657546337158	0.9333333333333333
126	0.012367491166077738	0.9333333333333333
127	0.01237842617152962	0.9333333333333333
128	0.012389380530973451	0.9333333333333333
129	0.012400354295837024	0.9333333333333333
130	0.012411347517730497	0.9333333333333333
131	0.012422360248447204	0.9333333333333333
132	0.012433392539964476	0.9333333333333333
133	0.012444444444444444	0.9333333333333333
134	0.012455516014234875	0.9333333333333333
135	0.012466607301869992	0.9333333333333333
136	0.012477718360071301	0.9333333333333333
137	0.012488849241748439	0.9333333333333333
138	0.0125	0.9333333333333333
139	0.012511170688114389	0.9333333333333333
140	0.012522361359570662	0.9333333333333333
141	0.012533572068039392	0.9333333333333333
142	0.012544802867383513	0.9333333333333333
143	0.012556053811659192	0.9333333333333333
144	0.012567324955116697	0.9333333333333333
145	0.012578616352201259	0.9333333333333333
146	0.012589928057553957	0.9333333333333333
147	0.012601260126012601	0.9333333333333333
148	0.012612612612612612	0.9333333333333333
149	0.012623985572587917	0.9333333333333333
150	0.01263537906137184	0.9333333333333333
151	0.012646793134598013	0.9333333333333333
152	0.012658227848101266	0.9333333333333333
153	0.012669683257918552	0.9333333333333333
154	0.012681159420289856	0.9333333333333333
155	0.012692656391659111	0.9333333333333333
156	0.012704174228675136	0.9333333333333333
157	0.012715712988192553	0.9333333333333333
158	0.012727272727272728	0.9333333333333333
159	0.012738853503184714	0.9333333333333333
160	0.012750455373406194	0.9333333333333333
161	0.01276207839562443	0.9333333333333333
162	0.012773722627737226	0.9333333333333333
163	0.012785388127853882	0.9333333333333333
164	0.012797074954296161	0.9333333333333333
165	0.012808783165599268	0.9333333333333333
166	0.01282051282051282	0.9333333333333333
167	0.012832263978001834	0.9333333333333333
168	0.012844036697247707	0.9333333333333333
169	0.012855831037649219	0.9333333333333333
170	0.012867647058823529	0.9333333333333333
171	0.012879484820607176	0.9333333333333333
172	0.01289134438305709	0.9333333333333333
173	0.012903225806451613	0.9333333333333333
174	0.012915129151291513	0.9333333333333333
175	0.012927054478301015	0.9333333333333333
176	0.012939001848428836	0.9333333333333333
177	0.012950971322849213	0.9333333333333333
178	0.012962962962962963	0.9333333333333333
179	0.012974976830398516	0.9333333333333333
180	0.012987012987012988	0.9333333333333333
181	0.012999071494893221	0.9333333333333333
182	0.013011152416356878	0.9333333333333333
183	0.013023255813953489	0.9333333333333333
184	0.01303538175046555	0.9333333333333333
185	0.0130475302889096	0.9333333333333333
186	0.013059701492537313	0.9333333333333333
187	0.013071895424836602	0.9333333333333333
188	0.013084112149532711	0.9333333333333333
189	0.013096351730589336	0.9333333333333333
190	0.013108614232209739	0.9333333333333333
191	0.013120899718837863	0.9333333333333333
192	0.013133208255159476	0.9333333333333333
193	0.013145539906103286	0.9333333333333333
194	0.013157894736842105	0.9333333333333333
195	0.01317027281279398	0.9333333333333333
196	0.013182674199623353	0.9333333333333333
197	0.013195098963242224	0.9333333333333333
198	0.013207547169811321	0.9333333333333333
199	0.013220018885741265	0.9333333333333333
200	0.013232514177693762	0.9333333333333333
201	0.013245033112582781	0.9333333333333333
202	0.013257575757575758	0.9333333333333333
203	0.013270142180094787	0.9333333333333333
204	0.013282732447817837	0.9333333333333333
205	0.013295346628679962	0.9333333333333333
206	0.013307984790874524	0.9333333333333333
207	0.013320647002854425	0.9333333333333333
208	0.013333333333333334	0.9333333333333333
209	0.01334604385128694	0.9333333333333333
210	0.013358778625954198	0.9333333333333333
211	0.013371537726838587	0.9333333333333333
212	0.01338432122370937	0.9333333333333333
213	0.013397129186602871	0.9333333333333333
214	0.013409961685823755	0.9333333333333333
215	0.013422818791946308	0.9333333333333333
216	0.013435700575815739	0.9333333333333333
217	0.013448607108549471	0.9333333333333333
218	0.013461538461538462	0.9333333333333333
219	0.013474494706448507	0.9333333333333333
220	0.01348747591522158	0.9333333333333333
221	0.013500482160077145	0.9333333333333333
222	0.013513513513513514	0.9333333333333333
223	0.01352657004830918	0.9333333333333333
224	0.013539651837524178	0.9333333333333333
225	0.013552758954501452	0.9333333333333333
226	0.013565891472868217	0.9333333333333333
227	0.013579049466537343	0.9333333333333333
228	0.013592233009708738	0.9333333333333333
229	0.013605442176870748	0.9333333333333333
230	0.013618677042801557	0.9333333333333333
231	0.013631937682570594	0.9333333333333333
232	0.01364522417153996	0.9333333333333333
233	0.013658536585365854	0.9333333333333333
234	0.013671875	0.9333333333333333
235	0.013685239491691105	0.9333333333333333
236	0.0136986301369863	0.9333333333333333
237	0.013712047012732615	0.9333333333333333
238	0.013725490196078431	0.9333333333333333
239	0.013738959764474975	0.9333333333333333
240	0.0137524557956778	0.9333333333333333
241	0.01376597836774828	0.9333333333333333
242	0.013779527559055118	0.9333333333333333
243	0.013793103448275862	0.9333333333333333
244	0.013806706114398421	0.9333333333333333
245	0.013820335636722606	0.9333333333333333
246	0.01383399209486166	0.9333333333333333
247	0.013847675568743818	0.9333333333333333
248	0.013861386138613862	0.9333333333333333
249	0.013875123885034688	0.9333333333333333
250	0.012896825396825396	0.8666666666666667
251	0.012909632571996028	0.8666666666666667
252	0.012922465208747515	0.8666666666666667
253	0.012935323383084577	0.8666666666666667
254	0.012948207171314742	0.8666666666666667
255	0.01296111665004985	0.8666666666666667
256	0.012974051896207584	0.8666666666666667
257	0.012987012987012988	0.8666666666666667
258	0.013	0.8666666666666667
259	0.013013013013013013	0.8666666666666667
260	0.013026052104208416	0.8666666666666667
261	0.013039117352056168	0.8666666666666667
262	0.013052208835341365	0.8666666666666667
263	0.01306532663316583	0.8666666666666667
264	0.013078470824949699	0.8666666666666667
265	0.013091641490433032	0.8666666666666667
266	0.01310483870967742	0.8666666666666667
267	0.013118062563067608	0.8666666666666667
268	0.013131313131313131	0.8666666666666667
269	0.01314459049544995	0.8666666666666667
270	0.013157894736842105	0.8666666666666667
271	0.013171225937183385	0.8666666666666667
272	0.013184584178498986	0.8666666666666667
273	0.013197969543147208	0.8666666666666667
274	0.013211382113821139	0.8666666666666667
275	0.013224821973550356	0.8666666666666667
276	0.013238289205702648	0.8666666666666667
277	0.013251783893985729	0.8666666666666667
278	0.013265306122448979	0.8666666666666667
279	0.013278855975485188	0.8666666666666667
280	0.013292433537832311	0.8666666666666667
281	0.01330603889457523	0.8666666666666667
282	0.01331967213114754	0.8666666666666667
283	0.013333333333333334	0.8666666666666667
284	0.013347022587268994	0.8666666666666667
285	0.013360739979445015	0.8666666666666667
286	0.013374485596707819	0.8666666666666667
287	0.013388259526261586	0.8666666666666667
288	0.013402061855670102	0.8666666666666667
289	0.013415892672858616	0.8666666666666667
290	0.013429752066115703	0.8666666666666667
291	0.01344364012409514	0.8666666666666667
292	0.013457556935817806	0.8666666666666667
293	0.013471502590673576	0.8666666666666667
294	0.013485477178423237	0.8666666666666667
295	0.013499480789200415	0.8666666666666667
296	0.013513513513513514	0.8666666666666667
297	0.013527575442247659	0.8666666666666667
298	0.013541666666666667	0.8666666666666667
299	0.013555787278415016	0.8666666666666667
300	0.013569937369519834	0.8666666666666667
301	0.013584117032392894	0.8666666666666667
302	0.013598326359832637	0.8666666666666667
303	0.013612565445026177	0.8666666666666667
304	0.013626834381551363	0.8666666666666667
305	0.013641133263378805	0.8666666666666667
306	0.01365546218487395	0.8666666666666667
307	0.013669821240799159	0.8666666666666667
308	0.01368421052631579	0.8666666666666667
309	0.0136986301369863	0.8666666666666667
310	0.013713080168776372	0.8666666666666667
311	0.013727560718057022	0.8666666666666667
312	0.013742071881606765	0.8666666666666667
313	0.013756613756613757	0.8666666666666667
314	0.013771186440677966	0.8666666666666667
315	0.013785790031813362	0.8666666666666667
316	0.013800424628450107	0.8666666666666667
317	0.01381509032943677	0.8666666666666667
318	0.013829787234042552	0.8666666666666667
319	0.013844515441959531	0.8666666666666667
320	0.013859275053304905	0.8666666666666667
321	0.013874066168623266	0.8666666666666667
322	0.013888888888888888	0.8666666666666667
323	0.013903743315508022	0.8666666666666667
324	0.013918629550321198	0.8666666666666667
325	0.013933547695605574	0.8666666666666667
326	0.013948497854077254	0.8666666666666667
327	0.013963480128893663	0.8666666666666667
328	0.013978494623655914	0.8666666666666667
329	0.013993541442411194	0.8666666666666667
330	0.014008620689655173	0.8666666666666667
331	0.014023732470334413	0.8666666666666667
332	0.014038876889848811	0.8666666666666667
333	0.014054054054054054	0.8666666666666667
334	0.01406926406926407	0.8666666666666667
335	0.014084507042253521	0.8666666666666667
336	0.014099783080260303	0.8666666666666667
337	0.014115092290988056	0.8666666666666667
338	0.014130434782608696	0.8666666666666667
339	0.014145810663764961	0.8666666666666667
340	0.014161220043572984	0.8666666666666667
341	0.014176663031624863	0.8666666666666667
342	0.014192139737991267	0.8666666666666667
343	0.014207650273224045	0.8666666666666667
344	0.014223194748358862	0.8666666666666667
345	0.014238773274917854	0.8666666666666667
346	0.01425438596491228	0.8666666666666667
347	0.014270032930845226	0.8666666666666667
348	0.014285714285714285	0.8666666666666667
349	0.014301430143014302	0.8666666666666667
350	0.014317180616740088	0.8666666666666667
351	0.014332965821389196	0.8666666666666667
352	0.01434878587196468	0.8666666666666667
353	0.014364640883977901	0.8666666666666667
354	0.014380530973451327	0.8666666666666667
355	0.014396456256921373	0.8666666666666667
356	0.014412416851441241	0.8666666666666667
357	0.014428412874583796	0.8666666666666667
358	0.014444444444444444	0.8666666666666667
359	0.014460511679644048	0.8666666666666667
360	0.014476614699331848	0.8666666666666667
361	0.014492753623188406	0.8666666666666667
362	0.014508928571428572	0.8666666666666667
363	0.01452513966480447	0.8666666666666667
364	0.0145413870246085	0.8666666666666667
365	0.014557670772676373	0.8666666666666667
366	0.014573991031390135	0.8666666666666667
367	0.014590347923681257	0.8666666666666667
368	0.014606741573033709	0.8666666666666667
369	0.014623172103487065	0.8666666666666667
370	0.01463963963963964	0.8666666666666667
371	0.014656144306651634	0.8666666666666667
372	0.014672686230248307	0.8666666666666667
373	0.014689265536723164	0.8666666666666667
374	0.014705882352941176	0.8666666666666667
375	0.014722536806342015	0.8666666666666667
376	0.01473922902494331	0.8666666666666667
377	0.014755959137343927	0.8666666666666667
378	0.014772727272727272	0.8666666666666667
379	0.01478953356086462	0.8666666666666667
380	0.014806378132118452	0.8666666666666667
381	0.014823261117445839	0.8666666666666667
382	0.014840182648401826	0.8666666666666667
383	0.014857142857142857	0.8666666666666667
384	0.014874141876430207	0.8666666666666667
385	0.014891179839633447	0.8666666666666667
386	0.014908256880733946	0.8666666666666667
387	0.014925373134328358	0.8666666666666667
388	0.014942528735632184	0.8666666666666667
389	0.014959723820483314	0.8666666666666667
390	0.014976958525345621	0.8666666666666667
391	0.014994232987312572	0.8666666666666667
392	0.015011547344110854	0.8666666666666667
393	0.015028901734104046	0.8666666666666667
394	0.015046296296296295	0.8666666666666667
395	0.015063731170336037	0.8666666666666667
396	0.015081206496519721	0.8666666666666667
397	0.015098722415795587	0.8666666666666667
398	0.015116279069767442	0.8666666666666667
399	0.015133876600698487	0.8666666666666667
400	0.015151515151515152	0.8666666666666667
401	0.015169194865810968	0.8666666666666667
402	0.015186915887850467	0.8666666666666667
403	0.0152046783625731	0.8666666666666667
404	0.01522248243559719	0.8666666666666667
405	0.015240328253223915	0.8666666666666667
406	0.015258215962441314	0.8666666666666667
407	0.01527614571092832	0.8666666666666667
408	0.015294117647058824	0.8666666666666667
409	0.015312131919905771	0.8666666666666667
410	0.015330188679245283	0.8666666666666667
411	0.015348288075560802	0.8666666666666667
412	0.015366430260047281	0.8666666666666667
413	0.015384615384615385	0.8666666666666667
414	0.015402843601895734	0.8666666666666667
415	0.01542111506524318	0.8666666666666667
416	0.015439429928741092	0.8666666666666667
417	0.015457788347205707	0.8666666666666667
418	0.015476190476190477	0.8666666666666667
419	0.015494636471990465	0.8666666666666667
420	0.015513126491646777	0.8666666666666667
421	0.015531660692951015	0.8666666666666667
422	0.01555023923444976	0.8666666666666667
423	0.015568862275449102	0.8666666666666667
424	0.015587529976019185	0.8666666666666667
425	0.015606242496998799	0.8666666666666667
426	0.015625	0.8666666666666667
427	0.015643802647412757	0.8666666666666667
428	0.01566265060240964	0.8666666666666667
429	0.015681544028950542	0.8666666666666667
430	0.01570048309178744	0.8666666666666667
431	0.015719467956469165	0.8666666666666667
432	0.015738498789346248	0.8666666666666667
433	0.01575757575757576	0.8666666666666667
434	0.015776699029126214	0.8666666666666667
435	0.015795868772782502	0.8666666666666667
436	0.015815085158150853	0.8666666666666667
437	0.015834348355663823	0.8666666666666667
438	0.015853658536585366	0.8666666666666667
439	0.015873015873015872	0.8666666666666667
440	0.01589242053789731	0.8666666666666667
441	0.01591187270501836	0.8666666666666667
442	0.015931372549019607	0.8666666666666667
443	0.015950920245398775	0.8666666666666667
444	0.01597051597051597	0.8666666666666667
445	0.015990159901599015	0.8666666666666667
446	0.01600985221674877	0.8666666666666667
447	0.016029593094944512	0.8666666666666667
448	0.016049382716049384	0.8666666666666667
449	0.016069221260815822	0.8666666666666667
450	0.01608910891089109	0.8666666666666667
451	0.0161090458488228	0.8666666666666667
452	0.016129032258064516	0.8666666666666667
453	0.016149068322981366	0.8666666666666667
454	0.01616915422885572	0.8666666666666667
455	0.0161892901618929	0.8666666666666667
456	0.016209476309226933	0.8666666666666667
457	0.016229712858926344	0.8666666666666667
458	0.01625	0.8666666666666667
459	0.016270337922403004	0.8666666666666667
460	0.016290726817042606	0.8666666666666667
461	0.01631116687578419	0.8666666666666667
462	0.016331658291457288	0.8666666666666667
463	0.016352201257861635	0.8666666666666667
464	0.0163727959697733	0.8666666666666667
465	0.01639344262295082	0.8666666666666667
466	0.016414141414141416	0.8666666666666667
467	0.01643489254108723	0.8666666666666667
468	0.016455696202531647	0.8666666666666667
469	0.016476552598225603	0.8666666666666667
470	0.01649746192893401	0.8666666666666667
471	0.016518424396442185	0.8666666666666667
472	0.01653944020356234	0.8666666666666667
473	0.016560509554140127	0.8666666666666667
474	0.016581632653061226	0.8666666666666667
475	0.016602809706257982	0.8666666666666667
476	0.016624040920716114	0.8666666666666667
477	0.016645326504481434	0.8666666666666667
478	0.016666666666666666	0.8666666666666667
479	0.01668806161745828	0.8666666666666667
480	0.016709511568123392	0.8666666666666667
481	0.01673101673101673	0.8666666666666667
482	0.01675257731958763	0.8666666666666667
483	0.016774193548387096	0.8666666666666667
484	0.016795865633074936	0.8666666666666667
485	0.016817593790426907	0.8666666666666667
486	0.01683937823834197	0.8666666666666667
487	0.016861219195849545	0.8666666666666667
488	0.016883116883116882	0.8666666666666667
489	0.016905071521456438	0.8666666666666667
490	0.016927083333333332	0.8666666666666667
491	0.01694915254237288	0.8666666666666667
492	0.016971279373368148	0.8666666666666667
493	0.01699346405228758	0.8666666666666667
494	0.017015706806282723	0.8666666666666667
495	0.01703800786369594	0.8666666666666667
496	0.01706036745406824	0.8666666666666667
497	0.017082785808147174	0.8666666666666667
498	0.017105263157894738	0.8666666666666667
499	0.017127799736495388	0.8666666666666667
500	0.017150395778364115	0.8666666666666667
501	0.017173051519154558	0.8666666666666667
502	0.017195767195767195	0.8666666666666667
503	0.017218543046357615	0.8666666666666667
504	0.017241379310344827	0.8666666666666667
505	0.017264276228419653	0.8666666666666667
506	0.017287234042553192	0.8666666666666667
507	0.017310252996005325	0.8666666666666667
508	0.017333333333333333	0.8666666666666667
509	0.017356475300400534	0.8666666666666667
510	0.017379679144385027	0.8666666666666667
511	0.01740294511378849	0.8666666666666667
512	0.01742627345844504	0.8666666666666667
513	0.0174496644295302	0.8666666666666667
514	0.01747311827956989	0.8666666666666667
515	0.017496635262449527	0.8666666666666667
516	0.01752021563342318	0.8666666666666667
517	0.017543859649122806	0.8666666666666667
518	0.01756756756756757	0.8666666666666667
519	0.017591339648173207	0.8666666666666667
520	0.017615176151761516	0.8666666666666667
521	0.017639077340569877	0.8666666666666667
522	0.017663043478260868	0.8666666666666667
523	0.017687074829931974	0.8666666666666667
524	0.017711171662125342	0.8666666666666667
525	0.017735334242837655	0.8666666666666667
526	0.017759562841530054	0.8666666666666667
527	0.017783857729138167	0.8666666666666667
528	0.01780821917808219	0.8666666666666667
529	0.01783264746227709	0.8666666666666667
530	0.017857142857142856	0.8666666666666667
531	0.017881705639614855	0.8666666666666667
532	0.01790633608815427	0.8666666666666667
533	0.01793103448275862	0.8666666666666667
534	0.017955801104972375	0.8666666666666667
535	0.017980636237897647	0.8666666666666667
536	0.018005540166204988	0.8666666666666667
537	0.018030513176144243	0.8666666666666667
538	0.018055555555555554	0.8666666666666667
539	0.01808066759388039	0.8666666666666667
540	0.018105849582172703	0.8666666666666667
541	0.01813110181311018	0.8666666666666667
542	0.018156424581005588	0.8666666666666667
543	0.01818181818181818	0.8666666666666667
544	0.018207282913165267	0.8666666666666667
545	0.0182328190743338	0.8666666666666667
546	0.018258426966292134	0.8666666666666667
547	0.01828410689170183	0.8666666666666667
548	0.018309859154929577	0.8666666666666667
549	0.018335684062059238	0.8666666666666667
550	0.018361581920903956	0.8666666666666667
551	0.018387553041018388	0.8666666666666667
552	0.018413597733711047	0.8666666666666667
553	0.018439716312056736	0.8666666666666667
554	0.018465909090909092	0.8666666666666667
555	0.01849217638691323	0.8666666666666667
556	0.018518518518518517	0.8666666666666667
557	0.018544935805991442	0.8666666666666667
558	0.018571428571428572	0.8666666666666667
559	0.01859799713876967	0.8666666666666667
560	0.01862464183381089	0.8666666666666667
561	0.018651362984218076	0.8666666666666667
562	0.01867816091954023	0.8666666666666667
563	0.01870503597122302	0.8666666666666667
564	0.018731988472622477	0.8666666666666667
565	0.01875901875901876	0.8666666666666667
566	0.01878612716763006	0.8666666666666667
567	0.01881331403762663	0.8666666666666667
568	0.01884057971014493	0.8666666666666667
569	0.018867924528301886	0.8666666666666667
570	0.0188953488372093	0.8666666666666667
571	0.018922852983988356	0.8666666666666667
572	0.018950437317784258	0.8666666666666667
573	0.01897810218978102	0.8666666666666667
574	0.019005847953216373	0.8666666666666667
575	0.01903367496339678	0.8666666666666667
576	0.01906158357771261	0.8666666666666667
577	0.01908957415565345	0.8666666666666667
578	0.01911764705882353	0.8666666666666667
579	0.01914580265095729	0.8666666666666667
580	0.019174041297935103	0.8666666666666667
581	0.019202363367799114	0.8666666666666667
582	0.019230769230769232	0.8666666666666667
583	0.01925925925925926	0.8666666666666667
584	0.019287833827893175	0.8666666666666667
585	0.019316493313521546	0.8666666666666667
586	0.019345238095238096	0.8666666666666667
587	0.019374068554396422	0.8666666666666667
588	0.019402985074626865	0.8666666666666667
589	0.01943198804185351	0.8666666666666667
590	0.019461077844311378	0.8666666666666667
591	0.019490254872563718	0.8666666666666667
592	0.01951951951951952	0.8666666666666667
593	0.019548872180451128	0.8666666666666667
594	0.01957831325301205	0.8666666666666667
595	0.0196078431372549	0.8666666666666667
596	0.019637462235649546	0.8666666666666667
597	0.019667170953101363	0.8666666666666667
598	0.019696969696969695	0.8666666666666667
599	0.019726858877086494	0.8666666666666667
600	0.019756838905775075	0.8666666666666667
601	0.0197869101978691	0.8666666666666667
602	0.019817073170731708	0.8666666666666667
603	0.01984732824427481	0.8666666666666667
604	0.019877675840978593	0.8666666666666667
605	0.019908116385911178	0.8666666666666667
606	0.019938650306748466	0.8666666666666667
607	0.019969278033794162	0.8666666666666667
608	0.02	0.8666666666666667
609	0.020030816640986132	0.8666666666666667
610	0.020061728395061727	0.8666666666666667
611	0.02009273570324575	0.8666666666666667
612	0.020123839009287926	0.8666666666666667
613	0.020155038759689922	0.8666666666666667
614	0.020186335403726708	0.8666666666666667
615	0.02021772939346812	0.8666666666666667
616	0.020249221183800622	0.8666666666666667
617	0.0202808112324493	0.8666666666666667
618	0.0203125	0.8666666666666667
619	0.02034428794992175	0.8666666666666667
620	0.02037617554858934	0.8666666666666667
621	0.02040816326530612	0.8666666666666667
622	0.020440251572327043	0.8666666666666667
623	0.02047244094488189	0.8666666666666667
624	0.02050473186119874	0.8666666666666667
625	0.020537124802527645	0.8666666666666667
626	0.020569620253164556	0.8666666666666667
627	0.020602218700475437	0.8666666666666667
628	0.020634920634920634	0.8666666666666667
629	0.02066772655007949	0.8666666666666667
630	0.020700636942675158	0.8666666666666667
631	0.02073365231259968	0.8666666666666667
632	0.020766773162939296	0.8666666666666667
633	0.0208	0.8666666666666667
634	0.020833333333333332	0.8666666666666667
635	0.02086677367576244	0.8666666666666667
636	0.02090032154340836	0.8666666666666667
637	0.020933977455716585	0.8666666666666667
638	0.020967741935483872	0.8666666666666667
639	0.0210016155088853	0.8666666666666667
640	0.021035598705501618	0.8666666666666667
641	0.02106969205834684	0.8666666666666667
642	0.021103896103896104	0.8666666666666667
643	0.02113821138211382	0.8666666666666667
644	0.021172638436482084	0.8666666666666667
645	0.021207177814029365	0.8666666666666667
646	0.021241830065359478	0.8666666666666667
647	0.02127659574468085	0.8666666666666667
648	0.021311475409836064	0.8666666666666667
649	0.021346469622331693	0.8666666666666667
650	0.02138157894736842	0.8666666666666667
651	0.0214168039538715	0.8666666666666667
652	0.02145214521452145	0.8666666666666667
653	0.021487603305785124	0.8666666666666667
654	0.02152317880794702	0.8666666666666667
655	0.02155887230514096	0.8666666666666667
656	0.02159468438538206	0.8666666666666667
657	0.021630615640599003	0.8666666666666667
658	0.021666666666666667	0.8666666666666667
659	0.021702838063439065	0.8666666666666667
660	0.021739130434782608	0.8666666666666667
661	0.021775544388609715	0.8666666666666667
662	0.02181208053691275	0.8666666666666667
663	0.021848739495798318	0.8666666666666667
664	0.021885521885521887	0.8666666666666667
665	0.021922428330522766	0.8666666666666667
666	0.02195945945945946	0.8666666666666667
667	0.021996615905245348	0.8666666666666667
668	0.022033898305084745	0.8666666666666667
669	0.022071307300509338	0.8666666666666667
670	0.022108843537414966	0.8666666666666667
671	0.022146507666098807	0.8666666666666667
672	0.02218430034129693	0.8666666666666667
673	0.022222222222222223	0.8666666666666667
674	0.02226027397260274	0.8666666666666667
675	0.022298456260720412	0.8666666666666667
676	0.022336769759450172	0.8666666666666667
677	0.022375215146299483	0.8666666666666667
678	0.022413793103448276	0.8666666666666667
679	0.022452504317789293	0.8666666666666667
680	0.02249134948096886	0.8666666666666667
681	0.022530329289428077	0.8666666666666667
682	0.022569444444444444	0.8666666666666667
683	0.022608695652173914	0.8666666666666667
684	0.02264808362369338	0.8666666666666667
685	0.02268760907504363	0.8666666666666667
686	0.022727272727272728	0.8666666666666667
687	0.02276707530647986	0.8666666666666667
688	0.02280701754385965	0.8666666666666667
689	0.022847100175746926	0.8666666666666667
690	0.022887323943661973	0.8666666666666667
691	0.02292768959435626	0.8666666666666667
692	0.022968197879858657	0.8666666666666667
693	0.023008849557522124	0.8666666666666667
694	0.02304964539007092	0.8666666666666667
695	0.023090586145648313	0.8666666666666667
696	0.023131672597864767	0.8666666666666667
697	0.023172905525846704	0.8666666666666667
698	0.023214285714285715	0.8666666666666667
699	0.023255813953488372	0.8666666666666667
700	0.023297491039426525	0.8666666666666667
701	0.02333931777378815	0.8666666666666667
702	0.023381294964028777	0.8666666666666667
703	0.023423423423423424	0.8666666666666667
704	0.023465703971119134	0.8666666666666667
705	0.023508137432188065	0.8666666666666667
706	0.02355072463768116	0.8666666666666667
707	0.023593466424682397	0.8666666666666667
708	0.023636363636363636	0.8666666666666667
709	0.023679417122040074	0.8666666666666667
710	0.023722627737226276	0.8666666666666667
711	0.02376599634369287	0.8666666666666667
712	0.023809523809523808	0.8666666666666667
713	0.023853211009174313	0.8666666666666667
714	0.02389705882352941	0.8666666666666667
715	0.02394106813996317	0.8666666666666667
716	0.023985239852398525	0.8666666666666667
717	0.024029574861367836	0.8666666666666667
718	0.024074074074074074	0.8666666666666667
719	0.02411873840445269	0.8666666666666667
720	0.024163568773234202	0.8666666666666667
721	0.024208566108007448	0.8666666666666667
722	0.024253731343283583	0.8666666666666667
723	0.024299065420560748	0.8666666666666667
724	0.024344569288389514	0.8666666666666667
725	0.024390243902439025	0.8666666666666667
726	0.02443609022556391	0.8666666666666667
727	0.02448210922787194	0.8666666666666667
728	0.024528301886792454	0.8666666666666667
729	0.024574669187145556	0.8666666666666667
730	0.02462121212121212	0.8666666666666667
731	0.024667931688804556	0.8666666666666667
732	0.024714828897338403	0.8666666666666667
733	0.024761904761904763	0.8666666666666667
734	0.02480916030534351	0.8666666666666667
735	0.0248565965583174	0.8666666666666667
736	0.02490421455938697	0.8666666666666667
737	0.02495201535508637	0.8666666666666667
738	0.025	0.8666666666666667
739	0.025048169556840076	0.8666666666666667
740	0.025096525096525095	0.8666666666666667
741	0.025145067698259187	0.8666666666666667
742	0.025193798449612403	0.8666666666666667
743	0.02524271844660194	0.8666666666666667
744	0.02529182879377432	0.8666666666666667
745	0.025341130604288498	0.8666666666666667
746	0.025390625	0.8666666666666667
747	0.025440313111545987	0.8666666666666667
748	0.025490196078431372	0.8666666666666667
749	0.025540275049115914	0.8666666666666667
750	0.025590551181102362	0.8666666666666667
751	0.02564102564102564	0.8666666666666667
752	0.025691699604743084	0.8666666666666667
753	0.02574257425742574	0.8666666666666667
754	0.025793650793650792	0.8666666666666667
755	0.02584493041749503	0.8666666666666667
756	0.025896414342629483	0.8666666666666667
757	0.02594810379241517	0.8666666666666667
758	0.026	0.8666666666666667
759	0.026052104208416832	0.8666666666666667
760	0.02610441767068273	0.8666666666666667
761	0.026156941649899398	0.8666666666666667
762	0.02620967741935484	0.8666666666666667
763	0.026262626262626262	0.8666666666666667
764	0.02631578947368421	0.8666666666666667
765	0.02636916835699797	0.8666666666666667
766	0.026422764227642278	0.8666666666666667
767	0.026476578411405296	0.8666666666666667
768	0.026530612244897958	0.8666666666666667
769	0.026584867075664622	0.8666666666666667
770	0.02663934426229508	0.8666666666666667
771	0.026694045174537988	0.8666666666666667
772	0.026748971193415638	0.8666666666666667
773	0.026804123711340205	0.8666666666666667
774	0.026859504132231406	0.8666666666666667
775	0.026915113871635612	0.8666666666666667
776	0.026970954356846474	0.8666666666666667
777	0.02702702702702703	0.8666666666666667
778	0.027083333333333334	0.8666666666666667
779	0.027139874739039668	0.8666666666666667
780	0.027196652719665274	0.8666666666666667
781	0.027253668763102725	0.8666666666666667
782	0.0273109243697479	0.8666666666666667
783	0.02736842105263158	0.8666666666666667
784	0.027426160337552744	0.8666666666666667
785	0.02748414376321353	0.8666666666666667
786	0.02754237288135593	0.8666666666666667
787	0.027600849256900213	0.8666666666666667
788	0.027659574468085105	0.8666666666666667
789	0.02771855010660981	0.8666666666666667
790	0.027777777777777776	0.8666666666666667
791	0.027837259100642397	0.8666666666666667
792	0.027896995708154508	0.8666666666666667
793	0.02795698924731183	0.8666666666666667
794	0.028017241379310345	0.8666666666666667
795	0.028077753779697623	0.8666666666666667
796	0.02813852813852814	0.8666666666666667
797	0.028199566160520606	0.8666666666666667
798	0.02826086956521739	0.8666666666666667
799	0.02832244008714597	0.8666666666666667
800	0.028384279475982533	0.8666666666666667
801	0.028446389496717725	0.8666666666666667
802	0.02850877192982456	0.8666666666666667
803	0.02857142857142857	0.8666666666666667
804	0.028634361233480177	0.8666666666666667
805	0.02869757174392936	0.8666666666666667
806	0.028761061946902654	0.8666666666666667
807	0.028824833702882482	0.8666666666666667
808	0.028888888888888888	0.8666666666666667
809	0.028953229398663696	0.8666666666666667
810	0.029017857142857144	0.8666666666666667
811	0.029082774049217	0.8666666666666667
812	0.02914798206278027	0.8666666666666667
813	0.029213483146067417	0.8666666666666667
814	0.02927927927927928	0.8666666666666667
815	0.029345372460496615	0.8666666666666667
816	0.029411764705882353	0.8666666666666667
817	0.02947845804988662	0.8666666666666667
818	0.029545454545454545	0.8666666666666667
819	0.029612756264236904	0.8666666666666667
820	0.02968036529680365	0.8666666666666667
821	0.029748283752860413	0.8666666666666667
822	0.02981651376146789	0.8666666666666667
823	0.029885057471264367	0.8666666666666667
824	0.029953917050691243	0.8666666666666667
825	0.03002309468822171	0.8666666666666667
826	0.03009259259259259	0.8666666666666667
827	0.030162412993039442	0.8666666666666667
828	0.030232558139534883	0.8666666666666667
829	0.030303030303030304	0.8666666666666667
830	0.030373831775700934	0.8666666666666667
831	0.03044496487119438	0.8666666666666667
832	0.03051643192488263	0.8666666666666667
833	0.03058823529411765	0.8666666666666667
834	0.030660377358490566	0.8666666666666667
835	0.030732860520094562	0.8666666666666667
836	0.030805687203791468	0.8666666666666667
837	0.030878859857482184	0.8666666666666667
838	0.030952380952380953	0.8666666666666667
839	0.031026252983293555	0.8666666666666667
840	0.03110047846889952	0.8666666666666667
841	0.03117505995203837	0.8666666666666667
842	0.03125	0.8666666666666667
843	0.03132530120481928	0.8666666666666667
844	0.03140096618357488	0.8666666666666667
845	0.031476997578692496	0.8666666666666667
846	0.03155339805825243	0.8666666666666667
847	0.031630170316301706	0.8666666666666667
848	0.03170731707317073	0.8666666666666667
849	0.03178484107579462	0.8666666666666667
850	0.031862745098039214	0.8666666666666667
851	0.03194103194103194	0.8666666666666667
852	0.03201970443349754	0.8666666666666667
853	0.03209876543209877	0.8666666666666667
854	0.03217821782178218	0.8666666666666667
855	0.03225806451612903	0.8666666666666667
856	0.03233830845771144	0.8666666666666667
857	0.032418952618453865	0.8666666666666667
858	0.0325	0.8666666666666667
859	0.03258145363408521	0.8666666666666667
860	0.032663316582914576	0.8666666666666667
861	0.0327455919395466	0.8666666666666667
862	0.03282828282828283	0.8666666666666667
863	0.03291139240506329	0.8666666666666667
864	0.03299492385786802	0.8666666666666667
865	0.03307888040712468	0.8666666666666667
866	0.03316326530612245	0.8666666666666667
867	0.03324808184143223	0.8666666666666667
868	0.03333333333333333	0.8666666666666667
869	0.033419023136246784	0.8666666666666667
870	0.03350515463917526	0.8666666666666667
871	0.03359173126614987	0.8666666666666667
872	0.03367875647668394	0.8666666666666667
873	0.033766233766233764	0.8666666666666667
874	0.033854166666666664	0.8666666666666667
875	0.033942558746736295	0.8666666666666667
876	0.034031413612565446	0.8666666666666667
877	0.03412073490813648	0.8666666666666667
878	0.034210526315789476	0.8666666666666667
879	0.03430079155672823	0.8666666666666667
880	0.03439153439153439	0.8666666666666667
881	0.034482758620689655	0.8666666666666667
882	0.034574468085106384	0.8666666666666667
883	0.034666666666666665	0.8666666666666667
884	0.034759358288770054	0.8666666666666667
885	0.03485254691689008	0.8666666666666667
886	0.03494623655913978	0.8666666666666667
887	0.03504043126684636	0.8666666666666667
888	0.03513513513513514	0.8666666666666667
889	0.03523035230352303	0.8666666666666667
890	0.035326086956521736	0.8666666666666667
891	0.035422343324250684	0.8666666666666667
892	0.03551912568306011	0.8666666666666667
893	0.03561643835616438	0.8666666666666667
894	0.03571428571428571	0.8666666666666667
895	0.03581267217630854	0.8666666666666667
896	0.03591160220994475	0.8666666666666667
897	0.036011080332409975	0.8666666666666667
898	0.03611111111111111	0.8666666666666667
899	0.036211699164345405	0.8666666666666667
900	0.036312849162011177	0.8666666666666667
901	0.036414565826330535	0.8666666666666667
902	0.03651685393258427	0.8666666666666667
903	0.036619718309859155	0.8666666666666667
904	0.03672316384180791	0.8666666666666667
905	0.036827195467422094	0.8666666666666667
906	0.036931818181818184	0.8666666666666667
907	0.037037037037037035	0.8666666666666667
908	0.037142857142857144	0.8666666666666667
909	0.03724928366762178	0.8666666666666667
910	0.03735632183908046	0.8666666666666667
911	0.037463976945244955	0.8666666666666667
912	0.03757225433526012	0.8666666666666667
913	0.03768115942028986	0.8666666666666667
914	0.0377906976744186	0.8666666666666667
915	0.037900874635568516	0.8666666666666667
916	0.038011695906432746	0.8666666666666667
917	0.03812316715542522	0.8666666666666667
918	0.03823529411764706	0.8666666666666667
919	0.038348082595870206	0.8666666666666667
920	0.038461538461538464	0.8666666666666667
921	0.03857566765578635	0.8666666666666667
922	0.03869047619047619	0.8666666666666667
923	0.03880597014925373	0.8666666666666667
924	0.038922155688622756	0.8666666666666667
925	0.03903903903903904	0.8666666666666667
926	0.0391566265060241	0.8666666666666667
927	0.03927492447129909	0.8666666666666667
928	0.03939393939393939	0.8666666666666667
929	0.03951367781155015	0.8666666666666667
930	0.039634146341463415	0.8666666666666667
931	0.039755351681957186	0.8666666666666667
932	0.03987730061349693	0.8666666666666667
933	0.04	0.8666666666666667
934	0.040123456790123455	0.8666666666666667
935	0.04024767801857585	0.8666666666666667
936	0.040372670807453416	0.8666666666666667
937	0.040498442367601244	0.8666666666666667
938	0.040625	0.8666666666666667
939	0.04075235109717868	0.8666666666666667
940	0.040880503144654086	0.8666666666666667
941	0.04100946372239748	0.8666666666666667
942	0.04113924050632911	0.8666666666666667
943	0.04126984126984127	0.8666666666666667
944	0.041401273885350316	0.8666666666666667
945	0.04153354632587859	0.8666666666666667
946	0.041666666666666664	0.8666666666666667
947	0.04180064308681672	0.8666666666666667
948	0.041935483870967745	0.8666666666666667
949	0.042071197411003236	0.8666666666666667
950	0.04220779220779221	0.8666666666666667
951	0.04234527687296417	0.8666666666666667
952	0.042483660130718956	0.8666666666666667
953	0.04262295081967213	0.8666666666666667
954	0.04276315789473684	0.8666666666666667
955	0.0429042904290429	0.8666666666666667
956	0.04304635761589404	0.8666666666666667
957	0.04318936877076412	0.8666666666666667
958	0.043333333333333335	0.8666666666666667
959	0.043478260869565216	0.8666666666666667
960	0.0436241610738255	0.8666666666666667
961	0.04377104377104377	0.8666666666666667
962	0.04391891891891892	0.8666666666666667
963	0.04406779661016949	0.8666666666666667
964	0.04421768707482993	0.8666666666666667
965	0.04436860068259386	0.8666666666666667
966	0.04452054794520548	0.8666666666666667
967	0.044673539518900345	0.8666666666666667
968	0.04482758620689655	0.8666666666666667
969	0.04498269896193772	0.8666666666666667
970	0.04513888888888889	0.8666666666666667
971	0.04529616724738676	0.8666666666666667
972	0.045454545454545456	0.8666666666666667
973	0.0456140350877193	0.8666666666666667
974	0.045774647887323945	0.8666666666666667
975	0.045936395759717315	0.8666666666666667
976	0.04609929078014184	0.8666666666666667
977	0.046263345195729534	0.8666666666666667
978	0.04642857142857143	0.8666666666666667
979	0.04659498207885305	0.8666666666666667
980	0.046762589928057555	0.8666666666666667
981	0.04693140794223827	0.8666666666666667
982	0.04710144927536232	0.8666666666666667
983	0.04727272727272727	0.8666666666666667
984	0.04744525547445255	0.8666666666666667
985	0.047619047619047616	0.8666666666666667
986	0.04779411764705882	0.8666666666666667
987	0.04797047970479705	0.8666666666666667
988	0.04814814814814815	0.8666666666666667
989	0.048327137546468404	0.8666666666666667
990	0.048507462686567165	0.8666666666666667
991	0.04868913857677903	0.8666666666666667
992	0.04887218045112782	0.8666666666666667
993	0.04905660377358491	0.8666666666666667
994	0.04924242424242424	0.8666666666666667
995	0.049429657794676805	0.8666666666666667
996	0.04961832061068702	0.8666666666666667
997	0.04980842911877394	0.8666666666666667
998	0.05	0.8666666666666667
999	0.05019305019305019	0.8666666666666667
1000	0.050387596899224806	0.8666666666666667
1001	0.05058365758754864	0.8666666666666667
1002	0.05078125	0.8666666666666667
1003	0.050980392156862744	0.8666666666666667
1004	0.051181102362204724	0.8666666666666667
1005	0.05138339920948617	0.8666666666666667
1006	0.051587301587301584	0.8666666666666667
1007	0.05179282868525897	0.8666666666666667
1008	0.052	0.8666666666666667
1009	0.05220883534136546	0.8666666666666667
1010	0.05241935483870968	0.8666666666666667
1011	0.05263157894736842	0.8666666666666667
1012	0.052845528455284556	0.8666666666666667
1013	0.053061224489795916	0.8666666666666667
1014	0.05327868852459016	0.8666666666666667
1015	0.053497942386831275	0.8666666666666667
1016	0.05371900826446281	0.8666666666666667
1017	0.05394190871369295	0.8666666666666667
1018	0.05	0.8
1019	0.0502092050209205	0.8
1020	0.05042016806722689	0.8
1021	0.05063291139240506	0.8
1022	0.05084745762711865	0.8
1023	0.05106382978723404	0.8
1024	0.05128205128205128	0.8
1025	0.05150214592274678	0.8
1026	0.05172413793103448	0.8
1027	0.05194805194805195	0.8
1028	0.05217391304347826	0.8
1029	0.05240174672489083	0.8
1030	0.05263157894736842	0.8
1031	0.05286343612334802	0.8
1032	0.05309734513274336	0.8
1033	0.05333333333333334	0.8
1034	0.05357142857142857	0.8
1035	0.053811659192825115	0.8
1036	0.05405405405405406	0.8
1037	0.05429864253393665	0.8
1038	0.05454545454545454	0.8
1039	0.0547945205479452	0.8
1040	0.05504587155963303	0.8
1041	0.055299539170506916	0.8
1042	0.05555555555555555	0.8
1043	0.05581395348837209	0.8
1044	0.056074766355140186	0.8
1045	0.056338028169014086	0.8
1046	0.05660377358490566	0.8
1047	0.05687203791469194	0.8
1048	0.05714285714285714	0.8
1049	0.05741626794258373	0.8
1050	0.057692307692307696	0.8
1051	0.057971014492753624	0.8
1052	0.05825242718446602	0.8
1053	0.05853658536585366	0.8
1054	0.058823529411764705	0.8
1055	0.059113300492610835	0.8
1056	0.0594059405940594	0.8
1057	0.05970149253731343	0.8
1058	0.06	0.8
1059	0.06030150753768844	0.8
1060	0.06060606060606061	0.8
1061	0.06091370558375635	0.8
1062	0.061224489795918366	0.8
1063	0.06153846153846154	0.8
1064	0.05670103092783505	0.7333333333333333
1065	0.05699481865284974	0.7333333333333333
1066	0.057291666666666664	0.7333333333333333
1067	0.05759162303664921	0.7333333333333333
1068	0.05789473684210526	0.7333333333333333
1069	0.0582010582010582	0.7333333333333333
1070	0.05851063829787234	0.7333333333333333
1071	0.058823529411764705	0.7333333333333333
1072	0.05913978494623656	0.7333333333333333
1073	0.05945945945945946	0.7333333333333333
1074	0.059782608695652176	0.7333333333333333
1075	0.060109289617486336	0.7333333333333333
1076	0.06043956043956044	0.7333333333333333
1077	0.06077348066298342	0.7333333333333333
1078	0.06111111111111111	0.7333333333333333
1079	0.061452513966480445	0.7333333333333333
1080	0.06179775280898876	0.7333333333333333
1081	0.062146892655367235	0.7333333333333333
1082	0.0625	0.7333333333333333
1083	0.06285714285714286	0.7333333333333333
1084	0.06321839080459771	0.7333333333333333
1085	0.06358381502890173	0.7333333333333333
1086	0.06395348837209303	0.7333333333333333
1087	0.06432748538011696	0.7333333333333333
1088	0.06470588235294118	0.7333333333333333
1089	0.0650887573964497	0.7333333333333333
1090	0.06547619047619048	0.7333333333333333
1091	0.0658682634730539	0.7333333333333333
1092	0.06626506024096386	0.7333333333333333
1093	0.06666666666666667	0.7333333333333333
1094	0.06707317073170732	0.7333333333333333
1095	0.06748466257668712	0.7333333333333333
1096	0.06790123456790123	0.7333333333333333
1097	0.06832298136645963	0.7333333333333333
1098	0.06875	0.7333333333333333
1099	0.06918238993710692	0.7333333333333333
1100	0.06962025316455696	0.7333333333333333
1101	0.07006369426751592	0.7333333333333333
1102	0.07051282051282051	0.7333333333333333
1103	0.07096774193548387	0.7333333333333333
1104	0.07142857142857142	0.7333333333333333
1105	0.0718954248366013	0.7333333333333333
1106	0.07236842105263158	0.7333333333333333
1107	0.0728476821192053	0.7333333333333333
1108	0.07333333333333333	0.7333333333333333
1109	0.0738255033557047	0.7333333333333333
1110	0.07432432432432433	0.7333333333333333
1111	0.07482993197278912	0.7333333333333333
1112	0.07534246575342465	0.7333333333333333
1113	0.07586206896551724	0.7333333333333333
1114	0.0763888888888889	0.7333333333333333
1115	0.07692307692307693	0.7333333333333333
1116	0.07746478873239436	0.7333333333333333
1117	0.07801418439716312	0.7333333333333333
1118	0.07857142857142857	0.7333333333333333
1119	0.07913669064748201	0.7333333333333333
1120	0.07971014492753623	0.7333333333333333
1121	0.08029197080291971	0.7333333333333333
1122	0.08088235294117647	0.7333333333333333
1123	0.08148148148148149	0.7333333333333333
1124	0.08208955223880597	0.7333333333333333
1125	0.08270676691729323	0.7333333333333333
1126	0.08333333333333333	0.7333333333333333
1127	0.08396946564885496	0.7333333333333333
1128	0.08461538461538462	0.7333333333333333
1129	0.08527131782945736	0.7333333333333333
1130	0.0859375	0.7333333333333333
1131	0.08661417322834646	0.7333333333333333
1132	0.0873015873015873	0.7333333333333333
1133	0.088	0.7333333333333333
1134	0.08870967741935484	0.7333333333333333
1135	0.08943089430894309	0.7333333333333333
1136	0.09016393442622951	0.7333333333333333
1137	0.09090909090909091	0.7333333333333333
1138	0.09166666666666666	0.7333333333333333
1139	0.09243697478991597	0.7333333333333333
1140	0.09322033898305085	0.7333333333333333
1141	0.09401709401709402	0.7333333333333333
1142	0.09482758620689655	0.7333333333333333
1143	0.09565217391304348	0.7333333333333333
1144	0.09649122807017543	0.7333333333333333
1145	0.09734513274336283	0.7333333333333333
1146	0.09821428571428571	0.7333333333333333
1147	0.0990990990990991	0.7333333333333333
1148	0.1	0.7333333333333333
1149	0.10091743119266056	0.7333333333333333
1150	0.10185185185185185	0.7333333333333333
1151	0.102803738317757	0.7333333333333333
1152	0.10377358490566038	0.7333333333333333
1153	0.10476190476190476	0.7333333333333333
1154	0.10576923076923077	0.7333333333333333
1155	0.10679611650485436	0.7333333333333333
1156	0.10784313725490197	0.7333333333333333
1157	0.10891089108910891	0.7333333333333333
1158	0.11	0.7333333333333333
1159	0.1111111111111111	0.7333333333333333
1160	0.11224489795918367	0.7333333333333333
1161	0.1134020618556701	0.7333333333333333
1162	0.11458333333333333	0.7333333333333333
1163	0.11578947368421053	0.7333333333333333
1164	0.11702127659574468	0.7333333333333333
1165	0.11827956989247312	0.7333333333333333
1166	0.11956521739130435	0.7333333333333333
1167	0.12087912087912088	0.7333333333333333
1168	0.12222222222222222	0.7333333333333333
1169	0.12359550561797752	0.7333333333333333
1170	0.125	0.7333333333333333
1171	0.12643678160919541	0.7333333333333333
1172	0.12790697674418605	0.7333333333333333
1173	0.12941176470588237	0.7333333333333333
1174	0.13095238095238096	0.7333333333333333
1175	0.13253012048192772	0.7333333333333333
1176	0.13414634146341464	0.7333333333333333
1177	0.13580246913580246	0.7333333333333333
1178	0.1375	0.7333333333333333
1179	0.13924050632911392	0.7333333333333333
1180	0.14102564102564102	0.7333333333333333
1181	0.14285714285714285	0.7333333333333333
1182	0.14473684210526316	0.7333333333333333
1183	0.14666666666666667	0.7333333333333333
1184	0.14864864864864866	0.7333333333333333
1185	0.1506849315068493	0.7333333333333333
1186	0.1527777777777778	0.7333333333333333
1187	0.15492957746478872	0.7333333333333333
1188	0.15714285714285714	0.7333333333333333
1189	0.15942028985507245	0.7333333333333333
1190	0.16176470588235295	0.7333333333333333
1191	0.16417910447761194	0.7333333333333333
1192	0.16666666666666666	0.7333333333333333
1193	0.16923076923076924	0.7333333333333333
1194	0.171875	0.7333333333333333
1195	0.1746031746031746	0.7333333333333333
1196	0.1774193548387097	0.7333333333333333
1197	0.18032786885245902	0.7333333333333333
1198	0.18333333333333332	0.7333333333333333
1199	0.1864406779661017	0.7333333333333333
1200	0.1896551724137931	0.7333333333333333
1201	0.19298245614035087	0.7333333333333333
1202	0.19642857142857142	0.7333333333333333
1203	0.2	0.7333333333333333
1204	0.2037037037037037	0.7333333333333333
1205	0.20754716981132076	0.7333333333333333
1206	0.21153846153846154	0.7333333333333333
1207	0.21568627450980393	0.7333333333333333
1208	0.22	0.7333333333333333
1209	0.22448979591836735	0.7333333333333333
1210	0.22916666666666666	0.7333333333333333
1211	0.23404255319148937	0.7333333333333333
1212	0.2391304347826087	0.7333333333333333
1213	0.24444444444444444	0.7333333333333333
1214	0.25	0.7333333333333333
1215	0.2558139534883721	0.7333333333333333
1216	0.2619047619047619	0.7333333333333333
1217	0.24390243902439024	0.6666666666666666
1218	0.25	0.6666666666666666
1219	0.2564102564102564	0.6666666666666666
1220	0.2631578947368421	0.6666666666666666
1221	0.2702702702702703	0.6666666666666666
1222	0.2777777777777778	0.6666666666666666
1223	0.2857142857142857	0.6666666666666666
1224	0.29411764705882354	0.6666666666666666
1225	0.30303030303030304	0.6666666666666666
1226	0.3125	0.6666666666666666
1227	0.3225806451612903	0.6666666666666666
1228	0.3333333333333333	0.6666666666666666
1229	0.3448275862068966	0.6666666666666666
1230	0.35714285714285715	0.6666666666666666
1231	0.37037037037037035	0.6666666666666666
1232	0.38461538461538464	0.6666666666666666
1233	0.4	0.6666666666666666
1234	0.4166666666666667	0.6666666666666666
1235	0.43478260869565216	0.6666666666666666
1236	0.45454545454545453	0.6666666666666666
1237	0.47619047619047616	0.6666666666666666
1238	0.5	0.6666666666666666
1239	0.5263157894736842	0.6666666666666666
1240	0.5555555555555556	0.6666666666666666
1241	0.5882352941176471	0.6666666666666666
1242	0.625	0.6666666666666666
1243	0.6666666666666666	0.6666666666666666
1244	0.6428571428571429	0.6
1245	0.6923076923076923	0.6
1246	0.75	0.6
1247	0.8181818181818182	0.6
1248	0.8	0.5333333333333333
1249	0.8888888888888888	0.5333333333333333
1250	0.875	0.4666666666666667
1251	1.0	0.4666666666666667
1252	1.0	0.4
1253	1.0	0.3333333333333333
1254	1.0	0.26666666666666666
1255	1.0	0.0
