genes	class	p_per_norm	p_per_norm_rerank
ENSMUSG00000026586	0.0	0.0007249003262051468	1379.5
ENSMUSG00000022335	0.0	0.0007249003262051468	1379.5
ENSMUSG00000042622	0.0	0.0014498006524102935	689.75
ENSMUSG00000056749	1.0	0.0014498006524102935	689.75
ENSMUSG00000018143	0.0	0.00217470097861544	459.8333333333334
ENSMUSG00000058239	0.0	0.00217470097861544	459.8333333333334
ENSMUSG00000002996	0.0	0.002899601304820587	344.875
ENSMUSG00000046711	0.0	0.002899601304820587	344.875
ENSMUSG00000028423	0.0	0.002899601304820587	344.875
ENSMUSG00000062175	0.0	0.00434940195723088	229.9166666666667
ENSMUSG00000033713	0.0	0.00434940195723088	229.9166666666667
ENSMUSG00000000567	0.0	0.005074302283436026	197.07142857142864
ENSMUSG00000069114	0.0	0.00652410293584632	153.2777777777778
ENSMUSG00000021775	1.0	0.007249003262051467	137.95000000000002
ENSMUSG00000054737	0.0	0.007249003262051467	137.95000000000002
ENSMUSG00000050855	0.0	0.007973903588256614	125.4090909090909
ENSMUSG00000025586	0.0	0.00869880391446176	114.95833333333336
ENSMUSG00000001156	0.0	0.00869880391446176	114.95833333333336
ENSMUSG00000055116	1.0	0.00869880391446176	114.95833333333336
ENSMUSG00000067071	0.0	0.00869880391446176	114.95833333333336
ENSMUSG00000059824	1.0	0.00869880391446176	114.95833333333336
ENSMUSG00000036120	0.0	0.00869880391446176	114.95833333333336
ENSMUSG00000026663	0.0	0.00869880391446176	114.95833333333336
ENSMUSG00000003051	0.0	0.009423704240666906	106.11538461538464
ENSMUSG00000020472	0.0	0.009423704240666906	106.11538461538464
ENSMUSG00000020491	0.0	0.010873504893077202	91.96666666666667
ENSMUSG00000046962	0.0	0.011598405219282348	86.21875
ENSMUSG00000038872	0.0	0.011598405219282348	86.21875
ENSMUSG00000015522	0.0	0.011598405219282348	86.21875
ENSMUSG00000061894	0.0	0.012323305545487492	81.14705882352943
ENSMUSG00000038539	0.0	0.012323305545487492	81.14705882352943
ENSMUSG00000028329	0.0	0.012323305545487492	81.14705882352943
ENSMUSG00000002250	0.0	0.014498006524102934	68.97500000000001
ENSMUSG00000035158	0.0	0.014498006524102934	68.97500000000001
ENSMUSG00000026491	0.0	0.01522290685030808	65.6904761904762
ENSMUSG00000055053	0.0	0.01522290685030808	65.6904761904762
ENSMUSG00000028417	0.0	0.01522290685030808	65.6904761904762
ENSMUSG00000058756	0.0	0.015947807176513232	62.704545454545446
ENSMUSG00000020653	0.0	0.015947807176513232	62.704545454545446
ENSMUSG00000059142	0.0	0.015947807176513232	62.704545454545446
ENSMUSG00000060862	0.0	0.016672707502718372	59.97826086956523
ENSMUSG00000018347	0.0	0.01739760782892352	57.47916666666668
ENSMUSG00000054191	0.0	0.01739760782892352	57.47916666666668
ENSMUSG00000025225	0.0	0.01739760782892352	57.47916666666668
ENSMUSG00000003184	0.0	0.01812250815512867	55.18
ENSMUSG00000030322	0.0	0.018847408481333813	53.05769230769232
ENSMUSG00000008976	0.0	0.019572308807538963	51.092592592592595
ENSMUSG00000069378	0.0	0.019572308807538963	51.092592592592595
ENSMUSG00000028901	0.0	0.019572308807538963	51.092592592592595
ENSMUSG00000033961	0.0	0.019572308807538963	51.092592592592595
ENSMUSG00000033863	0.0	0.020297209133744103	49.26785714285716
ENSMUSG00000031627	0.0	0.020297209133744103	49.26785714285716
ENSMUSG00000004040	0.0	0.020297209133744103	49.26785714285716
ENSMUSG00000034377	0.0	0.022471910112359543	44.500000000000014
ENSMUSG00000039354	0.0	0.022471910112359543	44.500000000000014
ENSMUSG00000026077	1.0	0.023196810438564697	43.109375
ENSMUSG00000028150	1.0	0.02392171076476984	41.80303030303031
ENSMUSG00000056493	0.0	0.024646611090974987	40.57352941176471
ENSMUSG00000015619	0.0	0.024646611090974987	40.57352941176471
ENSMUSG00000031618	0.0	0.02537151141718013	39.414285714285725
ENSMUSG00000004043	0.0	0.02754621239579557	36.30263157894738
ENSMUSG00000052414	0.0	0.02754621239579557	36.30263157894738
ENSMUSG00000069743	0.0	0.02754621239579557	36.30263157894738
ENSMUSG00000022389	1.0	0.028271112722000717	35.37179487179488
ENSMUSG00000001418	0.0	0.028271112722000717	35.37179487179488
ENSMUSG00000020171	0.0	0.028996013048205867	34.487500000000004
ENSMUSG00000032652	0.0	0.028996013048205867	34.487500000000004
ENSMUSG00000071350	0.0	0.029720913374411018	33.646341463414636
ENSMUSG00000042507	0.0	0.03044581370061616	32.8452380952381
ENSMUSG00000025612	0.0	0.03044581370061616	32.8452380952381
ENSMUSG00000024140	0.0	0.031170714026821308	32.08139534883721
ENSMUSG00000022528	0.0	0.031170714026821308	32.08139534883721
ENSMUSG00000037243	0.0	0.031895614353026465	31.352272727272723
ENSMUSG00000029478	0.0	0.031895614353026465	31.352272727272723
ENSMUSG00000003949	1.0	0.0326205146792316	30.655555555555562
ENSMUSG00000057396	0.0	0.0340703153316419	29.351063829787236
ENSMUSG00000046470	0.0	0.03552011598405218	28.153061224489807
ENSMUSG00000005373	0.0	0.03624501631025734	27.59
ENSMUSG00000032897	0.0	0.036969916636462485	27.04901960784314
ENSMUSG00000041420	0.0	0.036969916636462485	27.04901960784314
ENSMUSG00000005893	0.0	0.037694816962667625	26.52884615384616
ENSMUSG00000046311	0.0	0.039144617615077926	25.546296296296298
ENSMUSG00000046160	0.0	0.039869517941283066	25.081818181818186
ENSMUSG00000037326	0.0	0.039869517941283066	25.081818181818186
ENSMUSG00000063889	0.0	0.04059441826748821	24.633928571428577
ENSMUSG00000020037	0.0	0.04059441826748821	24.633928571428577
ENSMUSG00000000782	0.0	0.041319318593693366	24.201754385964914
ENSMUSG00000043099	0.0	0.041319318593693366	24.201754385964914
ENSMUSG00000090015	0.0	0.04276911924610365	23.381355932203395
ENSMUSG00000036721	0.0	0.04276911924610365	23.381355932203395
ENSMUSG00000049606	0.0	0.043494019572308806	22.991666666666667
ENSMUSG00000036916	0.0	0.043494019572308806	22.991666666666667
ENSMUSG00000052837	0.0	0.04421891989851395	22.614754098360656
ENSMUSG00000030199	0.0	0.044943820224719086	22.250000000000007
ENSMUSG00000029556	0.0	0.046393620877129386	21.554687500000004
ENSMUSG00000019564	0.0	0.04711852120333453	21.223076923076928
ENSMUSG00000032411	0.0	0.04784342152953968	20.901515151515156
ENSMUSG00000033943	0.0	0.04784342152953968	20.901515151515156
ENSMUSG00000001103	0.0	0.048568321855744834	20.58955223880597
ENSMUSG00000037608	0.0	0.05146792316056542	19.429577464788732
ENSMUSG00000061544	0.0	0.05146792316056542	19.429577464788732
ENSMUSG00000032998	0.0	0.05219282348677056	19.159722222222225
ENSMUSG00000031326	0.0	0.054367524465385994	18.393333333333338
ENSMUSG00000017801	0.0	0.05509242479159115	18.15131578947369
ENSMUSG00000047264	0.0	0.05509242479159115	18.15131578947369
ENSMUSG00000030557	0.0	0.055817325117796295	17.91558441558442
ENSMUSG00000015882	0.0	0.056542225444001434	17.68589743589744
ENSMUSG00000027104	0.0	0.056542225444001434	17.68589743589744
ENSMUSG00000031099	0.0	0.056542225444001434	17.68589743589744
ENSMUSG00000039410	0.0	0.057992026096411735	17.243750000000002
ENSMUSG00000063060	0.0	0.059441826748822035	16.823170731707318
ENSMUSG00000059842	0.0	0.060166727075027175	16.620481927710845
ENSMUSG00000054519	0.0	0.06089162740123232	16.42261904761905
ENSMUSG00000018377	0.0	0.061616527727437476	16.229411764705883
ENSMUSG00000022961	0.0	0.061616527727437476	16.229411764705883
ENSMUSG00000021255	0.0	0.062341428053642615	16.040697674418606
ENSMUSG00000021264	0.0	0.06306632837984777	15.85632183908046
ENSMUSG00000072762	0.0	0.0652410293584632	15.327777777777781
ENSMUSG00000044296	0.0	0.06596592968466836	15.15934065934066
ENSMUSG00000037992	0.0	0.06669083001087349	14.994565217391308
ENSMUSG00000025902	0.0	0.06741573033707864	14.833333333333337
ENSMUSG00000047003	0.0	0.0681406306632838	14.675531914893618
ENSMUSG00000048280	0.0	0.0681406306632838	14.675531914893618
ENSMUSG00000029177	0.0	0.0681406306632838	14.675531914893618
ENSMUSG00000033237	0.0	0.07176513229430953	13.934343434343434
ENSMUSG00000021144	0.0	0.07176513229430953	13.934343434343434
ENSMUSG00000074282	0.0	0.07176513229430953	13.934343434343434
ENSMUSG00000042323	0.0	0.07321493294671981	13.658415841584162
ENSMUSG00000021944	0.0	0.07321493294671981	13.658415841584162
ENSMUSG00000026743	0.0	0.07321493294671981	13.658415841584162
ENSMUSG00000039852	0.0	0.07393983327292497	13.52450980392157
ENSMUSG00000031706	0.0	0.07466473359913013	13.393203883495143
ENSMUSG00000026890	0.0	0.07466473359913013	13.393203883495143
ENSMUSG00000012640	0.0	0.07538963392533525	13.26442307692308
ENSMUSG00000022500	0.0	0.07683943457774554	13.01415094339623
ENSMUSG00000037583	0.0	0.07973903588256613	12.540909090909093
ENSMUSG00000015461	0.0	0.07973903588256613	12.540909090909093
ENSMUSG00000044934	0.0	0.08118883653497642	12.316964285714288
ENSMUSG00000026638	0.0	0.08263863718738672	12.100877192982459
ENSMUSG00000026803	0.0	0.08336353751359186	11.995652173913046
ENSMUSG00000026436	0.0	0.08336353751359186	11.995652173913046
ENSMUSG00000015217	0.0	0.08408843783979701	11.892241379310347
ENSMUSG00000038056	0.0	0.08626313881841248	11.592436974789914
ENSMUSG00000002578	0.0	0.08626313881841248	11.592436974789914
ENSMUSG00000041164	0.0	0.08698803914461761	11.495833333333334
ENSMUSG00000047473	0.0	0.08698803914461761	11.495833333333334
ENSMUSG00000051910	0.0	0.08771293947082275	11.400826446280995
ENSMUSG00000070031	0.0	0.0884378397970279	11.307377049180328
ENSMUSG00000079215	0.0	0.0884378397970279	11.307377049180328
ENSMUSG00000006310	0.0	0.08916274012323304	11.215447154471546
ENSMUSG00000044617	0.0	0.09061254077564336	11.035999999999998
ENSMUSG00000031393	0.0	0.09133744110184848	10.948412698412701
ENSMUSG00000040857	0.0	0.09423704240666908	10.611538461538462
ENSMUSG00000040033	0.0	0.09423704240666908	10.611538461538462
ENSMUSG00000042097	0.0	0.09496194273287424	10.530534351145038
ENSMUSG00000078495	0.0	0.09713664371148968	10.294776119402984
ENSMUSG00000025925	0.0	0.0978615440376948	10.21851851851852
ENSMUSG00000048450	0.0	0.10003624501631024	9.996376811594205
ENSMUSG00000073176	0.0	0.10221094599492568	9.783687943262413
ENSMUSG00000068284	0.0	0.10221094599492568	9.783687943262413
ENSMUSG00000028466	0.0	0.10293584632113084	9.714788732394366
ENSMUSG00000028163	0.0	0.10366074664733596	9.64685314685315
ENSMUSG00000052751	0.0	0.10438564697354112	9.579861111111112
ENSMUSG00000024515	0.0	0.10656034795215656	9.3843537414966
ENSMUSG00000020275	0.0	0.10801014860456687	9.258389261744966
ENSMUSG00000004535	0.0	0.10801014860456687	9.258389261744966
ENSMUSG00000026305	0.0	0.1101848495831823	9.075657894736844
ENSMUSG00000059878	0.0	0.1101848495831823	9.075657894736844
ENSMUSG00000044646	0.0	0.1101848495831823	9.075657894736844
ENSMUSG00000053007	0.0	0.1116346502355926	8.957792207792208
ENSMUSG00000027361	0.0	0.11525915186661835	8.676100628930817
ENSMUSG00000049657	0.0	0.11598405219282347	8.621875000000001
ENSMUSG00000036461	0.0	0.11670895251902863	8.56832298136646
ENSMUSG00000048756	0.0	0.12178325480246464	8.211309523809526
ENSMUSG00000074283	0.0	0.12250815512866978	8.162721893491126
ENSMUSG00000022553	0.0	0.12758245741210586	7.838068181818181
ENSMUSG00000001419	0.0	0.1304820587169264	7.6638888888888905
ENSMUSG00000038692	0.0	0.1304820587169264	7.6638888888888905
ENSMUSG00000037572	0.0	0.13265675969554186	7.538251366120218
ENSMUSG00000029238	1.0	0.13265675969554186	7.538251366120218
ENSMUSG00000020889	1.0	0.13338166002174698	7.497282608695654
ENSMUSG00000000823	0.0	0.13773106197897786	7.260526315789475
ENSMUSG00000072915	0.0	0.13918086263138815	7.184895833333335
ENSMUSG00000034042	0.0	0.13918086263138815	7.184895833333335
ENSMUSG00000009739	0.0	0.14063066328379847	7.110824742268042
ENSMUSG00000062931	0.0	0.14135556361000362	7.074358974358975
ENSMUSG00000017667	0.0	0.14135556361000362	7.074358974358975
ENSMUSG00000027583	0.0	0.14353026458861906	6.967171717171717
ENSMUSG00000047412	0.0	0.14570496556723447	6.863184079601991
ENSMUSG00000049321	0.0	0.14932946719826026	6.696601941747572
ENSMUSG00000055917	0.0	0.15005436752446535	6.66425120772947
ENSMUSG00000058881	0.0	0.1507792678506705	6.63221153846154
ENSMUSG00000021127	0.0	0.15222906850308082	6.569047619047619
ENSMUSG00000074221	0.0	0.1536788691554911	6.507075471698115
ENSMUSG00000052534	0.0	0.15585357013410653	6.416279069767443
ENSMUSG00000033454	0.0	0.15585357013410653	6.416279069767443
ENSMUSG00000035443	0.0	0.15730337078651685	6.357142857142858
ENSMUSG00000038518	0.0	0.15802827111272194	6.327981651376149
ENSMUSG00000023991	0.0	0.16020297209133744	6.242081447963801
ENSMUSG00000062040	0.0	0.16020297209133744	6.242081447963801
ENSMUSG00000022383	0.0	0.16310257339615802	6.131111111111111
ENSMUSG00000038766	0.0	0.16310257339615802	6.131111111111111
ENSMUSG00000039068	0.0	0.16600217470097858	6.0240174672489095
ENSMUSG00000057093	0.0	0.16817687567959402	5.9461206896551735
ENSMUSG00000036867	0.0	0.16962667633200434	5.895299145299146
ENSMUSG00000039759	0.0	0.1710764769844146	5.845338983050849
ENSMUSG00000057156	0.0	0.17397607828923525	5.747916666666666
ENSMUSG00000025821	0.0	0.1754258789416455	5.700413223140497
ENSMUSG00000022676	0.0	0.17977528089887634	5.562500000000002
ENSMUSG00000059975	0.0	0.18050018122508152	5.5401606425702825
ENSMUSG00000078249	0.0	0.18194998187749184	5.49601593625498
ENSMUSG00000000552	0.0	0.18267488220369696	5.474206349206351
ENSMUSG00000067916	0.0	0.1855744835085176	5.388671874999999
ENSMUSG00000025880	0.0	0.1855744835085176	5.388671874999999
ENSMUSG00000019768	0.0	0.187749184487133	5.326254826254827
ENSMUSG00000043290	0.0	0.18847408481333813	5.305769230769232
ENSMUSG00000018899	0.0	0.18992388546574845	5.265267175572519
ENSMUSG00000060510	0.0	0.18992388546574845	5.265267175572519
ENSMUSG00000008575	0.0	0.1906487857919536	5.245247148288973
ENSMUSG00000059689	0.0	0.19137368611815872	5.225378787878789
ENSMUSG00000032744	0.0	0.1935483870967742	5.166666666666667
ENSMUSG00000055991	0.0	0.1957230880753896	5.10925925925926
ENSMUSG00000045991	0.0	0.19789778905400507	5.053113553113553
ENSMUSG00000001911	0.0	0.19934758970641533	5.0163636363636375
ENSMUSG00000054893	0.0	0.20369699166364624	4.909252669039146
ENSMUSG00000078906	0.0	0.20369699166364624	4.909252669039146
ENSMUSG00000019256	0.0	0.21094599492569768	4.740549828178695
ENSMUSG00000035125	0.0	0.212395795578108	4.708191126279863
ENSMUSG00000005677	0.0	0.21457049655672344	4.660472972972973
ENSMUSG00000028522	0.0	0.21747009786154398	4.5983333333333345
ENSMUSG00000004328	0.0	0.21891989851395435	4.567880794701987
ENSMUSG00000020538	0.0	0.2232693004711852	4.478896103896104
ENSMUSG00000066000	0.0	0.22471910112359547	4.450000000000001
ENSMUSG00000017724	0.0	0.22616890177600574	4.42147435897436
ENSMUSG00000033249	0.0	0.2276187024284161	4.393312101910828
ENSMUSG00000048728	0.0	0.2283436027546212	4.37936507936508
ENSMUSG00000034538	0.0	0.2312432040594418	4.324451410658308
ENSMUSG00000030551	0.0	0.2312432040594418	4.324451410658308
ENSMUSG00000074622	0.0	0.2326930047118521	4.297507788161994
ENSMUSG00000029290	0.0	0.2363175063428778	4.231595092024541
ENSMUSG00000063108	0.0	0.2363175063428778	4.231595092024541
ENSMUSG00000049672	0.0	0.23704240666908294	4.218654434250766
ENSMUSG00000071757	0.0	0.23704240666908294	4.218654434250766
ENSMUSG00000026740	0.0	0.2384922073214933	4.193009118541034
ENSMUSG00000074405	0.0	0.23994200797390355	4.167673716012085
ENSMUSG00000062761	0.0	0.2406669083001087	4.155120481927711
ENSMUSG00000029627	0.0	0.2413918086263139	4.142642642642643
ENSMUSG00000025498	0.0	0.2413918086263139	4.142642642642643
ENSMUSG00000032745	0.0	0.2413918086263139	4.142642642642643
ENSMUSG00000028358	0.0	0.242116708952519	4.130239520958084
ENSMUSG00000069184	0.0	0.24501631025733955	4.081360946745563
ENSMUSG00000030393	0.0	0.2464661109097499	4.057352941176471
ENSMUSG00000073705	0.0	0.24719101123595505	4.045454545454546
ENSMUSG00000037621	0.0	0.24719101123595505	4.045454545454546
ENSMUSG00000026628	0.0	0.25154041319318593	3.9755043227665707
ENSMUSG00000038346	0.0	0.25154041319318593	3.9755043227665707
ENSMUSG00000036686	0.0	0.252265313519391	3.964080459770116
ENSMUSG00000055341	0.0	0.25371511417180137	3.9414285714285717
ENSMUSG00000033730	0.0	0.2551649148242117	3.9190340909090904
ENSMUSG00000026987	0.0	0.256614715476622	3.896892655367231
ENSMUSG00000020679	0.0	0.25806451612903225	3.875
ENSMUSG00000048938	0.0	0.2587894164552374	3.8641456582633054
ENSMUSG00000046873	0.0	0.2595143167814425	3.8533519553072635
ENSMUSG00000037017	0.0	0.26241391808626313	3.8107734806629834
ENSMUSG00000049532	0.0	0.2653135193910837	3.769125683060109
ENSMUSG00000019826	0.0	0.2674882203696992	3.7384823848238478
ENSMUSG00000049470	0.0	0.2696629213483145	3.708333333333335
ENSMUSG00000046658	0.0	0.2711127220007249	3.6885026737967914
ENSMUSG00000051499	0.0	0.27183762232693	3.6786666666666674
ENSMUSG00000078870	0.0	0.2747372236317506	3.6398416886543536
ENSMUSG00000074220	0.0	0.2761870242841609	3.620734908136483
ENSMUSG00000066009	0.0	0.27981152591518665	3.573834196891192
ENSMUSG00000017491	0.0	0.2805364262413917	3.5645994832041357
ENSMUSG00000063535	0.0	0.2805364262413917	3.5645994832041357
ENSMUSG00000049755	0.0	0.2805364262413917	3.5645994832041357
ENSMUSG00000021010	0.0	0.2834360275462124	3.528132992327366
ENSMUSG00000007670	0.0	0.2856107285248278	3.501269035532996
ENSMUSG00000057895	0.0	0.2885103298296484	3.4660804020100504
ENSMUSG00000003847	0.0	0.29358463211308444	3.406172839506173
ENSMUSG00000002108	0.0	0.2957593330916999	3.3811274509803924
ENSMUSG00000031365	0.0	0.29648423341790503	3.3728606356968216
ENSMUSG00000052253	0.0	0.29648423341790503	3.3728606356968216
ENSMUSG00000050064	0.0	0.2986589343965205	3.348300970873786
ENSMUSG00000052446	0.0	0.3008336353751359	3.324096385542169
ENSMUSG00000037638	0.0	0.3008336353751359	3.324096385542169
ENSMUSG00000028654	0.0	0.3008336353751359	3.324096385542169
ENSMUSG00000042063	0.0	0.30373323667995644	3.292362768496421
ENSMUSG00000023994	0.0	0.30373323667995644	3.292362768496421
ENSMUSG00000057551	0.0	0.30663283798477703	3.2612293144208047
ENSMUSG00000032119	0.0	0.3073577383109822	3.2535377358490574
ENSMUSG00000048012	0.0	0.3095324392895977	3.2306791569086646
ENSMUSG00000035397	0.0	0.3095324392895977	3.2306791569086646
ENSMUSG00000017688	0.0	0.3102573396158028	3.2231308411214954
ENSMUSG00000075304	0.0	0.3124320405944182	3.2006960556844555
ENSMUSG00000006587	0.0	0.3138818412468285	3.185912240184758
ENSMUSG00000022987	0.0	0.3153316418992388	3.1712643678160926
ENSMUSG00000029705	0.0	0.31750634287785423	3.1495433789954346
ENSMUSG00000041272	0.0	0.31823124320405943	3.142369020501139
ENSMUSG00000067928	0.0	0.31823124320405943	3.142369020501139
ENSMUSG00000051817	0.0	0.3218557448350852	3.1069819819819817
ENSMUSG00000020232	0.0	0.3218557448350852	3.1069819819819817
ENSMUSG00000005621	0.0	0.32330554548749546	3.0930493273542603
ENSMUSG00000050945	0.0	0.3254802464661109	3.0723830734966593
ENSMUSG00000007817	0.0	0.3269300471185212	3.058758314855876
ENSMUSG00000027663	0.0	0.3305545487495469	3.0252192982456148
ENSMUSG00000074406	0.0	0.3327292497281624	3.0054466230936816
ENSMUSG00000069208	0.0	0.3349039507067777	2.985930735930737
ENSMUSG00000013089	0.0	0.33562885103298296	2.9794816414686824
ENSMUSG00000074676	0.0	0.3370786516853932	2.9666666666666672
ENSMUSG00000066613	0.0	0.3399782529902138	2.9413646055437104
ENSMUSG00000014704	0.0	0.3407031533164189	2.935106382978724
ENSMUSG00000072763	0.0	0.34505255527364986	2.898109243697479
ENSMUSG00000029135	0.0	0.34505255527364986	2.898109243697479
ENSMUSG00000006705	0.0	0.34722725625226525	2.879958246346556
ENSMUSG00000039501	0.0	0.3494019572308807	2.8620331950207474
ENSMUSG00000058794	0.0	0.35085175788329104	2.850206611570248
ENSMUSG00000018678	0.0	0.3544762595143167	2.8210633946830272
ENSMUSG00000074165	0.0	0.35955056179775274	2.7812500000000004
ENSMUSG00000035011	0.0	0.3624501631025734	2.759
ENSMUSG00000007216	0.0	0.3631750634287785	2.7534930139720566
ENSMUSG00000087598	0.0	0.3646248640811888	2.742544731610338
ENSMUSG00000078887	0.0	0.3653497644073939	2.7371031746031753
ENSMUSG00000040721	0.0	0.3660746647335991	2.731683168316832
ENSMUSG00000000093	0.0	0.3667995650598042	2.7262845849802377
ENSMUSG00000038193	0.0	0.3675244653860094	2.720907297830375
ENSMUSG00000009097	0.0	0.3689742660384197	2.7102161100196462
ENSMUSG00000038507	0.0	0.3696991663646248	2.7049019607843143
ENSMUSG00000012350	0.0	0.3711489670170352	2.6943359374999996
ENSMUSG00000024955	0.0	0.3711489670170352	2.6943359374999996
ENSMUSG00000030543	0.0	0.3762232693004712	2.657996146435453
ENSMUSG00000042745	0.0	0.3820224719101123	2.61764705882353
ENSMUSG00000032727	0.0	0.3820224719101123	2.61764705882353
ENSMUSG00000062627	0.0	0.38347227256252253	2.607750472589793
ENSMUSG00000068134	0.0	0.3863718738673432	2.588180112570357
ENSMUSG00000030353	0.0	0.3863718738673432	2.588180112570357
ENSMUSG00000091474	0.0	0.3870967741935484	2.5833333333333335
ENSMUSG00000075595	0.0	0.38854657484595867	2.5736940298507465
ENSMUSG00000058093	0.0	0.3899963754983689	2.564126394052045
ENSMUSG00000030087	0.0	0.3921710764769844	2.5499075785582255
ENSMUSG00000055799	0.0	0.3943457774555998	2.5358455882352944
ENSMUSG00000042406	0.0	0.3972453787604204	2.517335766423358
ENSMUSG00000032369	0.0	0.3994200797390359	2.5036297640653356
ENSMUSG00000060301	0.0	0.3994200797390359	2.5036297640653356
ENSMUSG00000046541	0.0	0.4023196810438564	2.485585585585586
ENSMUSG00000002325	0.0	0.4023196810438564	2.485585585585586
ENSMUSG00000037730	0.0	0.4030445813700616	2.481115107913669
ENSMUSG00000008398	0.0	0.4030445813700616	2.481115107913669
ENSMUSG00000026641	0.0	0.4081188836534976	2.4502664298401426
ENSMUSG00000058748	0.0	0.41029358463211296	2.437279151943464
ENSMUSG00000026976	0.0	0.41101848495831816	2.4329805996472667
ENSMUSG00000030067	0.0	0.41174338528452337	2.4286971830985915
ENSMUSG00000089857	0.0	0.4131931859369337	2.420175438596491
ENSMUSG00000038718	0.0	0.41536788691554893	2.4075043630017463
ENSMUSG00000020335	0.0	0.41536788691554893	2.4075043630017463
ENSMUSG00000030103	1.0	0.4160927872417542	2.4033101045296172
ENSMUSG00000025423	0.0	0.4182674882203696	2.3908145580589264
ENSMUSG00000030486	0.0	0.4189923885465748	2.386678200692042
ENSMUSG00000078866	0.0	0.4197172888727799	2.382556131260795
ENSMUSG00000069475	0.0	0.4211670895251902	2.3743545611015495
ENSMUSG00000000317	0.0	0.4269662921348314	2.342105263157895
ENSMUSG00000011267	0.0	0.4269662921348314	2.342105263157895
ENSMUSG00000075327	0.0	0.4291409931134469	2.3302364864864864
ENSMUSG00000045252	0.0	0.43711489670170345	2.287728026533997
ENSMUSG00000029723	0.0	0.4392895976803189	2.2764026402640267
ENSMUSG00000022601	0.0	0.4472635012685755	2.23581847649919
ENSMUSG00000037447	0.0	0.4479884015947807	2.232200647249191
ENSMUSG00000027490	0.0	0.4508880028996013	2.217845659163987
ENSMUSG00000071661	0.0	0.4508880028996013	2.217845659163987
ENSMUSG00000021109	0.0	0.4523378035520115	2.21073717948718
ENSMUSG00000078861	0.0	0.4537876042044219	2.2036741214057507
ENSMUSG00000031860	0.0	0.45451250453062697	2.200159489633174
ENSMUSG00000020185	0.0	0.4559623051830373	2.1931637519872815
ENSMUSG00000024431	0.0	0.4559623051830373	2.1931637519872815
ENSMUSG00000046572	0.0	0.4566872055092424	2.18968253968254
ENSMUSG00000028952	0.0	0.4588619064878578	2.1793048973143767
ENSMUSG00000071637	0.0	0.45958680681406294	2.175867507886436
ENSMUSG00000049878	0.0	0.4624864081188836	2.162225705329154
ENSMUSG00000055240	0.0	0.4639362087712939	2.1554687500000003
ENSMUSG00000006215	0.0	0.4653860094237041	2.1487538940809974
ENSMUSG00000030145	0.0	0.4675607104023196	2.1387596899224808
ENSMUSG00000042109	0.0	0.4740848133381659	2.109327217125383
ENSMUSG00000057842	0.0	0.479159115621602	2.0869894099848714
ENSMUSG00000055150	0.0	0.4820587169264226	2.074436090225564
ENSMUSG00000063047	0.0	0.4849583182312432	2.06203288490284
ENSMUSG00000058883	0.0	0.4878579195360637	2.0497771173848442
ENSMUSG00000066838	0.0	0.4893077201884741	2.0437037037037036
ENSMUSG00000055320	0.0	0.4951069227981152	2.019765739385066
ENSMUSG00000039219	0.0	0.4972816237767306	2.0109329446064144
ENSMUSG00000027684	0.0	0.4987314244291409	2.0050872093023258
ENSMUSG00000030232	0.0	0.5016310257339615	1.9934971098265901
ENSMUSG00000057691	0.0	0.5038057267125771	1.9848920863309352
ENSMUSG00000079038	0.0	0.5052555273649872	1.9791965566714493
ENSMUSG00000005442	0.0	0.5074302283436027	1.9707142857142859
ENSMUSG00000045519	0.0	0.5074302283436027	1.9707142857142859
ENSMUSG00000055817	0.0	0.5103298296484233	1.9595170454545454
ENSMUSG00000066551	0.0	0.5103298296484233	1.9595170454545454
ENSMUSG00000022463	0.0	0.5110547299746284	1.9567375886524825
ENSMUSG00000074824	0.0	0.5146792316056541	1.9429577464788736
ENSMUSG00000056592	0.0	0.5204784342152954	1.9213091922005572
ENSMUSG00000020923	0.0	0.5226531351939108	1.9133148404993068
ENSMUSG00000025930	0.0	0.5241029358463211	1.9080221300138316
ENSMUSG00000032497	0.0	0.5306270387821674	1.8845628415300546
ENSMUSG00000052135	0.0	0.5342515404131931	1.8717774762550885
ENSMUSG00000008393	0.0	0.5422254440014498	1.8442513368983957
ENSMUSG00000069206	0.0	0.5429503443276549	1.8417890520694262
ENSMUSG00000030256	1.0	0.5567234505255526	1.7962239583333337
ENSMUSG00000048410	0.0	0.5574483508517578	1.7938881664499353
ENSMUSG00000001288	0.0	0.5574483508517578	1.7938881664499353
ENSMUSG00000046982	0.0	0.5588981515041681	1.789234760051881
ENSMUSG00000034800	0.0	0.5603479521565784	1.7846054333764556
ENSMUSG00000026630	0.0	0.5617977528089887	1.7800000000000002
ENSMUSG00000034518	0.0	0.5625226531351939	1.7777061855670104
ENSMUSG00000060427	0.0	0.5639724537876041	1.7731362467866327
ENSMUSG00000020919	0.0	0.5697716563972454	1.7550890585241732
ENSMUSG00000042439	0.0	0.5704965567234505	1.7528589580686151
ENSMUSG00000052040	0.0	0.5712214570496555	1.750634517766498
ENSMUSG00000038482	0.0	0.5712214570496555	1.750634517766498
ENSMUSG00000073197	0.0	0.5733961580282709	1.743994943109988
ENSMUSG00000038895	0.0	0.5741210583544762	1.7417929292929293
ENSMUSG00000002617	0.0	0.5762957593330916	1.7352201257861637
ENSMUSG00000009741	0.0	0.5777455599855019	1.7308657465495612
ENSMUSG00000003282	0.0	0.5791953606379122	1.7265331664580728
ENSMUSG00000071256	0.0	0.5791953606379122	1.7265331664580728
ENSMUSG00000049600	0.0	0.5828198622689379	1.7157960199004978
ENSMUSG00000027667	0.0	0.5878941645523741	1.7009864364981504
ENSMUSG00000036036	0.0	0.5886190648785791	1.698891625615764
ENSMUSG00000027109	0.0	0.5893439652047843	1.6968019680196804
ENSMUSG00000051390	0.0	0.5929684668358101	1.6864303178484108
ENSMUSG00000023079	0.0	0.5936933671620152	1.6843711843711846
ENSMUSG00000048249	0.0	0.612540775643349	1.632544378698225
ENSMUSG00000042320	0.0	0.612540775643349	1.632544378698225
ENSMUSG00000074519	0.0	0.6183399782529901	1.6172332942555687
ENSMUSG00000024137	0.0	0.6190648785791953	1.6153395784543325
ENSMUSG00000022228	0.0	0.6197897789054004	1.613450292397661
ENSMUSG00000043090	0.0	0.6205146792316055	1.611565420560748
ENSMUSG00000016087	0.0	0.6248640811888364	1.6003480278422277
ENSMUSG00000000282	0.0	0.6263138818412468	1.5966435185185186
ENSMUSG00000079509	0.0	0.6350126857557085	1.5747716894977173
ENSMUSG00000000440	0.0	0.6400869880391445	1.5622876557191394
ENSMUSG00000029313	0.0	0.6422616890177599	1.5569977426636572
ENSMUSG00000062944	0.0	0.6429865893439651	1.5552423900789178
ENSMUSG00000025025	0.0	0.6458861906487857	1.548260381593715
ENSMUSG00000074862	0.0	0.6473359913011961	1.5447928331466965
ENSMUSG00000034429	0.0	0.6538600942370424	1.529379157427938
ENSMUSG00000054716	0.0	0.6553098948894526	1.5259955752212393
ENSMUSG00000078768	0.0	0.6560347952156578	1.5243093922651936
ENSMUSG00000019338	0.0	0.6574845958680681	1.5209481808158767
ENSMUSG00000022306	0.0	0.6589343965204784	1.5176017601760177
ENSMUSG00000041258	0.0	0.6611090974990939	1.5126096491228072
ENSMUSG00000063894	0.0	0.6632837984777092	1.507650273224044
ENSMUSG00000070495	0.0	0.6647335991301195	1.504362050163577
ENSMUSG00000024238	0.0	0.6669083001087349	1.4994565217391307
ENSMUSG00000003032	0.0	0.6683581007611453	1.4962039045553146
ENSMUSG00000039081	0.0	0.6698079014135555	1.4929653679653683
ENSMUSG00000037935	0.0	0.6698079014135555	1.4929653679653683
ENSMUSG00000020248	0.0	0.6705328017397607	1.4913513513513514
ENSMUSG00000045268	0.0	0.6734324030445813	1.484930032292788
ENSMUSG00000040054	0.0	0.6756071040231968	1.4801502145922747
ENSMUSG00000051341	0.0	0.6799565059804276	1.4706823027718552
ENSMUSG00000054931	0.0	0.6879304095686842	1.4536354056902003
ENSMUSG00000047143	0.0	0.6930047118521203	1.4429916317991631
ENSMUSG00000005836	0.0	0.6930047118521203	1.4429916317991631
ENSMUSG00000030823	0.0	0.6944545125045305	1.439979123173278
ENSMUSG00000027806	0.0	0.6944545125045305	1.439979123173278
ENSMUSG00000028042	0.0	0.6951794128307357	1.4384775808133474
ENSMUSG00000074867	0.0	0.6988039144617614	1.4310165975103737
ENSMUSG00000029771	0.0	0.7053280173976078	1.4177800616649539
ENSMUSG00000050714	0.0	0.7082276187024283	1.411975435005118
ENSMUSG00000022361	0.0	0.7118521203334541	1.404786150712831
ENSMUSG00000030189	0.0	0.7147517216382746	1.399087221095335
ENSMUSG00000001280	0.0	0.7183762232693003	1.3920282542885978
ENSMUSG00000038705	0.0	0.7183762232693003	1.3920282542885978
ENSMUSG00000021327	0.0	0.7198260239217107	1.3892245720040284
ENSMUSG00000007415	0.0	0.7220007249003261	1.3850401606425706
ENSMUSG00000037896	0.0	0.7270750271837622	1.3753738783649054
ENSMUSG00000017421	0.0	0.7285248278361725	1.372636815920398
ENSMUSG00000074733	0.0	0.7335991301196084	1.3631422924901189
ENSMUSG00000022809	0.0	0.7357738310982239	1.359113300492611
ENSMUSG00000047342	0.0	0.7379485320768393	1.3551080550098233
ENSMUSG00000024206	0.0	0.7386734324030445	1.3537782139352308
ENSMUSG00000037174	0.0	0.7386734324030445	1.3537782139352308
ENSMUSG00000044807	0.0	0.7393983327292496	1.3524509803921572
ENSMUSG00000038342	0.0	0.7466473359913011	1.3393203883495148
ENSMUSG00000022346	0.0	0.7480971366437114	1.3367248062015507
ENSMUSG00000003929	0.0	0.7495469372961218	1.3341392649903288
ENSMUSG00000020484	0.0	0.750996737948532	1.3315637065637067
ENSMUSG00000040270	0.0	0.7524465386009423	1.3289980732177264
ENSMUSG00000003154	0.0	0.7553461399057628	1.3238963531669867
ENSMUSG00000010175	0.0	0.756071040231968	1.3226270373921383
ENSMUSG00000001521	0.0	0.7647698441464298	1.3075829383886257
ENSMUSG00000028634	0.0	0.7662196447988401	1.3051087984862821
ENSMUSG00000040943	0.0	0.7669445451250453	1.303875236294896
ENSMUSG00000045302	0.0	0.7705690467560709	1.2977422389463784
ENSMUSG00000058886	0.0	0.7712939470822759	1.296522556390978
ENSMUSG00000053552	0.0	0.7727437477346863	1.2940900562851785
ENSMUSG00000054199	0.0	0.7749184487133018	1.2904583723105707
ENSMUSG00000050954	0.0	0.7763682493657121	1.2880485527544352
ENSMUSG00000051149	0.0	0.7814425516491482	1.2796846011131726
ENSMUSG00000078502	0.0	0.7828923523015584	1.277314814814815
ENSMUSG00000061079	0.0	0.7836172526277636	1.2761332099907494
ENSMUSG00000032405	0.0	0.7850670532801738	1.2737765466297326
ENSMUSG00000019947	0.0	0.785791953606379	1.2726014760147604
ENSMUSG00000056014	0.0	0.7879666545849945	1.2690892364305428
ENSMUSG00000020364	0.0	0.795215657847046	1.257520510483136
ENSMUSG00000021972	0.0	0.795215657847046	1.257520510483136
ENSMUSG00000020167	0.0	0.795940558173251	1.2563752276867033
ENSMUSG00000092544	0.0	0.8010148604566871	1.2484162895927604
ENSMUSG00000003923	0.0	0.8010148604566871	1.2484162895927604
ENSMUSG00000038331	0.0	0.8024646611090974	1.246160794941283
ENSMUSG00000026565	0.0	0.8039144617615077	1.2439134355275023
ENSMUSG00000024050	0.0	0.8053642624139179	1.241674167416742
ENSMUSG00000039967	0.0	0.8053642624139179	1.241674167416742
ENSMUSG00000066687	0.0	0.8089887640449438	1.2361111111111112
ENSMUSG00000020644	0.0	0.810438564697354	1.2338998211091237
ENSMUSG00000056383	0.0	0.8111634650235592	1.232797140303843
ENSMUSG00000015627	0.0	0.8126132656759695	1.2305976806422838
ENSMUSG00000015597	0.0	0.8133381660021746	1.2295008912655974
ENSMUSG00000054967	0.0	0.8147879666545849	1.2273131672597868
ENSMUSG00000024695	0.0	0.8162377673069953	1.225133214920071
ENSMUSG00000060336	0.0	0.8169626676332002	1.2240461401952087
ENSMUSG00000074865	0.0	0.8198622689380209	1.219717064544651
ENSMUSG00000020420	0.0	0.8205871692642259	1.218639575971732
ENSMUSG00000026788	0.0	0.8220369699166363	1.2164902998236333
ENSMUSG00000090659	0.0	0.8220369699166363	1.2164902998236333
ENSMUSG00000020453	0.0	0.8249365712214569	1.2122144112478033
ENSMUSG00000067367	0.0	0.8271112722000723	1.2090271691498689
ENSMUSG00000044876	0.0	0.8292859731786878	1.2058566433566436
ENSMUSG00000019817	0.0	0.8321855744835084	1.2016550522648086
ENSMUSG00000023882	0.0	0.8350851757883291	1.1974826388888888
ENSMUSG00000034968	0.0	0.8372598767669445	1.1943722943722945
ENSMUSG00000000078	0.0	0.8372598767669445	1.1943722943722945
ENSMUSG00000068823	0.0	0.840159478071765	1.1902502157031924
ENSMUSG00000042390	0.0	0.8416092787241752	1.1881998277347117
ENSMUSG00000047638	0.0	0.8452337803552009	1.183104631217839
ENSMUSG00000000439	0.0	0.8459586806814062	1.1820908311910883
ENSMUSG00000039087	0.0	0.8582819862268938	1.1651182432432432
ENSMUSG00000002393	0.0	0.8582819862268938	1.1651182432432432
ENSMUSG00000016503	0.0	0.8677056904675606	1.1524644945697577
ENSMUSG00000032228	0.0	0.8684305907937657	1.1515025041736229
ENSMUSG00000030057	0.0	0.8691554911199709	1.1505421184320268
ENSMUSG00000037025	0.0	0.8713301920985863	1.1476705490848587
ENSMUSG00000024563	0.0	0.8713301920985863	1.1476705490848587
ENSMUSG00000070691	0.0	0.8735048930772017	1.144813278008299
ENSMUSG00000023927	0.0	0.8880028996013047	1.126122448979592
ENSMUSG00000010476	0.0	0.8901776005799202	1.123371335504886
ENSMUSG00000060397	0.0	0.8930772018847407	1.1197240259740262
ENSMUSG00000048349	0.0	0.8945270025371508	1.1179092382495952
ENSMUSG00000037465	0.0	0.8959768031895613	1.1161003236245957
ENSMUSG00000037395	0.0	0.9003262051467923	1.1107085346215781
ENSMUSG00000046179	0.0	0.9010511054729972	1.109814963797265
ENSMUSG00000079560	0.0	0.9054005074302284	1.1044835868694955
ENSMUSG00000042903	0.0	0.9061254077564334	1.1036000000000001
ENSMUSG00000057637	0.0	0.9075752084088438	1.1018370607028753
ENSMUSG00000026398	0.0	0.9083001087350489	1.1009577015163607
ENSMUSG00000078435	0.0	0.9097499093874593	1.099203187250996
ENSMUSG00000023990	0.0	0.9155491119971002	1.092240696753761
ENSMUSG00000066829	0.0	0.9213483146067414	1.0853658536585369
ENSMUSG00000000134	0.0	0.9235230155853571	1.0828100470957613
ENSMUSG00000053390	0.0	0.9380210221094596	1.066074188562597
ENSMUSG00000078868	0.0	0.9401957230880752	1.0636083269082501
ENSMUSG00000042821	0.0	0.9510692279811526	1.0514481707317074
ENSMUSG00000067942	0.0	0.9517941283073575	1.0506473724295509
ENSMUSG00000015697	0.0	0.9517941283073575	1.0506473724295509
ENSMUSG00000046897	0.0	0.953968829285973	1.0482522796352585
ENSMUSG00000029014	0.0	0.953968829285973	1.0482522796352585
ENSMUSG00000035877	0.0	0.9554186299383832	1.046661608497724
ENSMUSG00000057409	0.0	0.9612178325480244	1.0403469079939671
ENSMUSG00000044501	0.0	0.9662921348314606	1.0348837209302326
ENSMUSG00000070420	0.0	0.968466835810076	1.032559880239521
ENSMUSG00000018654	0.0	0.9764407393983324	1.0241276911655535
ENSMUSG00000022708	0.0	0.983689742660384	1.0165806927044954
ENSMUSG00000090641	0.0	0.9844146429865892	1.0158321060382918
ENSMUSG00000034071	0.0	0.9894889452700252	1.0106227106227108
ENSMUSG00000005583	0.0	0.9909387459224356	1.0091441111923922
ENSMUSG00000052435	0.0	0.9916636462486408	1.008406432748538
ENSMUSG00000031431	0.0	0.9945632475534611	1.0054664723032072
ENSMUSG00000025229	0.0	0.9996375498368972	1.000362581580856
ENSMUSG00000037868	0.0	1.0003624501631023	0.9996376811594205
ENSMUSG00000042185	0.0	1.0061616527727435	0.9938760806916429
ENSMUSG00000038700	0.0	1.009061254077564	0.991020114942529
ENSMUSG00000027582	0.0	1.011960855382385	0.9881805157593123
ENSMUSG00000036898	0.0	1.0148604566872057	0.9853571428571427
ENSMUSG00000049823	0.0	1.0177600579920258	0.9825498575498578
ENSMUSG00000027985	0.0	1.0221094599492568	0.9783687943262412
ENSMUSG00000029832	0.0	1.023559260601667	0.9769830028328614
ENSMUSG00000038418	0.0	1.0242841609278723	0.9762915782024063
ENSMUSG00000022641	0.0	1.0242841609278723	0.9762915782024063
ENSMUSG00000043753	0.0	1.027183762232693	0.9735356386732534
ENSMUSG00000039089	0.0	1.0293584632113082	0.9714788732394368
ENSMUSG00000063659	0.0	1.0300833635375135	0.9707952146375792
ENSMUSG00000009406	0.0	1.0344327654947445	0.9667133847231955
ENSMUSG00000024513	0.0	1.0373323667995649	0.9640111809923132
ENSMUSG00000023027	0.0	1.041681768756796	0.9599860821155183
ENSMUSG00000071281	0.0	1.0453062703878215	0.9566574202496534
ENSMUSG00000023284	0.0	1.0474809713664368	0.9546712802768169
ENSMUSG00000040841	0.0	1.048205871692642	0.9540110650069159
ENSMUSG00000055480	0.0	1.0685030808263862	0.9358887381275443
ENSMUSG00000045466	0.0	1.0699528814787966	0.934620596205962
ENSMUSG00000059436	0.0	1.0714026821312068	0.9333558863328824
ENSMUSG00000063568	0.0	1.0757520840884378	0.9295822102425876
ENSMUSG00000027796	0.0	1.0793765857194637	0.9264607118871725
ENSMUSG00000048763	0.0	1.0808263863718741	0.925217974513749
ENSMUSG00000068130	0.0	1.0866255889815148	0.9202801867911943
ENSMUSG00000023034	0.0	1.0880753896339252	0.9190539640239841
ENSMUSG00000015501	0.0	1.0880753896339252	0.9190539640239841
ENSMUSG00000044452	0.0	1.0967741935483868	0.9117647058823531
ENSMUSG00000052675	0.0	1.0967741935483868	0.9117647058823531
ENSMUSG00000039656	0.0	1.097499093874592	0.9111624834874505
ENSMUSG00000030604	0.0	1.106922798115259	0.903405370006549
ENSMUSG00000044167	0.0	1.107647698441464	0.9028141361256546
ENSMUSG00000073062	0.0	1.1105472997462849	0.9004569190600522
ENSMUSG00000040321	0.0	1.11127220007249	0.8998695368558383
ENSMUSG00000022529	0.0	1.111997100398695	0.8992829204693613
ENSMUSG00000048921	0.0	1.111997100398695	0.8992829204693613
ENSMUSG00000022508	0.0	1.1127220007249	0.8986970684039092
ENSMUSG00000042496	0.0	1.117071402682131	0.8951979234263467
ENSMUSG00000092335	0.0	1.1221457049655672	0.8911498708010336
ENSMUSG00000046185	0.0	1.1228706052917723	0.8905745642349904
ENSMUSG00000028890	0.0	1.1235955056179774	0.8900000000000001
ENSMUSG00000025128	0.0	1.1250453062703878	0.8888530927835052
ENSMUSG00000071064	0.0	1.130844508880029	0.8842948717948719
ENSMUSG00000054717	0.0	1.130844508880029	0.8842948717948719
ENSMUSG00000069171	0.0	1.1359188111634648	0.8803446075303129
ENSMUSG00000074166	0.0	1.140993113446901	0.8764294790343076
ENSMUSG00000027067	0.0	1.1438927147517215	0.8742078580481624
ENSMUSG00000039205	0.0	1.156940920623414	0.8643483709273185
ENSMUSG00000060601	0.0	1.1598405219282348	0.8621875
ENSMUSG00000030446	0.0	1.1641899238854656	0.8589663760896639
ENSMUSG00000001472	0.0	1.1670895251902862	0.8568322981366461
ENSMUSG00000021379	0.0	1.1685393258426966	0.8557692307692308
ENSMUSG00000078546	0.0	1.1685393258426966	0.8557692307692308
ENSMUSG00000051550	0.0	1.1692642261689017	0.8552386856788593
ENSMUSG00000022526	0.0	1.1736136281261325	0.8520691785052503
ENSMUSG00000029553	0.0	1.1757883291047482	0.8504932182490752
ENSMUSG00000058192	0.0	1.1823124320405942	0.845800122624157
ENSMUSG00000036672	0.0	1.1852120333454148	0.8437308868501531
ENSMUSG00000024298	0.0	1.1968104385646972	0.8355542095699577
ENSMUSG00000051037	0.0	1.2004349401957228	0.8330314009661838
ENSMUSG00000007812	0.0	1.2047843421529538	0.8300240673886884
ENSMUSG00000041515	0.0	1.2091337441101848	0.8270383693045564
ENSMUSG00000057894	0.0	1.2156578470460309	0.8225998807394158
ENSMUSG00000004500	0.0	1.2178325480246466	0.8211309523809524
ENSMUSG00000047141	0.0	1.2178325480246466	0.8211309523809524
ENSMUSG00000040891	0.0	1.2229068503080824	0.8177237700059278
ENSMUSG00000074607	0.0	1.2323305545487495	0.8114705882352942
ENSMUSG00000006720	0.0	1.2323305545487495	0.8114705882352942
ENSMUSG00000040929	0.0	1.2388546574845958	0.8071971913399649
ENSMUSG00000027439	0.0	1.2395795578108009	0.8067251461988305
ENSMUSG00000009733	0.0	1.2461036607466471	0.8025014543339152
ENSMUSG00000018651	0.0	1.2490032620514675	0.8006384213580966
ENSMUSG00000000942	0.0	1.2511779630300832	0.7992468134414833
ENSMUSG00000047603	0.0	1.2533526640086987	0.7978600347021401
ENSMUSG00000020656	0.0	1.2627763682493656	0.7919058553386913
ENSMUSG00000052942	0.0	1.2635012685755709	0.791451520367183
ENSMUSG00000033883	0.0	1.2664008698803912	0.789639381797367
ENSMUSG00000026279	0.0	1.2671257702065966	0.789187643020595
ENSMUSG00000068962	0.0	1.270025371511417	0.7873858447488586
ENSMUSG00000021250	0.0	1.2779992750996738	0.7824730572887124
ENSMUSG00000021779	0.0	1.2794490757520838	0.7815864022662892
ENSMUSG00000039191	0.0	1.2866980790141354	0.7771830985915494
ENSMUSG00000067929	0.0	1.2881478796665458	0.7763083849184018
ENSMUSG00000027938	0.0	1.2888727799927508	0.7758717660292465
ENSMUSG00000059552	0.0	1.2895976803189562	0.7754356379988757
ENSMUSG00000059475	0.0	1.2895976803189562	0.7754356379988757
ENSMUSG00000057469	0.0	1.3156940920623412	0.7600550964187329
ENSMUSG00000030380	0.0	1.3178687930409567	0.7588008800880088
ENSMUSG00000028389	0.0	1.3352664008698802	0.7489142236699241
ENSMUSG00000038535	0.0	1.3396158028271108	0.7464826839826842
ENSMUSG00000071266	0.0	1.3497644073939832	0.7408700322234157
ENSMUSG00000022811	0.0	1.3570134106560348	0.7369123931623932
ENSMUSG00000049295	0.0	1.3613628126132655	0.7345580404685836
ENSMUSG00000032425	0.0	1.3693367162015222	0.7302805717310747
ENSMUSG00000002983	0.0	1.373686118158753	0.7279683377308708
ENSMUSG00000029913	0.0	1.3751359188111634	0.7272008434370059
ENSMUSG00000054939	0.0	1.378760420442189	0.7252891692954785
ENSMUSG00000024220	0.0	1.378760420442189	0.7252891692954785
ENSMUSG00000041483	0.0	1.3802102210945997	0.7245273109243696
ENSMUSG00000039699	0.0	1.3860094237042406	0.7214958158995816
ENSMUSG00000028977	0.0	1.3867343240304455	0.7211186617877681
ENSMUSG00000034998	0.0	1.393258426966292	0.717741935483871
ENSMUSG00000067931	0.0	1.393983327292497	0.71736869474779
ENSMUSG00000004151	0.0	1.3968829285973177	0.7158796056045668
ENSMUSG00000024276	0.0	1.4063066328379847	0.7110824742268042
ENSMUSG00000023467	0.0	1.409206234142805	0.7096193415637861
ENSMUSG00000056459	0.0	1.4099311344690104	0.709254498714653
ENSMUSG00000000861	0.0	1.4135556361000359	0.7074358974358976
ENSMUSG00000022952	0.0	1.416455237404857	0.7059877175025588
ENSMUSG00000036098	0.0	1.4179050380572669	0.7052658486707568
ENSMUSG00000033669	0.0	1.4208046393620877	0.7038265306122449
ENSMUSG00000046351	0.0	1.4215295396882928	0.7034676185619583
ENSMUSG00000005698	0.0	1.422254440014498	0.7031090723751274
ENSMUSG00000046556	0.0	1.4237042406669083	0.7023930753564155
ENSMUSG00000060314	0.0	1.4237042406669083	0.7023930753564155
ENSMUSG00000032515	0.0	1.4251540413193184	0.701678535096643
ENSMUSG00000048251	0.0	1.428778542950344	0.6998985286656522
ENSMUSG00000026872	0.0	1.4316781442551647	0.6984810126582279
ENSMUSG00000050605	0.0	1.4353026458861906	0.6967171717171717
ENSMUSG00000021540	0.0	1.4360275462123957	0.6963654719838466
ENSMUSG00000034271	0.0	1.4505255527364986	0.6894052973513244
ENSMUSG00000053600	0.0	1.4563247553461396	0.6866600298656049
ENSMUSG00000063455	0.0	1.4621239579557808	0.6839365394149729
ENSMUSG00000078867	0.0	1.4628488582819859	0.6835976214073342
ENSMUSG00000037007	0.0	1.4671982602392168	0.6815711462450594
ENSMUSG00000048402	0.0	1.478071765132294	0.6765571358509074
ENSMUSG00000045817	0.0	1.4787966654584992	0.6762254901960786
ENSMUSG00000028807	0.0	1.4787966654584992	0.6762254901960786
ENSMUSG00000008193	0.0	1.4831460674157302	0.6742424242424243
ENSMUSG00000078877	0.0	1.486770569046756	0.6725987323256948
ENSMUSG00000037034	0.0	1.4882203696991665	0.6719434973209936
ENSMUSG00000043602	0.0	1.492569771656397	0.6699854298203012
ENSMUSG00000028639	0.0	1.4947444726350123	0.6690106692531524
ENSMUSG00000032481	0.0	1.501993475897064	0.6657818532818534
ENSMUSG00000031902	0.0	1.507792678506705	0.663221153846154
ENSMUSG00000055148	0.0	1.5099673794853208	0.6622659625540086
ENSMUSG00000063383	0.0	1.526640086988039	0.6550332383665718
ENSMUSG00000034522	0.0	1.5396882928597315	0.6494821092278721
ENSMUSG00000025959	0.0	1.5505617977528088	0.6449275362318841
ENSMUSG00000030544	0.0	1.5527364987314245	0.6440242763772175
ENSMUSG00000004661	0.0	1.5549111997100395	0.6431235431235433
ENSMUSG00000053985	0.0	1.5556361000362449	0.6428238583410998
ENSMUSG00000052684	0.0	1.5643349039507066	0.6392493049119555
ENSMUSG00000019878	0.0	1.5650598042769115	0.6389532190829089
ENSMUSG00000005718	0.0	1.5650598042769115	0.6389532190829089
ENSMUSG00000014030	0.0	1.5672345052555272	0.6380666049953747
ENSMUSG00000069729	0.0	1.5701341065603476	0.6368882733148663
ENSMUSG00000072294	0.0	1.5897064153678866	0.6290469676242592
ENSMUSG00000042589	0.0	1.5911562160202968	0.6284738041002279
ENSMUSG00000018750	0.0	1.5984052192823486	0.6256235827664399
ENSMUSG00000026826	0.0	1.6071040231968103	0.6222372575552549
ENSMUSG00000025105	0.0	1.6092787241754256	0.6213963963963965
ENSMUSG00000028341	0.0	1.6092787241754256	0.6213963963963965
ENSMUSG00000061898	0.0	1.6150779267850668	0.6191651705565531
ENSMUSG00000028717	0.0	1.6172526277636825	0.6183325862841775
ENSMUSG00000021366	0.0	1.618702428416093	0.6177787729511867
ENSMUSG00000040433	0.0	1.6339253352664005	0.6120230700976044
ENSMUSG00000018983	0.0	1.6411743385284518	0.609319787985866
ENSMUSG00000038797	0.0	1.6447988401594775	0.607977082415161
ENSMUSG00000037188	0.0	1.645523740485683	0.6077092511013217
ENSMUSG00000004359	0.0	1.6469735411380937	0.6071742957746479
ENSMUSG00000018501	0.0	1.652047843421529	0.6053093462044759
ENSMUSG00000026104	0.0	1.6563972453787603	0.6037199124726478
ENSMUSG00000056501	0.0	1.6578470460311705	0.6031919545255794
ENSMUSG00000026222	0.0	1.6600217470097858	0.602401746724891
ENSMUSG00000047407	0.0	1.6701703515766582	0.5987413194444444
ENSMUSG00000037001	0.0	1.6737948532076836	0.5974447812906021
ENSMUSG00000015942	0.0	1.6882928597317866	0.5923142979819667
ENSMUSG00000018604	0.0	1.6882928597317866	0.5923142979819667
ENSMUSG00000051451	0.0	1.6926422616890175	0.5907922912205568
ENSMUSG00000031907	0.0	1.6933671620152226	0.5905393835616439
ENSMUSG00000092260	0.0	1.7071402682131205	0.5857749469214438
ENSMUSG00000058402	0.0	1.7071402682131205	0.5857749469214438
ENSMUSG00000025958	0.0	1.7194635737586081	0.5815767284991569
ENSMUSG00000030796	0.0	1.7209133744110183	0.5810867733782645
ENSMUSG00000078994	0.0	1.7310619789778905	0.5776800670016751
ENSMUSG00000055305	0.0	1.7412105835447624	0.5743130724396337
ENSMUSG00000051034	0.0	1.7491844871330189	0.5716949854952342
ENSMUSG00000038845	0.0	1.7520840884378397	0.5707488622258999
ENSMUSG00000054381	0.0	1.7520840884378397	0.5707488622258999
ENSMUSG00000072889	0.0	1.7578832910474806	0.5688659793814435
ENSMUSG00000029178	0.0	1.7593330916998908	0.5683971981870624
ENSMUSG00000043668	0.0	1.7622326930047116	0.5674619498148911
ENSMUSG00000078779	0.0	1.7644073939833271	0.5667625308134758
ENSMUSG00000044636	0.0	1.7658571946357375	0.5662972085385879
ENSMUSG00000025323	0.0	1.7673069952881475	0.5658326497128795
ENSMUSG00000034551	0.0	1.7680318956143528	0.5656006560065602
ENSMUSG00000057982	0.0	1.7687567959405581	0.5653688524590164
ENSMUSG00000032329	0.0	1.7752808988764044	0.5632911392405063
ENSMUSG00000036144	0.0	1.789778905400507	0.558728230052653
ENSMUSG00000062397	0.0	1.7992026096411742	0.5558017727639001
ENSMUSG00000063972	0.0	1.8006524102935846	0.5553542673107891
ENSMUSG00000049577	0.0	1.803552011598405	0.5544614147909969
ENSMUSG00000027201	0.0	1.8108010148604563	0.5522417934347479
ENSMUSG00000047907	0.0	1.8137006161652767	0.5513589128697044
ENSMUSG00000025470	0.0	1.8325480246466108	0.5456882911392406
ENSMUSG00000039095	0.0	1.8383472272562518	0.543966876971609
ENSMUSG00000002111	0.0	1.8383472272562518	0.543966876971609
ENSMUSG00000039521	0.0	1.8405219282348677	0.543324143363529
ENSMUSG00000029249	0.0	1.848495831823124	0.5409803921568629
ENSMUSG00000030678	0.0	1.8513954331279447	0.5401331245105717
ENSMUSG00000068959	0.0	1.8513954331279447	0.5401331245105717
ENSMUSG00000030757	0.0	1.862268938021022	0.5369793694044376
ENSMUSG00000056019	0.0	1.8651685393258424	0.5361445783132531
ENSMUSG00000030059	0.0	1.8709677419354835	0.5344827586206897
ENSMUSG00000025407	0.0	1.8745922435665092	0.533449342614076
ENSMUSG00000058638	0.0	1.8883653497644075	0.5295585412667946
ENSMUSG00000052271	0.0	1.8883653497644075	0.5295585412667946
ENSMUSG00000040524	0.0	1.891264951069228	0.5287466462246071
ENSMUSG00000025019	0.0	1.897789054005074	0.5269289533995417
ENSMUSG00000074529	0.0	1.8992388546574843	0.526526717557252
ENSMUSG00000027551	0.0	1.9006886553098945	0.5261250953470634
ENSMUSG00000037214	0.0	1.9014135556361	0.5259245139153641
ENSMUSG00000026577	0.0	1.906487857919536	0.5245247148288974
ENSMUSG00000045251	0.0	1.9086625588981512	0.5239270793771365
ENSMUSG00000025255	0.0	1.9101123595505616	0.5235294117647059
ENSMUSG00000091183	0.0	1.9325842696629207	0.5174418604651164
ENSMUSG00000064141	0.0	1.9362087712939469	0.5164732309996257
ENSMUSG00000038253	0.0	1.9412830735773827	0.5151232262882749
ENSMUSG00000062861	0.0	1.9492569771656396	0.513015991074749
ENSMUSG00000027466	0.0	1.9492569771656396	0.513015991074749
ENSMUSG00000001065	0.0	1.9586806814063065	0.5105477424130275
ENSMUSG00000071267	0.0	1.9637549836897423	0.5092284976005907
ENSMUSG00000050846	0.0	1.9688292859731784	0.5079160530191459
ENSMUSG00000022760	0.0	1.9717288872779992	0.5071691176470589
ENSMUSG00000048047	0.0	1.9724537876042043	0.5069827269386256
ENSMUSG00000021318	0.0	1.9731786879304092	0.5067964731814844
ENSMUSG00000026017	0.0	1.9731786879304092	0.5067964731814844
ENSMUSG00000043467	0.0	1.97607828923523	0.506052824651504
ENSMUSG00000053477	0.0	1.97752808988764	0.5056818181818183
ENSMUSG00000047371	0.0	1.97752808988764	0.5056818181818183
ENSMUSG00000033964	0.0	1.9869517941283072	0.503283473184969
ENSMUSG00000045680	0.0	1.9963754983689737	0.5009077705156139
ENSMUSG00000039377	0.0	1.9978252990213845	0.500544267053701
ENSMUSG00000068551	0.0	2.008698803914461	0.49783471670876955
ENSMUSG00000056216	0.0	2.0202972091337443	0.49497667743092927
ENSMUSG00000062012	0.0	2.021022109459949	0.49479913916786233
ENSMUSG00000032035	0.0	2.02392171076477	0.49409025787965616
ENSMUSG00000021356	0.0	2.0246466110909753	0.4939133548156104
ENSMUSG00000015053	0.0	2.029720913374411	0.49267857142857147
ENSMUSG00000039153	0.0	2.0318956143530262	0.49215126650017843
ENSMUSG00000032446	0.0	2.0398695179412827	0.4902274342572851
ENSMUSG00000005148	0.0	2.0427691192461035	0.48953158268275376
ENSMUSG00000030699	0.0	2.045668720550924	0.4888377037562014
ENSMUSG00000023781	0.0	2.047843421529539	0.4883185840707966
ENSMUSG00000039275	0.0	2.05074302283436	0.4876281371509368
ENSMUSG00000038648	0.0	2.052917723812976	0.48711158192090387
ENSMUSG00000031965	0.0	2.056542225444001	0.4862530842439197
ENSMUSG00000037169	0.0	2.0623414280536423	0.48488576449912135
ENSMUSG00000036983	0.0	2.0637912287060534	0.48454513523006665
ENSMUSG00000047036	0.0	2.070315331641899	0.48301820728291317
ENSMUSG00000040187	1.0	2.0790141355563607	0.4809972105997211
ENSMUSG00000021514	0.0	2.0920623414280537	0.477997227997228
ENSMUSG00000070605	0.0	2.093512142080464	0.4776662049861496
ENSMUSG00000029127	0.0	2.099311344690105	0.4763466850828729
ENSMUSG00000034266	0.0	2.115259151866618	0.4727553118574367
ENSMUSG00000035868	0.0	2.120333454150054	0.4716239316239317
ENSMUSG00000022205	0.0	2.1377310619789776	0.4677856900644287
ENSMUSG00000038560	0.0	2.1428053642624136	0.4666779431664412
ENSMUSG00000023932	0.0	2.150054367524465	0.46510451786918416
ENSMUSG00000057101	0.0	2.1507792678506705	0.4649477586788001
ENSMUSG00000032238	1.0	2.1609278724175423	0.4627641730962765
ENSMUSG00000030443	0.0	2.1732511779630297	0.46014009339559714
ENSMUSG00000048118	0.0	2.189198985139543	0.4567880794701987
ENSMUSG00000062743	0.0	2.215295396882928	0.4514070680628273
ENSMUSG00000022974	0.0	2.218194998187749	0.45081699346405235
ENSMUSG00000042812	0.0	2.2268938021022104	0.4490559895833334
ENSMUSG00000024561	0.0	2.2305183037332363	0.448326291842704
ENSMUSG00000031681	0.0	2.231243204059442	0.448180636777128
ENSMUSG00000020647	0.0	2.231243204059442	0.448180636777128
ENSMUSG00000057835	0.0	2.2406669083001085	0.4462956971853769
ENSMUSG00000015843	0.0	2.2464661109097497	0.4451435947079704
ENSMUSG00000032402	0.0	2.2624139180862626	0.4420057673822494
ENSMUSG00000074194	0.0	2.263138818412468	0.44186418962203716
ENSMUSG00000014592	0.0	2.2696629213483144	0.44059405940594065
ENSMUSG00000052056	0.0	2.2950344327654943	0.4357233101705623
ENSMUSG00000060261	0.0	2.3247553461399053	0.4301527907701903
ENSMUSG00000039841	0.0	2.3247553461399053	0.4301527907701903
ENSMUSG00000031885	0.0	2.3479521565784705	0.4259030564989194
ENSMUSG00000058291	0.0	2.3566509604929315	0.4243309750845895
ENSMUSG00000031665	0.0	2.362450163102573	0.4232893525621357
ENSMUSG00000016477	0.0	2.3682493657122143	0.4222528313437405
ENSMUSG00000061371	0.0	2.369699166364625	0.4219944937289691
ENSMUSG00000002265	0.0	2.3747734686480606	0.42109279609279615
ENSMUSG00000051413	0.0	2.3783979702790865	0.42045108198719905
ENSMUSG00000061374	0.0	2.3863718738673434	0.41904617253948967
ENSMUSG00000050295	0.0	2.3885465748459587	0.41866464339908954
ENSMUSG00000068966	0.0	2.3885465748459587	0.41866464339908954
ENSMUSG00000025369	0.0	2.3972453787604198	0.4171454490474752
ENSMUSG00000034430	0.0	2.4110184849583183	0.41476247745039085
ENSMUSG00000046532	0.0	2.421891989851395	0.4129003292427417
ENSMUSG00000071076	0.0	2.4320405944182677	0.411177347242921
ENSMUSG00000055835	0.0	2.440014498006524	0.4098336304218657
ENSMUSG00000052676	0.0	2.451612903225806	0.4078947368421053
ENSMUSG00000044186	0.0	2.4523378035520107	0.407774164942359
ENSMUSG00000078864	0.0	2.4537876042044218	0.4075332348596751
ENSMUSG00000079681	0.0	2.454512504530627	0.4074128765505021
ENSMUSG00000044149	0.0	2.455962305183037	0.40717237308146403
ENSMUSG00000039238	0.0	2.4755346139905763	0.4039531478770132
ENSMUSG00000017861	0.0	2.480608916274012	0.4031268264172999
ENSMUSG00000014303	0.0	2.4900326205146794	0.4016011644832605
ENSMUSG00000020120	0.0	2.5016310257339613	0.3997392060272385
ENSMUSG00000057406	0.0	2.5270025371511418	0.3957257601835915
ENSMUSG00000028101	0.0	2.534976440739398	0.3944809837003146
ENSMUSG00000005774	0.0	2.5364262413918084	0.3942555015718777
ENSMUSG00000028799	0.0	2.537151141718013	0.39414285714285724
ENSMUSG00000015846	0.0	2.5415005436752445	0.39346833998859104
ENSMUSG00000053080	0.0	2.5516491482421157	0.39190340909090926
ENSMUSG00000022286	0.0	2.5516491482421157	0.39190340909090926
ENSMUSG00000092416	0.0	2.553823849220732	0.39156968492761857
ENSMUSG00000070034	0.0	2.555998550199348	0.39123652864435615
ENSMUSG00000041540	0.0	2.5581732511779625	0.39090393879285923
ENSMUSG00000017950	0.0	2.5610728524827837	0.390461364279649
ENSMUSG00000045639	0.0	2.5617977528089884	0.3903508771929825
ENSMUSG00000044676	0.0	2.562522653135193	0.3902404526166904
ENSMUSG00000042508	0.0	2.562522653135193	0.3902404526166904
ENSMUSG00000018554	0.0	2.568321855744834	0.38935930002822483
ENSMUSG00000056758	0.0	2.56904675607104	0.38924943566591425
ENSMUSG00000073427	0.0	2.56904675607104	0.38924943566591425
ENSMUSG00000002249	0.0	2.5697716563972453	0.3891396332863188
ENSMUSG00000029729	0.0	2.5697716563972453	0.3891396332863188
ENSMUSG00000013419	0.0	2.5755708590068864	0.38826343934703067
ENSMUSG00000027210	0.0	2.584994563247553	0.38684800897363997
ENSMUSG00000004934	0.0	2.5886190648785785	0.38630635676281166
ENSMUSG00000052713	0.0	2.5893439652047845	0.3861982082866741
ENSMUSG00000026610	0.0	2.590068865530989	0.38609012034704737
ENSMUSG00000049410	0.0	2.5987676694454507	0.3847977684797769
ENSMUSG00000024420	0.0	2.6168901776005797	0.3821329639889197
ENSMUSG00000035478	0.0	2.6313881841246825	0.38002754820936646
ENSMUSG00000022895	0.0	2.6321130844508875	0.3799228862572295
ENSMUSG00000059897	0.0	2.6335628851032986	0.37971373520506463
ENSMUSG00000007805	0.0	2.6364624864081185	0.3792961231784438
ENSMUSG00000007880	0.0	2.6364624864081185	0.3792961231784438
ENSMUSG00000071291	0.0	2.639362087712939	0.3788794287283714
ENSMUSG00000040289	0.0	2.6400869880391444	0.378775398132894
ENSMUSG00000026098	0.0	2.6451612903225805	0.3780487804878049
ENSMUSG00000038721	0.0	2.651685393258427	0.37711864406779666
ENSMUSG00000078496	0.0	2.653135193910837	0.376912568306011
ENSMUSG00000051351	0.0	2.658209496194273	0.37619307335696756
ENSMUSG00000021575	0.0	2.6611090974990934	0.3757831653500409
ENSMUSG00000071646	0.0	2.6698079014135554	0.37455878360032585
ENSMUSG00000078862	0.0	2.6734324030445813	0.37405097613882865
ENSMUSG00000053950	0.0	2.6770569046756068	0.37354454373138374
ENSMUSG00000037674	0.0	2.6785067053280174	0.3733423545331529
ENSMUSG00000054715	0.0	2.687930409568684	0.37203344120819853
ENSMUSG00000015839	0.0	2.69300471185212	0.37133243606998656
ENSMUSG00000037235	0.0	2.69300471185212	0.37133243606998656
ENSMUSG00000007872	0.0	2.69735411380935	0.37073367374361743
ENSMUSG00000043991	0.0	2.69735411380935	0.37073367374361743
ENSMUSG00000063245	0.0	2.707502718376223	0.3693440428380188
ENSMUSG00000067424	0.0	2.7089525190286334	0.3691463740968692
ENSMUSG00000071477	0.0	2.7147517216382746	0.3683578104138852
ENSMUSG00000035529	0.0	2.7154766219644797	0.3682594767752269
ENSMUSG00000051510	0.0	2.7183762232693	0.36786666666666673
ENSMUSG00000018168	0.0	2.7212758245741213	0.3674746936600959
ENSMUSG00000078995	0.0	2.722000724900326	0.36737683089214385
ENSMUSG00000037640	0.0	2.7314244291409935	0.36610934182590227
ENSMUSG00000034161	0.0	2.7350489307720185	0.36562417174662076
ENSMUSG00000024548	0.0	2.7386734324030444	0.3651402858655374
ENSMUSG00000067430	0.0	2.7437477346864805	0.36446499339498023
ENSMUSG00000062794	0.0	2.7611453425154044	0.3621685481753741
ENSMUSG00000053347	0.0	2.761870242841609	0.3620734908136483
ENSMUSG00000073448	0.0	2.7749184487133007	0.36037095088819243
ENSMUSG00000061013	0.0	2.7756433490395067	0.36027683468268484
ENSMUSG00000024081	0.0	2.7872417542587886	0.3587776332899871
ENSMUSG00000051977	0.0	2.820587169264226	0.3545361089694166
ENSMUSG00000049421	0.0	2.8271112722000717	0.3537179487179488
ENSMUSG00000062519	0.0	2.8329104748097134	0.3529938587512795
ENSMUSG00000033972	0.0	2.8343602754621235	0.35281329923273663
ENSMUSG00000021359	0.0	2.83943457774556	0.3521827929537912
ENSMUSG00000020871	0.0	2.841609278724176	0.3519132653061224
ENSMUSG00000034333	0.0	2.844508880028996	0.3515545361875637
ENSMUSG00000072774	0.0	2.8532076839434573	0.3504827235772358
ENSMUSG00000031921	0.0	2.857557085900688	0.3499492643328261
ENSMUSG00000024927	0.0	2.8640811888365345	0.3491521133890155
ENSMUSG00000049184	0.0	2.8640811888365345	0.3491521133890155
ENSMUSG00000073423	0.0	2.8713301920985863	0.34827063872759406
ENSMUSG00000027544	0.0	2.873504893077201	0.34800706357214944
ENSMUSG00000035576	0.0	2.8923523015585357	0.3457393483709273
ENSMUSG00000021510	0.0	2.8945270025371506	0.3454795892812422
ENSMUSG00000049764	0.0	2.9003262051467917	0.34478880279930024
ENSMUSG00000034041	0.0	2.9090250090612537	0.34375778719162725
ENSMUSG00000029587	0.0	2.9119246103660745	0.34341548419218326
ENSMUSG00000000247	0.0	2.924247915911561	0.3419682697074865
ENSMUSG00000022010	0.0	2.9271475172163823	0.3416295195641407
ENSMUSG00000016458	0.0	2.9314969191736133	0.3411226508407518
ENSMUSG00000046792	0.0	2.9612178325480243	0.3376988984088128
ENSMUSG00000045757	0.0	2.9626676332004345	0.33753364325911434
ENSMUSG00000025912	0.0	2.9655672345052557	0.3372036176973845
ENSMUSG00000027230	0.0	2.979340340703154	0.3356447688564476
ENSMUSG00000078903	0.0	2.9800652410293584	0.33556312332765753
ENSMUSG00000039634	0.0	2.9873142442914102	0.3347488473671439
ENSMUSG00000059839	0.0	3.0010873504893074	0.33321256038647346
ENSMUSG00000042570	0.0	3.003986951794128	0.3328909266409267
ENSMUSG00000035041	0.0	3.004711852120333	0.33281061519903504
ENSMUSG00000001444	0.0	3.0090612540775643	0.33232955914237533
ENSMUSG00000050240	0.0	3.040231968104385	0.32892226990939444
ENSMUSG00000015605	0.0	3.0612540775643344	0.32666350935354016
ENSMUSG00000031079	0.0	3.0619789778905395	0.3265861742424243
ENSMUSG00000048485	0.0	3.067778180500181	0.325968809073724
ENSMUSG00000045598	0.0	3.0764769844146427	0.32504712535344016
ENSMUSG00000002147	0.0	3.080826386371873	0.3245882352941178
ENSMUSG00000048897	0.0	3.0851757883291038	0.3241306390977445
ENSMUSG00000026135	0.0	3.1301196085538234	0.3194766095414544
ENSMUSG00000040732	0.0	3.1344690105110544	0.31903330249768735
ENSMUSG00000019789	0.0	3.1460674157303368	0.3178571428571429
ENSMUSG00000029563	0.0	3.1496919173613622	0.31749136939010364
ENSMUSG00000074472	0.0	3.1605654222544395	0.3163990825688074
ENSMUSG00000036442	0.0	3.161290322580645	0.3163265306122449
ENSMUSG00000022556	0.0	3.1649148242116705	0.3159642693540999
ENSMUSG00000047534	0.0	3.1649148242116705	0.3159642693540999
ENSMUSG00000057098	0.0	3.1975353388909022	0.31274087508501475
ENSMUSG00000076431	0.0	3.2033345415005434	0.3121747001584069
ENSMUSG00000040712	0.0	3.2243566509604924	0.3101393884892087
ENSMUSG00000058900	0.0	3.2265313519391077	0.30993035272972375
ENSMUSG00000050619	0.0	3.2308807538963387	0.3095131254206866
ENSMUSG00000030386	0.0	3.245378760420442	0.3081304444940809
ENSMUSG00000091764	0.0	3.2620514679231603	0.3065555555555556
ENSMUSG00000030469	0.0	3.2671257702065963	0.30607943199467497
ENSMUSG00000062939	0.0	3.2758245741210583	0.3052666519141403
ENSMUSG00000078580	0.0	3.279449075752084	0.30492926613616267
ENSMUSG00000062101	0.0	3.2845233780355203	0.3044581770028691
ENSMUSG00000063281	0.0	3.291772381297571	0.3037877119577186
ENSMUSG00000005267	0.0	3.2924972816237763	0.3037208278291502
ENSMUSG00000027552	0.0	3.293947082276187	0.30358714788732394
ENSMUSG00000035934	0.0	3.320768394345777	0.3011351233355163
ENSMUSG00000026380	0.0	3.3243928959768034	0.3008068033144352
ENSMUSG00000037138	0.0	3.325117796303008	0.30074122520165686
ENSMUSG00000020137	0.0	3.3454150054367524	0.2989165763813651
ENSMUSG00000050410	0.0	3.3541138093512135	0.2981413442835531
ENSMUSG00000059423	0.0	3.3570134106560343	0.29788382638738936
ENSMUSG00000055633	0.0	3.376585719463573	0.29615714899098333
ENSMUSG00000078872	0.0	3.3802102210945986	0.2958395882479092
ENSMUSG00000038615	0.0	3.383834722725625	0.29552270779777207
ENSMUSG00000048138	0.0	3.393983327292497	0.2946390431439556
ENSMUSG00000066880	0.0	3.393983327292497	0.2946390431439556
ENSMUSG00000055435	0.0	3.405581732511779	0.29363558961260117
ENSMUSG00000001493	0.0	3.4084813338166	0.2933857932794556
ENSMUSG00000024985	0.0	3.419354838709677	0.2924528301886793
ENSMUSG00000072623	0.0	3.423704240666908	0.29208130425576967
ENSMUSG00000033016	0.0	3.4338528452337798	0.29121807050876086
ENSMUSG00000070345	0.0	3.4519753533889084	0.28968920621587574
ENSMUSG00000070709	0.0	3.45632475534614	0.2893246644295302
ENSMUSG00000045333	0.0	3.45632475534614	0.2893246644295302
ENSMUSG00000038679	0.0	3.462848858281986	0.2887795687670086
ENSMUSG00000021485	0.0	3.474447263501268	0.2878155643646986
ENSMUSG00000060969	0.0	3.474447263501268	0.2878155643646986
ENSMUSG00000058331	0.0	3.4860456687205503	0.28685797463090046
ENSMUSG00000037279	0.0	3.489670170351576	0.2865600332363939
ENSMUSG00000051184	0.0	3.489670170351576	0.2865600332363939
ENSMUSG00000019982	0.0	3.4903950706777813	0.2865005192107996
ENSMUSG00000034673	0.0	3.4903950706777813	0.2865005192107996
ENSMUSG00000070643	0.0	3.492569771656397	0.28632212536322127
ENSMUSG00000014859	0.0	3.4954693729612174	0.28608461219411035
ENSMUSG00000042472	0.0	3.501993475897064	0.28555164562202445
ENSMUSG00000000690	0.0	3.509967379485321	0.28490293267244937
ENSMUSG00000058440	0.0	3.5157665820949613	0.2844329896907217
ENSMUSG00000055560	0.0	3.53388909025009	0.282974358974359
ENSMUSG00000090093	0.0	3.5367886915549107	0.2827423652387785
ENSMUSG00000004071	0.0	3.5483870967741935	0.2818181818181818
ENSMUSG00000038151	0.0	3.5520115984052185	0.281530612244898
ENSMUSG00000040167	0.0	3.5570859006886546	0.28112899938862856
ENSMUSG00000025602	0.0	3.5788329104748096	0.27942070083046383
ENSMUSG00000034227	0.0	3.5795578108010147	0.27936411502632646
ENSMUSG00000037029	0.0	3.5868068140630665	0.27879951495553756
ENSMUSG00000005897	0.0	3.5926060166727067	0.27834947538337373
ENSMUSG00000039834	0.0	3.5998550199347585	0.2777889649617399
ENSMUSG00000054648	0.0	3.600579920260964	0.2777330380511375
ENSMUSG00000028565	0.0	3.6107285248278362	0.2769524191929331
ENSMUSG00000058388	0.0	3.6107285248278362	0.2769524191929331
ENSMUSG00000016831	0.0	3.613628126132656	0.2767301905717152
ENSMUSG00000024176	0.0	3.618702428416092	0.2763421474358975
ENSMUSG00000003382	0.0	3.630300833635375	0.27545926517571884
ENSMUSG00000052763	0.0	3.6455237404856833	0.2743090077550209
ENSMUSG00000074500	0.0	3.663646248640811	0.27295211713494266
ENSMUSG00000075588	0.0	3.6650960492932216	0.2728441455696203
ENSMUSG00000043059	0.0	3.673794853207684	0.27219810576164166
ENSMUSG00000024968	0.0	3.6940920623414284	0.27070251177394034
ENSMUSG00000085601	0.0	3.703515766582095	0.2700137013114112
ENSMUSG00000020160	0.0	3.7223631750634283	0.2686465433300877
ENSMUSG00000046714	0.0	3.732511779630301	0.2679161002136337
ENSMUSG00000036281	0.0	3.7426603841971717	0.2671896184388922
ENSMUSG00000051469	0.0	3.7789054005074303	0.26462689430270475
ENSMUSG00000031103	0.0	3.7868793040956863	0.26406967840735074
ENSMUSG00000024986	0.0	3.797027908662559	0.2633638793432608
ENSMUSG00000001661	0.0	3.844146429865893	0.26013577220441264
ENSMUSG00000025997	0.0	3.9072127582457408	0.25593692022263453
ENSMUSG00000050919	0.0	3.920985864443639	0.25503789979663527
ENSMUSG00000029196	0.0	3.947082276187024	0.2533516988062443
ENSMUSG00000018698	0.0	3.9594055817325113	0.2525631636763091
ENSMUSG00000015709	0.0	3.984052192823486	0.25100072780203786
ENSMUSG00000028487	0.0	3.9869517941283066	0.2508181818181819
ENSMUSG00000078878	0.0	3.9891264951069214	0.25068144648373625
ENSMUSG00000069727	0.0	3.9978252990213834	0.25013599274705356
ENSMUSG00000066798	0.0	4.013048205871692	0.24918713872832376
ENSMUSG00000055202	0.0	4.015947807176513	0.2490072202166065
ENSMUSG00000008496	0.0	4.051467923160565	0.24682411880479518
ENSMUSG00000023411	0.0	4.052917723812976	0.2467358254337328
ENSMUSG00000003545	0.0	4.073939833272925	0.24546263345195732
ENSMUSG00000001517	0.0	4.087712939470822	0.24463557368327724
ENSMUSG00000043013	0.0	4.117433852845233	0.2428697183098592
ENSMUSG00000074158	0.0	4.12540775643349	0.2424002811456686
ENSMUSG00000062116	0.0	4.141355563610003	0.2414668300367583
ENSMUSG00000003198	0.0	4.171076476984414	0.23974626346889125
ENSMUSG00000030753	0.0	4.208046393620877	0.2376399655469423
ENSMUSG00000055639	0.0	4.219644798840158	0.23698677203229693
ENSMUSG00000035451	0.0	4.2384922073214915	0.23593295707200285
ENSMUSG00000020857	0.0	4.255889815150416	0.23496848918412538
ENSMUSG00000075040	0.0	4.294309532439288	0.2328663065496287
ENSMUSG00000024622	0.0	4.300833635375136	0.23251306253160287
ENSMUSG00000049728	0.0	4.317506342877854	0.23161517797179318
ENSMUSG00000078902	0.0	4.334903950706777	0.23068561872909704
ENSMUSG00000029844	0.0	4.3407031533164195	0.23037742150968601
ENSMUSG00000029275	0.0	4.348677056904675	0.22995499249874982
ENSMUSG00000049739	0.0	4.40594418267488	0.22696610727212907
ENSMUSG00000039158	0.0	4.439289597680318	0.22526126714565647
ENSMUSG00000011427	0.0	4.451612903225806	0.22463768115942032
ENSMUSG00000022510	0.0	4.460311707140267	0.2241995774418983
ENSMUSG00000039789	0.0	4.462486408118884	0.224090318388564
ENSMUSG00000026805	0.0	4.47191011235955	0.2236180904522613
ENSMUSG00000035799	0.0	4.5154041319318585	0.22146411944132288
ENSMUSG00000041287	0.0	4.553098948894528	0.21963063206495778
ENSMUSG00000059325	0.0	4.629213483146066	0.2160194174757282
ENSMUSG00000031734	0.0	4.6618339978252985	0.21450785258902194
ENSMUSG00000034957	0.0	4.665458499456324	0.21434120571783719
ENSMUSG00000014039	0.0	4.768394345777455	0.20971419884463363
ENSMUSG00000050600	0.0	4.874229793403408	0.2051606186793575
ENSMUSG00000023892	0.0	4.905400507430229	0.20385695285946503
ENSMUSG00000025408	0.0	4.9061254077564325	0.2038268321513003
ENSMUSG00000065999	0.0	4.962667633200434	0.2015045281916448
ENSMUSG00000063488	0.0	4.9829648423341775	0.20068373581611879
ENSMUSG00000038415	0.0	5.202609641174337	0.19221123031907486
ENSMUSG00000078905	0.0	5.2250815512866975	0.19138457269700335
ENSMUSG00000021217	0.0	5.278724175425878	0.1894397143641857
ENSMUSG00000075394	0.0	5.6085538238492205	0.1782990823316531
ENSMUSG00000022479	0.0	5.615802827111271	0.17806892990835163
ENSMUSG00000078894	0.0	5.645523740485682	0.1771314843348742
ENSMUSG00000090963	0.0	5.667995650598042	0.17642921089653413
ENSMUSG00000006642	0.0	6.014498006524103	0.16626491502952875
ENSMUSG00000053297	0.0	6.9438202247191	0.1440129449838188
