	Precision	Recall
0	0.01834862385321101	1.0
1	0.01706036745406824	0.9285714285714286
2	0.017082785808147174	0.9285714285714286
3	0.017105263157894738	0.9285714285714286
4	0.017127799736495388	0.9285714285714286
5	0.017150395778364115	0.9285714285714286
6	0.017173051519154558	0.9285714285714286
7	0.017195767195767195	0.9285714285714286
8	0.017218543046357615	0.9285714285714286
9	0.017241379310344827	0.9285714285714286
10	0.017264276228419653	0.9285714285714286
11	0.017287234042553192	0.9285714285714286
12	0.017310252996005325	0.9285714285714286
13	0.017333333333333333	0.9285714285714286
14	0.017356475300400534	0.9285714285714286
15	0.017379679144385027	0.9285714285714286
16	0.01740294511378849	0.9285714285714286
17	0.01742627345844504	0.9285714285714286
18	0.0174496644295302	0.9285714285714286
19	0.01747311827956989	0.9285714285714286
20	0.017496635262449527	0.9285714285714286
21	0.01752021563342318	0.9285714285714286
22	0.017543859649122806	0.9285714285714286
23	0.01756756756756757	0.9285714285714286
24	0.017591339648173207	0.9285714285714286
25	0.017615176151761516	0.9285714285714286
26	0.017639077340569877	0.9285714285714286
27	0.017663043478260868	0.9285714285714286
28	0.017687074829931974	0.9285714285714286
29	0.017711171662125342	0.9285714285714286
30	0.017735334242837655	0.9285714285714286
31	0.017759562841530054	0.9285714285714286
32	0.017783857729138167	0.9285714285714286
33	0.01780821917808219	0.9285714285714286
34	0.01783264746227709	0.9285714285714286
35	0.017857142857142856	0.9285714285714286
36	0.017881705639614855	0.9285714285714286
37	0.01790633608815427	0.9285714285714286
38	0.01793103448275862	0.9285714285714286
39	0.017955801104972375	0.9285714285714286
40	0.017980636237897647	0.9285714285714286
41	0.018005540166204988	0.9285714285714286
42	0.018030513176144243	0.9285714285714286
43	0.018055555555555554	0.9285714285714286
44	0.01808066759388039	0.9285714285714286
45	0.018105849582172703	0.9285714285714286
46	0.01813110181311018	0.9285714285714286
47	0.018156424581005588	0.9285714285714286
48	0.01818181818181818	0.9285714285714286
49	0.018207282913165267	0.9285714285714286
50	0.0182328190743338	0.9285714285714286
51	0.018258426966292134	0.9285714285714286
52	0.01828410689170183	0.9285714285714286
53	0.018309859154929577	0.9285714285714286
54	0.018335684062059238	0.9285714285714286
55	0.018361581920903956	0.9285714285714286
56	0.018387553041018388	0.9285714285714286
57	0.018413597733711047	0.9285714285714286
58	0.018439716312056736	0.9285714285714286
59	0.018465909090909092	0.9285714285714286
60	0.01849217638691323	0.9285714285714286
61	0.018518518518518517	0.9285714285714286
62	0.018544935805991442	0.9285714285714286
63	0.018571428571428572	0.9285714285714286
64	0.01859799713876967	0.9285714285714286
65	0.01862464183381089	0.9285714285714286
66	0.018651362984218076	0.9285714285714286
67	0.01867816091954023	0.9285714285714286
68	0.01870503597122302	0.9285714285714286
69	0.018731988472622477	0.9285714285714286
70	0.01875901875901876	0.9285714285714286
71	0.01878612716763006	0.9285714285714286
72	0.01881331403762663	0.9285714285714286
73	0.01884057971014493	0.9285714285714286
74	0.018867924528301886	0.9285714285714286
75	0.0188953488372093	0.9285714285714286
76	0.018922852983988356	0.9285714285714286
77	0.018950437317784258	0.9285714285714286
78	0.01897810218978102	0.9285714285714286
79	0.019005847953216373	0.9285714285714286
80	0.01903367496339678	0.9285714285714286
81	0.01906158357771261	0.9285714285714286
82	0.01908957415565345	0.9285714285714286
83	0.01911764705882353	0.9285714285714286
84	0.01914580265095729	0.9285714285714286
85	0.019174041297935103	0.9285714285714286
86	0.019202363367799114	0.9285714285714286
87	0.019230769230769232	0.9285714285714286
88	0.01925925925925926	0.9285714285714286
89	0.019287833827893175	0.9285714285714286
90	0.019316493313521546	0.9285714285714286
91	0.019345238095238096	0.9285714285714286
92	0.019374068554396422	0.9285714285714286
93	0.019402985074626865	0.9285714285714286
94	0.01943198804185351	0.9285714285714286
95	0.019461077844311378	0.9285714285714286
96	0.019490254872563718	0.9285714285714286
97	0.01951951951951952	0.9285714285714286
98	0.019548872180451128	0.9285714285714286
99	0.01957831325301205	0.9285714285714286
100	0.0196078431372549	0.9285714285714286
101	0.019637462235649546	0.9285714285714286
102	0.019667170953101363	0.9285714285714286
103	0.019696969696969695	0.9285714285714286
104	0.019726858877086494	0.9285714285714286
105	0.019756838905775075	0.9285714285714286
106	0.0197869101978691	0.9285714285714286
107	0.019817073170731708	0.9285714285714286
108	0.01984732824427481	0.9285714285714286
109	0.019877675840978593	0.9285714285714286
110	0.019908116385911178	0.9285714285714286
111	0.019938650306748466	0.9285714285714286
112	0.019969278033794162	0.9285714285714286
113	0.02	0.9285714285714286
114	0.020030816640986132	0.9285714285714286
115	0.020061728395061727	0.9285714285714286
116	0.02009273570324575	0.9285714285714286
117	0.020123839009287926	0.9285714285714286
118	0.020155038759689922	0.9285714285714286
119	0.020186335403726708	0.9285714285714286
120	0.02021772939346812	0.9285714285714286
121	0.020249221183800622	0.9285714285714286
122	0.0202808112324493	0.9285714285714286
123	0.0203125	0.9285714285714286
124	0.02034428794992175	0.9285714285714286
125	0.02037617554858934	0.9285714285714286
126	0.02040816326530612	0.9285714285714286
127	0.020440251572327043	0.9285714285714286
128	0.02047244094488189	0.9285714285714286
129	0.02050473186119874	0.9285714285714286
130	0.020537124802527645	0.9285714285714286
131	0.020569620253164556	0.9285714285714286
132	0.020602218700475437	0.9285714285714286
133	0.020634920634920634	0.9285714285714286
134	0.02066772655007949	0.9285714285714286
135	0.020700636942675158	0.9285714285714286
136	0.02073365231259968	0.9285714285714286
137	0.020766773162939296	0.9285714285714286
138	0.0208	0.9285714285714286
139	0.020833333333333332	0.9285714285714286
140	0.02086677367576244	0.9285714285714286
141	0.02090032154340836	0.9285714285714286
142	0.020933977455716585	0.9285714285714286
143	0.020967741935483872	0.9285714285714286
144	0.0210016155088853	0.9285714285714286
145	0.021035598705501618	0.9285714285714286
146	0.02106969205834684	0.9285714285714286
147	0.021103896103896104	0.9285714285714286
148	0.02113821138211382	0.9285714285714286
149	0.021172638436482084	0.9285714285714286
150	0.021207177814029365	0.9285714285714286
151	0.021241830065359478	0.9285714285714286
152	0.02127659574468085	0.9285714285714286
153	0.021311475409836064	0.9285714285714286
154	0.021346469622331693	0.9285714285714286
155	0.02138157894736842	0.9285714285714286
156	0.0214168039538715	0.9285714285714286
157	0.02145214521452145	0.9285714285714286
158	0.021487603305785124	0.9285714285714286
159	0.02152317880794702	0.9285714285714286
160	0.02155887230514096	0.9285714285714286
161	0.02159468438538206	0.9285714285714286
162	0.021630615640599003	0.9285714285714286
163	0.021666666666666667	0.9285714285714286
164	0.021702838063439065	0.9285714285714286
165	0.021739130434782608	0.9285714285714286
166	0.021775544388609715	0.9285714285714286
167	0.02181208053691275	0.9285714285714286
168	0.021848739495798318	0.9285714285714286
169	0.021885521885521887	0.9285714285714286
170	0.021922428330522766	0.9285714285714286
171	0.02195945945945946	0.9285714285714286
172	0.021996615905245348	0.9285714285714286
173	0.022033898305084745	0.9285714285714286
174	0.022071307300509338	0.9285714285714286
175	0.022108843537414966	0.9285714285714286
176	0.022146507666098807	0.9285714285714286
177	0.02218430034129693	0.9285714285714286
178	0.022222222222222223	0.9285714285714286
179	0.02226027397260274	0.9285714285714286
180	0.022298456260720412	0.9285714285714286
181	0.022336769759450172	0.9285714285714286
182	0.022375215146299483	0.9285714285714286
183	0.022413793103448276	0.9285714285714286
184	0.022452504317789293	0.9285714285714286
185	0.02249134948096886	0.9285714285714286
186	0.022530329289428077	0.9285714285714286
187	0.022569444444444444	0.9285714285714286
188	0.022608695652173914	0.9285714285714286
189	0.02264808362369338	0.9285714285714286
190	0.02268760907504363	0.9285714285714286
191	0.022727272727272728	0.9285714285714286
192	0.02276707530647986	0.9285714285714286
193	0.02280701754385965	0.9285714285714286
194	0.0210896309314587	0.8571428571428571
195	0.02112676056338028	0.8571428571428571
196	0.021164021164021163	0.8571428571428571
197	0.02120141342756184	0.8571428571428571
198	0.021238938053097345	0.8571428571428571
199	0.02127659574468085	0.8571428571428571
200	0.021314387211367674	0.8571428571428571
201	0.021352313167259787	0.8571428571428571
202	0.0213903743315508	0.8571428571428571
203	0.02142857142857143	0.8571428571428571
204	0.02146690518783542	0.8571428571428571
205	0.021505376344086023	0.8571428571428571
206	0.02154398563734291	0.8571428571428571
207	0.02158273381294964	0.8571428571428571
208	0.021621621621621623	0.8571428571428571
209	0.021660649819494584	0.8571428571428571
210	0.0216998191681736	0.8571428571428571
211	0.021739130434782608	0.8571428571428571
212	0.021778584392014518	0.8571428571428571
213	0.02181818181818182	0.8571428571428571
214	0.02185792349726776	0.8571428571428571
215	0.021897810218978103	0.8571428571428571
216	0.021937842778793418	0.8571428571428571
217	0.02197802197802198	0.8571428571428571
218	0.022018348623853212	0.8571428571428571
219	0.022058823529411766	0.8571428571428571
220	0.022099447513812154	0.8571428571428571
221	0.02214022140221402	0.8571428571428571
222	0.022181146025878003	0.8571428571428571
223	0.022222222222222223	0.8571428571428571
224	0.022263450834879406	0.8571428571428571
225	0.022304832713754646	0.8571428571428571
226	0.0223463687150838	0.8571428571428571
227	0.022388059701492536	0.8571428571428571
228	0.022429906542056073	0.8571428571428571
229	0.02247191011235955	0.8571428571428571
230	0.0225140712945591	0.8571428571428571
231	0.022556390977443608	0.8571428571428571
232	0.022598870056497175	0.8571428571428571
233	0.022641509433962263	0.8571428571428571
234	0.022684310018903593	0.8571428571428571
235	0.022727272727272728	0.8571428571428571
236	0.022770398481973434	0.8571428571428571
237	0.022813688212927757	0.8571428571428571
238	0.022857142857142857	0.8571428571428571
239	0.022900763358778626	0.8571428571428571
240	0.022944550669216062	0.8571428571428571
241	0.022988505747126436	0.8571428571428571
242	0.023032629558541268	0.8571428571428571
243	0.023076923076923078	0.8571428571428571
244	0.023121387283236993	0.8571428571428571
245	0.023166023166023165	0.8571428571428571
246	0.02321083172147002	0.8571428571428571
247	0.023255813953488372	0.8571428571428571
248	0.02330097087378641	0.8571428571428571
249	0.023346303501945526	0.8571428571428571
250	0.023391812865497075	0.8571428571428571
251	0.0234375	0.8571428571428571
252	0.023483365949119372	0.8571428571428571
253	0.023529411764705882	0.8571428571428571
254	0.023575638506876228	0.8571428571428571
255	0.023622047244094488	0.8571428571428571
256	0.023668639053254437	0.8571428571428571
257	0.023715415019762844	0.8571428571428571
258	0.023762376237623763	0.8571428571428571
259	0.023809523809523808	0.8571428571428571
260	0.02385685884691849	0.8571428571428571
261	0.02390438247011952	0.8571428571428571
262	0.023952095808383235	0.8571428571428571
263	0.024	0.8571428571428571
264	0.02404809619238477	0.8571428571428571
265	0.024096385542168676	0.8571428571428571
266	0.02414486921529175	0.8571428571428571
267	0.024193548387096774	0.8571428571428571
268	0.024242424242424242	0.8571428571428571
269	0.024291497975708502	0.8571428571428571
270	0.02434077079107505	0.8571428571428571
271	0.024390243902439025	0.8571428571428571
272	0.024439918533604887	0.8571428571428571
273	0.024489795918367346	0.8571428571428571
274	0.024539877300613498	0.8571428571428571
275	0.02459016393442623	0.8571428571428571
276	0.024640657084188913	0.8571428571428571
277	0.024691358024691357	0.8571428571428571
278	0.024742268041237112	0.8571428571428571
279	0.024793388429752067	0.8571428571428571
280	0.024844720496894408	0.8571428571428571
281	0.024896265560165973	0.8571428571428571
282	0.02494802494802495	0.8571428571428571
283	0.025	0.8571428571428571
284	0.025052192066805846	0.8571428571428571
285	0.02510460251046025	0.8571428571428571
286	0.025157232704402517	0.8571428571428571
287	0.025210084033613446	0.8571428571428571
288	0.02526315789473684	0.8571428571428571
289	0.02531645569620253	0.8571428571428571
290	0.02536997885835095	0.8571428571428571
291	0.025423728813559324	0.8571428571428571
292	0.025477707006369428	0.8571428571428571
293	0.02553191489361702	0.8571428571428571
294	0.0255863539445629	0.8571428571428571
295	0.02564102564102564	0.8571428571428571
296	0.02569593147751606	0.8571428571428571
297	0.02575107296137339	0.8571428571428571
298	0.025806451612903226	0.8571428571428571
299	0.02586206896551724	0.8571428571428571
300	0.02591792656587473	0.8571428571428571
301	0.025974025974025976	0.8571428571428571
302	0.026030368763557483	0.8571428571428571
303	0.02608695652173913	0.8571428571428571
304	0.026143790849673203	0.8571428571428571
305	0.026200873362445413	0.8571428571428571
306	0.0262582056892779	0.8571428571428571
307	0.02631578947368421	0.8571428571428571
308	0.026373626373626374	0.8571428571428571
309	0.02643171806167401	0.8571428571428571
310	0.026490066225165563	0.8571428571428571
311	0.02654867256637168	0.8571428571428571
312	0.026607538802660754	0.8571428571428571
313	0.02666666666666667	0.8571428571428571
314	0.026726057906458798	0.8571428571428571
315	0.026785714285714284	0.8571428571428571
316	0.026845637583892617	0.8571428571428571
317	0.026905829596412557	0.8571428571428571
318	0.02696629213483146	0.8571428571428571
319	0.02702702702702703	0.8571428571428571
320	0.02708803611738149	0.8571428571428571
321	0.027149321266968326	0.8571428571428571
322	0.027210884353741496	0.8571428571428571
323	0.02727272727272727	0.8571428571428571
324	0.02733485193621868	0.8571428571428571
325	0.0273972602739726	0.8571428571428571
326	0.02745995423340961	0.8571428571428571
327	0.027522935779816515	0.8571428571428571
328	0.027586206896551724	0.8571428571428571
329	0.027649769585253458	0.8571428571428571
330	0.02771362586605081	0.8571428571428571
331	0.027777777777777776	0.8571428571428571
332	0.027842227378190254	0.8571428571428571
333	0.027906976744186046	0.8571428571428571
334	0.027972027972027972	0.8571428571428571
335	0.028037383177570093	0.8571428571428571
336	0.02810304449648712	0.8571428571428571
337	0.028169014084507043	0.8571428571428571
338	0.02823529411764706	0.8571428571428571
339	0.02830188679245283	0.8571428571428571
340	0.028368794326241134	0.8571428571428571
341	0.02843601895734597	0.8571428571428571
342	0.028503562945368172	0.8571428571428571
343	0.02857142857142857	0.8571428571428571
344	0.028639618138424822	0.8571428571428571
345	0.028708133971291867	0.8571428571428571
346	0.02877697841726619	0.8571428571428571
347	0.028846153846153848	0.8571428571428571
348	0.02891566265060241	0.8571428571428571
349	0.028985507246376812	0.8571428571428571
350	0.029055690072639227	0.8571428571428571
351	0.02912621359223301	0.8571428571428571
352	0.029197080291970802	0.8571428571428571
353	0.02926829268292683	0.8571428571428571
354	0.029339853300733496	0.8571428571428571
355	0.029411764705882353	0.8571428571428571
356	0.029484029484029485	0.8571428571428571
357	0.029556650246305417	0.8571428571428571
358	0.02962962962962963	0.8571428571428571
359	0.0297029702970297	0.8571428571428571
360	0.02977667493796526	0.8571428571428571
361	0.029850746268656716	0.8571428571428571
362	0.029925187032418952	0.8571428571428571
363	0.03	0.8571428571428571
364	0.03007518796992481	0.8571428571428571
365	0.03015075376884422	0.8571428571428571
366	0.030226700251889168	0.8571428571428571
367	0.030303030303030304	0.8571428571428571
368	0.030379746835443037	0.8571428571428571
369	0.030456852791878174	0.8571428571428571
370	0.030534351145038167	0.8571428571428571
371	0.030612244897959183	0.8571428571428571
372	0.030690537084398978	0.8571428571428571
373	0.03076923076923077	0.8571428571428571
374	0.030848329048843187	0.8571428571428571
375	0.030927835051546393	0.8571428571428571
376	0.031007751937984496	0.8571428571428571
377	0.031088082901554404	0.8571428571428571
378	0.03116883116883117	0.8571428571428571
379	0.03125	0.8571428571428571
380	0.031331592689295036	0.8571428571428571
381	0.031413612565445025	0.8571428571428571
382	0.031496062992125984	0.8571428571428571
383	0.031578947368421054	0.8571428571428571
384	0.0316622691292876	0.8571428571428571
385	0.031746031746031744	0.8571428571428571
386	0.03183023872679045	0.8571428571428571
387	0.031914893617021274	0.8571428571428571
388	0.032	0.8571428571428571
389	0.03208556149732621	0.8571428571428571
390	0.032171581769437	0.8571428571428571
391	0.03225806451612903	0.8571428571428571
392	0.03234501347708895	0.8571428571428571
393	0.032432432432432434	0.8571428571428571
394	0.032520325203252036	0.8571428571428571
395	0.03260869565217391	0.8571428571428571
396	0.0326975476839237	0.8571428571428571
397	0.03278688524590164	0.8571428571428571
398	0.030136986301369864	0.7857142857142857
399	0.03021978021978022	0.7857142857142857
400	0.030303030303030304	0.7857142857142857
401	0.03038674033149171	0.7857142857142857
402	0.030470914127423823	0.7857142857142857
403	0.030555555555555555	0.7857142857142857
404	0.03064066852367688	0.7857142857142857
405	0.030726256983240222	0.7857142857142857
406	0.03081232492997199	0.7857142857142857
407	0.03089887640449438	0.7857142857142857
408	0.030985915492957747	0.7857142857142857
409	0.031073446327683617	0.7857142857142857
410	0.031161473087818695	0.7857142857142857
411	0.03125	0.7857142857142857
412	0.03133903133903134	0.7857142857142857
413	0.03142857142857143	0.7857142857142857
414	0.03151862464183381	0.7857142857142857
415	0.031609195402298854	0.7857142857142857
416	0.03170028818443804	0.7857142857142857
417	0.031791907514450865	0.7857142857142857
418	0.03188405797101449	0.7857142857142857
419	0.03197674418604651	0.7857142857142857
420	0.03206997084548105	0.7857142857142857
421	0.03216374269005848	0.7857142857142857
422	0.03225806451612903	0.7857142857142857
423	0.03235294117647059	0.7857142857142857
424	0.032448377581120944	0.7857142857142857
425	0.03254437869822485	0.7857142857142857
426	0.032640949554896145	0.7857142857142857
427	0.03273809523809524	0.7857142857142857
428	0.03283582089552239	0.7857142857142857
429	0.03293413173652695	0.7857142857142857
430	0.03303303303303303	0.7857142857142857
431	0.03313253012048193	0.7857142857142857
432	0.03323262839879154	0.7857142857142857
433	0.03333333333333333	0.7857142857142857
434	0.03343465045592705	0.7857142857142857
435	0.03353658536585366	0.7857142857142857
436	0.03363914373088685	0.7857142857142857
437	0.03374233128834356	0.7857142857142857
438	0.033846153846153845	0.7857142857142857
439	0.030864197530864196	0.7142857142857143
440	0.030959752321981424	0.7142857142857143
441	0.031055900621118012	0.7142857142857143
442	0.03115264797507788	0.7142857142857143
443	0.03125	0.7142857142857143
444	0.03134796238244514	0.7142857142857143
445	0.031446540880503145	0.7142857142857143
446	0.031545741324921134	0.7142857142857143
447	0.03164556962025317	0.7142857142857143
448	0.031746031746031744	0.7142857142857143
449	0.03184713375796178	0.7142857142857143
450	0.03194888178913738	0.7142857142857143
451	0.03205128205128205	0.7142857142857143
452	0.03215434083601286	0.7142857142857143
453	0.03225806451612903	0.7142857142857143
454	0.032362459546925564	0.7142857142857143
455	0.032467532467532464	0.7142857142857143
456	0.03257328990228013	0.7142857142857143
457	0.032679738562091505	0.7142857142857143
458	0.03278688524590164	0.7142857142857143
459	0.03289473684210526	0.7142857142857143
460	0.033003300330033	0.7142857142857143
461	0.033112582781456956	0.7142857142857143
462	0.03322259136212625	0.7142857142857143
463	0.03333333333333333	0.7142857142857143
464	0.033444816053511704	0.7142857142857143
465	0.03355704697986577	0.7142857142857143
466	0.03367003367003367	0.7142857142857143
467	0.033783783783783786	0.7142857142857143
468	0.03389830508474576	0.7142857142857143
469	0.034013605442176874	0.7142857142857143
470	0.034129692832764506	0.7142857142857143
471	0.03424657534246575	0.7142857142857143
472	0.03436426116838488	0.7142857142857143
473	0.034482758620689655	0.7142857142857143
474	0.03460207612456748	0.7142857142857143
475	0.034722222222222224	0.7142857142857143
476	0.03484320557491289	0.7142857142857143
477	0.03496503496503497	0.7142857142857143
478	0.03508771929824561	0.7142857142857143
479	0.035211267605633804	0.7142857142857143
480	0.0353356890459364	0.7142857142857143
481	0.03546099290780142	0.7142857142857143
482	0.03558718861209965	0.7142857142857143
483	0.03571428571428571	0.7142857142857143
484	0.035842293906810034	0.7142857142857143
485	0.03597122302158273	0.7142857142857143
486	0.036101083032490974	0.7142857142857143
487	0.036231884057971016	0.7142857142857143
488	0.03636363636363636	0.7142857142857143
489	0.0364963503649635	0.7142857142857143
490	0.03663003663003663	0.7142857142857143
491	0.03676470588235294	0.7142857142857143
492	0.03690036900369004	0.7142857142857143
493	0.037037037037037035	0.7142857142857143
494	0.03717472118959108	0.7142857142857143
495	0.03731343283582089	0.7142857142857143
496	0.03745318352059925	0.7142857142857143
497	0.03759398496240601	0.7142857142857143
498	0.03773584905660377	0.7142857142857143
499	0.03787878787878788	0.7142857142857143
500	0.03802281368821293	0.7142857142857143
501	0.03816793893129771	0.7142857142857143
502	0.038314176245210725	0.7142857142857143
503	0.038461538461538464	0.7142857142857143
504	0.03861003861003861	0.7142857142857143
505	0.03875968992248062	0.7142857142857143
506	0.038910505836575876	0.7142857142857143
507	0.0390625	0.7142857142857143
508	0.0392156862745098	0.7142857142857143
509	0.03937007874015748	0.7142857142857143
510	0.039525691699604744	0.7142857142857143
511	0.03968253968253968	0.7142857142857143
512	0.0398406374501992	0.7142857142857143
513	0.04	0.7142857142857143
514	0.040160642570281124	0.7142857142857143
515	0.04032258064516129	0.7142857142857143
516	0.04048582995951417	0.7142857142857143
517	0.04065040650406504	0.7142857142857143
518	0.04081632653061224	0.7142857142857143
519	0.040983606557377046	0.7142857142857143
520	0.0411522633744856	0.7142857142857143
521	0.04132231404958678	0.7142857142857143
522	0.04149377593360996	0.7142857142857143
523	0.041666666666666664	0.7142857142857143
524	0.04184100418410042	0.7142857142857143
525	0.04201680672268908	0.7142857142857143
526	0.04219409282700422	0.7142857142857143
527	0.0423728813559322	0.7142857142857143
528	0.0425531914893617	0.7142857142857143
529	0.042735042735042736	0.7142857142857143
530	0.04291845493562232	0.7142857142857143
531	0.04310344827586207	0.7142857142857143
532	0.04329004329004329	0.7142857142857143
533	0.043478260869565216	0.7142857142857143
534	0.043668122270742356	0.7142857142857143
535	0.043859649122807015	0.7142857142857143
536	0.04405286343612335	0.7142857142857143
537	0.04424778761061947	0.7142857142857143
538	0.044444444444444446	0.7142857142857143
539	0.04017857142857143	0.6428571428571429
540	0.04035874439461883	0.6428571428571429
541	0.04054054054054054	0.6428571428571429
542	0.04072398190045249	0.6428571428571429
543	0.04090909090909091	0.6428571428571429
544	0.0410958904109589	0.6428571428571429
545	0.04128440366972477	0.6428571428571429
546	0.041474654377880185	0.6428571428571429
547	0.041666666666666664	0.6428571428571429
548	0.04186046511627907	0.6428571428571429
549	0.04205607476635514	0.6428571428571429
550	0.04225352112676056	0.6428571428571429
551	0.04245283018867924	0.6428571428571429
552	0.04265402843601896	0.6428571428571429
553	0.04285714285714286	0.6428571428571429
554	0.0430622009569378	0.6428571428571429
555	0.04326923076923077	0.6428571428571429
556	0.043478260869565216	0.6428571428571429
557	0.043689320388349516	0.6428571428571429
558	0.04390243902439024	0.6428571428571429
559	0.04411764705882353	0.6428571428571429
560	0.04433497536945813	0.6428571428571429
561	0.04455445544554455	0.6428571428571429
562	0.04477611940298507	0.6428571428571429
563	0.045	0.6428571428571429
564	0.04522613065326633	0.6428571428571429
565	0.045454545454545456	0.6428571428571429
566	0.04568527918781726	0.6428571428571429
567	0.04591836734693878	0.6428571428571429
568	0.046153846153846156	0.6428571428571429
569	0.04639175257731959	0.6428571428571429
570	0.046632124352331605	0.6428571428571429
571	0.046875	0.6428571428571429
572	0.04712041884816754	0.6428571428571429
573	0.04736842105263158	0.6428571428571429
574	0.047619047619047616	0.6428571428571429
575	0.047872340425531915	0.6428571428571429
576	0.0481283422459893	0.6428571428571429
577	0.04838709677419355	0.6428571428571429
578	0.04864864864864865	0.6428571428571429
579	0.04891304347826087	0.6428571428571429
580	0.04918032786885246	0.6428571428571429
581	0.04945054945054945	0.6428571428571429
582	0.049723756906077346	0.6428571428571429
583	0.05	0.6428571428571429
584	0.05027932960893855	0.6428571428571429
585	0.05056179775280899	0.6428571428571429
586	0.05084745762711865	0.6428571428571429
587	0.05113636363636364	0.6428571428571429
588	0.05142857142857143	0.6428571428571429
589	0.05172413793103448	0.6428571428571429
590	0.05202312138728324	0.6428571428571429
591	0.05232558139534884	0.6428571428571429
592	0.05263157894736842	0.6428571428571429
593	0.052941176470588235	0.6428571428571429
594	0.05325443786982249	0.6428571428571429
595	0.05357142857142857	0.6428571428571429
596	0.05389221556886228	0.6428571428571429
597	0.05421686746987952	0.6428571428571429
598	0.05454545454545454	0.6428571428571429
599	0.054878048780487805	0.6428571428571429
600	0.05521472392638037	0.6428571428571429
601	0.05555555555555555	0.6428571428571429
602	0.055900621118012424	0.6428571428571429
603	0.05625	0.6428571428571429
604	0.05660377358490566	0.6428571428571429
605	0.056962025316455694	0.6428571428571429
606	0.05732484076433121	0.6428571428571429
607	0.057692307692307696	0.6428571428571429
608	0.05806451612903226	0.6428571428571429
609	0.05844155844155844	0.6428571428571429
610	0.058823529411764705	0.6428571428571429
611	0.05921052631578947	0.6428571428571429
612	0.059602649006622516	0.6428571428571429
613	0.06	0.6428571428571429
614	0.06040268456375839	0.6428571428571429
615	0.060810810810810814	0.6428571428571429
616	0.061224489795918366	0.6428571428571429
617	0.06164383561643835	0.6428571428571429
618	0.06206896551724138	0.6428571428571429
619	0.0625	0.6428571428571429
620	0.06293706293706294	0.6428571428571429
621	0.06338028169014084	0.6428571428571429
622	0.06382978723404255	0.6428571428571429
623	0.06428571428571428	0.6428571428571429
624	0.06474820143884892	0.6428571428571429
625	0.06521739130434782	0.6428571428571429
626	0.06569343065693431	0.6428571428571429
627	0.0661764705882353	0.6428571428571429
628	0.06666666666666667	0.6428571428571429
629	0.06716417910447761	0.6428571428571429
630	0.06766917293233082	0.6428571428571429
631	0.06818181818181818	0.6428571428571429
632	0.061068702290076333	0.5714285714285714
633	0.06153846153846154	0.5714285714285714
634	0.06201550387596899	0.5714285714285714
635	0.0625	0.5714285714285714
636	0.06299212598425197	0.5714285714285714
637	0.06349206349206349	0.5714285714285714
638	0.064	0.5714285714285714
639	0.06451612903225806	0.5714285714285714
640	0.06504065040650407	0.5714285714285714
641	0.06557377049180328	0.5714285714285714
642	0.06611570247933884	0.5714285714285714
643	0.06666666666666667	0.5714285714285714
644	0.06722689075630252	0.5714285714285714
645	0.06779661016949153	0.5714285714285714
646	0.06837606837606838	0.5714285714285714
647	0.06896551724137931	0.5714285714285714
648	0.06956521739130435	0.5714285714285714
649	0.07017543859649122	0.5714285714285714
650	0.061946902654867256	0.5
651	0.0625	0.5
652	0.06306306306306306	0.5
653	0.06363636363636363	0.5
654	0.06422018348623854	0.5
655	0.06481481481481481	0.5
656	0.06542056074766354	0.5
657	0.0660377358490566	0.5
658	0.05714285714285714	0.42857142857142855
659	0.057692307692307696	0.42857142857142855
660	0.05825242718446602	0.42857142857142855
661	0.058823529411764705	0.42857142857142855
662	0.0594059405940594	0.42857142857142855
663	0.06	0.42857142857142855
664	0.06060606060606061	0.42857142857142855
665	0.061224489795918366	0.42857142857142855
666	0.061855670103092786	0.42857142857142855
667	0.0625	0.42857142857142855
668	0.06315789473684211	0.42857142857142855
669	0.06382978723404255	0.42857142857142855
670	0.06451612903225806	0.42857142857142855
671	0.06521739130434782	0.42857142857142855
672	0.06593406593406594	0.42857142857142855
673	0.06666666666666667	0.42857142857142855
674	0.06741573033707865	0.42857142857142855
675	0.06818181818181818	0.42857142857142855
676	0.06896551724137931	0.42857142857142855
677	0.06976744186046512	0.42857142857142855
678	0.07058823529411765	0.42857142857142855
679	0.07142857142857142	0.42857142857142855
680	0.07228915662650602	0.42857142857142855
681	0.07317073170731707	0.42857142857142855
682	0.07407407407407407	0.42857142857142855
683	0.075	0.42857142857142855
684	0.0759493670886076	0.42857142857142855
685	0.07692307692307693	0.42857142857142855
686	0.07792207792207792	0.42857142857142855
687	0.07894736842105263	0.42857142857142855
688	0.08	0.42857142857142855
689	0.08108108108108109	0.42857142857142855
690	0.0821917808219178	0.42857142857142855
691	0.06944444444444445	0.35714285714285715
692	0.07042253521126761	0.35714285714285715
693	0.05714285714285714	0.2857142857142857
694	0.057971014492753624	0.2857142857142857
695	0.058823529411764705	0.2857142857142857
696	0.05970149253731343	0.2857142857142857
697	0.06060606060606061	0.2857142857142857
698	0.06153846153846154	0.2857142857142857
699	0.0625	0.2857142857142857
700	0.06349206349206349	0.2857142857142857
701	0.06451612903225806	0.2857142857142857
702	0.06557377049180328	0.2857142857142857
703	0.06666666666666667	0.2857142857142857
704	0.06779661016949153	0.2857142857142857
705	0.06896551724137931	0.2857142857142857
706	0.07017543859649122	0.2857142857142857
707	0.07142857142857142	0.2857142857142857
708	0.07272727272727272	0.2857142857142857
709	0.07407407407407407	0.2857142857142857
710	0.07547169811320754	0.2857142857142857
711	0.07692307692307693	0.2857142857142857
712	0.0784313725490196	0.2857142857142857
713	0.08	0.2857142857142857
714	0.061224489795918366	0.21428571428571427
715	0.0625	0.21428571428571427
716	0.06382978723404255	0.21428571428571427
717	0.06521739130434782	0.21428571428571427
718	0.06666666666666667	0.21428571428571427
719	0.06818181818181818	0.21428571428571427
720	0.06976744186046512	0.21428571428571427
721	0.07142857142857142	0.21428571428571427
722	0.07317073170731707	0.21428571428571427
723	0.075	0.21428571428571427
724	0.07692307692307693	0.21428571428571427
725	0.07894736842105263	0.21428571428571427
726	0.08108108108108109	0.21428571428571427
727	0.08333333333333333	0.21428571428571427
728	0.08571428571428572	0.21428571428571427
729	0.08823529411764706	0.21428571428571427
730	0.09090909090909091	0.21428571428571427
731	0.09375	0.21428571428571427
732	0.0967741935483871	0.21428571428571427
733	0.1	0.21428571428571427
734	0.10344827586206896	0.21428571428571427
735	0.10714285714285714	0.21428571428571427
736	0.07407407407407407	0.14285714285714285
737	0.07692307692307693	0.14285714285714285
738	0.08	0.14285714285714285
739	0.08333333333333333	0.14285714285714285
740	0.08695652173913043	0.14285714285714285
741	0.09090909090909091	0.14285714285714285
742	0.09523809523809523	0.14285714285714285
743	0.1	0.14285714285714285
744	0.10526315789473684	0.14285714285714285
745	0.1111111111111111	0.14285714285714285
746	0.058823529411764705	0.07142857142857142
747	0.0625	0.07142857142857142
748	0.06666666666666667	0.07142857142857142
749	0.07142857142857142	0.07142857142857142
750	0.07692307692307693	0.07142857142857142
751	0.08333333333333333	0.07142857142857142
752	0.09090909090909091	0.07142857142857142
753	0.1	0.07142857142857142
754	0.1111111111111111	0.07142857142857142
755	0.125	0.07142857142857142
756	0.14285714285714285	0.07142857142857142
757	0.16666666666666666	0.07142857142857142
758	0.2	0.07142857142857142
759	0.25	0.07142857142857142
760	0.0	0.0
761	0.0	0.0
762	0.0	0.0
763	1.0	0.0
