	Precision	Recall
0	0.06319702602230483	1.0
1	0.05970149253731343	0.9411764705882353
2	0.0599250936329588	0.9411764705882353
3	0.06015037593984962	0.9411764705882353
4	0.06037735849056604	0.9411764705882353
5	0.06060606060606061	0.9411764705882353
6	0.060836501901140684	0.9411764705882353
7	0.061068702290076333	0.9411764705882353
8	0.06130268199233716	0.9411764705882353
9	0.06153846153846154	0.9411764705882353
10	0.06177606177606178	0.9411764705882353
11	0.06201550387596899	0.9411764705882353
12	0.0622568093385214	0.9411764705882353
13	0.0625	0.9411764705882353
14	0.06274509803921569	0.9411764705882353
15	0.05905511811023622	0.8823529411764706
16	0.05533596837944664	0.8235294117647058
17	0.05555555555555555	0.8235294117647058
18	0.055776892430278883	0.8235294117647058
19	0.056	0.8235294117647058
20	0.05622489959839357	0.8235294117647058
21	0.056451612903225805	0.8235294117647058
22	0.05668016194331984	0.8235294117647058
23	0.056910569105691054	0.8235294117647058
24	0.05714285714285714	0.8235294117647058
25	0.05737704918032787	0.8235294117647058
26	0.05761316872427984	0.8235294117647058
27	0.05785123966942149	0.8235294117647058
28	0.058091286307053944	0.8235294117647058
29	0.058333333333333334	0.8235294117647058
30	0.058577405857740586	0.8235294117647058
31	0.058823529411764705	0.8235294117647058
32	0.05907172995780591	0.8235294117647058
33	0.059322033898305086	0.8235294117647058
34	0.059574468085106386	0.8235294117647058
35	0.05982905982905983	0.8235294117647058
36	0.060085836909871244	0.8235294117647058
37	0.0603448275862069	0.8235294117647058
38	0.06060606060606061	0.8235294117647058
39	0.06086956521739131	0.8235294117647058
40	0.0611353711790393	0.8235294117647058
41	0.06140350877192982	0.8235294117647058
42	0.06167400881057269	0.8235294117647058
43	0.061946902654867256	0.8235294117647058
44	0.06222222222222222	0.8235294117647058
45	0.0625	0.8235294117647058
46	0.06278026905829596	0.8235294117647058
47	0.06306306306306306	0.8235294117647058
48	0.06334841628959276	0.8235294117647058
49	0.06363636363636363	0.8235294117647058
50	0.0639269406392694	0.8235294117647058
51	0.06422018348623854	0.8235294117647058
52	0.06451612903225806	0.8235294117647058
53	0.06481481481481481	0.8235294117647058
54	0.06511627906976744	0.8235294117647058
55	0.06542056074766354	0.8235294117647058
56	0.06572769953051644	0.8235294117647058
57	0.0660377358490566	0.8235294117647058
58	0.06635071090047394	0.8235294117647058
59	0.06666666666666667	0.8235294117647058
60	0.06698564593301436	0.8235294117647058
61	0.0673076923076923	0.8235294117647058
62	0.06763285024154589	0.8235294117647058
63	0.06796116504854369	0.8235294117647058
64	0.06829268292682927	0.8235294117647058
65	0.06862745098039216	0.8235294117647058
66	0.06403940886699508	0.7647058823529411
67	0.06435643564356436	0.7647058823529411
68	0.06467661691542288	0.7647058823529411
69	0.065	0.7647058823529411
70	0.06532663316582915	0.7647058823529411
71	0.06565656565656566	0.7647058823529411
72	0.06598984771573604	0.7647058823529411
73	0.0663265306122449	0.7647058823529411
74	0.06666666666666667	0.7647058823529411
75	0.06701030927835051	0.7647058823529411
76	0.06735751295336788	0.7647058823529411
77	0.06770833333333333	0.7647058823529411
78	0.06806282722513089	0.7647058823529411
79	0.06842105263157895	0.7647058823529411
80	0.06878306878306878	0.7647058823529411
81	0.06914893617021277	0.7647058823529411
82	0.06951871657754011	0.7647058823529411
83	0.06989247311827956	0.7647058823529411
84	0.07027027027027027	0.7647058823529411
85	0.07065217391304347	0.7647058823529411
86	0.07103825136612021	0.7647058823529411
87	0.07142857142857142	0.7647058823529411
88	0.0718232044198895	0.7647058823529411
89	0.07222222222222222	0.7647058823529411
90	0.07262569832402235	0.7647058823529411
91	0.07303370786516854	0.7647058823529411
92	0.07344632768361582	0.7647058823529411
93	0.07386363636363637	0.7647058823529411
94	0.07428571428571429	0.7647058823529411
95	0.07471264367816093	0.7647058823529411
96	0.07514450867052024	0.7647058823529411
97	0.0755813953488372	0.7647058823529411
98	0.07602339181286549	0.7647058823529411
99	0.07647058823529412	0.7647058823529411
100	0.07692307692307693	0.7647058823529411
101	0.07738095238095238	0.7647058823529411
102	0.07784431137724551	0.7647058823529411
103	0.0783132530120482	0.7647058823529411
104	0.07878787878787878	0.7647058823529411
105	0.07926829268292683	0.7647058823529411
106	0.07975460122699386	0.7647058823529411
107	0.08024691358024691	0.7647058823529411
108	0.08074534161490683	0.7647058823529411
109	0.08125	0.7647058823529411
110	0.08176100628930817	0.7647058823529411
111	0.08227848101265822	0.7647058823529411
112	0.08280254777070063	0.7647058823529411
113	0.08333333333333333	0.7647058823529411
114	0.08387096774193549	0.7647058823529411
115	0.08441558441558442	0.7647058823529411
116	0.08496732026143791	0.7647058823529411
117	0.08552631578947369	0.7647058823529411
118	0.08609271523178808	0.7647058823529411
119	0.08666666666666667	0.7647058823529411
120	0.087248322147651	0.7647058823529411
121	0.08783783783783784	0.7647058823529411
122	0.08843537414965986	0.7647058823529411
123	0.08904109589041095	0.7647058823529411
124	0.0896551724137931	0.7647058823529411
125	0.09027777777777778	0.7647058823529411
126	0.09090909090909091	0.7647058823529411
127	0.09154929577464789	0.7647058823529411
128	0.09219858156028368	0.7647058823529411
129	0.09285714285714286	0.7647058823529411
130	0.09352517985611511	0.7647058823529411
131	0.09420289855072464	0.7647058823529411
132	0.0948905109489051	0.7647058823529411
133	0.09558823529411764	0.7647058823529411
134	0.0962962962962963	0.7647058823529411
135	0.09701492537313433	0.7647058823529411
136	0.09774436090225563	0.7647058823529411
137	0.09848484848484848	0.7647058823529411
138	0.09923664122137404	0.7647058823529411
139	0.1	0.7647058823529411
140	0.10077519379844961	0.7647058823529411
141	0.1015625	0.7647058823529411
142	0.10236220472440945	0.7647058823529411
143	0.10317460317460317	0.7647058823529411
144	0.104	0.7647058823529411
145	0.10483870967741936	0.7647058823529411
146	0.10569105691056911	0.7647058823529411
147	0.10655737704918032	0.7647058823529411
148	0.10743801652892562	0.7647058823529411
149	0.10833333333333334	0.7647058823529411
150	0.1092436974789916	0.7647058823529411
151	0.11016949152542373	0.7647058823529411
152	0.1111111111111111	0.7647058823529411
153	0.11206896551724138	0.7647058823529411
154	0.11304347826086956	0.7647058823529411
155	0.11403508771929824	0.7647058823529411
156	0.10619469026548672	0.7058823529411765
157	0.10714285714285714	0.7058823529411765
158	0.10810810810810811	0.7058823529411765
159	0.10909090909090909	0.7058823529411765
160	0.11009174311926606	0.7058823529411765
161	0.1111111111111111	0.7058823529411765
162	0.11214953271028037	0.7058823529411765
163	0.11320754716981132	0.7058823529411765
164	0.11428571428571428	0.7058823529411765
165	0.11538461538461539	0.7058823529411765
166	0.11650485436893204	0.7058823529411765
167	0.11764705882352941	0.7058823529411765
168	0.1188118811881188	0.7058823529411765
169	0.12	0.7058823529411765
170	0.12121212121212122	0.7058823529411765
171	0.12244897959183673	0.7058823529411765
172	0.12371134020618557	0.7058823529411765
173	0.125	0.7058823529411765
174	0.12631578947368421	0.7058823529411765
175	0.1276595744680851	0.7058823529411765
176	0.12903225806451613	0.7058823529411765
177	0.13043478260869565	0.7058823529411765
178	0.13186813186813187	0.7058823529411765
179	0.13333333333333333	0.7058823529411765
180	0.1348314606741573	0.7058823529411765
181	0.13636363636363635	0.7058823529411765
182	0.13793103448275862	0.7058823529411765
183	0.13953488372093023	0.7058823529411765
184	0.1411764705882353	0.7058823529411765
185	0.14285714285714285	0.7058823529411765
186	0.14457831325301204	0.7058823529411765
187	0.14634146341463414	0.7058823529411765
188	0.14814814814814814	0.7058823529411765
189	0.15	0.7058823529411765
190	0.1518987341772152	0.7058823529411765
191	0.15384615384615385	0.7058823529411765
192	0.15584415584415584	0.7058823529411765
193	0.15789473684210525	0.7058823529411765
194	0.16	0.7058823529411765
195	0.16216216216216217	0.7058823529411765
196	0.1643835616438356	0.7058823529411765
197	0.16666666666666666	0.7058823529411765
198	0.16901408450704225	0.7058823529411765
199	0.17142857142857143	0.7058823529411765
200	0.17391304347826086	0.7058823529411765
201	0.17647058823529413	0.7058823529411765
202	0.1791044776119403	0.7058823529411765
203	0.18181818181818182	0.7058823529411765
204	0.18461538461538463	0.7058823529411765
205	0.1875	0.7058823529411765
206	0.19047619047619047	0.7058823529411765
207	0.1935483870967742	0.7058823529411765
208	0.19672131147540983	0.7058823529411765
209	0.2	0.7058823529411765
210	0.2033898305084746	0.7058823529411765
211	0.20689655172413793	0.7058823529411765
212	0.21052631578947367	0.7058823529411765
213	0.21428571428571427	0.7058823529411765
214	0.2	0.6470588235294118
215	0.2037037037037037	0.6470588235294118
216	0.20754716981132076	0.6470588235294118
217	0.21153846153846154	0.6470588235294118
218	0.21568627450980393	0.6470588235294118
219	0.22	0.6470588235294118
220	0.22448979591836735	0.6470588235294118
221	0.22916666666666666	0.6470588235294118
222	0.23404255319148937	0.6470588235294118
223	0.2391304347826087	0.6470588235294118
224	0.24444444444444444	0.6470588235294118
225	0.25	0.6470588235294118
226	0.2558139534883721	0.6470588235294118
227	0.2619047619047619	0.6470588235294118
228	0.2682926829268293	0.6470588235294118
229	0.275	0.6470588235294118
230	0.2564102564102564	0.5882352941176471
231	0.2631578947368421	0.5882352941176471
232	0.2702702702702703	0.5882352941176471
233	0.2777777777777778	0.5882352941176471
234	0.2571428571428571	0.5294117647058824
235	0.2647058823529412	0.5294117647058824
236	0.2727272727272727	0.5294117647058824
237	0.28125	0.5294117647058824
238	0.2903225806451613	0.5294117647058824
239	0.3	0.5294117647058824
240	0.3103448275862069	0.5294117647058824
241	0.2857142857142857	0.47058823529411764
242	0.25925925925925924	0.4117647058823529
243	0.2692307692307692	0.4117647058823529
244	0.24	0.35294117647058826
245	0.25	0.35294117647058826
246	0.2608695652173913	0.35294117647058826
247	0.2727272727272727	0.35294117647058826
248	0.2857142857142857	0.35294117647058826
249	0.3	0.35294117647058826
250	0.3157894736842105	0.35294117647058826
251	0.3333333333333333	0.35294117647058826
252	0.35294117647058826	0.35294117647058826
253	0.3125	0.29411764705882354
254	0.3333333333333333	0.29411764705882354
255	0.35714285714285715	0.29411764705882354
256	0.38461538461538464	0.29411764705882354
257	0.4166666666666667	0.29411764705882354
258	0.45454545454545453	0.29411764705882354
259	0.4	0.23529411764705882
260	0.3333333333333333	0.17647058823529413
261	0.375	0.17647058823529413
262	0.2857142857142857	0.11764705882352941
263	0.3333333333333333	0.11764705882352941
264	0.4	0.11764705882352941
265	0.5	0.11764705882352941
266	0.6666666666666666	0.11764705882352941
267	0.5	0.058823529411764705
268	1.0	0.058823529411764705
269	1.0	0.0
