genes	class	per_score	per_score_rerank
YKL185W	1.0	3.4412351003179515	3.4412351003179515
YGR044C	0.0	3.2515109679542844	3.2515109679542844
YDR146C	1.0	2.9859499296250305	2.9859499296250305
YOR025W	0.0	2.7209557425327286	2.7209557425327286
YDR191W	0.0	2.635647703548885	2.635647703548885
YLR131C	1.0	2.388839908323332	2.388839908323332
YER111C	1.0	2.2816130548208053	2.2816130548208053
YPR193C	0.0	2.0847316849500133	2.0847316849500133
YDL138W	0.0	2.072045237580363	2.072045237580363
YOR229W	0.0	2.0583861323356705	2.0583861323356705
YOR028C	0.0	2.0277851789294967	2.0277851789294967
YJL089W	0.0	2.0150647776307067	2.0150647776307067
YJL115W	0.0	1.967877140890813	1.967877140890813
YNL309W	1.0	1.9575340309713527	1.9575340309713527
YOR358W	0.0	1.9437713881963787	1.9437713881963787
YBR083W	0.0	1.9104911829829527	1.9104911829829527
YML027W	1.0	1.8753251407767184	1.8753251407767184
YNL103W	0.0	1.8719307242258856	1.8719307242258856
YML099C	0.0	1.846970863712384	1.846970863712384
YDR363W	0.0	1.846345158062364	1.846345158062364
YJL056C	0.0	1.8156686472631565	1.8156686472631565
YKL062W	0.0	1.810765987723966	1.810765987723966
YFL044C	0.0	1.8103216521769108	1.8103216521769108
YIL154C	0.0	1.8059200707207679	1.8059200707207679
YFL021W	0.0	1.7954944444480734	1.7954944444480734
YCR106W	0.0	1.7941442815107065	1.7941442815107065
YPR018W	0.0	1.7754712555900791	1.7754712555900791
YDR259C	0.0	1.7573519851501802	1.7573519851501802
YKL043W	0.0	1.735345551936075	1.735345551936075
YJL206C	0.0	1.7260157862443417	1.7260157862443417
YMR075W	0.0	1.7250352022718634	1.7250352022718634
YHR124W	0.0	1.7149101322122244	1.7149101322122244
YIL101C	0.0	1.7115075765227332	1.7115075765227332
YDR421W	0.0	1.6951947104257186	1.6951947104257186
YDR009W	0.0	1.6726486962707647	1.6726486962707647
YER051W	0.0	1.6627156922541533	1.6627156922541533
YIL010W	0.0	1.6455138699726737	1.6455138699726737
YJL110C	0.0	1.623720255227017	1.623720255227017
YOR230W	0.0	1.618791632000924	1.618791632000924
YNL236W	0.0	1.6149254230585641	1.6149254230585641
YLR014C	0.0	1.613578316035995	1.613578316035995
YOL108C	0.0	1.6079943299299455	1.6079943299299455
YGL166W	0.0	1.6039413655897077	1.6039413655897077
YOR304W	0.0	1.600870764054403	1.600870764054403
YMR172W	0.0	1.5956033106522218	1.5956033106522218
YLR098C	0.0	1.5916729650966142	1.5916729650966142
YJR094C	0.0	1.5894684948440765	1.5894684948440765
YDR520C	0.0	1.5889490603092358	1.5889490603092358
YKL020C	0.0	1.5827747481552377	1.5827747481552377
YIL119C	0.0	1.5789971126479267	1.5789971126479267
YGL151W	0.0	1.5784066527228533	1.5784066527228533
YGL252C	0.0	1.5775290155615909	1.5775290155615909
YMR280C	0.0	1.576201693566834	1.576201693566834
YDR423C	0.0	1.5742702657707	1.5742702657707
YIL036W	0.0	1.5710075690429923	1.5710075690429923
YKL005C	0.0	1.5698641953931698	1.5698641953931698
YCR018C	0.0	1.5671195547772292	1.5671195547772292
YLR176C	0.0	1.5665091534324738	1.5665091534324738
YLR266C	0.0	1.5652391234107006	1.5652391234107006
YNR052C	0.0	1.5595027216715551	1.5595027216715551
YKL109W	0.0	1.5573485792512358	1.5573485792512358
YDR392W	0.0	1.5571343706057923	1.5571343706057923
YLR025W	0.0	1.552154720494096	1.552154720494096
YIL130W	0.0	1.548770301928158	1.548770301928158
YPR008W	0.0	1.5468771020095806	1.5468771020095806
YGR056W	0.0	1.5410542638389533	1.5410542638389533
YHR154W	0.0	1.53890185579684	1.53890185579684
YLR183C	1.0	1.5287759798980645	1.5287759798980645
YPL001W	0.0	1.5275878865005668	1.5275878865005668
YDR169C	0.0	1.5227946723086676	1.5227946723086676
YBR033W	0.0	1.52016834237925	1.52016834237925
YPR094W	0.0	1.5200982820620133	1.5200982820620133
YIL038C	0.0	1.5051111689318808	1.5051111689318808
YGL096W	0.0	1.5045663614637683	1.5045663614637683
YML076C	0.0	1.4990190618081158	1.4990190618081158
YMR053C	0.0	1.4949810291169046	1.4949810291169046
YIL128W	0.0	1.4895704724605634	1.4895704724605634
YGR249W	0.0	1.4863780667026358	1.4863780667026358
YDL048C	0.0	1.4832398332587853	1.4832398332587853
YLR418C	0.0	1.4739910104966736	1.4739910104966736
YMR021C	0.0	1.4728243912518992	1.4728243912518992
YKL222C	0.0	1.4654229467811264	1.4654229467811264
YDR174W	0.0	1.4575169190312751	1.4575169190312751
YNL027W	0.0	1.4568595905011632	1.4568595905011632
YER130C	0.0	1.4517646946154137	1.4517646946154137
YKL038W	0.0	1.4500475916615625	1.4500475916615625
YOR380W	0.0	1.4429769510987769	1.4429769510987769
YNL097C	0.0	1.4403717845424855	1.4403717845424855
YEL056W	0.0	1.4383372787705668	1.4383372787705668
YMR016C	0.0	1.4357263596087677	1.4357263596087677
YPL254W	0.0	1.4319211846574147	1.4319211846574147
YOR244W	0.0	1.429264221029173	1.429264221029173
YHL009C	0.0	1.428269384406876	1.428269384406876
YPL230W	0.0	1.4254644061488568	1.4254644061488568
YOR162C	0.0	1.423626428284739	1.423626428284739
YKR099W	0.0	1.4170541117844988	1.4170541117844988
YGL244W	0.0	1.4168524029517866	1.4168524029517866
YNL021W	0.0	1.4162291166852992	1.4162291166852992
YLR039C	0.0	1.4121158488995442	1.4121158488995442
YNL330C	0.0	1.4081912059151995	1.4081912059151995
YNL199C	0.0	1.40252600885018	1.40252600885018
YOR077W	0.0	1.397555995689383	1.397555995689383
YNL229C	0.0	1.3957500902219544	1.3957500902219544
YBR150C	0.0	1.3925491832232482	1.3925491832232482
YIR033W	0.0	1.3875945947049309	1.3875945947049309
YML007W	0.0	1.3865074010392455	1.3865074010392455
YKL015W	0.0	1.384517495310694	1.384517495310694
YBR195C	0.0	1.384038480439734	1.384038480439734
YGL197W	0.0	1.3806186342041888	1.3806186342041888
YNL257C	0.0	1.3744628185914731	1.3744628185914731
YOR172W	0.0	1.3735536052985573	1.3735536052985573
YDR266C	0.0	1.3726062160240171	1.3726062160240171
YDL070W	0.0	1.365906952825779	1.365906952825779
YER161C	0.0	1.3614216742754668	1.3614216742754668
YLR256W	0.0	1.3605196801454384	1.3605196801454384
YOL004W	0.0	1.3599037359601347	1.3599037359601347
YDR207C	0.0	1.3531965407583262	1.3531965407583262
YML081W	0.0	1.3515022080692638	1.3515022080692638
YGL073W	0.0	1.350706181024819	1.350706181024819
YBR297W	0.0	1.3499800888455509	1.3499800888455509
YHL020C	0.0	1.3470235639083774	1.3470235639083774
YHL025W	0.0	1.3453916708418123	1.3453916708418123
YOL089C	0.0	1.3407882600058718	1.3407882600058718
YHR084W	0.0	1.3407678830494127	1.3407678830494127
YDL042C	0.0	1.3404405425701265	1.3404405425701265
YDR049W	0.0	1.3387471574781504	1.3387471574781504
YPL139C	0.0	1.33709219967085	1.33709219967085
YNR010W	0.0	1.3366516864643552	1.3366516864643552
YPL089C	0.0	1.3313905018578782	1.3313905018578782
YIL084C	0.0	1.3268387756524105	1.3268387756524105
YBL103C	0.0	1.326491347210453	1.326491347210453
YGL025C	0.0	1.324175309866284	1.324175309866284
YGL013C	0.0	1.3182953467471925	1.3182953467471925
YDR448W	0.0	1.3165392640611953	1.3165392640611953
YKR036C	0.0	1.3162376677341818	1.3162376677341818
YNL139C	0.0	1.3148560437569137	1.3148560437569137
YLR451W	0.0	1.305156722705572	1.305156722705572
YKR064W	0.0	1.304597128458716	1.304597128458716
YDR043C	0.0	1.3040348719225356	1.3040348719225356
YBR239C	0.0	1.2974744112395258	1.2974744112395258
YGR089W	0.0	1.2974535436923096	1.2974535436923096
YPL270W	0.0	1.2922611518109743	1.2922611518109743
YOL068C	0.0	1.292246211669299	1.292246211669299
YDR477W	0.0	1.2892923295471979	1.2892923295471979
YOL148C	0.0	1.2892438364685177	1.2892438364685177
YDR277C	0.0	1.288900454154854	1.288900454154854
YER184C	0.0	1.2860490683542538	1.2860490683542538
YPL129W	0.0	1.2837404926344196	1.2837404926344196
YJR127C	0.0	1.2828828768498055	1.2828828768498055
YBR215W	0.0	1.2814870863319068	1.2814870863319068
YPL042C	0.0	1.2803864751111675	1.2803864751111675
YDR463W	0.0	1.277995120379097	1.277995120379097
YAL051W	0.0	1.2747764455034178	1.2747764455034178
YCR065W	1.0	1.2702066606549178	1.2702066606549178
YDL080C	0.0	1.2688875271058304	1.2688875271058304
YFL052W	0.0	1.268543452226664	1.268543452226664
YOR038C	0.0	1.2646093665236349	1.2646093665236349
YGL181W	0.0	1.2625816942404802	1.2625816942404802
YLR453C	0.0	1.262421377111755	1.262421377111755
YGL035C	0.0	1.262241720783708	1.262241720783708
YER040W	0.0	1.2579141458523522	1.2579141458523522
YGR104C	0.0	1.2541092959835285	1.2541092959835285
YGR063C	0.0	1.2529330643396928	1.2529330643396928
YLR113W	0.0	1.251292354766926	1.251292354766926
YKR034W	0.0	1.2458324986763507	1.2458324986763507
YDR213W	0.0	1.2442401161320218	1.2442401161320218
YDR310C	0.0	1.242646108448375	1.242646108448375
YMR037C	0.0	1.2422450389664166	1.2422450389664166
YDR096W	0.0	1.2382480135683698	1.2382480135683698
YDR034C	0.0	1.2354787399586398	1.2354787399586398
YMR273C	0.0	1.2349135195381191	1.2349135195381191
YCR081W	0.0	1.2341823885080918	1.2341823885080918
YBL021C	0.0	1.230538867980512	1.230538867980512
YOR191W	0.0	1.2283843173981277	1.2283843173981277
YPR199C	0.0	1.2267395730453077	1.2267395730453077
YOR298C-A	0.0	1.2254764009586396	1.2254764009586396
YER169W	0.0	1.2229776848135672	1.2229776848135672
YML102W	0.0	1.2221339896075334	1.2221339896075334
YPL049C	0.0	1.2216630074331634	1.2216630074331634
YBR182C	0.0	1.2210031331003162	1.2210031331003162
YKR101W	0.0	1.2163523889147692	1.2163523889147692
YGR288W	0.0	1.215024933330176	1.215024933330176
YBR066C	0.0	1.2140563787359724	1.2140563787359724
YPR065W	0.0	1.2125914831754303	1.2125914831754303
YJL168C	0.0	1.2086747887391325	1.2086747887391325
YIL122W	0.0	1.2078477153058604	1.2078477153058604
YPR022C	0.0	1.2051429394906914	1.2051429394906914
YGL209W	0.0	1.1981858813142643	1.1981858813142643
YJL103C	0.0	1.1968504128700663	1.1968504128700663
YML051W	0.0	1.1949222492669944	1.1949222492669944
YBR245C	0.0	1.19385978931325	1.19385978931325
YBR275C	0.0	1.1905181502896658	1.1905181502896658
YOL116W	0.0	1.1901621602002244	1.1901621602002244
YDR176W	0.0	1.1880010007786648	1.1880010007786648
YEL009C	0.0	1.183023406532426	1.183023406532426
YDR081C	0.0	1.1729029794247243	1.1729029794247243
YDL056W	1.0	1.1703109031604326	1.1703109031604326
YMR043W	1.0	1.169009028160967	1.169009028160967
YNR063W	0.0	1.1682568519603709	1.1682568519603709
YPR054W	0.0	1.1661847796239422	1.1661847796239422
YPL038W	0.0	1.1655475080318651	1.1655475080318651
YMR042W	0.0	1.1643727425354329	1.1643727425354329
YHR041C	0.0	1.1561157965507751	1.1561157965507751
YLR013W	0.0	1.148155779699652	1.148155779699652
YLR223C	0.0	1.1477561717070246	1.1477561717070246
YDR026C	0.0	1.1468598450139105	1.1468598450139105
YLR442C	0.0	1.1429202058572543	1.1429202058572543
YKL072W	0.0	1.1349318622914433	1.1349318622914433
YMR019W	0.0	1.1309999182627926	1.1309999182627926
YNL167C	0.0	1.130854692068124	1.130854692068124
YER045C	0.0	1.1298199894314276	1.1298199894314276
YDL106C	0.0	1.1233142421074047	1.1233142421074047
YLR357W	0.0	1.1220756501800404	1.1220756501800404
YGL237C	0.0	1.1217788794630863	1.1217788794630863
YBL054W	0.0	1.1201451721657378	1.1201451721657378
YER088C	0.0	1.1187082025197512	1.1187082025197512
YDL020C	0.0	1.1154226348133485	1.1154226348133485
YHR006W	0.0	1.1110610958797424	1.1110610958797424
YDR443C	0.0	1.108655639986008	1.108655639986008
YOL051W	0.0	1.106007067662773	1.106007067662773
YMR312W	0.0	1.1059213523254399	1.1059213523254399
YPL202C	0.0	1.1047085249169395	1.1047085249169395
YGL162W	0.0	1.1044318264978974	1.1044318264978974
YPR196W	0.0	1.1035575627872858	1.1035575627872858
YDR073W	0.0	1.1020197918159234	1.1020197918159234
YHL027W	0.0	1.0984368890452632	1.0984368890452632
YLR228C	0.0	1.0940570540736456	1.0940570540736456
YDR173C	0.0	1.086463941077957	1.086463941077957
YPL075W	0.0	1.0852241498147854	1.0852241498147854
YOR363C	0.0	1.0849187423813578	1.0849187423813578
YPL177C	0.0	1.0840258660029356	1.0840258660029356
YNL204C	0.0	1.082378864959387	1.082378864959387
YHR178W	0.0	1.0812734724297233	1.0812734724297233
YGL071W	0.0	1.0784442416295532	1.0784442416295532
YBL005W	0.0	1.0691936681520848	1.0691936681520848
YDR501W	1.0	1.0687491237063798	1.0687491237063798
YPR009W	0.0	1.0653822883700694	1.0653822883700694
YGR040W	0.0	1.059971040054853	1.059971040054853
YPR086W	0.0	1.0561443951131035	1.0561443951131035
YDR181C	0.0	1.054399394034998	1.054399394034998
YML113W	0.0	1.050443336461108	1.050443336461108
YMR070W	0.0	1.0475017057487848	1.0475017057487848
YLR403W	0.0	1.0470666477548365	1.0470666477548365
YNL314W	0.0	1.045766329678024	1.045766329678024
YLR278C	0.0	1.0455912572654391	1.0455912572654391
YFL031W	0.0	1.043239423284685	1.043239423284685
YER068W	0.0	1.0428241990105327	1.0428241990105327
YGL023C	0.0	1.037374439531246	1.037374439531246
YBL008W	0.0	1.0334655930675067	1.0334655930675067
YPR015C	0.0	1.0312951117795268	1.0312951117795268
YER109C	0.0	1.0310400627743368	1.0310400627743368
YGR097W	0.0	1.022408638768952	1.022408638768952
YJR060W	0.0	1.0218642591671008	1.0218642591671008
YOL028C	0.0	1.0118878557061526	1.0118878557061526
YJR147W	0.0	1.010884781395041	1.010884781395041
YBR240C	0.0	1.003245405553599	1.003245405553599
YKL032C	0.0	0.9947035433377166	0.9947035433377166
YHR206W	0.0	0.9900399684700526	0.9900399684700526
YMR164C	0.0	0.9862404214850232	0.9862404214850232
YDR216W	0.0	0.9844482033781541	0.9844482033781541
YIL131C	1.0	0.9818112490892889	0.9818112490892889
YNL216W	0.0	0.9679489924096374	0.9679489924096374
YIR023W	0.0	0.9674625994504849	0.9674625994504849
YCL055W	0.0	0.9644178416119308	0.9644178416119308
YOR213C	0.0	0.9583240380904312	0.9583240380904312
YJL127C	0.0	0.9533762124424878	0.9533762124424878
YJR140C	0.0	0.9475885590438932	0.9475885590438932
YOR290C	0.0	0.9458442835389844	0.9458442835389844
YDL170W	0.0	0.9433345786806172	0.9433345786806172
YGL131C	0.0	0.9298094367705388	0.9298094367705388
YDR451C	1.0	0.9283699069499072	0.9283699069499072
YIR017C	0.0	0.9243710696761956	0.9243710696761956
YOR113W	0.0	0.922283774754196	0.922283774754196
YBR049C	0.0	0.9164682110705352	0.9164682110705352
YOR344C	0.0	0.9140404433914359	0.9140404433914359
YIR018W	0.0	0.9127356527257908	0.9127356527257908
YKL112W	0.0	0.908562056680284	0.908562056680284
YGL254W	0.0	0.8789454053719591	0.8789454053719591
YER028C	0.0	0.8681906003802017	0.8681906003802017
YFR028C	0.0	0.8479329759834883	0.8479329759834883
YBL052C	0.0	0.8443960348065941	0.8443960348065941
YOR032C	0.0	0.8181768376425849	0.8181768376425849
YOL067C	0.0	0.796095762529493	0.796095762529493
YJL176C	0.0	0.7886304483363769	0.7886304483363769
YBR103W	0.0	0.750916879185202	0.750916879185202
YDR123C	0.0	0.7432949677035247	0.7432949677035247
YPL133C	0.0	0.7406812194168503	0.7406812194168503
YLR182W	1.0	0.7385561975564247	0.7385561975564247
YOR140W	0.0	0.7214877861723703	0.7214877861723703
YGR067C	0.0	0.7109371162019922	0.7109371162019922
YFR034C	0.0	0.7067746312292238	0.7067746312292238
YLR136C	0.0	0.7057728453481348	0.7057728453481348
YCR084C	0.0	0.693564928090173	0.693564928090173
YOR372C	1.0	0.6881585139528159	0.6881585139528159
YBR112C	0.0	0.6839852409240292	0.6839852409240292
YIR019C	0.0	0.6781703830513027	0.6781703830513027
YDR253C	0.0	0.6764216512912534	0.6764216512912534
YMR182C	0.0	0.6666362855131971	0.6666362855131971
YIR013C	0.0	0.655384523499277	0.655384523499277
YBL066C	0.0	0.6289992329341687	0.6289992329341687
YPR104C	1.0	0.6253562118656713	0.6253562118656713
YNL068C	1.0	0.5694391514104505	0.5694391514104505
YPL128C	0.0	0.5438906211752148	0.5438906211752148
YBR289W	0.0	0.39084986731885896	0.39084986731885896
