genes	class	p_per_norm	p_per_norm_rerank
YGL151W	0.0	1.4277555682467167e-05	70039.99999999997
YOR028C	0.0	0.001142204454597373	875.5
YNL103W	0.0	0.001142204454597373	875.5
YOR304W	0.0	0.0017133066818960589	583.6666666666669
YIL128W	0.0	0.0017133066818960589	583.6666666666669
YKL038W	0.0	0.0017133066818960589	583.6666666666669
YGL252C	0.0	0.0048543689320388345	206.00000000000003
YIL130W	0.0	0.005425471159337521	184.31578947368422
YDR363W	0.0	0.0057110222729868645	175.1
YNL236W	0.0	0.007709880068532267	129.7037037037037
YDL138W	0.0	0.007995431182181609	125.0714285714286
YOR358W	0.0	0.007995431182181609	125.0714285714286
YNR052C	0.0	0.008280982295830953	120.75862068965519
YIL038C	0.0	0.009708737864077669	103.00000000000001
YGR056W	0.0	0.011993146773272416	83.38095238095238
YLR418C	0.0	0.013135351227869787	76.1304347826087
YDR191W	0.0	0.013135351227869787	76.1304347826087
YOR229W	0.0	0.014563106796116504	68.66666666666667
YJL056C	0.0	0.018846373500856654	53.060606060606055
YDR392W	0.0	0.019417475728155338	51.50000000000001
YDR421W	0.0	0.025414049114791545	39.348314606741575
YLR025W	0.0	0.02655625356938892	37.655913978494624
YKL020C	0.0	0.028555111364934323	35.02
YDR423C	0.0	0.05025699600228442	19.897727272727266
YPR193C	0.0	0.05082809822958309	19.674157303370787
YKL005C	0.0	0.05511136493432325	18.145077720207254
YER051W	0.0	0.05511136493432325	18.145077720207254
YPL001W	0.0	0.06681896059394632	14.965811965811966
YMR021C	0.0	0.06681896059394632	14.965811965811966
YLR266C	0.0	0.06967447173043975	14.352459016393443
YPR094W	0.0	0.07081667618503712	14.120967741935484
YLR176C	0.0	0.07310108509423187	13.6796875
YOL108C	0.0	0.10222729868646488	9.782122905027933
YMR075W	0.0	0.10279840091376356	9.727777777777778
YNL027W	0.0	0.10593946316390634	9.439353099730457
YDR266C	0.0	0.11450599657338666	8.733167082294262
YGL166W	0.0	0.12078812107367218	8.278959810874705
YML099C	0.0	0.13478012564249	7.419491525423728
YKL185W	1.0	0.13506567675613934	7.403805496828753
YLR098C	0.0	0.14620217018846374	6.83984375
YDR169C	0.0	0.1524842946887493	6.558052434456928
YMR172W	0.0	0.15305539691604794	6.53358208955224
YNL229C	0.0	0.1544831524842947	6.473197781885397
YIL010W	0.0	0.18675042832667046	5.3547400611620795
YGL244W	0.0	0.190462592804112	5.250374812593701
YOR244W	0.0	0.1938892061679041	5.157584683357879
YBR150C	0.0	0.19474585950885206	5.134897360703813
YNL097C	0.0	0.1978869217589949	5.053391053391053
YDR174W	0.0	0.20702455739577386	4.830344827586207
YIL119C	0.0	0.2184466019417476	4.5777777777777775
YBR083W	0.0	0.2224443175328384	4.495507060333761
YNL330C	0.0	0.22701313535122786	4.405031446540881
YNL021W	0.0	0.2272986864648772	4.399497487437186
YDR520C	0.0	0.2392918332381496	4.178997613365156
YML076C	0.0	0.2410051399200457	4.149289099526066
YPR008W	0.0	0.24129069103369505	4.144378698224852
YIL036W	0.0	0.25328383780696745	3.9481397970687713
YFL044C	0.0	0.2538549400342661	3.9392575928009
YLR039C	0.0	0.2587093089663049	3.8653421633554093
YNL199C	0.0	0.2712735579668761	3.686315789473684
YGR044C	0.0	0.2821245002855511	3.544534412955466
YCR106W	0.0	0.29554540262707024	3.3835748792270532
YPL254W	0.0	0.2989720159908624	3.3447946513849085
YOR162C	0.0	0.3215305539691605	3.110124333925399
YJL110C	0.0	0.3258138206739006	3.0692375109553027
YGL096W	0.0	0.3295259851513421	3.0346620450606583
YOL089C	0.0	0.3366647629925757	2.970313825275657
YKL062W	0.0	0.336950314106225	2.9677966101694917
YER161C	0.0	0.3398058252427184	2.942857142857143
YOL004W	0.0	0.345231296402056	2.896608767576509
YIL154C	0.0	0.3475157053112507	2.8775677896466725
YPL089C	0.0	0.3512278697886921	2.8471544715447163
YER111C	1.0	0.3520845231296402	2.840227088402271
YDR146C	1.0	0.3740719588806397	2.673282442748091
YPL129W	0.0	0.3806396344945745	2.6271567891972993
YDL048C	0.0	0.3809251856082239	2.625187406296851
YNL257C	0.0	0.39034837235865216	2.561814191660571
YMR280C	0.0	0.3940605368360937	2.5376811594202895
YDR259C	0.0	0.39605939463163903	2.5248738284066334
YPL139C	0.0	0.4060536836093661	2.462728551336146
YOR025W	0.0	0.4160479725870931	2.4035689773507207
YKR064W	0.0	0.4186179326099372	2.38881309686221
YER130C	0.0	0.4283266704740148	2.334666666666667
YKL043W	0.0	0.4346087949743004	2.3009198423127466
YJR094C	0.0	0.4394631639063393	2.2755035737491873
YEL056W	0.0	0.4428897772701313	2.257898130238556
YLR014C	0.0	0.4488863506567676	2.227735368956743
YNL309W	1.0	0.46259280411193604	2.1617283950617283
YNL139C	0.0	0.4751570531125071	2.104567307692308
YLR131C	1.0	0.5034266133637921	1.9863868406125922
YJL206C	0.0	0.5045688178183895	1.981890209394454
YFL021W	0.0	0.5114220445459737	1.9553322166387492
YMR053C	0.0	0.5242718446601942	1.9074074074074074
YOR172W	0.0	0.5259851513420902	1.9011943539630836
YJL089W	0.0	0.5274129069103369	1.8960476448294532
YGR249W	0.0	0.5408338092518561	1.8489968321013728
YPR018W	0.0	0.5411193603655055	1.8480211081794193
YGL197W	0.0	0.5591090805254141	1.7885597548518897
YOL068C	0.0	0.5876641918903484	1.7016520894071916
YCR018C	0.0	0.5925185608223872	1.687710843373494
YJL115W	0.0	0.5956596230725301	1.6788111217641417
YIL101C	0.0	0.6561964591661907	1.523933855526545
YOL148C	0.0	0.6590519703026841	1.5173310225303294
YHR124W	0.0	0.6599086236436322	1.515361315447858
YML081W	0.0	0.6767561393489434	1.4776371308016878
YNR010W	0.0	0.6910336950314105	1.4471074380165292
YDL042C	0.0	0.7041690462592805	1.4201135442011354
YHL009C	0.0	0.7235865219874358	1.3820047355958958
YDR207C	0.0	0.7290119931467733	1.371719545632589
YHL020C	0.0	0.7498572244431753	1.3335872048743338
YKL222C	0.0	0.7527127355796688	1.3285280728376327
YGL025C	0.0	0.7569960022844089	1.3210109392682008
YDR009W	0.0	0.7689891490576812	1.3004084663943558
YGL073W	0.0	0.7889777270131353	1.2674629026420559
YPL230W	0.0	0.7932609937178754	1.2606191504679627
YOR380W	0.0	0.8092518560822387	1.235709244883557
YDL070W	0.0	0.8369503141062251	1.1948140566359602
YBR297W	0.0	0.8395202741290692	1.191156462585034
YOR230W	0.0	0.8580810965162764	1.1653910149750417
YML027W	1.0	0.8700742432895489	1.14932720708894
YMR016C	0.0	0.8700742432895489	1.14932720708894
YHL025W	0.0	0.8792118789263278	1.1373822669697955
YDR049W	0.0	0.8963449457452884	1.1156419241796751
YGR104C	0.0	0.8986293546544829	1.112805846838259
YHR084W	0.0	0.9080525414049114	1.1012578616352202
YGR063C	0.0	0.9083380925185608	1.100911662999057
YML007W	0.0	0.9120502569960024	1.0964308077645584
YPL042C	0.0	0.9240434037692746	1.0822002472187886
YBR195C	0.0	0.9254711593375212	1.080530700401111
YDR463W	0.0	0.9277555682467162	1.0778701138811941
YOR077W	0.0	0.932609937178755	1.0722596448254746
YKL015W	0.0	0.936036550542547	1.068334350213545
YBL103C	0.0	0.9466019417475728	1.0564102564102564
YAL051W	0.0	0.9571673329525984	1.044749403341289
YGL013C	0.0	0.9748715019988576	1.0257762155828942
YBR215W	0.0	0.9780125642490006	1.0224817518248175
YDR448W	0.0	0.9877213021130782	1.0124313385371495
YIL084C	0.0	1.0079954311821815	0.9920679886685554
YKR099W	0.0	1.0191319246145059	0.9812272345194734
YKL109W	0.0	1.0414049114791548	0.9602412942144227
YKR036C	0.0	1.041690462592804	0.9599780701754387
YPL270W	0.0	1.0428326670474015	0.9589266155531215
YGR089W	0.0	1.0576813249571673	0.945464362850972
YJR127C	0.0	1.0613934894346089	0.9421576540220608
YDR477W	0.0	1.0830953740719589	0.9232797258107039
YDR310C	0.0	1.1176470588235294	0.8947368421052632
YLR451W	0.0	1.1284980011422043	0.8861336032388665
YFL052W	0.0	1.154483152484295	0.8661884739055156
YIR033W	0.0	1.1690462592804112	0.8553981436248168
YLR256W	0.0	1.1784694460308396	0.8485582747758662
YDR043C	0.0	1.1924614505996574	0.8386015325670498
YER184C	0.0	1.1981724728726442	0.8346043851286941
YDL080C	0.0	1.2064534551684751	0.8288757396449704
YMR037C	0.0	1.2184466019417477	0.8207171314741035
YER040W	0.0	1.2255853797829812	0.8159366262814538
YOR038C	0.0	1.2444317532838378	0.8035796236805874
YBR239C	0.0	1.2529982866933178	0.7980856882406565
YGL035C	0.0	1.2915476870359794	0.7742648684501438
YLR453C	0.0	1.2984009137635637	0.770178139432593
YHR154W	0.0	1.3038263849229013	0.7669732807709154
YGL181W	0.0	1.3183894917190178	0.7585011912497293
YLR113W	0.0	1.3306681896059396	0.7515021459227467
YDR277C	0.0	1.3449457452884066	0.7435244161358812
YLR183C	1.0	1.3557966876070815	0.7375737152485258
YPR199C	0.0	1.367789834380354	0.731106471816284
YDR034C	0.0	1.3783552255853797	0.7255023824321525
YBL021C	0.0	1.3812107367218731	0.7240024808765765
YBR033W	0.0	1.3866362078812111	0.7211696869851728
YMR273C	0.0	1.3980582524271843	0.7152777777777779
YOR191W	0.0	1.3986293546544832	0.7149857084524295
YER169W	0.0	1.40434037692747	0.7120780805205368
YDR096W	0.0	1.4046259280411193	0.7119333197804432
YDR213W	0.0	1.4114791547687036	0.7084766336233057
YML102W	0.0	1.4117647058823528	0.7083333333333334
YPL049C	0.0	1.4220445459737292	0.7032128514056225
YBR182C	0.0	1.450028555111365	0.689641591177629
YCR081W	0.0	1.451741861793261	0.6888276947285602
YKR034W	0.0	1.4554540262707023	0.6870708259760644
YGR288W	0.0	1.5008566533409478	0.6662861491628617
YKR101W	0.0	1.5177041690462592	0.658889934148636
YOR298C-A	0.0	1.5265562535693888	0.6550692106247662
YPR065W	0.0	1.5271273557966878	0.6548242333582647
YJL168C	0.0	1.5419760137064535	0.6485185185185185
YBR066C	0.0	1.5596801827527127	0.6411570853167338
YCR065W	1.0	1.5908052541404911	0.6286124573685156
YIL122W	0.0	1.5970873786407769	0.6261398176291793
YJL103C	0.0	1.6007995431182178	0.6246878344630754
YGL209W	0.0	1.6199314677327243	0.6173100652212232
YOL116W	0.0	1.6227869788692175	0.6162238254443076
YBR245C	0.0	1.640491147915477	0.6095735422106179
YPR022C	0.0	1.6413478012564249	0.6092553931802366
YML051W	0.0	1.6798972015990865	0.5952745198028216
YDR176W	0.0	1.6910336950314104	0.5913542722053361
YKL072W	0.0	1.714734437464306	0.5831806827643631
YDL056W	1.0	1.7195888063963447	0.5815343739621389
YMR042W	0.0	1.7332952598515132	0.5769357495881384
YPR054W	0.0	1.736436322101656	0.5758921230060846
YBR275C	0.0	1.7432895488292406	0.5736281736281735
YNR063W	0.0	1.765562535693889	0.5663917192301472
YLR013W	0.0	1.7784123358081096	0.5622992935131663
YDR081C	0.0	1.795259851513421	0.5570224272307936
YMR043W	1.0	1.810394060536836	0.5523659305993691
YHR041C	0.0	1.8118218161050823	0.5519306540583138
YLR223C	0.0	1.8252427184466016	0.547872340425532
YER045C	0.0	1.8352370074243287	0.5448887505834761
YLR228C	0.0	1.8794974300399767	0.532057125493771
YGL237C	0.0	1.9086236436322104	0.5239377618192699
YNL167C	0.0	1.9123358081096515	0.5229207107660147
YPR196W	0.0	1.913478012564249	0.5226085658856887
YDR026C	0.0	1.94346087949743	0.5145459888333823
YDR501W	1.0	1.9545973729297543	0.5116143170197225
YPL038W	0.0	1.964877213021131	0.508937654410696
YLR442C	0.0	1.9934323243860648	0.501647328462971
YBL054W	0.0	2.0379782981153625	0.4906823595348186
YHR006W	0.0	2.0434037692747	0.4893795416433762
YEL009C	0.0	2.0528269560251284	0.4871331200445125
YPL075W	0.0	2.0633923472301543	0.4846388043177415
YDL020C	0.0	2.063963449457453	0.4845047039291644
YIL131C	1.0	2.06967447173044	0.483167770419426
YDL106C	0.0	2.0776699029126213	0.48130841121495327
YDR216W	0.0	2.083380925185608	0.47998903508771934
YBL005W	0.0	2.0876641918903482	0.4790042401860211
YER088C	0.0	2.089663049685894	0.47854605083356105
YLR357W	0.0	2.0919474585950883	0.47802347802347805
YOR363C	0.0	2.0988006853226726	0.4764625850340136
YHR178W	0.0	2.133352370074243	0.46874581715968416
YDR451C	1.0	2.1459166190748142	0.4660013306719894
YBR240C	0.0	2.154197601370645	0.4642099681866384
YIR017C	0.0	2.159337521416333	0.46310499867759863
YDR443C	0.0	2.166476299257567	0.46157901673915913
YHL027W	0.0	2.169046259280411	0.4610321221695629
YGL162W	0.0	2.173329525985152	0.4601235054526342
YMR019W	0.0	2.1867504283266705	0.4572995560198485
YDR173C	0.0	2.197315819531696	0.4551007147498376
YJR147W	0.0	2.2107367218732152	0.45233789718419015
YKL032C	0.0	2.2238720731010853	0.4496661530559835
YLR278C	0.0	2.229011993146773	0.4486292595439406
YMR164C	0.0	2.2318675042832665	0.4480552712384852
YGR040W	0.0	2.2330097087378644	0.44782608695652165
YMR312W	0.0	2.2392918332381497	0.446569752614129
YPL202C	0.0	2.2398629354654482	0.44645588985211626
YJL127C	0.0	2.2529982866933183	0.4438529784537389
YML113W	0.0	2.2695602512849797	0.4406139909411173
YPR015C	0.0	2.270416904625928	0.4404477424223368
YDR073W	0.0	2.345516847515705	0.42634526418310204
YBR049C	0.0	2.3632210165619645	0.4231512808119865
YLR403W	0.0	2.36521987435751	0.4227936737896897
YDR181C	0.0	2.3655054254711594	0.42274263640753257
YGL131C	0.0	2.3680753854940035	0.4222838538526468
YPR009W	0.0	2.3703597944031984	0.4218768823033369
YNL204C	0.0	2.3820673900628213	0.41980340445936226
YCL055W	0.0	2.3874928612221584	0.41884941992584623
YOL051W	0.0	2.3989149057681325	0.4168551362932984
YNL314W	0.0	2.410051399200457	0.4149289099526066
YGL071W	0.0	2.410622501427756	0.4148306088604596
YER109C	0.0	2.429468874928612	0.4116125999059709
YOR113W	0.0	2.4486007995431183	0.40839650145772594
YOR372C	1.0	2.4717304397487148	0.4045748613678374
YLR136C	0.0	2.4723015419760137	0.40448140448140446
YMR070W	0.0	2.4842946887492863	0.4025287356321839
YGR097W	0.0	2.5028555111364934	0.3995436394751854
YPL177C	0.0	2.5045688178183894	0.39927032265420137
YBL008W	0.0	2.5068532267275843	0.3989064813760109
YGL254W	0.0	2.514277555682467	0.3977285633162976
YOR344C	0.0	2.526841804683038	0.3957509323087355
YPR086W	0.0	2.5805254140491147	0.38751798163107226
YER068W	0.0	2.5876641918903482	0.3864489075259325
YOR213C	0.0	2.6067961165048543	0.38361266294227186
YOL028C	0.0	2.620217018846373	0.3816477768090672
YDR253C	0.0	2.64334665905197	0.3783083072269634
YHR206W	0.0	2.6701884637350086	0.374505400491926
YNL216W	0.0	2.6719017704169046	0.3742652559581062
YGL023C	0.0	2.6773272415762417	0.3735068259385666
YBL052C	0.0	2.69131924614506	0.3715649867374005
YDL170W	0.0	2.6990291262135924	0.37050359712230213
YOL067C	0.0	2.715019988577956	0.3683214135464871
YNL068C	1.0	2.7178754997144488	0.36793444000840514
YBL066C	0.0	2.720445459737293	0.3675868584024352
YIR019C	0.0	2.723586521987436	0.3671629272384147
YOR032C	0.0	2.7281553398058254	0.3665480427046263
YJR060W	0.0	2.732153055396916	0.3660117056856187
YJR140C	0.0	2.7467161621930325	0.36407110926291714
YFL031W	0.0	2.7487150199885777	0.3638063577810098
YKL112W	0.0	2.7649914334665904	0.36166477331405555
YIR023W	0.0	2.769845802398629	0.3610309278350516
YDR123C	0.0	2.7715591090805254	0.36080774778487534
YJL176C	0.0	2.7721302113078243	0.36073341573959616
YOR290C	0.0	2.7824100513992005	0.35940065681444994
YFR028C	0.0	2.7835522558537984	0.35925318013951574
YER028C	0.0	2.7875499714448884	0.35873796353206316
YIR018W	0.0	2.8161050828098237	0.35510038531737975
YOR140W	0.0	2.820959451741862	0.3544893207814556
YGR067C	0.0	2.8249571673329523	0.3539876680481149
YMR182C	0.0	2.8380925185608223	0.3523493309186035
YLR182W	1.0	2.8383780696744716	0.3523138832997988
YPL133C	0.0	2.8386636207881213	0.3522784428125943
YBR103W	0.0	2.8432324386065098	0.35171236316159493
YFR034C	0.0	2.848657909765848	0.3510425020048115
YBR112C	0.0	2.8498001142204448	0.3509018036072145
YIR013C	0.0	2.8500856653340945	0.35086664662859435
YPR104C	1.0	2.8535122786978864	0.3504453117182028
YCR084C	0.0	2.853797829811536	0.3504102461476886
YBR289W	0.0	2.8552255853797828	0.35023502350235025
YPL128C	0.0	2.855511136493432	0.3502
