	Precision	Recall
0	0.05647840531561462	1.0
1	0.05333333333333334	0.9411764705882353
2	0.05351170568561873	0.9411764705882353
3	0.053691275167785234	0.9411764705882353
4	0.05387205387205387	0.9411764705882353
5	0.05405405405405406	0.9411764705882353
6	0.05423728813559322	0.9411764705882353
7	0.05102040816326531	0.8823529411764706
8	0.051194539249146756	0.8823529411764706
9	0.05136986301369863	0.8823529411764706
10	0.05154639175257732	0.8823529411764706
11	0.05172413793103448	0.8823529411764706
12	0.05190311418685121	0.8823529411764706
13	0.052083333333333336	0.8823529411764706
14	0.05226480836236934	0.8823529411764706
15	0.05244755244755245	0.8823529411764706
16	0.05263157894736842	0.8823529411764706
17	0.0528169014084507	0.8823529411764706
18	0.053003533568904596	0.8823529411764706
19	0.05319148936170213	0.8823529411764706
20	0.05338078291814947	0.8823529411764706
21	0.05357142857142857	0.8823529411764706
22	0.053763440860215055	0.8823529411764706
23	0.0539568345323741	0.8823529411764706
24	0.05415162454873646	0.8823529411764706
25	0.050724637681159424	0.8235294117647058
26	0.05090909090909091	0.8235294117647058
27	0.051094890510948905	0.8235294117647058
28	0.05128205128205128	0.8235294117647058
29	0.051470588235294115	0.8235294117647058
30	0.05166051660516605	0.8235294117647058
31	0.05185185185185185	0.8235294117647058
32	0.05204460966542751	0.8235294117647058
33	0.05223880597014925	0.8235294117647058
34	0.052434456928838954	0.8235294117647058
35	0.05263157894736842	0.8235294117647058
36	0.052830188679245285	0.8235294117647058
37	0.05303030303030303	0.8235294117647058
38	0.053231939163498096	0.8235294117647058
39	0.05343511450381679	0.8235294117647058
40	0.05363984674329502	0.8235294117647058
41	0.05384615384615385	0.8235294117647058
42	0.05405405405405406	0.8235294117647058
43	0.05426356589147287	0.8235294117647058
44	0.05058365758754864	0.7647058823529411
45	0.05078125	0.7647058823529411
46	0.050980392156862744	0.7647058823529411
47	0.051181102362204724	0.7647058823529411
48	0.05138339920948617	0.7647058823529411
49	0.051587301587301584	0.7647058823529411
50	0.05179282868525897	0.7647058823529411
51	0.052	0.7647058823529411
52	0.05220883534136546	0.7647058823529411
53	0.05241935483870968	0.7647058823529411
54	0.05263157894736842	0.7647058823529411
55	0.052845528455284556	0.7647058823529411
56	0.053061224489795916	0.7647058823529411
57	0.05327868852459016	0.7647058823529411
58	0.053497942386831275	0.7647058823529411
59	0.05371900826446281	0.7647058823529411
60	0.05394190871369295	0.7647058823529411
61	0.05416666666666667	0.7647058823529411
62	0.05439330543933055	0.7647058823529411
63	0.0546218487394958	0.7647058823529411
64	0.05485232067510549	0.7647058823529411
65	0.05508474576271186	0.7647058823529411
66	0.05531914893617021	0.7647058823529411
67	0.05555555555555555	0.7647058823529411
68	0.055793991416309016	0.7647058823529411
69	0.05603448275862069	0.7647058823529411
70	0.05627705627705628	0.7647058823529411
71	0.05652173913043478	0.7647058823529411
72	0.056768558951965066	0.7647058823529411
73	0.05701754385964912	0.7647058823529411
74	0.05726872246696035	0.7647058823529411
75	0.05309734513274336	0.7058823529411765
76	0.05333333333333334	0.7058823529411765
77	0.05357142857142857	0.7058823529411765
78	0.053811659192825115	0.7058823529411765
79	0.05405405405405406	0.7058823529411765
80	0.05429864253393665	0.7058823529411765
81	0.05454545454545454	0.7058823529411765
82	0.0547945205479452	0.7058823529411765
83	0.05045871559633028	0.6470588235294118
84	0.05069124423963134	0.6470588235294118
85	0.05092592592592592	0.6470588235294118
86	0.05116279069767442	0.6470588235294118
87	0.0514018691588785	0.6470588235294118
88	0.051643192488262914	0.6470588235294118
89	0.05188679245283019	0.6470588235294118
90	0.052132701421800945	0.6470588235294118
91	0.047619047619047616	0.5882352941176471
92	0.04784688995215311	0.5882352941176471
93	0.04807692307692308	0.5882352941176471
94	0.04830917874396135	0.5882352941176471
95	0.04854368932038835	0.5882352941176471
96	0.04878048780487805	0.5882352941176471
97	0.049019607843137254	0.5882352941176471
98	0.04926108374384237	0.5882352941176471
99	0.04950495049504951	0.5882352941176471
100	0.04477611940298507	0.5294117647058824
101	0.045	0.5294117647058824
102	0.04522613065326633	0.5294117647058824
103	0.045454545454545456	0.5294117647058824
104	0.04568527918781726	0.5294117647058824
105	0.04591836734693878	0.5294117647058824
106	0.046153846153846156	0.5294117647058824
107	0.041237113402061855	0.47058823529411764
108	0.04145077720207254	0.47058823529411764
109	0.041666666666666664	0.47058823529411764
110	0.041884816753926704	0.47058823529411764
111	0.042105263157894736	0.47058823529411764
112	0.042328042328042326	0.47058823529411764
113	0.0425531914893617	0.47058823529411764
114	0.0427807486631016	0.47058823529411764
115	0.043010752688172046	0.47058823529411764
116	0.043243243243243246	0.47058823529411764
117	0.03804347826086957	0.4117647058823529
118	0.03825136612021858	0.4117647058823529
119	0.038461538461538464	0.4117647058823529
120	0.03867403314917127	0.4117647058823529
121	0.03888888888888889	0.4117647058823529
122	0.03910614525139665	0.4117647058823529
123	0.03932584269662921	0.4117647058823529
124	0.03954802259887006	0.4117647058823529
125	0.03977272727272727	0.4117647058823529
126	0.04	0.4117647058823529
127	0.040229885057471264	0.4117647058823529
128	0.04046242774566474	0.4117647058823529
129	0.040697674418604654	0.4117647058823529
130	0.04093567251461988	0.4117647058823529
131	0.041176470588235294	0.4117647058823529
132	0.04142011834319527	0.4117647058823529
133	0.041666666666666664	0.4117647058823529
134	0.041916167664670656	0.4117647058823529
135	0.04216867469879518	0.4117647058823529
136	0.04242424242424243	0.4117647058823529
137	0.042682926829268296	0.4117647058823529
138	0.03680981595092025	0.35294117647058826
139	0.037037037037037035	0.35294117647058826
140	0.037267080745341616	0.35294117647058826
141	0.0375	0.35294117647058826
142	0.03773584905660377	0.35294117647058826
143	0.0379746835443038	0.35294117647058826
144	0.03821656050955414	0.35294117647058826
145	0.038461538461538464	0.35294117647058826
146	0.03870967741935484	0.35294117647058826
147	0.03896103896103896	0.35294117647058826
148	0.0392156862745098	0.35294117647058826
149	0.039473684210526314	0.35294117647058826
150	0.039735099337748346	0.35294117647058826
151	0.04	0.35294117647058826
152	0.040268456375838924	0.35294117647058826
153	0.04054054054054054	0.35294117647058826
154	0.04081632653061224	0.35294117647058826
155	0.0410958904109589	0.35294117647058826
156	0.041379310344827586	0.35294117647058826
157	0.041666666666666664	0.35294117647058826
158	0.04195804195804196	0.35294117647058826
159	0.04225352112676056	0.35294117647058826
160	0.0425531914893617	0.35294117647058826
161	0.04285714285714286	0.35294117647058826
162	0.04316546762589928	0.35294117647058826
163	0.043478260869565216	0.35294117647058826
164	0.043795620437956206	0.35294117647058826
165	0.04411764705882353	0.35294117647058826
166	0.044444444444444446	0.35294117647058826
167	0.04477611940298507	0.35294117647058826
168	0.045112781954887216	0.35294117647058826
169	0.045454545454545456	0.35294117647058826
170	0.04580152671755725	0.35294117647058826
171	0.046153846153846156	0.35294117647058826
172	0.046511627906976744	0.35294117647058826
173	0.046875	0.35294117647058826
174	0.047244094488188976	0.35294117647058826
175	0.047619047619047616	0.35294117647058826
176	0.048	0.35294117647058826
177	0.04838709677419355	0.35294117647058826
178	0.04878048780487805	0.35294117647058826
179	0.04918032786885246	0.35294117647058826
180	0.049586776859504134	0.35294117647058826
181	0.04201680672268908	0.29411764705882354
182	0.0423728813559322	0.29411764705882354
183	0.042735042735042736	0.29411764705882354
184	0.04310344827586207	0.29411764705882354
185	0.043478260869565216	0.29411764705882354
186	0.043859649122807015	0.29411764705882354
187	0.04424778761061947	0.29411764705882354
188	0.044642857142857144	0.29411764705882354
189	0.04504504504504504	0.29411764705882354
190	0.045454545454545456	0.29411764705882354
191	0.045871559633027525	0.29411764705882354
192	0.046296296296296294	0.29411764705882354
193	0.04672897196261682	0.29411764705882354
194	0.04716981132075472	0.29411764705882354
195	0.047619047619047616	0.29411764705882354
196	0.04807692307692308	0.29411764705882354
197	0.04854368932038835	0.29411764705882354
198	0.049019607843137254	0.29411764705882354
199	0.04950495049504951	0.29411764705882354
200	0.05	0.29411764705882354
201	0.050505050505050504	0.29411764705882354
202	0.05102040816326531	0.29411764705882354
203	0.05154639175257732	0.29411764705882354
204	0.052083333333333336	0.29411764705882354
205	0.05263157894736842	0.29411764705882354
206	0.05319148936170213	0.29411764705882354
207	0.053763440860215055	0.29411764705882354
208	0.05434782608695652	0.29411764705882354
209	0.054945054945054944	0.29411764705882354
210	0.05555555555555555	0.29411764705882354
211	0.0449438202247191	0.23529411764705882
212	0.045454545454545456	0.23529411764705882
213	0.034482758620689655	0.17647058823529413
214	0.03488372093023256	0.17647058823529413
215	0.03529411764705882	0.17647058823529413
216	0.03571428571428571	0.17647058823529413
217	0.03614457831325301	0.17647058823529413
218	0.036585365853658534	0.17647058823529413
219	0.037037037037037035	0.17647058823529413
220	0.0375	0.17647058823529413
221	0.0379746835443038	0.17647058823529413
222	0.038461538461538464	0.17647058823529413
223	0.03896103896103896	0.17647058823529413
224	0.039473684210526314	0.17647058823529413
225	0.04	0.17647058823529413
226	0.04054054054054054	0.17647058823529413
227	0.0273972602739726	0.11764705882352941
228	0.013888888888888888	0.058823529411764705
229	0.014084507042253521	0.058823529411764705
230	0.014285714285714285	0.058823529411764705
231	0.014492753623188406	0.058823529411764705
232	0.014705882352941176	0.058823529411764705
233	0.014925373134328358	0.058823529411764705
234	0.015151515151515152	0.058823529411764705
235	0.015384615384615385	0.058823529411764705
236	0.015625	0.058823529411764705
237	0.015873015873015872	0.058823529411764705
238	0.016129032258064516	0.058823529411764705
239	0.01639344262295082	0.058823529411764705
240	0.016666666666666666	0.058823529411764705
241	0.01694915254237288	0.058823529411764705
242	0.017241379310344827	0.058823529411764705
243	0.017543859649122806	0.058823529411764705
244	0.017857142857142856	0.058823529411764705
245	0.01818181818181818	0.058823529411764705
246	0.018518518518518517	0.058823529411764705
247	0.018867924528301886	0.058823529411764705
248	0.019230769230769232	0.058823529411764705
249	0.0196078431372549	0.058823529411764705
250	0.02	0.058823529411764705
251	0.02040816326530612	0.058823529411764705
252	0.020833333333333332	0.058823529411764705
253	0.02127659574468085	0.058823529411764705
254	0.021739130434782608	0.058823529411764705
255	0.022222222222222223	0.058823529411764705
256	0.022727272727272728	0.058823529411764705
257	0.023255813953488372	0.058823529411764705
258	0.023809523809523808	0.058823529411764705
259	0.024390243902439025	0.058823529411764705
260	0.025	0.058823529411764705
261	0.02564102564102564	0.058823529411764705
262	0.0	0.0
263	0.0	0.0
264	0.0	0.0
265	0.0	0.0
266	0.0	0.0
267	0.0	0.0
268	0.0	0.0
269	0.0	0.0
270	0.0	0.0
271	0.0	0.0
272	0.0	0.0
273	0.0	0.0
274	0.0	0.0
275	0.0	0.0
276	0.0	0.0
277	0.0	0.0
278	0.0	0.0
279	0.0	0.0
280	0.0	0.0
281	0.0	0.0
282	0.0	0.0
283	0.0	0.0
284	0.0	0.0
285	0.0	0.0
286	0.0	0.0
287	0.0	0.0
288	0.0	0.0
289	0.0	0.0
290	0.0	0.0
291	0.0	0.0
292	0.0	0.0
293	1.0	0.0
