genes	class	p_per_norm	p_per_norm_rerank
YKL185W	1.0	6.695681285570806e-06	149350.00000000003
YHR154W	0.0	6.695681285570806e-06	149350.00000000003
YDL138W	0.0	6.695681285570806e-06	149350.00000000003
YJL115W	0.0	6.695681285570806e-06	149350.00000000003
YNR010W	0.0	6.695681285570806e-06	149350.00000000003
YPR008W	0.0	6.695681285570806e-06	149350.00000000003
YLR183C	1.0	6.695681285570806e-06	149350.00000000003
YFL044C	0.0	6.695681285570806e-06	149350.00000000003
YGR288W	0.0	6.695681285570806e-06	149350.00000000003
YFL021W	0.0	6.695681285570806e-06	149350.00000000003
YOR230W	0.0	6.695681285570806e-06	149350.00000000003
YOR229W	0.0	6.695681285570806e-06	149350.00000000003
YML027W	1.0	6.695681285570806e-06	149350.00000000003
YGR044C	0.0	6.695681285570806e-06	149350.00000000003
YPR018W	0.0	6.695681285570806e-06	149350.00000000003
YER111C	1.0	6.695681285570806e-06	149350.00000000003
YBR083W	0.0	6.695681285570806e-06	149350.00000000003
YNL309W	1.0	6.695681285570806e-06	149350.00000000003
YDR191W	0.0	6.695681285570806e-06	149350.00000000003
YDR146C	1.0	0.0006695681285570806	1493.5000000000002
YLR266C	0.0	0.0006695681285570806	1493.5000000000002
YCR065W	1.0	0.0006695681285570806	1493.5000000000002
YKL062W	0.0	0.0013391362571141612	746.7500000000001
YLR131C	1.0	0.0013391362571141612	746.7500000000001
YIL010W	0.0	0.0013391362571141612	746.7500000000001
YOR025W	0.0	0.0013391362571141612	746.7500000000001
YML102W	0.0	0.0020087043856712415	497.8333333333335
YCL055W	0.0	0.0020087043856712415	497.8333333333335
YFL052W	0.0	0.004017408771342483	248.91666666666674
YDR009W	0.0	0.005356545028456645	186.68750000000003
YGL166W	0.0	0.006026113157013725	165.94444444444446
YIL122W	0.0	0.008034817542684966	124.45833333333337
YKL043W	0.0	0.01004352192835621	99.56666666666668
YDR501W	1.0	0.01138265818547037	87.8529411764706
YIL119C	0.0	0.01138265818547037	87.8529411764706
YGR067C	0.0	0.012721794442584531	78.60526315789475
YLR025W	0.0	0.013391362571141614	74.675
YBR066C	0.0	0.015400066956812857	64.93478260869564
YBR033W	0.0	0.015400066956812857	64.93478260869564
YPL270W	0.0	0.016069635085369932	62.229166666666686
YBR297W	0.0	0.016069635085369932	62.229166666666686
YMR021C	0.0	0.016739203213927016	59.74
YOR358W	0.0	0.017408771342484097	57.44230769230769
YPR094W	0.0	0.018078339471041174	55.31481481481483
YGL035C	0.0	0.0207566119852695	48.17741935483871
YKL222C	0.0	0.02209574824238366	45.257575757575765
YDR423C	0.0	0.026113157013726143	38.2948717948718
YIL036W	0.0	0.026113157013726143	38.2948717948718
YBR275C	0.0	0.026782725142283227	37.3375
YIL131C	1.0	0.02946099765651155	33.94318181818182
YIR019C	0.0	0.03749581519919652	26.669642857142854
YBR195C	0.0	0.04419149648476732	22.628787878787882
YPR199C	0.0	0.04553063274188148	21.96323529411765
YNL097C	0.0	0.046869768998995635	21.335714285714293
YJL103C	0.0	0.046869768998995635	21.335714285714293
YPR009W	0.0	0.04887847338466689	20.458904109589042
YMR053C	0.0	0.05624372279879477	17.77976190476191
YDR277C	0.0	0.06427854034147973	15.557291666666671
YHR124W	0.0	0.06494810847003682	15.396907216494848
YMR075W	0.0	0.07030465349849348	14.223809523809523
YPL248C	0.0	0.08034817542684967	12.445833333333335
YOL108C	0.0	0.08972212922664881	11.145522388059701
YDR392W	0.0	0.08972212922664881	11.145522388059701
YNL229C	0.0	0.09373953799799127	10.667857142857146
YJL089W	0.0	0.10847003682624706	9.219135802469136
YDR174W	0.0	0.1205222631402745	8.297222222222224
YER184C	0.0	0.124539671911617	8.02956989247312
YOR113W	0.0	0.12855708068295946	7.778645833333336
YER040W	0.0	0.14998326079678606	6.667410714285714
YDR096W	0.0	0.1526615333110144	6.550438596491228
YER051W	0.0	0.1586876464680281	6.301687763713081
YPR193C	0.0	0.16002678272514229	6.2489539748953975
YGL252C	0.0	0.1694007365249414	5.903162055335969
YLR453C	0.0	0.17944425845329762	5.572761194029851
YGR249W	0.0	0.18747907599598254	5.333928571428573
YPL049C	0.0	0.2042182792099096	4.89672131147541
YOR298C-A	0.0	0.21560093739538	4.638198757763975
YKL005C	0.0	0.22028791429527952	4.53951367781155
YDR169C	0.0	0.232340140609307	4.304034582132565
YGR063C	0.0	0.27720120522263136	3.6074879227053147
YBR245C	0.0	0.2805490458654168	3.564439140811456
YHR084W	0.0	0.28791429527954465	3.473255813953489
YJL206C	0.0	0.3173752929360562	3.1508438818565403
YLR418C	0.0	0.33411449614998323	2.992985971943888
YMR164C	0.0	0.3615667894208235	2.7657407407407413
YOL148C	0.0	0.3622363575493807	2.760628465804066
YDR421W	0.0	0.3642450619350519	2.7454044117647056
YOR028C	0.0	0.3990626046200201	2.5058724832214767
YPR054W	0.0	0.44124539671911617	2.2663125948406675
YOR244W	0.0	0.44325410110478736	2.2560422960725077
YGL244W	0.0	0.5309675259457649	1.8833543505674657
YDL042C	0.0	0.531637094074322	1.8809823677581865
YDR363W	0.0	0.5450284566454636	1.834766584766585
YNL314W	0.0	0.5724807499163039	1.7467836257309943
YOR172W	0.0	0.6220287914295279	1.607642626480086
YFL031W	0.0	0.6293940408436558	1.5888297872340427
YER088C	0.0	0.6421158352862403	1.5573514077163715
YPR196W	0.0	0.6622028791429527	1.5101112234580385
YKR101W	0.0	0.6896551724137929	1.4500000000000004
YNL068C	1.0	0.730498828255775	1.3689275893675528
YIL101C	0.0	0.7392032139270172	1.3528079710144927
YDR216W	0.0	0.7653163709407431	1.3066491688538935
YNL103W	0.0	0.7720120522263141	1.295316565481353
YPL042C	0.0	0.81419484432541	1.2282072368421055
YIL154C	0.0	0.8891864747238031	1.1246234939759037
YER161C	0.0	0.8958821560093739	1.1162182361733932
YMR280C	0.0	0.9367258118513558	1.0675482487491066
YDL020C	0.0	0.9882825577502512	1.0118563685636854
YOR140W	0.0	1.0639437562772012	0.9398993077407175
YOR038C	0.0	1.0659524606628723	0.9381281407035177
YNL167C	0.0	1.0699698694342148	0.9346057571964957
YOR372C	1.0	1.0699698694342148	0.9346057571964957
YDL048C	0.0	1.0960830264479409	0.9123396456933417
YGL162W	0.0	1.1342484097756946	0.8816410861865408
YNL021W	0.0	1.145631067961165	0.8728813559322034
YDR451C	1.0	1.1690659524606628	0.8553837342497137
YOL028C	0.0	1.2326749246735855	0.8112438891906573
YOR032C	0.0	1.2554402410445262	0.7965333333333333
YPL230W	0.0	1.3732842316705725	0.7281813749390541
YKL109W	0.0	1.3759625041848007	0.7267639902676399
YML007W	0.0	1.395379979912956	0.7166506717850288
YMR042W	0.0	1.3960495480415132	0.7163069544364509
YGL197W	0.0	1.3973886842986272	0.7156205079060854
YKL038W	0.0	1.4395714763977234	0.6946511627906977
YHL009C	0.0	1.5326414462671576	0.6524683267802535
YML051W	0.0	1.5895547371945091	0.6291069924178603
YKL020C	0.0	1.6062939404084364	0.622551062942893
YDL170W	0.0	1.6799464345497157	0.5952570745316859
YMR273C	0.0	1.6799464345497157	0.5952570745316859
YOR162C	0.0	1.6873116839638431	0.5926587301587303
YAL051W	0.0	1.7087378640776696	0.5852272727272728
YMR043W	1.0	1.734851021091396	0.576418371285218
YJR094C	0.0	1.8279209909608305	0.547069597069597
YNL330C	0.0	1.834616672246401	0.54507299270073
YER028C	0.0	1.8788081687311684	0.5322523164647185
YHL020C	0.0	1.8915299631737523	0.5286725663716816
YGL254W	0.0	1.8935386675594241	0.5281117397454032
YML076C	0.0	1.9089387345162367	0.523851280252543
YBL103C	0.0	1.9953130231001	0.5011744966442955
YHL025W	0.0	2.002008704385671	0.49949832775919734
YGL209W	0.0	2.077000334784064	0.4814635718891039
YDR213W	0.0	2.12387010378306	0.4708385876418663
YNL236W	0.0	2.138600602611316	0.4675954915466499
YHL027W	0.0	2.163374623367928	0.4622407923243577
YJL056C	0.0	2.200870438567124	0.45436568299361124
YBR150C	0.0	2.2102443923669237	0.4524386549530445
YDR181C	0.0	2.2443923669233343	0.445554892601432
YGL131C	0.0	2.2725142283227315	0.44004124926340604
YCR018C	0.0	2.320053565450284	0.43102453102453114
YHR041C	0.0	2.349514563106796	0.4256198347107438
YEL056W	0.0	2.364245061935052	0.42296799773435284
YDR310C	0.0	2.39906260462002	0.4168294725090706
YDR034C	0.0	2.409106126548376	0.4150917176209005
YJR147W	0.0	2.4124539671911616	0.4145156813766306
YGR040W	0.0	2.417810512219618	0.4135973414566603
YOR363C	0.0	2.5811851355875457	0.38741893644617387
YGL237C	0.0	2.594576498158688	0.3854193548387096
YNL139C	0.0	2.602611315701372	0.38422948289169034
YDR073W	0.0	2.618011382658185	0.3819693094629157
YLR228C	0.0	2.6501506528289247	0.37733703890853976
YKL032C	0.0	2.7539337127552725	0.363116946267931
YGL096W	0.0	2.763307666555072	0.36188514659559
YNL204C	0.0	2.8021426180113824	0.3568697729988053
YER045C	0.0	2.8530297957817203	0.35050457639051874
YDR443C	0.0	2.9300301305657848	0.3412934186471664
YGR097W	0.0	2.95413458319384	0.33850861287398004
YDR173C	0.0	3.0364914630063606	0.32932745314222717
YNR052C	0.0	3.0438567124204887	0.3285305763308403
YOR304W	0.0	3.076665550719785	0.3250272034820458
YDR259C	0.0	3.0786742551054567	0.324815137016094
YPR104C	1.0	3.0833612320053563	0.3243213897937025
YDR123C	0.0	3.1148309340475397	0.32104471195184864
YOL089C	0.0	3.156344158018078	0.3168222316504031
YOL067C	0.0	3.2125878808168733	0.31127553147144643
YGL023C	0.0	3.2654837629728823	0.30623334016813614
YER169W	0.0	3.285570806829595	0.30436111677195843
YBL021C	0.0	3.3552058921995314	0.29804430253442427
YDR207C	0.0	3.3993973886842985	0.29416978530628324
YBL066C	0.0	3.4563106796116503	0.28932584269662925
YBL008W	0.0	3.459658520254436	0.28904586800851556
YNL257C	0.0	3.5446936725811846	0.28211182470721574
YIR017C	0.0	3.5446936725811846	0.28211182470721574
YHR206W	0.0	3.546032808838299	0.28200528700906347
YDL106C	0.0	3.5527284901238696	0.2814738032416133
YNR063W	0.0	3.5614328757951124	0.2807858620041361
YDR081C	0.0	3.5667894208235684	0.2803641824666792
YOR077W	0.0	3.590893873451624	0.2784821928025359
YOR344C	0.0	3.631067961165048	0.2754010695187166
YGL181W	0.0	3.6431201874790764	0.27448998345892295
YPL128C	0.0	3.7181118178774684	0.2689537187106069
YHR056C	0.0	3.807164378975561	0.26266268026732326
YBR240C	0.0	3.920321392701707	0.2550811272416738
YPR086W	0.0	4.023434884499498	0.24854385089033118
YLR403W	0.0	4.070304653498494	0.24568185556835004
YJL168C	0.0	4.095078674255105	0.2441955526487901
YIL038C	0.0	4.168731168396383	0.239881143591391
YLR136C	0.0	4.190157348510212	0.23865452221156913
YLR256W	0.0	4.201540006695681	0.23800796812749006
YBL054W	0.0	4.2310010043521915	0.23635068840006337
YNL216W	0.0	4.3629059256779374	0.22920503376304482
YBL005W	0.0	4.38968865082022	0.22780658938377063
YDR463W	0.0	4.411114830934047	0.22670006071645418
YCR106W	0.0	4.445262805490459	0.2249585780991113
YOL116W	0.0	4.447941078004686	0.22482312208339608
YPL001W	0.0	4.458654168061599	0.22428292536416883
YBR182C	0.0	4.466688985604285	0.22387947833907962
YKL112W	0.0	4.491463006360896	0.222644603458557
YBR239C	0.0	4.510880482089052	0.22168621047944193
YDR043C	0.0	4.5945764981586885	0.21764791605945785
YBL052C	0.0	4.646802812186139	0.2152017291066283
YOR213C	0.0	4.675594241714093	0.213876557353573
YKL072W	0.0	4.677602946099765	0.21378471228170629
YDR477W	0.0	4.682289922999665	0.21357071357071358
YLR442C	0.0	4.682959491128222	0.21354017729482416
YLR014C	0.0	4.758620689655172	0.2101449275362319
YHR178W	0.0	4.776029460997656	0.20937894294125894
YPL129W	0.0	4.8068295949112825	0.20803733110461065
YIR013C	0.0	4.840308001339137	0.2065984230183981
YBR049C	0.0	4.936056243722797	0.20259088442756382
YEL009C	0.0	4.984265148978908	0.20063138097796884
YLR039C	0.0	5.000334784064279	0.19998660953401176
YDR253C	0.0	5.029795781720789	0.19881522896698622
YCR081W	0.0	5.04586541680616	0.198182059447983
YDR520C	0.0	5.051221961834616	0.19797189819724284
YPR065W	0.0	5.124204887847338	0.19515222788448977
YIR033W	0.0	5.168396384332105	0.19348361186682214
YDR049W	0.0	5.172413793103448	0.19333333333333333
YHR006W	0.0	5.186474723803147	0.19280919184095016
YLR176C	0.0	5.221961834616672	0.19149891011668163
YFR028C	0.0	5.333110143957146	0.18750784682988078
YMR172W	0.0	5.333779712085704	0.18748430831031887
YJR127C	0.0	5.3531971878138584	0.18680425265791126
YOL051W	0.0	5.3625711416136586	0.186477712573355
YER130C	0.0	5.386675594241713	0.18564325668116846
YBR112C	0.0	5.396049548041511	0.18532075939942927
YMR312W	0.0	5.4951456310679605	0.18197879858657245
YGL073W	0.0	5.501841312353531	0.18175733235974204
YLR223C	0.0	5.502510880482088	0.18173521538087128
YJL127C	0.0	5.511884834281888	0.18142614188532555
YNL199C	0.0	5.576832942751924	0.1793132428863009
YMR070W	0.0	5.588215600937395	0.178947999041457
YPL254W	0.0	5.6417810512219635	0.17724899121765958
YPR015C	0.0	5.643120187479076	0.17720692928334122
YPL038W	0.0	5.665885503850016	0.17649491845899315
YGL071W	0.0	5.677268162035488	0.17614105436961902
YDL080C	0.0	5.7013726146635415	0.17539635936582504
YMR016C	0.0	5.712755272849011	0.17504688232536336
YJL110C	0.0	5.7227987947773675	0.17473967473967478
YIL130W	0.0	5.723468362905924	0.17471923256902203
YMR182C	0.0	5.761633746233679	0.17356188262638
YDR176W	0.0	5.788416471375963	0.17275882012724117
YIR023W	0.0	5.800468697689989	0.1723998614798569
YER068W	0.0	5.803146970204217	0.1723202953732549
YCR084C	0.0	5.829260127217943	0.171548357454629
YDR026C	0.0	5.844660194174758	0.17109634551495015
YPL133C	0.0	5.901573485102109	0.16944633537553894
YIL084C	0.0	5.951121526615332	0.16803555355535557
YKR099W	0.0	5.988617341814528	0.16698345259391775
YIR018W	0.0	6.037495815199196	0.16563158478429635
YBR289W	0.0	6.056243722798794	0.16511885019347708
YNL027W	0.0	6.056913290927351	0.16510059694892773
YGL151W	0.0	6.070304653498492	0.16473637767482907
YPL089C	0.0	6.0930699698694335	0.16412087912087914
YPL075W	0.0	6.099096083026447	0.16395872214293558
YDL056W	1.0	6.1412788751255425	0.16283253379851725
YFR034C	0.0	6.1560093739538	0.16244289754187513
YGR056W	0.0	6.164713759625042	0.16221353318127513
YJR060W	0.0	6.168061600267827	0.16212548849326966
YLR113W	0.0	6.19015734851021	0.1615467820443483
YLR278C	0.0	6.191496484767325	0.16151184167838217
YKL015W	0.0	6.194174757281552	0.16144200626959251
YJL176C	0.0	6.243722798794777	0.16016085790884718
YBR215W	0.0	6.27050552393706	0.15947677522690873
YKR064W	0.0	6.273853364579847	0.1593916755602988
YPL202C	0.0	6.338131904921325	0.15777519543629834
YPL177C	0.0	6.3408101774355545	0.15770855332629355
YGR089W	0.0	6.346836290592568	0.15755881422090937
YER109C	0.0	6.369601606963508	0.1569956901082729
YML099C	0.0	6.372279879477737	0.15692970473888831
YGL025C	0.0	6.380314697020421	0.15673208101584638
YLR357W	0.0	6.413793103448275	0.15591397849462368
YLR451W	0.0	6.4372279879477725	0.15534636987726236
YMR037C	0.0	6.473384666889856	0.15447869259412497
YOL068C	0.0	6.482758620689656	0.15425531914893617
YKR036C	0.0	6.493471710746567	0.1540008249123531
YML113W	0.0	6.500167392032138	0.15384219200659255
YPR022C	0.0	6.504854368932039	0.1537313432835821
YOL004W	0.0	6.541011047874122	0.15288156413143617
YMR019W	0.0	6.543019752259792	0.15283462955382726
YOR191W	0.0	6.545028456645462	0.15278772378516628
YOR380W	0.0	6.560428523602276	0.15242906715656257
YDR266C	0.0	6.564445932373619	0.15233578131374947
YIL128W	0.0	6.587880816873117	0.15179388149202155
YML081W	0.0	6.610646133244058	0.1512711435227388
YGR104C	0.0	6.624707063943754	0.1509500707499495
YLR182W	1.0	6.650820220957482	0.15035739454344108
YJR140C	0.0	6.650820220957482	0.15035739454344108
YDR448W	0.0	6.6695681285570805	0.14993474550747918
YDL070W	0.0	6.67157683294275	0.14988960256924933
YPL139C	0.0	6.684298627385336	0.14960432735650608
YOR290C	0.0	6.688316036156678	0.14951446591250378
YBR103W	0.0	6.689655172413793	0.14948453608247422
YLR098C	0.0	6.693672581185135	0.14939481844553368
YGL013C	0.0	6.694342149313692	0.14937987597519506
