genes	class	per_score	per_score_rerank
YML027W	1.0	12.542501457270074	12.542501457270074
YLR183C	1.0	12.422099370999938	12.422099370999938
YKL185W	1.0	11.52413175596962	11.52413175596962
YER111C	1.0	11.421545164422708	11.421545164422708
YGR044C	0.0	10.913832178566732	10.913832178566732
YHR154W	0.0	10.586087679317936	10.586087679317936
YDR146C	1.0	10.211097811464438	10.211097811464438
YFL052W	0.0	10.061973932188737	10.061973932188737
YPR018W	0.0	9.959478278448517	9.959478278448517
YOR025W	0.0	9.8245601128185	9.8245601128185
YNL309W	1.0	9.075200185048343	9.075200185048343
YDR191W	0.0	8.515473100449935	8.515473100449935
YCL055W	0.0	8.381087169851156	8.381087169851156
YCR065W	1.0	8.235190707428915	8.235190707428915
YBR083W	0.0	8.142333687211945	8.142333687211945
YGR249W	0.0	8.132030575433745	8.132030575433745
YBR297W	0.0	7.934474495094506	7.934474495094506
YLR131C	1.0	7.925984591966876	7.925984591966876
YDR501W	1.0	7.717068477178847	7.717068477178847
YBR275C	0.0	7.5529832364313885	7.5529832364313885
YDL138W	0.0	7.384285293069795	7.384285293069795
YKL043W	0.0	7.359421924755368	7.359421924755368
YFL044C	0.0	7.313807392131927	7.313807392131927
YJL115W	0.0	7.305604974031687	7.305604974031687
YGR288W	0.0	7.142177320954554	7.142177320954554
YIL010W	0.0	6.780510644965481	6.780510644965481
YML102W	0.0	6.681614589213735	6.681614589213735
YJL089W	0.0	6.6744970679057625	6.6744970679057625
YMR164C	0.0	6.64159476252113	6.64159476252113
YIR019C	0.0	6.595267496757339	6.595267496757339
YGR067C	0.0	6.58246403101722	6.58246403101722
YPR008W	0.0	6.575665389675993	6.575665389675993
YOR230W	0.0	6.5546950855564186	6.5546950855564186
YIL119C	0.0	6.5515470390817905	6.5515470390817905
YIL131C	1.0	6.445394777106714	6.445394777106714
YFL021W	0.0	6.320060841543028	6.320060841543028
YDR009W	0.0	6.225623837640628	6.225623837640628
YOR229W	0.0	6.123425672127015	6.123425672127015
YIL154C	0.0	6.090071374727532	6.090071374727532
YDR277C	0.0	6.069704822394598	6.069704822394598
YHR124W	0.0	5.986680182042831	5.986680182042831
YOR113W	0.0	5.842960720884254	5.842960720884254
YPR193C	0.0	5.842841504721893	5.842841504721893
YBR033W	0.0	5.819914066388782	5.819914066388782
YIL101C	0.0	5.674009341110741	5.674009341110741
YBR195C	0.0	5.643838858659989	5.643838858659989
YER040W	0.0	5.524894263994044	5.524894263994044
YMR075W	0.0	5.518495697839729	5.518495697839729
YKL062W	0.0	5.495050242283611	5.495050242283611
YPL270W	0.0	5.419659791223115	5.419659791223115
YKL222C	0.0	5.412250142769818	5.412250142769818
YMR042W	0.0	5.344504287104249	5.344504287104249
YJL206C	0.0	5.320825428966575	5.320825428966575
YBR245C	0.0	5.320738415640888	5.320738415640888
YPR054W	0.0	5.297441167651173	5.297441167651173
YIL122W	0.0	5.284687659731817	5.284687659731817
YPR009W	0.0	5.18575700663399	5.18575700663399
YDR169C	0.0	5.1813562947227165	5.1813562947227165
YDL020C	0.0	5.169235451753542	5.169235451753542
YMR021C	0.0	5.164556253685465	5.164556253685465
YOL028C	0.0	5.144628665924771	5.144628665924771
YNR010W	0.0	5.140227945049407	5.140227945049407
YPL230W	0.0	5.098201859529662	5.098201859529662
YPR196W	0.0	5.083271151590966	5.083271151590966
YKR101W	0.0	5.047171450200467	5.047171450200467
YNL103W	0.0	5.043101050581679	5.043101050581679
YMR280C	0.0	5.031434310030816	5.031434310030816
YOR038C	0.0	5.019693928239729	5.019693928239729
YDL042C	0.0	5.0008176160030775	5.0008176160030775
YPR199C	0.0	4.857217447305307	4.857217447305307
YER184C	0.0	4.842795363210757	4.842795363210757
YGL197W	0.0	4.822090940250621	4.822090940250621
YMR273C	0.0	4.821955406805278	4.821955406805278
YGL035C	0.0	4.815304405332313	4.815304405332313
YNL229C	0.0	4.80869567011942	4.80869567011942
YBR066C	0.0	4.7587287568245005	4.7587287568245005
YNL167C	0.0	4.746518524536105	4.746518524536105
YHR041C	0.0	4.709724562978809	4.709724562978809
YJR147W	0.0	4.6992760168922585	4.6992760168922585
YGL254W	0.0	4.683460185018296	4.683460185018296
YNL314W	0.0	4.667399502350624	4.667399502350624
YDR213W	0.0	4.665160656469606	4.665160656469606
YER028C	0.0	4.655135503820213	4.655135503820213
YML076C	0.0	4.615639192300772	4.615639192300772
YKL020C	0.0	4.610581129002875	4.610581129002875
YDR310C	0.0	4.596662431201279	4.596662431201279
YDR034C	0.0	4.578314835081795	4.578314835081795
YGL166W	0.0	4.573096149638946	4.573096149638946
YNL330C	0.0	4.5389489812377946	4.5389489812377946
YML007W	0.0	4.519831644979217	4.519831644979217
YOL067C	0.0	4.512397762873431	4.512397762873431
YNL139C	0.0	4.5114226742585215	4.5114226742585215
YNL204C	0.0	4.5103380932616846	4.5103380932616846
YBL103C	0.0	4.5057948797472	4.5057948797472
YJL056C	0.0	4.46098053163724	4.46098053163724
YDR173C	0.0	4.456597807392974	4.456597807392974
YAL051W	0.0	4.452799054096981	4.452799054096981
YHL027W	0.0	4.443455229608636	4.443455229608636
YOR363C	0.0	4.415523346041418	4.415523346041418
YBL021C	0.0	4.400095106963965	4.400095106963965
YGL023C	0.0	4.399724715225763	4.399724715225763
YJL103C	0.0	4.389529144706213	4.389529144706213
YBL008W	0.0	4.388938255356306	4.388938255356306
YNR063W	0.0	4.377241677673213	4.377241677673213
YNL257C	0.0	4.368735679325591	4.368735679325591
YDL106C	0.0	4.368608858800599	4.368608858800599
YHR206W	0.0	4.364650286426012	4.364650286426012
YDR081C	0.0	4.352727595433393	4.352727595433393
YOR358W	0.0	4.351557367076616	4.351557367076616
YML051W	0.0	4.342921359292272	4.342921359292272
YOR077W	0.0	4.341948473796415	4.341948473796415
YDR123C	0.0	4.2822167429140165	4.2822167429140165
YER169W	0.0	4.271263558936123	4.271263558936123
YBR240C	0.0	4.2430690506439355	4.2430690506439355
YLR403W	0.0	4.2281643934324205	4.2281643934324205
YDR463W	0.0	4.197430796414129	4.197430796414129
YOR028C	0.0	4.178275349878897	4.178275349878897
YHR084W	0.0	4.161318108884196	4.161318108884196
YCR106W	0.0	4.0525156315621516	4.0525156315621516
YBL054W	0.0	4.040955516052684	4.040955516052684
YLR014C	0.0	3.9844784777877424	3.9844784777877424
YDL080C	0.0	3.9762259201353998	3.9762259201353998
YLR176C	0.0	3.975303339950785	3.975303339950785
YBR239C	0.0	3.9545671348002434	3.9545671348002434
YER068W	0.0	3.940762277285125	3.940762277285125
YNL199C	0.0	3.9362360514694466	3.9362360514694466
YBR215W	0.0	3.8748721404545403	3.8748721404545403
YMR312W	0.0	3.8682363994083273	3.8682363994083273
YMR070W	0.0	3.819590762485707	3.819590762485707
YGL162W	0.0	3.778680904870885	3.778680904870885
YLR278C	0.0	3.7438961482902764	3.7438961482902764
YNL068C	1.0	3.7360972408576765	3.7360972408576765
YGL071W	0.0	3.7281152870378618	3.7281152870378618
YGL025C	0.0	3.6988433258367515	3.6988433258367515
YLR223C	0.0	3.67117683181748	3.67117683181748
YDR096W	0.0	3.665189642680452	3.665189642680452
YKR064W	0.0	3.63903756086716	3.63903756086716
YKR036C	0.0	3.637538157110927	3.637538157110927
YJR060W	0.0	3.6341847707777593	3.6341847707777593
YLR025W	0.0	3.613273916133668	3.613273916133668
YLR266C	0.0	3.5993883420444743	3.5993883420444743
YDR423C	0.0	3.591256200593915	3.591256200593915
YPR065W	0.0	3.5765084257091835	3.5765084257091835
YLR451W	0.0	3.5655660663170052	3.5655660663170052
YOR372C	1.0	3.564647753682647	3.564647753682647
YJL127C	0.0	3.564083405936969	3.564083405936969
YCR081W	0.0	3.5543540246266536	3.5543540246266536
YIL036W	0.0	3.5387037947134656	3.5387037947134656
YPL202C	0.0	3.5321973893352823	3.5321973893352823
YDR216W	0.0	3.5216796176944936	3.5216796176944936
YMR019W	0.0	3.5133395672009367	3.5133395672009367
YJR127C	0.0	3.513282384722765	3.513282384722765
YOL004W	0.0	3.501470271440812	3.501470271440812
YPR094W	0.0	3.4956916865478664	3.4956916865478664
YOL108C	0.0	3.4769734999083166	3.4769734999083166
YPL049C	0.0	3.450034061591674	3.450034061591674
YDR266C	0.0	3.4381285554256538	3.4381285554256538
YIL130W	0.0	3.4260886306421465	3.4260886306421465
YER109C	0.0	3.411010749137469	3.411010749137469
YDR451C	1.0	3.40783544452075	3.40783544452075
YDL048C	0.0	3.3985060578715216	3.3985060578715216
YMR053C	0.0	3.382308905174486	3.382308905174486
YPR022C	0.0	3.3424731597546646	3.3424731597546646
YML099C	0.0	3.3106532612697284	3.3106532612697284
YML081W	0.0	3.305517444652837	3.305517444652837
YMR016C	0.0	3.3044645845492018	3.3044645845492018
YIL128W	0.0	3.2708550318225296	3.2708550318225296
YFL031W	0.0	3.2342938008813715	3.2342938008813715
YNL097C	0.0	3.1916653788788563	3.1916653788788563
YMR182C	0.0	3.156557011002472	3.156557011002472
YDR392W	0.0	3.1397724349858365	3.1397724349858365
YLR453C	0.0	3.1342724268297992	3.1342724268297992
YLR098C	0.0	3.083374999771483	3.083374999771483
YPL248C	0.0	3.0612434234177632	3.0612434234177632
YOR298C-A	0.0	3.0582903211018437	3.0582903211018437
YML113W	0.0	3.0546952330234984	3.0546952330234984
YJR140C	0.0	3.0261609736732957	3.0261609736732957
YDR448W	0.0	3.01642362314616	3.01642362314616
YDR174W	0.0	3.0016871200747417	3.0016871200747417
YGL209W	0.0	2.99711807332056	2.99711807332056
YGR063C	0.0	2.9667356546117287	2.9667356546117287
YER051W	0.0	2.9597369071628443	2.9597369071628443
YOR140W	0.0	2.9500887942592597	2.9500887942592597
YDL070W	0.0	2.9213131286896394	2.9213131286896394
YDR363W	0.0	2.9172681661759787	2.9172681661759787
YOL148C	0.0	2.86169449526845	2.86169449526845
YOR290C	0.0	2.8534669115405773	2.8534669115405773
YDL170W	0.0	2.8064179755435115	2.8064179755435115
YKL005C	0.0	2.7990212569088118	2.7990212569088118
YER088C	0.0	2.7808167195050197	2.7808167195050197
YOR032C	0.0	2.712734525025997	2.712734525025997
YGL244W	0.0	2.7034686769500555	2.7034686769500555
YKL109W	0.0	2.6695480195465096	2.6695480195465096
YGL252C	0.0	2.6539557680599604	2.6539557680599604
YDR421W	0.0	2.6441511080212745	2.6441511080212745
YPL042C	0.0	2.6202934429091984	2.6202934429091984
YOR172W	0.0	2.6097855573030846	2.6097855573030846
YMR043W	1.0	2.560332034757664	2.560332034757664
YNL021W	0.0	2.5533196235364466	2.5533196235364466
YGR097W	0.0	2.499670859783845	2.499670859783845
YLR418C	0.0	2.476172868375957	2.476172868375957
YER161C	0.0	2.454846046411567	2.454846046411567
YGL131C	0.0	2.450238350481824	2.450238350481824
YOR244W	0.0	2.4202435110835645	2.4202435110835645
YJR094C	0.0	2.3913265769867555	2.3913265769867555
YOR344C	0.0	2.384598524794117	2.384598524794117
YIR017C	0.0	2.3637629358423373	2.3637629358423373
YKL038W	0.0	2.359715908895536	2.359715908895536
YGR040W	0.0	2.338466868699613	2.338466868699613
YHL025W	0.0	2.335261260921349	2.335261260921349
YHL020C	0.0	2.319361759351671	2.319361759351671
YOR162C	0.0	2.318250092659404	2.318250092659404
YDR259C	0.0	2.3151537762098915	2.3151537762098915
YHL009C	0.0	2.298954795616323	2.298954795616323
YLR228C	0.0	2.2948428614263148	2.2948428614263148
YBR150C	0.0	2.27795649850102	2.27795649850102
YER045C	0.0	2.267943616857817	2.267943616857817
YKL032C	0.0	2.2675651758179947	2.2675651758179947
YPR104C	1.0	2.2229899619260327	2.2229899619260327
YCR018C	0.0	2.2059394424087606	2.2059394424087606
YNL236W	0.0	2.2039557225417914	2.2039557225417914
YDR443C	0.0	2.1945866991036764	2.1945866991036764
YDR073W	0.0	2.1919938714520506	2.1919938714520506
YLR136C	0.0	2.1907596296452514	2.1907596296452514
YGL237C	0.0	2.1725830158011674	2.1725830158011674
YGL096W	0.0	2.1638933098388065	2.1638933098388065
YDR207C	0.0	2.150436788784768	2.150436788784768
YDR181C	0.0	2.1327296341380717	2.1327296341380717
YEL056W	0.0	2.1288589684537045	2.1288589684537045
YBL066C	0.0	2.081097504789703	2.081097504789703
YOR304W	0.0	2.041851503602285	2.041851503602285
YOL089C	0.0	2.033545118329347	2.033545118329347
YNR052C	0.0	2.025383843293103	2.025383843293103
YPL128C	0.0	2.0216243228968787	2.0216243228968787
YGL181W	0.0	1.972362132227428	1.972362132227428
YHR056C	0.0	1.9287353487297825	1.9287353487297825
YPR086W	0.0	1.9036555573967309	1.9036555573967309
YJL168C	0.0	1.8743034348370076	1.8743034348370076
YLR256W	0.0	1.8576290121167127	1.8576290121167127
YIL038C	0.0	1.8478520903975315	1.8478520903975315
YBL005W	0.0	1.8242287502613623	1.8242287502613623
YPL001W	0.0	1.8188976720556973	1.8188976720556973
YOL116W	0.0	1.8101261649959324	1.8101261649959324
YNL216W	0.0	1.8089760280899625	1.8089760280899625
YOR213C	0.0	1.7992210210346156	1.7992210210346156
YPL129W	0.0	1.789421203980883	1.789421203980883
YDR477W	0.0	1.7875058555004688	1.7875058555004688
YEL009C	0.0	1.775606876657976	1.775606876657976
YDR043C	0.0	1.7585297312007384	1.7585297312007384
YLR442C	0.0	1.7543234295923404	1.7543234295923404
YBR182C	0.0	1.75265330126149	1.75265330126149
YKL072W	0.0	1.7520677177234771	1.7520677177234771
YKL112W	0.0	1.7485118957199604	1.7485118957199604
YLR039C	0.0	1.7273291035952545	1.7273291035952545
YBL052C	0.0	1.7180480852616784	1.7180480852616784
YHR178W	0.0	1.6954437623775749	1.6954437623775749
YDR520C	0.0	1.668747526312807	1.668747526312807
YMR172W	0.0	1.6492711356108367	1.6492711356108367
YGL073W	0.0	1.6372560781509566	1.6372560781509566
YIR013C	0.0	1.624410441017322	1.624410441017322
YBR049C	0.0	1.6177233531955184	1.6177233531955184
YPL254W	0.0	1.6172193680008016	1.6172193680008016
YDR049W	0.0	1.5986321005972373	1.5986321005972373
YPL038W	0.0	1.5935626576262922	1.5935626576262922
YIR033W	0.0	1.5906560868937525	1.5906560868937525
YHR006W	0.0	1.5854376949426745	1.5854376949426745
YDR253C	0.0	1.5761506548467883	1.5761506548467883
YDR026C	0.0	1.571922418885775	1.571922418885775
YJL110C	0.0	1.5604635176231971	1.5604635176231971
YDR176W	0.0	1.5452117569247634	1.5452117569247634
YER130C	0.0	1.5383174293446271	1.5383174293446271
YLR113W	0.0	1.5052378040259546	1.5052378040259546
YOL051W	0.0	1.4785320302624234	1.4785320302624234
YFR028C	0.0	1.47449227004296	1.47449227004296
YNL027W	0.0	1.4672125103461038	1.4672125103461038
YGL151W	0.0	1.3888662940489107	1.3888662940489107
YBR112C	0.0	1.3864042151542648	1.3864042151542648
YPL133C	0.0	1.34409529821658	1.34409529821658
YGR056W	0.0	1.326134228041211	1.326134228041211
YKL015W	0.0	1.3161885511347278	1.3161885511347278
YIR023W	0.0	1.303866838445781	1.303866838445781
YPR015C	0.0	1.2886095767132886	1.2886095767132886
YIL084C	0.0	1.2802958894503385	1.2802958894503385
YCR084C	0.0	1.245286577771966	1.245286577771966
YIR018W	0.0	1.2233570454456772	1.2233570454456772
YOL068C	0.0	1.2172840500072544	1.2172840500072544
YJL176C	0.0	1.19965842002951	1.19965842002951
YBR289W	0.0	1.1775670717432385	1.1775670717432385
YPL075W	0.0	1.1651024645028691	1.1651024645028691
YKR099W	0.0	1.1597704584438349	1.1597704584438349
YDL056W	1.0	1.158634064821734	1.158634064821734
YGR104C	0.0	1.1382720962331692	1.1382720962331692
YOR380W	0.0	1.1068420672712225	1.1068420672712225
YGR089W	0.0	0.9866977924450684	0.9866977924450684
YFR034C	0.0	0.9844538372959756	0.9844538372959756
YPL177C	0.0	0.9669247271879892	0.9669247271879892
YPL089C	0.0	0.955473021876864	0.955473021876864
YOR191W	0.0	0.8773417461441549	0.8773417461441549
YLR357W	0.0	0.7828934864184899	0.7828934864184899
YPL139C	0.0	0.7433686803228174	0.7433686803228174
YMR037C	0.0	0.6970331652711579	0.6970331652711579
YLR182W	1.0	0.6675716200088235	0.6675716200088235
YBR103W	0.0	0.6209647591396779	0.6209647591396779
YGL013C	0.0	0.22347839865505836	0.22347839865505836
