genes	class	reg_score	reg_score_rerank
YCL055W	0.0	0.5332810296207133	0.5332810296207133
YGR044C	0.0	0.4697936429849348	0.4697936429849348
YGR249W	0.0	0.4574774915557057	0.4574774915557057
YDR146C	1.0	0.44549723702912336	0.44549723702912336
YML027W	1.0	0.44318130839493736	0.44318130839493736
YJL089W	0.0	0.4232169941362982	0.4232169941362982
YOR025W	0.0	0.4220128870369635	0.4220128870369635
YKL185W	1.0	0.4201063742845491	0.4201063742845491
YLR183C	1.0	0.416690746204123	0.416690746204123
YFL052W	0.0	0.4072775428644793	0.4072775428644793
YKL043W	0.0	0.3730829536587348	0.3730829536587348
YHR154W	0.0	0.3539926578685334	0.3539926578685334
YLR136C	0.0	0.34849118174907984	0.34849118174907984
YLR131C	1.0	0.3474534103456882	0.3474534103456882
YDR277C	0.0	0.3365140920356361	0.3365140920356361
YBR297W	0.0	0.3312899515605689	0.3312899515605689
YIL131C	1.0	0.3256590623273257	0.3256590623273257
YOR344C	0.0	0.31486286022202736	0.31486286022202736
YMR164C	0.0	0.3142351801655052	0.3142351801655052
YER111C	1.0	0.3109012480149523	0.3109012480149523
YIL119C	0.0	0.3090756728078293	0.3090756728078293
YBR083W	0.0	0.3083050602414498	0.3083050602414498
YDR191W	0.0	0.3082052600605755	0.3082052600605755
YIL154C	0.0	0.2982446706886242	0.2982446706886242
YIR017C	0.0	0.2958058861068886	0.2958058861068886
YGL162W	0.0	0.2946248818929223	0.2946248818929223
YBL054W	0.0	0.2942630919730693	0.2942630919730693
YJL115W	0.0	0.2925220313171611	0.2925220313171611
YER184C	0.0	0.2829194332773294	0.2829194332773294
YOR028C	0.0	0.271254940884877	0.271254940884877
YOR372C	1.0	0.26381694131180183	0.26381694131180183
YGL209W	0.0	0.2635336926780652	0.2635336926780652
YDR451C	1.0	0.2492733748672421	0.2492733748672421
YBR275C	0.0	0.24919086919607145	0.24919086919607145
YHR084W	0.0	0.2456036255009377	0.2456036255009377
YGR097W	0.0	0.24533441181089205	0.24533441181089205
YNL068C	1.0	0.2446901918307137	0.2446901918307137
YNR063W	0.0	0.24467944516677145	0.24467944516677145
YDR501W	1.0	0.24305564734837726	0.24305564734837726
YPR018W	0.0	0.2405701737957266	0.2405701737957266
YOR230W	0.0	0.24025562044343826	0.24025562044343826
YCR065W	1.0	0.23866345346684698	0.23866345346684698
YDL048C	0.0	0.2377302962811633	0.2377302962811633
YJR127C	0.0	0.2371673862816813	0.2371673862816813
YPL089C	0.0	0.23420541285636426	0.23420541285636426
YIL101C	0.0	0.23389824050184102	0.23389824050184102
YIR013C	0.0	0.2264163450610657	0.2264163450610657
YMR016C	0.0	0.22310515852451648	0.22310515852451648
YMR042W	0.0	0.22198272486702986	0.22198272486702986
YDR216W	0.0	0.2192887033158943	0.2192887033158943
YIL122W	0.0	0.21869755868464366	0.21869755868464366
YNL309W	1.0	0.2179431692874539	0.2179431692874539
YER169W	0.0	0.21604420008547515	0.21604420008547515
YKL062W	0.0	0.20637844970813046	0.20637844970813046
YDR259C	0.0	0.20623292764474505	0.20623292764474505
YPL230W	0.0	0.20439764849522896	0.20439764849522896
YBR066C	0.0	0.2033078489139827	0.2033078489139827
YNL139C	0.0	0.20278704474680306	0.20278704474680306
YGL035C	0.0	0.20183308339503095	0.20183308339503095
YCR106W	0.0	0.2015417661380694	0.2015417661380694
YOL067C	0.0	0.2009781002903335	0.2009781002903335
YOR229W	0.0	0.19950564699482926	0.19950564699482926
YIL130W	0.0	0.19740141558942406	0.19740141558942406
YMR182C	0.0	0.1964726323860855	0.1964726323860855
YDR207C	0.0	0.19526808676906995	0.19526808676906995
YJL103C	0.0	0.19370555670971334	0.19370555670971334
YCR081W	0.0	0.1935257032470482	0.1935257032470482
YDL170W	0.0	0.19299654252630452	0.19299654252630452
YNR010W	0.0	0.1912212237120293	0.1912212237120293
YJL127C	0.0	0.18784940491073984	0.18784940491073984
YBR112C	0.0	0.1871600697975754	0.1871600697975754
YBR182C	0.0	0.18563697303220966	0.18563697303220966
YPR104C	1.0	0.1804755692783796	0.1804755692783796
YFR034C	0.0	0.17801360084671045	0.17801360084671045
YMR037C	0.0	0.17683315956853202	0.17683315956853202
YFL021W	0.0	0.17637710912575036	0.17637710912575036
YIR019C	0.0	0.17598277682774674	0.17598277682774674
YFL044C	0.0	0.17578046354327478	0.17578046354327478
YIL010W	0.0	0.17413464517088875	0.17413464517088875
YDR123C	0.0	0.17392630366903095	0.17392630366903095
YGR288W	0.0	0.17297383151546528	0.17297383151546528
YFL031W	0.0	0.17222992141494628	0.17222992141494628
YPR193C	0.0	0.17126440804612186	0.17126440804612186
YKL112W	0.0	0.17104775933626956	0.17104775933626956
YDL138W	0.0	0.1695563778026786	0.1695563778026786
YPL128C	0.0	0.16907400332672431	0.16907400332672431
YPR065W	0.0	0.16849168047740878	0.16849168047740878
YBL066C	0.0	0.16825312556763966	0.16825312556763966
YGL131C	0.0	0.16805423235055866	0.16805423235055866
YBR240C	0.0	0.1677516512185319	0.1677516512185319
YOR358W	0.0	0.167613004284492	0.167613004284492
YPR015C	0.0	0.16620412213996896	0.16620412213996896
YOR140W	0.0	0.16614155116631713	0.16614155116631713
YLR357W	0.0	0.1651009891690035	0.1651009891690035
YDR253C	0.0	0.16356312358025246	0.16356312358025246
YGR067C	0.0	0.16354179938419006	0.16354179938419006
YDR096W	0.0	0.1634127518969283	0.1634127518969283
YLR223C	0.0	0.1625503313156834	0.1625503313156834
YOL028C	0.0	0.16202125611682128	0.16202125611682128
YGL254W	0.0	0.16186073713131754	0.16186073713131754
YER045C	0.0	0.16140087103349432	0.16140087103349432
YNL216W	0.0	0.16112444169437104	0.16112444169437104
YHR124W	0.0	0.16025446011630518	0.16025446011630518
YKL032C	0.0	0.1587813931896563	0.1587813931896563
YGL166W	0.0	0.1584875697014564	0.1584875697014564
YHR041C	0.0	0.157377012898206	0.157377012898206
YLR228C	0.0	0.15634333464232833	0.15634333464232833
YOR113W	0.0	0.15629772108133136	0.15629772108133136
YLR014C	0.0	0.15628909464352642	0.15628909464352642
YCR084C	0.0	0.153552851935546	0.153552851935546
YJR147W	0.0	0.15307512451928304	0.15307512451928304
YKR099W	0.0	0.1526049404473473	0.1526049404473473
YHR178W	0.0	0.1495097061970634	0.1495097061970634
YML102W	0.0	0.14929525880609926	0.14929525880609926
YGL197W	0.0	0.14872109584146376	0.14872109584146376
YPL049C	0.0	0.14865830156329388	0.14865830156329388
YGR040W	0.0	0.14787162343310348	0.14787162343310348
YML113W	0.0	0.14759893469955218	0.14759893469955218
YMR043W	1.0	0.14746845582406745	0.14746845582406745
YBL052C	0.0	0.1461579734660096	0.1461579734660096
YDL020C	0.0	0.14601033876587982	0.14601033876587982
YDR443C	0.0	0.1459532649971013	0.1459532649971013
YFR028C	0.0	0.14531578270183956	0.14531578270183956
YDR009W	0.0	0.14432706278712493	0.14432706278712493
YML076C	0.0	0.14386685019935222	0.14386685019935222
YOR363C	0.0	0.1435732068405233	0.1435732068405233
YPL177C	0.0	0.1426934103299542	0.1426934103299542
YOR032C	0.0	0.14220901486404333	0.14220901486404333
YBR049C	0.0	0.14199275442971762	0.14199275442971762
YPR054W	0.0	0.1412773787569013	0.1412773787569013
YIR023W	0.0	0.1398709342323103	0.1398709342323103
YKL109W	0.0	0.13863455463020105	0.13863455463020105
YBR289W	0.0	0.13835082333103824	0.13835082333103824
YOL051W	0.0	0.1371649750084552	0.1371649750084552
YJL206C	0.0	0.13593623727422674	0.13593623727422674
YHR206W	0.0	0.13574114459727846	0.13574114459727846
YML099C	0.0	0.1348746672860404	0.1348746672860404
YPR008W	0.0	0.13485262632017808	0.13485262632017808
YGL071W	0.0	0.13394365257251745	0.13394365257251745
YPL075W	0.0	0.13333986972807338	0.13333986972807338
YDL056W	1.0	0.13329551682562227	0.13329551682562227
YGR089W	0.0	0.13234686558205672	0.13234686558205672
YER040W	0.0	0.1317867000216184	0.1317867000216184
YOL108C	0.0	0.12939524463900093	0.12939524463900093
YIR018W	0.0	0.12886049590017726	0.12886049590017726
YBL008W	0.0	0.127795673345864	0.127795673345864
YDR363W	0.0	0.12591294584189056	0.12591294584189056
YHR006W	0.0	0.12533178017131014	0.12533178017131014
YER109C	0.0	0.12501353456191905	0.12501353456191905
YMR273C	0.0	0.12451330478184472	0.12451330478184472
YJL056C	0.0	0.12353906569546096	0.12353906569546096
YPL133C	0.0	0.12262785661819042	0.12262785661819042
YIL084C	0.0	0.12176077698302665	0.12176077698302665
YOR038C	0.0	0.12131632948838902	0.12131632948838902
YDR423C	0.0	0.12111132140450975	0.12111132140450975
YMR070W	0.0	0.12105308543037893	0.12105308543037893
YNL204C	0.0	0.1204165535605571	0.1204165535605571
YIR033W	0.0	0.12032755724815505	0.12032755724815505
YJR140C	0.0	0.11945342463551405	0.11945342463551405
YOR191W	0.0	0.11932461006563458	0.11932461006563458
YMR280C	0.0	0.11921569988908992	0.11921569988908992
YMR053C	0.0	0.11915384016383306	0.11915384016383306
YIL036W	0.0	0.11857896695758717	0.11857896695758717
YDR049W	0.0	0.11847965565411045	0.11847965565411045
YMR312W	0.0	0.11824706965857845	0.11824706965857845
YLR453C	0.0	0.11789191566728545	0.11789191566728545
YER130C	0.0	0.11748862901173472	0.11748862901173472
YOR077W	0.0	0.11731633868071775	0.11731633868071775
YLR182W	1.0	0.11717995337654775	0.11717995337654775
YBL103C	0.0	0.11630917849747935	0.11630917849747935
YPR022C	0.0	0.11557968779376322	0.11557968779376322
YLR403W	0.0	0.1155474143299354	0.1155474143299354
YER088C	0.0	0.11535177128289638	0.11535177128289638
YKL020C	0.0	0.11504488463565618	0.11504488463565618
YDL070W	0.0	0.11472270768895484	0.11472270768895484
YBL021C	0.0	0.1146875488747684	0.1146875488747684
YJR094C	0.0	0.1145432430034748	0.1145432430034748
YDR073W	0.0	0.11447833776041895	0.11447833776041895
YGL096W	0.0	0.11370911671277405	0.11370911671277405
YDR213W	0.0	0.11336036521268572	0.11336036521268572
YGL013C	0.0	0.1132943897829906	0.1132943897829906
YHL025W	0.0	0.11317452457393967	0.11317452457393967
YLR025W	0.0	0.1125693065295796	0.1125693065295796
YHR056C	0.0	0.11227809977053327	0.11227809977053327
YOR298C-A	0.0	0.1116335885063148	0.1116335885063148
YBR150C	0.0	0.11121820582855102	0.11121820582855102
YDR310C	0.0	0.11120339087948396	0.11120339087948396
YPL202C	0.0	0.11085816944934856	0.11085816944934856
YLR442C	0.0	0.11034759265251784	0.11034759265251784
YJL176C	0.0	0.11025825197192624	0.11025825197192624
YBR245C	0.0	0.11024842791019268	0.11024842791019268
YIL038C	0.0	0.10975271697707267	0.10975271697707267
YJR060W	0.0	0.10940550865408116	0.10940550865408116
YNL021W	0.0	0.10913709126330833	0.10913709126330833
YPR094W	0.0	0.10899999766975768	0.10899999766975768
YIL128W	0.0	0.10886467191111214	0.10886467191111214
YDR169C	0.0	0.1085053436023154	0.1085053436023154
YLR176C	0.0	0.10820270792746266	0.10820270792746266
YGR063C	0.0	0.10820194524700184	0.10820194524700184
YNL103W	0.0	0.1080238895658287	0.1080238895658287
YPR196W	0.0	0.1078474310056693	0.1078474310056693
YDR448W	0.0	0.10769685639332907	0.10769685639332907
YHL027W	0.0	0.10767560167655696	0.10767560167655696
YBR033W	0.0	0.10668595135117108	0.10668595135117108
YGL237C	0.0	0.10652051709085833	0.10652051709085833
YOL148C	0.0	0.106146020654282	0.106146020654282
YBR195C	0.0	0.10585649595487696	0.10585649595487696
YOR290C	0.0	0.10549541802519366	0.10549541802519366
YKL072W	0.0	0.1052114561590025	0.1052114561590025
YDR081C	0.0	0.10513123882972802	0.10513123882972802
YDR034C	0.0	0.10411320401546392	0.10411320401546392
YGL181W	0.0	0.10305148926533587	0.10305148926533587
YKR101W	0.0	0.10302146829220996	0.10302146829220996
YDR173C	0.0	0.10295488414575074	0.10295488414575074
YDR520C	0.0	0.10159052160664996	0.10159052160664996
YML081W	0.0	0.10158251208038696	0.10158251208038696
YPL042C	0.0	0.1013194760520508	0.1013194760520508
YHL020C	0.0	0.10024677506156288	0.10024677506156288
YLR266C	0.0	0.1001598313231698	0.1001598313231698
YKR064W	0.0	0.09965981392788628	0.09965981392788628
YGR056W	0.0	0.09936631197337364	0.09936631197337364
YDR392W	0.0	0.09907412255473816	0.09907412255473816
YDR043C	0.0	0.09867823959351604	0.09867823959351604
YMR075W	0.0	0.09833448945590788	0.09833448945590788
YNL097C	0.0	0.09827711119154693	0.09827711119154693
YJL168C	0.0	0.09793204561898887	0.09793204561898887
YDR174W	0.0	0.0978527276123686	0.0978527276123686
YCR018C	0.0	0.09705590019229056	0.09705590019229056
YKL015W	0.0	0.0969437758605327	0.0969437758605327
YER051W	0.0	0.09685211865763706	0.09685211865763706
YGL244W	0.0	0.09661663483087636	0.09661663483087636
YDR463W	0.0	0.09583659811476518	0.09583659811476518
YDR266C	0.0	0.0955036069011298	0.0955036069011298
YLR256W	0.0	0.09548744967559708	0.09548744967559708
YLR451W	0.0	0.0947538812493992	0.0947538812493992
YBR239C	0.0	0.0938077297783707	0.0938077297783707
YOL004W	0.0	0.09362426661523872	0.09362426661523872
YPL270W	0.0	0.09330447691492937	0.09330447691492937
YPL248C	0.0	0.09329760893045624	0.09329760893045624
YNL199C	0.0	0.09323250638822446	0.09323250638822446
YBR103W	0.0	0.09257462407682007	0.09257462407682007
YKL222C	0.0	0.09231081977292853	0.09231081977292853
YGL151W	0.0	0.0916489732942134	0.0916489732942134
YER028C	0.0	0.09102130791685918	0.09102130791685918
YMR019W	0.0	0.09089554189056756	0.09089554189056756
YPL139C	0.0	0.09084126305692053	0.09084126305692053
YOR162C	0.0	0.0907323318169523	0.0907323318169523
YOR380W	0.0	0.0902615125658895	0.0902615125658895
YLR278C	0.0	0.08989025681891286	0.08989025681891286
YOR172W	0.0	0.08905294581848014	0.08905294581848014
YBL005W	0.0	0.08829118475856303	0.08829118475856303
YOL116W	0.0	0.08822941156046141	0.08822941156046141
YKL038W	0.0	0.08791571734398199	0.08791571734398199
YDL042C	0.0	0.08741696111879628	0.08741696111879628
YKL005C	0.0	0.08735814795109206	0.08735814795109206
YOL068C	0.0	0.08426650202284648	0.08426650202284648
YGL025C	0.0	0.08410813655831874	0.08410813655831874
YML007W	0.0	0.08377435681210134	0.08377435681210134
YKR036C	0.0	0.0836842612257037	0.0836842612257037
YAL051W	0.0	0.08357385162669155	0.08357385162669155
YOL089C	0.0	0.08345209530890806	0.08345209530890806
YER068W	0.0	0.08301037019967072	0.08301037019967072
YNL236W	0.0	0.08272129039167704	0.08272129039167704
YOR304W	0.0	0.08252083049006273	0.08252083049006273
YDR176W	0.0	0.08240373235909973	0.08240373235909973
YJL110C	0.0	0.08126475028306203	0.08126475028306203
YMR172W	0.0	0.08119177939209395	0.08119177939209395
YDR421W	0.0	0.08091538416097482	0.08091538416097482
YNL027W	0.0	0.08073555968056342	0.08073555968056342
YPL001W	0.0	0.08066015074140187	0.08066015074140187
YER161C	0.0	0.08026821849980252	0.08026821849980252
YHL009C	0.0	0.07993294699001596	0.07993294699001596
YDL080C	0.0	0.07908899581864247	0.07908899581864247
YGL023C	0.0	0.07874883265870729	0.07874883265870729
YLR098C	0.0	0.07661998149939032	0.07661998149939032
YDR477W	0.0	0.07639512935655039	0.07639512935655039
YPL038W	0.0	0.07597063720377152	0.07597063720377152
YGR104C	0.0	0.0755549256317024	0.0755549256317024
YLR039C	0.0	0.07361863730295558	0.07361863730295558
YOR213C	0.0	0.07314684425565554	0.07314684425565554
YGL073W	0.0	0.07302700670324516	0.07302700670324516
YDL106C	0.0	0.07212840728144937	0.07212840728144937
YMR021C	0.0	0.07201564928676574	0.07201564928676574
YDR026C	0.0	0.07181773241691536	0.07181773241691536
YNL167C	0.0	0.07179985110602738	0.07179985110602738
YNL314W	0.0	0.07148935938787612	0.07148935938787612
YPL254W	0.0	0.0711997065596809	0.0711997065596809
YEL056W	0.0	0.07081209857131213	0.07081209857131213
YPL129W	0.0	0.06964578149070003	0.06964578149070003
YBR215W	0.0	0.06887166235184175	0.06887166235184175
YPR009W	0.0	0.06829725797079816	0.06829725797079816
YGL252C	0.0	0.06785045063543815	0.06785045063543815
YDR181C	0.0	0.06783650309875594	0.06783650309875594
YLR113W	0.0	0.06674559569485836	0.06674559569485836
YNR052C	0.0	0.06570977097184481	0.06570977097184481
YPR086W	0.0	0.06516850369866346	0.06516850369866346
YNL257C	0.0	0.06270562999267965	0.06270562999267965
YEL009C	0.0	0.06178405734625	0.06178405734625
YLR418C	0.0	0.05996384811445416	0.05996384811445416
YNL229C	0.0	0.05857550287399204	0.05857550287399204
YOR244W	0.0	0.05848100486135445	0.05848100486135445
YPR199C	0.0	0.05542212327800757	0.05542212327800757
YNL330C	0.0	0.052143045016191394	0.052143045016191394
YML051W	0.0	0.04861619951600664	0.04861619951600664
